(;FF[4]BR[7k]CP[online-go.com]DT[2016-07-01]GM[1]KM[6.5]PB[theemathas]
PC[OGS: http://online-go.com/game/5701022]PW[Pawel_D]RE[B+R]RU[japanese]SZ[19]
WR[5k];B[pd];W[dp];B[pp];W[dc];B[de];W[ce];B[cf];W[cd];B[df];W[fc];B[cj];W[nq];
B[lp];W[no];B[pn];W[pr];B[mq];W[oq];B[qq];W[mo];B[iq];W[fq];B[qj];W[nc];B[pf];
W[jc];B[lo];W[mm];B[ln];W[nl];B[pl];W[kl];B[jm];W[cm];B[jl];W[kk];B[jk];W[ki];
B[jj];W[kj];B[ih];W[fl];B[fj];W[pb];B[ni];W[mj];B[ge];W[qc];B[qd];W[kf];B[mf];
W[ld];B[cp];W[cq];B[co];W[dm];B[bq];W[cr];B[do];W[ep];B[en];W[el];B[gn];W[fn];
B[fm])
