(;FF[4]BR[11k]CP[online-go.com]DT[2016-02-05]GM[1]KM[6.5]PB[pjdelport]
PC[OGS: http://online-go.com/game/3917488]PW[Mcadoux]RE[W+R]RU[japanese]SZ[19]
WR[4k];B[qd];W[dp];B[pq];W[dc];B[oc];W[po];B[nq];W[qq];B[qr];W[qp];B[kq];W[rr];
B[pr];W[qk];B[ce];W[ci];B[cg];W[cd];B[ed];W[ec];B[dd];W[bd];B[fc];W[fd];B[gc];
W[gd];B[hd];W[ff];B[ef];W[gf];B[eh];W[dk];B[fq];W[hc];B[ic];W[hb];B[ib];W[gb];
B[he];W[gh];B[qh];W[be];B[cf];W[fj];B[bf];W[bh];B[ch];W[di];B[pj];W[pk];B[oj];
W[qj];B[ok];W[ig];B[ke];W[fo];B[hp];W[kg];B[nn];W[ol];B[nl];W[om];B[nm];W[hn];
B[jo];W[pi];B[qi];W[mg];B[nh];W[le];B[ld];W[me];B[md];W[jm];B[kj];W[ij];B[lf];
W[kf];B[mf];W[je];B[kd];W[lg];B[nf];W[jd];B[jc];W[ng];B[og];W[cp];B[jk];W[ik];
B[jl];W[il];B[km];W[jn];B[kn];W[eq];B[er];W[dr];B[fr];W[fp];B[ho];W[gn];B[on];
W[pn];B[ha];W[fb];B[mh];W[gp];B[gq];W[if];B[ie];W[oo];B[no];W[li];B[lj];W[lh];
B[mi];W[of];B[ne];W[oh];B[pg];W[mj];B[ph];W[ni];B[mk];W[op];B[np];W[ji];B[rs];
W[sr];B[ds];W[cr];B[cs];W[bs];B[es];W[br];B[rj];W[rk];B[ri];W[qm];B[sk];W[rl];
B[sl];W[sm];B[sj];W[oi];B[nk];W[jf])
