(;FF[4]BR[7k]CP[online-go.com]DT[2016-04-24]GM[1]KM[6.5]PB[virako]
PC[OGS: http://online-go.com/game/5008171]PW[Buridan]RE[W+R]RU[japanese]SZ[19]
WR[7k];B[pd];W[dp];B[pp];W[dc];B[de];W[dh];B[cc];W[cb];B[cd];W[eb];B[fe];W[gd];
B[jd];W[ge];B[eg];W[eh];B[gg];W[dl];B[jp];W[qj];B[ql];W[qf];B[qd];W[of];B[me];
W[ok];B[fq];W[fp];B[dq];W[eq];B[er];W[ep];B[dr];W[qq];B[pq];W[qp];B[qo];W[ro];
B[qn];W[rn];B[qm];W[pr];B[or];W[qr];B[nq];W[io];B[gq];W[ip];B[cn];W[co];B[bh];
W[cj];B[bj];W[bk];B[ci];W[dj];B[ak];W[bl];B[al];W[am];B[aj];W[bm];B[iq];W[cg];
B[bg];W[cf];B[bf];W[ce];B[be];W[dd];B[ee];W[ie];B[je];W[if];B[fh];W[ej];B[gj];
W[fi];B[gi];W[nc];B[nd];W[oc];B[mc];W[od];B[oe];W[pe];B[ne];W[qb];B[qe];W[pf];
B[rb];W[rc];B[pb];W[sb];B[rd];W[ra];B[pc];W[jo];B[kp];W[jj];B[gf];W[hh];B[fj];
W[ei];B[gh];W[lg];B[lm];W[ko];B[lp];W[lo];B[nm];W[no];B[oo];W[nn];B[on];W[nl];
B[om];W[lk];B[mg];W[ng];B[mh];W[mf];B[nf];W[lf];B[og];W[nh];B[oh];W[ni];B[qg];
W[oi];B[rf];W[gl];B[hk];W[gk];B[ij];W[ji];B[jl];W[ik];B[hl];W[il];B[im];W[jk];
B[gm];W[fl];B[fm];W[em];B[kl];W[mm];B[mn];W[ml];B[ln];W[mo];B[go];W[gp];B[ho];
W[hp];B[in];W[hm];B[hn];W[fn];B[ll];W[kn];B[ii];W[hj];B[hi];W[ih];B[hf];W[id];
B[kk];W[lj];B[jh];W[ig];B[kj];W[ki];B[dg];W[ch];B[df];W[ff];B[fd];W[fc];B[gc];
W[hc];B[gb];W[hb];B[ec];W[fb];B[cp];W[bo];B[ol];W[nk];B[lh];W[kh];B[kg])
