(;FF[4]BR[10k]CP[online-go.com]DT[2016-04-01]GM[1]KM[6.5]PB[aurelito]
PC[OGS: http://online-go.com/game/4690788]PW[HyunJung]RE[W+R]RU[japanese]SZ[19]
WR[11k];B[qd];W[qp];B[dc];W[cp];B[ce];W[od];B[oc];W[nc];B[pc];W[ec];B[ed];W[fc]
;B[ee];W[nd];B[qf];W[jd];B[ep];W[eo];B[fo];W[do];B[eq];W[fn];B[go];W[gn];B[ho];
W[hn];B[op];W[mq];B[kq];W[oq];B[pq];W[pp];B[oo];W[di];B[dk];W[ej];B[en];W[em];
B[dn];W[cn];B[dm];W[cm];B[dl];W[fl];B[ci];W[cj];B[dj];W[ck];B[ek];W[fj];B[fk];
W[gk];B[ei];W[dh];B[gj];W[fi];B[eh];W[ch];B[fh];W[gi])
