(;FF[4]BR[12k]CP[online-go.com]DT[2016-03-03]GM[1]KM[6.5]PB[kaysabi]
PC[OGS: http://online-go.com/game/4152281]PW[jpro]RE[W+103.5]RU[japanese]SZ[19]
WR[7k];B[cd];W[pp];B[pc];W[dq];B[co];W[ep];B[dl];W[jq];B[ld];W[pj];B[qh];W[hd];
B[fc];W[dh];B[ff];W[cj];B[bl];W[cf];B[hf];W[dd];B[fd];W[dc];B[cc];W[ce];B[db];
W[eb];B[cb];W[ec];B[gb];W[bd];B[bc];W[be];B[ba];W[en];B[fl];W[qm];B[nh];W[qc];
B[qd];W[pd];B[rc];W[oc];B[qb];W[pb];B[qc];W[mc];B[ob];W[nb];B[pa];W[kc];B[od];
W[nd];B[oe];W[ne];B[pe];W[je];B[lf];W[mg];B[mf];W[nf];B[ng];W[lh];B[md];W[jg];
B[nc];W[ab];B[lc];W[ac];B[fh];W[fj];B[hj];W[gi];B[hh];W[hi];B[gn];W[ih];B[fi];
W[ej];B[gh];W[ib];B[ig];W[jh];B[ie];W[jf];B[id];W[hc];B[ic];W[hb];B[jc];W[kb];
B[kd];W[jd];B[if];W[fb];B[gc];W[ga];B[lb];W[jb];B[ge];W[gg];B[ee];W[ed];B[de];
W[ha];B[gd];W[ef];B[da];W[fa];B[jo];W[hq];B[mi];W[ij];B[gj];W[ii];B[ik];W[jk];
B[il];W[jl];B[jm];W[km];B[in];W[ll];B[kn];W[ln];B[lo];W[mn];B[mo];W[mq];B[lq];
W[nq];B[oj];W[pk];B[pi];W[qp];B[mk];W[nl];B[nk];W[ol];B[mb];W[df];B[gk];W[cp];
B[dn];W[do];B[cm];W[no];B[jp];W[kq];B[kp];W[lr];B[lp];W[iq];B[bj];W[ci];B[bi];
W[bh];B[ck];W[bo];B[cn];W[rj];B[ri];W[qj];B[li];W[kh];B[ki];W[jj];B[em];W[fn];
B[fm];W[fp];B[gp];W[gq];B[hp];W[bn];B[ip];W[lk];B[ok];W[ml];B[mh];W[lg];B[kf];
W[si];B[sh];W[sj];B[rg];W[qi];B[oh];W[rh];B[sg];W[qg];B[ri];W[ph];B[pg];W[dk];
B[ek];W[dj];B[am];W[bp];B[ka];W[fe];B[ja];W[an];B[fk];W[go];B[ho];W[fo];B[lj];
W[kj];B[ke];W[bm];B[al];W[ai];B[aj];W[ah];B[];W[rh];B[qf];W[ri];B[kg];W[ia];
B[la];W[mp];B[ji];W[];B[])
