(;FF[4]BR[23k]CP[online-go.com]DT[2016-02-27]GM[1]KM[6.5]PB[pokemonalex8]
PC[OGS: http://online-go.com/game/4114003]PW[Sgoettschkes]RE[W+6.5]RU[japanese]
SZ[19]WR[24k];B[pd];W[dp];B[dd];W[op];B[qo];W[mp];B[pq];W[or];B[pr];W[ps];B[qs]
;W[os];B[qk];W[pm];B[qm];W[om];B[nk];W[qr];B[rq];W[qq];B[qp];W[rr];B[ro];W[sq];
B[rp];W[pp];B[sp];W[sr];B[pn];W[on];B[po];W[oo];B[pl];W[df];B[fd];W[cd];B[ce];
W[bd];B[be];W[de];B[cc];W[bc];B[cb];W[dc];B[ed];W[db];B[fb];W[cf];B[da];W[bb];
B[ca];W[ea];B[eb];W[ba];B[fa];W[da];B[jd];W[nd];B[pf];W[pc];B[oc];W[pb];B[rc];
W[qc];B[qd];W[od];B[oe];W[nc];B[ph];W[lc];B[kb];W[kc];B[jc];W[lb];B[ka];W[la];
B[ib];W[gq];B[jp];W[kn];B[ho];W[fo];B[gn];W[in];B[dj];W[dl];B[fl];W[kq];B[iq];
W[ir];B[hq];W[hr];B[gp];W[gr];B[fp];W[fq];B[eo];W[ep];B[fn];W[do];B[en];W[dn];
B[jl];W[ll];B[lk];W[hl];B[hk];W[fg];B[hm];W[il];B[im];W[ik];B[hj];W[ij];B[ii];
W[io];B[ip];W[jo];B[ko];W[kp];B[lo];W[jq];B[hp];W[hn];B[jn];W[nh];B[nf];W[lf];
B[if];W[hi];B[gi];W[hh];B[ji];W[li];B[kg];W[lg];B[kf];W[ke];B[me];W[md];B[ld];
W[kd];B[le];W[mf];B[ne];W[ob];B[rb];W[mb];B[ch];W[bf];B[cl];W[cm];B[dk];W[bl];
B[ck];W[aj];B[bk];W[ak];B[eh];W[eg];B[dg];W[cg];B[dh];W[hf];B[he];W[ig];B[gf];
W[hg];B[gg];W[jf];B[je];W[jg];B[kh];W[gh];B[fj];W[fh];B[ff];W[ef];B[ee];W[ge];
B[fe];W[gd];B[gc];W[hd];B[ie];W[hc];B[hb];W[ki];B[lh];W[jj];B[jh];W[ih];B[mg];
W[mh];B[mi];W[mj];B[ni];W[mk];B[ml];W[lj];B[km];W[lm];B[ln];W[mm];B[nl];W[mn];
B[el];W[dm];B[bi];W[gk];B[gj];W[gl];B[fk];W[kl];B[kk];W[jk];B[nj];W[kj];B[gm];
W[jm];B[kn];W[ng];B[lf];W[bj];B[cj];W[al];B[ai];W[bm];B[ei];W[ec];B[fc];W[ha];
B[ic];W[gb];B[id];W[mo];B[lp];W[lq];B[io];W[nm];B[rs];W[ss];B[qs];W[oq];B[em];
W[ol];B[ok];W[qa];B[qb];W[ra];B[rh];W[ag];B[ah];W[bg];B[fi];W[ae];B[sb];W[bh];
B[ci];W[pa];B[re];W[jl];B[sa];W[];B[])
