(;FF[4]BR[18k]CP[online-go.com]DT[2016-01-20]GM[1]KM[6.5]PB[kyky]
PC[OGS: http://online-go.com/game/3742005]PW[Geecut]RE[W+R]RU[japanese]SZ[19]
WR[13k];B[qd];W[dp];B[pq];W[dc];B[oc];W[ce];B[pj];W[dj];B[fq];W[cn];B[dr];W[cq]
;B[ip];W[jd];B[lq];W[pg];B[rj];W[ng];B[nj];W[pn];B[nn];W[qk];B[qj];W[qp];B[qm];
W[pk];B[pm];W[qn];B[om];W[qq];B[pp];W[po];B[np];W[rm];B[rl];W[sm];B[sl];W[ro];
B[oj];W[mc];B[gc];W[ed];B[ge];W[hd];B[hc];W[gd];B[id];W[ic];B[jc];W[ib];B[ie];
W[fd];B[jb];W[gb];B[hb];W[fc];B[ia];W[fa];B[ne];W[me];B[nd];W[md];B[of];W[og];
B[pf];W[he];B[if];W[kg];B[hf];W[gf];B[gg];W[ff];B[fg];W[eg];B[hh];W[je];B[jf];
W[kf];B[kd];W[ke];B[lc];W[ld];B[kc];W[nf];B[mb];W[nc];B[nb];W[qf];B[qe];W[oe];
B[od];W[pe];B[pd];W[re];B[dl];W[cl];B[ej];W[di];B[ei];W[eh];B[dk];W[ck];B[dm];
W[rd];B[rc];W[sc];B[sb];W[rb];B[qc];W[sa];B[qb];W[rg];B[qa];W[sd];B[ki];W[fo];
B[gm];W[fh];B[gi];W[fl];B[fm];W[gh];B[hg];W[fi];B[fj];W[gj];B[ek];W[hi];B[ii];
W[ij];B[ji];W[gk];B[go];W[fp];B[gp];W[em];B[en];W[el];B[ep];W[eo];B[il];W[fn];
B[gn];W[eq];B[er];W[jk];B[jl];W[kk];B[kl];W[lj];B[li];W[mj];B[mk];W[mi];B[lk];
W[ni];B[qr];W[rr];B[pr];W[jg];B[ih];W[cr];B[cs];W[bs])
