(;FF[4]BR[11k]CP[online-go.com]DT[2016-07-12]GM[1]KM[6.5]PB[gregwawa]
PC[OGS: http://online-go.com/game/5805853]PW[aurelito]RE[B+R]RU[japanese]SZ[19]
WR[10k];B[pp];W[qd];B[dq];W[cd];B[ec];W[id];B[hc];W[ic];B[hd];W[he];B[cc];W[dd]
;B[dc];W[dh];B[cn];W[cl];B[gq];W[el];B[en];W[qn];B[np];W[pj];B[oc];W[mc];B[qc];
W[pd];B[rc];W[pc];B[pb];W[od];B[nc];W[nd];B[mb];W[lc];B[lb];W[kb];B[rd];W[re];
B[qe];W[rf];B[qf];W[qg];B[pf];W[pg];B[of];W[ng];B[nf];W[mf];B[og];W[nh];B[oh];
W[pi];B[kc];W[kd];B[md];W[me];B[ld];W[ne];B[oi];W[nj];B[ni];W[mi];B[mg];W[mh];
B[lg];W[oj];B[lf];W[ph];B[le];W[mj];B[jd];W[je];B[ke];W[ge];B[fd];W[fe];B[jf];
W[ie];B[jg];W[hh];B[pn];W[pm];B[on];W[om];B[qo];W[rn];B[ro];W[mn];B[kq];W[ko];
B[ip];W[io];B[ho];W[in];B[hn];W[hl];B[hg];W[gg];B[ih];W[hi];B[ii];W[ij];B[hm];
W[jl];B[im];W[jm];B[il];W[hk];B[ik];W[jk];B[jj];W[hj];B[kj];W[lk];B[li];W[fm];
B[em];W[fl];B[fn];W[bm];B[bn];W[bc];B[bb];W[ac];B[ab];W[bd];B[cb];W[mp];B[mq];
W[lp];B[lq];W[no];B[oo];W[nn];B[cm];W[bl];B[ed];W[ee];B[jb];W[ib];B[hb];W[ha];
B[ga];W[ia];B[gb];W[an];B[ao];W[am];B[bo];W[jp];B[jq];W[oq];B[op];W[rp];B[so];
W[pq];B[qq];W[qr];B[rq];W[rr];B[sr];W[nr];B[mr];W[ps];B[rs];W[or];B[ns];W[qs];
B[sn])
