(;FF[4]BR[10k]CP[online-go.com]DT[2016-09-07]GM[1]KM[6.5]PB[gregwawa]
PC[OGS: http://online-go.com/game/6285965]PW[Bentaye]RE[W+6.5]RU[japanese]
SZ[19]WR[5k];B[dp];W[pd];B[pq];W[dd];B[qn];W[jp];B[gq];W[nq];B[kq];W[iq];B[lp];
W[no];B[mp];W[np];B[ln];W[pp];B[qp];W[qq];B[pr];W[qo];B[rp];W[po];B[ro];W[nm];
B[mn];W[pn];B[qm];W[ok];B[nl];W[ol];B[ml];W[jn];B[kl];W[il];B[jm];W[im];B[in];
W[hn];B[io];W[ho];B[jo];W[ko];B[kn];W[ip];B[jn];W[dm];B[cp];W[dj];B[qi];W[qk];
B[pm];W[om];B[pk];W[pl];B[pj];W[ql];B[qf];W[rl];B[rn];W[rj];B[ri];W[sk];B[rd];
W[qc];B[rc];W[md];B[ic];W[kc];B[fc];W[ec];B[cf];W[bd];B[bf];W[ch];B[ef];W[fd];
B[fb];W[eb];B[gc];W[gd];B[hd];W[gf];B[fg];W[fi];B[gg];W[he];B[ie];W[if];B[je];
W[ii];B[ig];W[jg];B[jf];W[hf];B[hg];W[jh];B[bh];W[bi];B[cg];W[dh];B[dg];W[eh];
B[ee];W[ed];B[cd];W[cc];B[ce];W[bc];B[de];W[ah];B[ag];W[ai];B[hi];W[ij];B[gi];
W[ih];B[hk];W[ik];B[fj];W[ej];B[fh];W[hh];B[ei];W[fk];B[gk];W[hj];B[ek];W[fl];
B[dk];W[cj];B[ck];W[bk];B[cl];W[bl];B[cm];W[bm];B[cn];W[gp];B[fp];W[fo];B[eo];
W[fq];B[ep];W[gr];B[eq];W[fr];B[fn];W[gm];B[fm];W[gl];B[go];W[hp];B[er];W[ap];
B[bq];W[pf];B[qg];W[lf];B[kd];W[ld];B[jc];W[kb];B[jb];W[or];B[qr];W[lr];B[kp];
W[kr];B[mo];W[nn];B[mj];W[rb];B[qd];W[pc];B[pg];W[of];B[oj];W[og];B[oh];W[ja];
B[ia];W[mb];B[nk];W[si];B[sh];W[sj];B[rg];W[nh];B[ni];W[mh];B[li];W[fa];B[ga];
W[ea];B[lh];W[lg];B[ke];W[es];B[ds];W[fs];B[cr];W[jq];B[mq];W[mr];B[oq];W[op];
B[os];W[nr];B[kj];W[sc];B[sd];W[sb];B[be];W[ae];B[ad];W[ac];B[af];W[ad];B[ka];
W[la];B[ja];W[bn];B[bo];W[ao];B[aq];W[sm];B[sn];W[rm];B[cb];W[db];B[ca];W[bb];
B[ba];W[da];B[ge];W[fe];B[ff];W[aa];B[ge];W[gj];B[fi];W[di];B[el];W[mm];B[lm];
W[rr];B[rq];W[ps];B[rs];W[ns];B[le];W[me];B[kg];W[qe];B[re];W[pe];B[jk];W[gn];
B[fo];W[bg];B[jl];W[bh];B[ki];W[os];B[qs];W[];B[bp];W[an];B[kf];W[mf];B[];W[])
