(;FF[4]BR[18k]CP[online-go.com]DT[2016-07-08]GM[1]KM[6.5]PB[shinkurex]
PC[OGS: http://online-go.com/game/5768506]PW[BoonChiao]RE[W+R]RU[japanese]
SZ[19]WR[16k];B[pd];W[dd];B[pp];W[cp];B[ep];W[cm];B[cq];W[bp];B[dp];W[do];B[eo]
;W[dn];B[ip];W[qn];B[np];W[qj];B[qf];W[jd];B[cf];W[ch];B[cc];W[cd];B[dc];W[ec];
B[bd];W[ed];B[be];W[nc];B[nd];W[mc];B[oc];W[ob];B[pb];W[na];B[cj];W[eh];B[ej];
W[gh];B[gj];W[fm];B[hl];W[go];B[gp];W[hn];B[in];W[ii];B[hj];W[mf];B[pm];W[qm];
B[pl];W[ql];B[pk];W[oi];B[nj];W[ni];B[mi];W[mh];B[lh];W[li];B[mj];W[ki];B[jj];
W[ij];B[ik];W[jk];B[jl];W[kk];B[kj];W[lj];B[kl];W[lk];B[ll];W[oj];B[nk];W[ok];
B[nl];W[ol];B[om];W[po];B[oo];W[qp];B[pq];W[qq];B[nh];W[mg];B[pj];W[pi];B[qi];
W[oh];B[ng];W[og];B[nf];W[of];B[ne];W[qh];B[ri];W[rh];B[rj];W[qk];B[rg];W[nm])
