(;FF[4]BR[23k]CP[online-go.com]DT[2016-03-28]GM[1]KM[6.5]PB[goniki]
PC[OGS: http://online-go.com/game/4637674]PW[silverjohnny]RE[B+R]RU[japanese]
SZ[19]WR[23k];B[pp];W[dd];B[od];W[eo];B[jp];W[jc];B[pj];W[pd];B[pc];W[qe];B[pe]
;W[qd];B[oc];W[oe];B[pf];W[ne];B[qf];W[qc];B[qb];W[re];B[rf];W[sf];B[rc];W[sc];
B[sd];W[sg];B[sb];W[se];B[rg])
