(;FF[4]BR[12k]CP[online-go.com]DT[2016-03-10]GM[1]KM[6.5]PB[pfraces]
PC[OGS: http://online-go.com/game/4220142]PW[RDiaz]RE[W+R]RU[japanese]SZ[19]
WR[8k];B[pd];W[qp];B[dd];W[dq];B[do];W[cl];B[cq];W[cr];B[cp];W[ep];B[br];W[dr];
B[jq];W[eo];B[op];W[mq];B[gq];W[jc];B[qq];W[rq];B[pq];W[qo];B[no];W[mo];B[mn];
W[lo];B[pn];W[qn];B[qm];W[rm];B[ql];W[rl];B[ln];W[ko];B[go];W[en];B[dn];W[jn];
B[io];W[in];B[gm];W[em];B[bn];W[hn];B[ho];W[gn];B[gl];W[kr];B[kq];W[lr];B[jr];
W[gs];B[fr];W[fs];B[es];W[er];B[hs];W[ds];B[gr];W[es];B[ir];W[qf];B[nc];W[qi];
B[qd];W[cf];B[fc];W[di];B[be];W[bf];B[ce];W[jk];B[ek];W[dl];B[dj];W[cj];B[ei];
W[fj];B[gj];W[fk];B[ej];W[fl];B[fi];W[gk];B[hj];W[hk];B[ij];W[jj];B[hh];W[jf];
B[ie];W[je];B[id];W[jd];B[df];W[ch];B[dg];W[dh];B[eh];W[nf];B[li];W[jh];B[lk];
W[ol];B[pk];W[ok];B[pj];W[oj];B[pi];W[oi];B[ph];W[nh];B[oh];W[ml];B[ll];W[pm];
B[pf];W[or];B[on];W[nm];B[nn];W[po];B[mk];W[ni];B[rr];W[rp];B[pr];W[oq];B[pp];
W[sr];B[qs];W[km];B[ik];W[ji];B[lg];W[mf];B[lf];W[md];B[nd];W[le];B[ne];W[me];
B[jg];W[kg];B[ig];W[kh];B[il];W[jl];B[lq];W[mp];B[el];W[fm];B[dm];W[cg];B[ck];
W[bk];B[dk];W[bm];B[cm];W[bl];B[bj];W[ci];B[aj];W[bi];B[af];W[ag];B[ae];W[ai];
B[rk];W[so];B[sk];W[sq];B[mc];W[hb];B[gb];W[hc];B[ge];W[bs];B[aq];W[bo];B[bp];
W[an];B[co];W[cn];B[rn];W[sm];B[bn];W[ip];B[ao];W[jp];B[hp];W[jo];B[hq];W[js];
B[is];W[fp])
