(;FF[4]BR[15k]CP[online-go.com]DT[2016-07-16]GM[1]KM[6.5]PB[kyky]
PC[OGS: http://online-go.com/game/5835164]PW[Cement]RE[B+R]RU[japanese]SZ[19]
WR[14k];B[qd];W[dd];B[pq];W[dp];B[nc];W[po];B[qo];W[qn];B[qp];W[pn];B[nq];W[qj]
;B[fc];W[hc];B[cc];W[dc];B[cd];W[de];B[db];W[eb];B[cb];W[ec];B[cf];W[cj];B[fq];
W[hq];B[cq];W[dq];B[cp];W[do];B[dr];W[er];B[cr];W[eq];B[cn];W[em];B[qh];W[lq];
B[jc];W[he];B[je];W[ig];B[oj];W[pi];B[nh];W[ph];B[pg];W[rh];B[qg];W[ri];B[kg];
W[ii];B[ki];W[eg];B[jk];W[hk];B[pl];W[ql];B[im];W[hm];B[in];W[hn];B[io];W[mn];
B[ml];W[lm];B[ll];W[il];B[jl];W[jm];B[km];W[jn];B[dh];W[ej];B[hb];W[id];B[gb];
W[kn];B[qc];W[se];B[re];W[sg];B[sd];W[sf];B[cl];W[dg];B[cg];W[ch];B[ci];W[bh];
B[bi];W[di];B[ah];W[eh];B[bg];W[dh];B[pj];W[qi];B[qk];W[rk];B[pk];W[qm];B[rn];
W[rm];B[so];W[mr];B[nr];W[ns];B[os];W[ms];B[oq];W[mp];B[bj];W[ck];B[bk];W[dl];
B[cm];W[jd];B[kd];W[gc];B[fb];W[fd];B[kc];W[jf];B[kf];W[jg];B[jh];W[ji];B[kj];
W[om];B[nl];W[ol];B[ok];W[rf];B[qf];W[ic];B[ib];W[np];B[op];W[oo];B[kl];W[mm];
B[nm];W[nn];B[ik];W[hl];B[ij];W[hj];B[oi];W[oh];B[og];W[sm];B[df];W[ce];B[be];
W[ef];B[ea];W[co];B[bo];W[ds];B[cs];W[es];B[rg];W[sh];B[pm];W[on];B[dn];W[en];
B[mq];W[pp];B[qq];W[sn];B[ro];W[lr];B[ih];W[hh];B[kh];W[hg];B[jj];W[hi];B[ie];
W[if];B[ke];W[dm];B[gd];W[hd])
