(;FF[4]BR[14k]CP[online-go.com]DT[2016-04-25]GM[1]KM[6.5]PB[New Shampoo]
PC[OGS: http://online-go.com/game/5023499]PW[LuqunShen]RE[B+R]RU[japanese]
SZ[19]WR[14k];B[pd];W[dc];B[dp];W[pp];B[qn];W[mp];B[pk];W[ce];B[mc];W[cn];B[gq]
;W[dk];B[lq];W[mq];B[lr];W[hc];B[qq];W[qp];B[pq];W[oq];B[rp];W[ro];B[sp];W[so];
B[rr];W[qo];B[or];W[nq];B[nr];W[mr];B[on];W[mm];B[ck];W[cl];B[dl];W[dm];B[el];
W[cj];B[bk];W[dj];B[em];W[bl];B[dn];W[cm];B[co];W[bo];B[bp];W[bn];B[in];W[pm];
B[pn];W[om];B[qm];W[nn];B[pl];W[oo];B[ol];W[nm];B[fh];W[dg];B[gd];W[gc];B[hd];
W[id];B[ie];W[jd];B[je];W[kd];B[me];W[km];B[ko];W[lk];B[qh])
