(;FF[4]BR[11k]CP[online-go.com]DT[2016-03-29]GM[1]KM[6.5]PB[HyunJung]
PC[OGS: http://online-go.com/game/4650280]PW[Diskciiple]RE[B+R]RU[japanese]
SZ[19]WR[12k];B[qd];W[dd];B[pq];W[dp];B[oc];W[qj];B[qh];W[qn];B[rp];W[gc];B[ql]
;W[rl];B[rm];W[rk];B[qm];W[pn];B[rn];W[pk];B[jc];W[fq];B[cj];W[lq];B[iq];W[jo];
B[gp];W[en];B[io];W[in];B[jp];W[ho];B[ko];W[jn];B[lp];W[mq];B[mp];W[kq];B[kp];
W[hp];B[hq];W[ip];B[jq];W[nq];B[np];W[gq];B[oq];W[jr];B[ir];W[ks];B[nr];W[or];
B[pr];W[gr];B[bp];W[is];B[hs];W[hr];B[js];W[qg];B[kr];W[ph];B[pg];W[qf];B[og];
W[oh];B[ng];W[nh];B[mg];W[cn];B[cq];W[dq];B[bn];W[bm];B[co];W[an];B[ao];W[bo];
B[dr];W[ap];B[aq];W[cp];B[ao];W[bn];B[br];W[ap];B[bq];W[bs];B[cs];W[er];B[as];
W[cg];B[cc];W[cd];B[dc];W[ec];B[eb];W[fb];B[bd];W[be];B[ce];W[bc];B[ed];W[ad];
B[de];W[fc];B[bd];W[cd];B[dg];W[db];B[cb];W[ea];B[ch];W[cf];B[eh];W[bd];B[dd];
W[bb];B[ba];W[ab];B[bg];W[bf];B[bi])
