(;FF[4]BR[14k]CP[online-go.com]DT[2016-06-16]GM[1]KM[6.5]PB[qianyilong]
PC[OGS: http://online-go.com/game/5562173]PW[Redriek]RE[B+R]RU[japanese]SZ[19]
WR[14k];B[pd];W[pp];B[cp];W[dc];B[eq];W[ce];B[qn];W[nq];B[mc];W[qo];B[pn];W[qi]
;B[qg];W[ql];B[qk];W[pk];B[rk];W[ol];B[rl];W[ro];B[pj];W[oj];B[pi];W[qm];B[rn];
W[cj];B[jc];W[hd];B[dg];W[bg];B[ff];W[hq];B[fc];W[hf];B[hc];W[je];B[gh];W[ih];
B[ie];W[he];B[id];W[if];B[jf];W[jd];B[ic];W[kf];B[jg];W[kg];B[jh];W[ji];B[kh];
W[nf];B[ig];W[hg];B[hh];W[ii];B[lh];W[lj];B[dj];W[ci];B[di];W[cm];B[dl];W[cl];
B[nh];W[gm];B[nn];W[on];B[om];W[oo];B[nm];W[pm];B[rm])
