(;FF[4]BR[11k]CP[online-go.com]DT[2016-04-25]GM[1]KM[6.5]PB[TonyUdell]
PC[OGS: http://online-go.com/game/5021125]PW[kyky]RE[B+R]RU[japanese]SZ[19]
WR[18k];B[pd];W[dp];B[pq];W[dd];B[fq];W[cn];B[dr];W[cq];B[iq];W[po];B[oo];W[qq]
;B[op];W[pn];B[on];W[pm];B[om];W[pl];B[cf];W[ch];B[fc];W[df];B[cc];W[cd];B[dc];
W[ed];B[ec];W[nc];B[qf];W[pb];B[qc];W[kc];B[fo];W[io];B[qr];W[qp];B[fm];W[lq];
B[kp];W[jr];B[mr];W[ir];B[hr];W[jq];B[jp];W[ip];B[hq];W[lp];B[kn];W[gn];B[fn];
W[im];B[jn];W[ik];B[in])
