(;FF[4]BR[2k]CP[online-go.com]DT[2016-04-28]GM[1]KM[6.5]PB[bronislav]
PC[OGS: http://online-go.com/game/5063772]PW[WindnWater]RE[B+R]RU[japanese]
SZ[19]WR[2k];B[pc];W[pe];B[qg];W[qc];B[mc];W[pd];B[pb];W[nd];B[qb];W[nc];B[nb];
W[md];B[lb];W[ph];B[rc];W[pg];B[ld];W[le];B[kd];W[ke];B[id];W[if];B[op];W[qh];
B[dp];W[pn];B[qp];W[qo];B[rp];W[ql];B[dd];W[ie];B[hd];W[cc];B[dc];W[cf];B[cd];
W[cn];B[fp];W[cq];B[cp];W[bp];B[dq];W[br];B[cr];W[bq];B[jq];W[io];B[hq];W[no];
B[oo];W[nm];B[ij];W[kj];B[np];W[di];B[il];W[hk];B[ik];W[ll];B[jn];W[gm];B[gi];
W[be];B[bd];W[mo];B[mp];W[ro];B[so];W[sn];B[sp];W[rm];B[jh];W[ki];B[dk];W[fj];
B[ci];W[ch];B[cj];W[cl];B[dh];W[ei];B[dg];W[bh];B[fk];W[gk];B[ej];W[gj];B[fi];
W[eh];B[fl];W[hm];B[df];W[ck];B[dj];W[fh];B[gh];W[fg];B[gf];W[ff];B[ge];W[gg];
B[hg];W[hi];B[hh];W[ii];B[hf];W[ji];B[bk];W[de];B[ee])
