(;FF[4]BR[7k]CP[online-go.com]DT[2016-03-22]GM[1]KM[6.5]PB[S_Alexander]
PC[OGS: http://online-go.com/game/4523569]PW[pyronoid]RE[B+R]RU[japanese]SZ[19]
WR[11k];B[qd];W[pp];B[dp];W[dd];B[fc];W[cf];B[kc];W[fq];B[cn];W[dr];B[cq];W[jq]
;B[qn];W[np];B[pk];W[qo];B[cj];W[db];B[qg];W[oc];B[pc];W[od];B[md];W[fn];B[em];
W[pf];B[qf];W[pe];B[mf];W[ne];B[me];W[pb];B[qb];W[pd];B[qc];W[mb];B[mc];W[hc];
B[fe];W[he];B[ef];W[eg];B[fg];W[eh];B[df];W[cg];B[hg];W[gf];B[ff];W[hb];B[ec];
W[dc];B[gg];W[gd];B[jf];W[je];B[if];W[ie];B[ic];W[id];B[jc];W[gc];B[fb];W[ge];
B[nb])
