(;FF[4]BR[14k]CP[online-go.com]DT[2016-07-21]GM[1]KM[6.5]PB[guided]
PC[OGS: http://online-go.com/game/5876931]PW[KayoHinazuki]RE[B+R]RU[japanese]
SZ[19]WR[13k];B[pp];W[dc];B[dp];W[qd];B[jp];W[cn];B[fp];W[dk];B[oc];W[pf];B[qc]
;W[pd];B[rc];W[rd];B[lc];W[cg];B[ce];W[cd];B[de];W[fc];B[fe];W[ic];B[dh];W[ch];
B[di];W[ci];B[pj];W[qi];B[qj];W[qo];B[qp];W[po];B[op];W[ql];B[ol];W[rk];B[rj];
W[ri];B[sj];W[si];B[pn];W[qn];B[pm];W[qm];B[oo];W[rp];B[rq];W[sp];B[sq];W[ro];
B[qk];W[rm];B[sk];W[sn];B[co];W[dn];B[jb];W[ib];B[jc];W[cq];B[dq];W[lq];B[mp];
W[iq];B[jq];W[ip];B[io];W[jr];B[kr];W[hr];B[lr];W[fq];B[er];W[fr];B[gp];W[gq];
B[hp];W[js];B[hq];W[ir];B[fs];W[cp];B[bo];W[dr];B[eq];W[do];B[cr];W[br];B[bq];
W[cs];B[bp];W[cr];B[es];W[aq];B[ar];W[as];B[bn];W[bm];B[ap];W[an];B[ar];W[pc];
B[bs];W[ob];B[ds];W[mb];B[nc];W[nb];B[mc];W[jd];B[kd];W[je];B[gc];W[gd];B[fd];
W[hc];B[ec];W[fb];B[eb];W[gb];B[bd];W[bc];B[dd];W[be];B[cc];W[ad];B[bf];W[cd];
B[cb];W[cf];B[bd];W[kq];B[mq];W[cd];B[pi];W[bd];B[qh];W[qg];B[ph];W[sg];B[rg];
W[rf];B[rh];W[nf];B[lf];W[fk];B[gh];W[fn];B[km];W[jn];B[jo];W[kn];B[lm];W[in];
B[mh];W[hn];B[hj];W[hk];B[ij];W[ik];B[jk];W[jl];B[kk];W[le];B[ke];W[me];B[mf];
W[nd];B[kg];W[jf];B[kf];W[ge])
