(;FF[4]BR[13k]CP[online-go.com]DT[2016-03-02]GM[1]KM[6.5]
PB[legendofthebluemoon]PC[OGS: http://online-go.com/game/4145027]PW[Bray]
RE[B+9.5]RU[japanese]SZ[19]WR[10k];B[pd];W[dd];B[pp];W[dq];B[pj];W[ck];B[fc];
W[df];B[db];W[cc];B[ic];W[di];B[jp];W[qn];B[qo];W[pn];B[np];W[ql];B[qk];W[ol];
B[do];W[fp];B[cq];W[cr];B[cp];W[er];B[cm];W[br];B[em];W[nn];B[nd];W[rd];B[qc];
W[rc];B[qf];W[rf];B[rg];W[qe];B[sf];W[re];B[pf];W[qb];B[pb];W[sb];B[qa];W[ra];
B[rb];W[qg];B[pg];W[qb];B[pa];W[rb];B[nj];W[jd];B[jc];W[kd];B[lc];W[jg];B[lg];
W[ji];B[fe];W[fg];B[ie];W[kf];B[lf];W[ek];B[bl];W[bk];B[go];W[hq];B[iq];W[hr];
B[ir];W[qq];B[pq];W[ro];B[qp];W[cb];B[rp];W[rm];B[ec];W[gl];B[lo];W[rk];B[rj];
W[pk];B[qj];W[kc];B[kb];W[jl];B[ml];W[ok];B[oj];W[ld];B[mc];W[oo];B[hg];W[pe];
B[oe];W[hh];B[gg];W[gh];B[kj];W[jj];B[kh];W[jh];B[hp];W[ki];B[li];W[kk];B[lk];
W[ao];B[bo];W[ap];B[an];W[aq];B[hm];W[hl];B[im];W[op];B[oq];W[ln];B[sk];W[ko];
B[kp];W[mp];B[mq];W[no];B[nq];W[lp];B[lq];W[mo];B[hs];W[gr];B[nm];W[om];B[fl];
W[fk];B[il];W[ik];B[ak];W[aj];B[al];W[bi];B[kl];W[lj];B[mj];W[kj];B[jm];W[id];
B[hd];W[ff];B[ge];W[gf];B[if];W[hf];B[he];W[jf];B[ig];W[ih];B[ca];W[ba];B[da];
W[ab];B[ee];W[de];B[ef];W[eg];B[gm];W[dm];B[cn];W[cl];B[bm];W[el];B[fm];W[fo];
B[fn];W[gp];B[io];W[me];B[mf];W[ne];B[nf];W[so];B[sp];W[sm];B[oc];W[dc];B[fb];
W[ed];B[fd];W[jk];B[md];W[le];B[je];W[ke];B[ep];W[eq];B[eo];W[gs];B[is];W[se];
B[qh];W[mm];B[nl];W[jn];B[lm];W[in];B[hn];W[mn];B[dn];W[dl];B[rl];W[sl];B[nk];
W[sg];B[sh];W[sf];B[bq];W[kg];B[lh];W[qd];B[pc];W[kn];B[km];W[ar];B[rk];W[dp];
B[bp];W[];B[])
