(;FF[4]BR[16k]CP[online-go.com]DT[2016-07-26]GM[1]KM[6.5]PB[felty]
PC[OGS: http://online-go.com/game/5916518]PW[cdefghij]RE[W+R]RU[japanese]SZ[19]
WR[3k];B[pd];W[dd];B[pq];W[dq];B[qk];W[nc];B[pf];W[qc];B[pc];W[pb];B[ob];W[qb];
B[nb];W[re];B[qe];W[rf];B[fc];W[cf];B[do];W[co];B[dp];W[cp];B[eq];W[cn];B[dn];
W[dm];B[fo];W[gq];B[fq];W[dr];B[gr];W[po];B[qo];W[qn];B[qp];W[pn];B[cc];W[dc];
B[cd];W[ce];B[db];W[eb];B[bb];W[da];B[cb];W[ec];B[mc];W[bd];B[fb];W[oq];B[pr];
W[op];B[id];W[or];B[fe];W[ee];B[qh];W[rn];B[ro];W[ff];B[ge];W[jq];B[hq];W[em];
B[fm];W[fl];B[hg];W[fn];B[gm];W[gn];B[hn];W[go];B[ho];W[gp];B[hp];W[en];B[ep];
W[fr];B[er];W[hr];B[fs];W[ir];B[kp];W[lq];B[bq];W[cq];B[br];W[ds];B[hk];W[ok])
