(;FF[4]BR[2d]CP[online-go.com]DT[2016-02-15]GM[1]KM[6.5]PB[nrx]
PC[OGS: http://online-go.com/game/4007878]PW[MagariSimoku]RE[W+R]RU[japanese]
SZ[19]WR[4d];B[pd];W[dp];B[qp];W[dd];B[fq];W[cn];B[lq];W[qf];B[qh];W[qc];B[qd];
W[pc];B[od];W[rd];B[re];W[rc];B[qe];W[nc];B[pk];W[hq];B[fo];W[eq];B[fr];W[ho];
B[fm];W[hm];B[dl];W[cl];B[ck];W[dk];B[cm];W[bl];B[el];W[bm];B[mc];W[nd];B[dj];
W[ne];B[cq];W[en];B[fn];W[er];B[cp];W[ep];B[fp];W[bo];B[in];W[hn];B[ip];W[io];
B[jp];W[hj];B[gk];W[hk];B[il];W[hl];B[kn];W[jc];B[fc];W[fe];B[cf];W[dh];B[dc];
W[cc];B[cd];W[ce];B[bd];W[ec];B[db];W[eb];B[es];W[ds];B[fs];W[dr];B[ed];W[de];
B[fb];W[cb];B[ea];W[be];B[ee];W[ef];B[ff];W[eg];B[ge];W[hp];B[dm];W[dn];B[ir];
W[qq];B[pq];W[pp];B[qo];W[qg];B[rh];W[nk];B[lk];W[ph];B[pi];W[oi];B[pg];W[oh];
B[pf];W[pj];B[ok];W[qi];B[nj];W[pr];B[oq];W[mj];B[mk];W[ni];B[qk];W[oj];B[nl];
W[ri];B[rg];W[ki];B[je];W[ke];B[jd];W[kc];B[kd];W[ld];B[ic];W[ib];B[hc];W[rq];
B[or];W[qs];B[rp];W[rr];B[ci];W[bk];B[ek];W[ch];B[os];W[ps];B[kf];W[le];B[bi];
W[bh];B[hb];W[ja];B[lc];W[kb];B[ii];W[jj];B[ij];W[ik];B[jk];W[gh];B[hh];W[hi];
B[ih];W[kk];B[jl];W[fi];B[lj];W[li];B[kj];W[jf];B[if];W[jg];B[ji];W[ig];B[hf];
W[hg];B[gg];W[jh];B[jj];W[fg];B[gf];W[lg];B[nf];W[oe];B[sh];W[of];B[rj];W[jo];
B[ko];W[iq];B[jq];W[hr];B[hs];W[bc];B[gj];W[gi])
