(;FF[4]BR[13k]CP[online-go.com]DT[2016-06-23]GM[1]KM[6.5]PB[mxat]
PC[OGS: http://online-go.com/game/5628648]PW[jix_]RE[B+R]RU[japanese]SZ[19]
WR[22k];B[pc];W[dd];B[qp];W[dp];B[cn];W[fq];B[bp];W[cq];B[ck];W[oq];B[lq];W[on]
;B[op];W[pq];B[pp];W[mq];B[nq];W[nr];B[np];W[lr];B[mp];W[mr];B[qq];W[qr];B[rr];
W[qs];B[pm];W[kq];B[iq];W[lp];B[gr];W[hp];B[jp];W[jq];B[ip];W[hr];B[hq];W[ir];
B[gp];W[gq];B[ho];W[fr];B[qf];W[fc];B[jc];W[cg];B[qj];W[en];B[lo];W[mn];B[nl];
W[ln];B[ko];W[ml];B[mk];W[ll];B[lk];W[pn];B[nm];W[nn];B[kk];W[mo];B[jm];W[qn];
B[ro];W[rn];B[rs];W[pr];B[sp];W[rl];B[ql];W[qk];B[pk];W[rk];B[rj];W[sk];B[sm];
W[ol];B[ok];W[mc];B[ld];W[jb];B[kb];W[lb];B[kc];W[ib];B[md];W[ka];B[nd];W[nc];
B[oc];W[ob];B[pb];W[oa];B[pa];W[nb];B[ic];W[hb];B[ij];W[ge];B[if];W[gh];B[hh];
W[hg];B[ig];W[hd];B[gi];W[fh];B[fi];W[ei];B[fk];W[ek];B[ej];W[dj];B[fj];W[dh];
B[el];W[dk];B[dl];W[dm];B[cm];W[cj];B[bk];W[do];B[em];W[dn];B[fn];W[fo];B[gn];
W[fp];B[bq];W[br];B[cp];W[cr];B[hf];W[gg];B[gf];W[ff];B[ah];W[bh];B[bi];W[bj];
B[aj];W[ci];B[ai];W[ag];B[ak];W[co];B[bo];W[aq];B[bn];W[ke];B[je];W[kg];B[mg];
W[ih];B[hi];W[jh];B[kd];W[pe];B[qe];W[of];B[pg];W[og];B[lf])
