(;FF[4]BR[14k]CP[online-go.com]DT[2016-03-16]GM[1]KM[6.5]PB[Odo]
PC[OGS: http://online-go.com/game/4394657]PW[xfmvx]RE[B+R]RU[japanese]SZ[19]
WR[14k];B[qd];W[dd];B[dp];W[oc];B[pe];W[cn];B[en];W[ck];B[pp];W[qc];B[pi];W[rc]
;B[rd];W[fq];B[hq];W[cq];B[dq];W[dr];B[er];W[cr];B[eq];W[cp];B[jd];W[nq];B[no];
W[kq];B[io];W[qn];B[ql];W[qq];B[qp];W[rp];B[ro];W[rq];B[rn];W[pq];B[mc];W[nd];
B[md];W[ne];B[fc];W[df];B[cc];W[dc];B[db];W[cd];B[cb];W[hc];B[fe];W[he];B[gd];
W[hd];B[jf];W[jb];B[lb];W[kc];B[kd];W[gf];B[ff];W[le];B[me];W[ld];B[lf];W[lc];
B[nf];W[bc];B[ci];W[ch];B[di];W[fg];B[bb];W[gg];B[bh];W[cg];B[bj];W[bk];B[bg];
W[bf];B[eg];W[ef];B[eh];W[ek];B[fi];W[gi];B[fj];W[gj];B[fk];W[kg];B[kf];W[gb];
B[fb];W[bd];B[ab];W[hl];B[gk];W[hk];B[fm];W[op];B[pn];W[mg];B[mf];W[oo];B[on];
W[nn];B[mo];W[nm];B[nk];W[lm];B[ko];W[ol];B[jr];W[kr];B[lg];W[pl];B[qm];W[pj];
B[oj];W[pk];B[qi];W[jq];B[ir];W[hn];B[jm];W[ln];B[lo];W[jl];B[km];W[ll];B[kl];
W[kk];B[jk];W[il];B[lk];W[kj];B[in];W[mk];B[lj];W[of];B[oe];W[pf];B[qf];W[ng];
B[li];W[qg];B[pg])
