(;FF[4]BR[5k]CP[online-go.com]DT[2016-05-03]GM[1]KM[6.5]PB[Nordamar]
PC[OGS: http://online-go.com/game/5118110]PW[tacololo]RE[W+14.5]RU[japanese]
SZ[19]WR[4k];B[pd];W[dp];B[pq];W[dd];B[qk];W[dj];B[jp];W[nc];B[pf];W[pb];B[qc];
W[kc];B[fq];W[cn];B[fc];W[ec];B[fd];W[cf];B[jc];W[kd];B[jd];W[po];B[qp];W[oq];
B[qo];W[pn];B[qn];W[pm];B[ql];W[pr];B[qr];W[pp];B[qq];W[np];B[mq];W[lo];B[ke];
W[le];B[kf];W[qb];B[rb];W[fo];B[dr];W[kq];B[jq];W[jn];B[kp];W[ff];B[ee];W[dg];
B[cc];W[cd];B[eb];W[dc];B[db];W[cb];B[ef];W[eg];B[hn];W[ho];B[io];W[in];B[go];
W[gn];B[hp];W[hm];B[ho];W[fm];B[gf];W[fg];B[ge];W[hh];B[nk];W[lk];B[cq];W[cp];
B[nm];W[mr];B[lq];W[lr];B[kr];W[nr];B[ln];W[ko];B[mo];W[mp];B[lp];W[mn];B[mm];
W[nn];B[kn];W[jo];B[ll];W[kl];B[mk];W[km];B[lm];W[kk];B[ii];W[hj];B[hi];W[gi];
B[ij];W[hk];B[ih];W[hg];B[ig];W[hf];B[ie];W[li];B[nh];W[ne];B[nf];W[pc];B[qd];
W[oe];B[of];W[kb];B[jb];W[ja];B[ia];W[ka];B[hb];W[ra];B[sb];W[mj];B[nj];W[eq];
B[er];W[fp];B[gq];W[bp];B[bq];W[aq];B[ar];W[ap];B[br];W[pe];B[qe];W[bc];B[od];
W[nd];B[mi];W[lj];B[lh];W[kh];B[lg];W[mf];B[mg];W[he];B[hd];W[qm];B[rm];W[qs];
B[rs];W[ps];B[sr];W[da];B[fa];W[om];B[ol];W[pl];B[pk];W[fe];B[ed];W[gg];B[gd];
W[ik];B[kg];W[ki];B[if];W[oc];B[jj];W[jk];B[lf];W[me];B[dq];W[ep];B[jh];W[ks];
B[js];W[ls];B[gp];W[de];B[nq];W[ca];B[ea];W[df];B[];W[];B[rc];W[];B[])
