(;FF[4]BR[16k]CP[online-go.com]DT[2016-07-05]GM[1]KM[6.5]PB[jnkstry]
PC[OGS: http://online-go.com/game/5738526]PW[Redux]RE[B+2.5]RU[japanese]SZ[19]
WR[17k];B[pd];W[pp];B[cd];W[dp];B[cn];W[nc];B[qg];W[ec];B[dg];W[qj];B[nq];W[fq]
;B[jq];W[cj];B[cl];W[ch];B[cg];W[gf];B[jc];W[pm];B[gc];W[qc];B[qd];W[pc];B[nd];
W[of];B[pf];W[oe];B[od];W[oc];B[og];W[ng];B[oh];W[nh];B[oi];W[ni];B[gp];W[co];
B[bo];W[bp];B[ao];W[ap];B[bm];W[bk];B[do];W[cp];B[eo];W[ep];B[fp];W[gq];B[nn];
W[kn];B[lo];W[ip];B[gl];W[kp];B[kq];W[lp];B[lq];W[mp];B[mq];W[np];B[iq];W[hr];
B[hq];W[or];B[hp];W[jp];B[hn];W[lk];B[dh];W[ci];B[di];W[dj];B[ej];W[dk];B[dl];
W[ek];B[fj];W[el];B[em];W[bh];B[bg];W[ah];B[fd];W[cc];B[ed];W[dc];B[dd];W[fb];
B[if];W[hj];B[gj];W[hh];B[fl];W[al];B[bl];W[hm];B[gm];W[in];B[oq];W[pq];B[op];
W[oo];B[ir];W[gr];B[hl];W[im];B[il];W[jl];B[jk];W[jj];B[kl];W[jm];B[kk];W[lm];
B[ll];W[ml];B[kj];W[lj];B[ji];W[ij];B[li];W[mi];B[lh];W[pe];B[qe];W[nf];B[mc];
W[mb];B[lc];W[lf];B[kf];W[ke];B[jf];W[je];B[lg];W[me];B[oj];W[nj];B[ik];W[ie];
B[lb];W[nb];B[ff];W[he];B[gh];W[gg];B[fg];W[gi];B[fh];W[ig];B[jg];W[hg];B[fi];
W[hi];B[pk];W[ok];B[pj];W[pl];B[qk];W[ql];B[rl];W[rm];B[rj];W[sl];B[rk];W[sk];
B[sj];W[sm];B[io];W[jo];B[ho];W[km];B[mm];W[mn];B[nm];W[no];B[mk];W[nl];B[mj];
W[nk];B[ge];W[hf];B[jh];W[rd];B[re];W[rc];B[sd];W[sc];B[se];W[hb];B[hc];W[ib];
B[ic];W[jb];B[kb];W[gb];B[bc];W[bb];B[ac];W[ab];B[bd];W[ms];B[nr];W[ns];B[pr];
W[os];B[qr];W[qq];B[rr];W[rq];B[mr];W[sr];B[ls];W[is];B[js];W[hs];B[ai];W[la];
B[ld];W[le];B[kd];W[jd];B[hd];W[fc];B[aj];W[ka];B[rs];W[id];B[ne];W[md];B[ss];
W[sq];B[fk];W[kc];B[gd];W[hk];B[mg];W[mf];B[qn];W[qm];B[po];W[qo];B[];W[])
