(;FF[4]BR[13k]CP[online-go.com]DT[2016-04-09]GM[1]KM[6.5]PB[chriswks]
PC[OGS: http://online-go.com/game/4809200]PW[jhwanggolf]RE[W+R]RU[japanese]
SZ[19]WR[10k];B[dq];W[pd];B[cd];W[qp];B[mq];W[oq];B[jq];W[do];B[fd];W[cq];B[fp]
;W[cp];B[cg];W[eq];B[fq];W[ep];B[id];W[dc];B[eb];W[dd];B[de];W[ee];B[ce];W[ed];
B[fc];W[ff];B[eg];W[hf];B[ld];W[ck];B[ci];W[lp];B[lq];W[mp];B[ph];W[ql];B[qe];
W[qd];B[oc];W[re];B[qf];W[od];B[nd];W[ne];B[fa];W[nc];B[md];W[ob];B[mc];W[nb];
B[mb];W[ng];B[rf];W[rd];B[qj];W[rk];B[rj];W[ok];B[mf];W[jo];B[nf];W[mg];B[lg];
W[ni];B[np];W[nq];B[kp];W[ko];B[no];W[lo];B[li];W[gh];B[ej];W[gj];B[fk];W[ij];
B[jl];W[hl];B[im];W[hm];B[in];W[ip];B[io];W[iq];B[ir];W[jp];B[kq];W[hr];B[jr];
W[fo];B[hq];W[hp];B[gr];W[gq];B[hs];W[fr];B[hq];W[go];B[hr];W[ks];B[mr];W[nr];
B[ls];W[ns];B[kr];W[ms];B[js];W[lh];B[kh];W[mh];B[kg];W[kj];B[ki];W[lj];B[mi];
W[mj];B[og];W[nh];B[jj];W[jk];B[er];W[fs];B[em];W[fm];B[en];W[el];B[eo];W[gp];
B[fl];W[dl];B[gm];W[fn];B[ik];W[ji];B[gk];W[hk];B[gl];W[hn];B[bj];W[di];B[dj];
W[ei];B[fj];W[fi];B[cj];W[dh];B[dg];W[of];B[pf];W[lf];B[kf];W[me];B[le];W[pi];
B[qi];W[oh];B[pg];W[rh];B[qh];W[sj];B[si];W[rg];B[qk];W[rl];B[pl];W[pk];B[pm];
W[qn];B[qm];W[rm];B[ef];W[fe];B[fg];W[gg];B[ge];W[he];B[gd];W[gf];B[hi];W[gi];
B[ih];W[jh];B[ig];W[jg];B[if];W[jf];B[ie];W[hj];B[ke];W[hd];B[hc];W[cc];B[bc];
W[bb];B[bd];W[bk];B[db];W[ch];B[bh];W[ma];B[lb];W[la];B[ka];W[na];B[kb];W[cb];
B[dk];W[cl];B[ii];W[je];B[jd];W[jj];B[po];W[qo];B[pp];W[pq];B[op];W[on];B[qq];
W[qr];B[rq];W[rr];B[pr];W[sq];B[sk];W[rn];B[om];W[nn];B[nm];W[mn];B[pj];W[oj];
B[gn];W[mf])
