(;FF[4]BR[11k]CP[online-go.com]DT[2016-06-19]GM[1]KM[6.5]PB[alecsphys]
PC[OGS: http://online-go.com/game/5597830]PW[New Shampoo]RE[W+15.5]RU[japanese]
SZ[19]WR[16k];B[pp];W[pd];B[dp];W[dc];B[cn];W[jd];B[jp];W[qn];B[cj];W[cg];B[ql]
;W[on];B[nq];W[pl];B[pk];W[qm];B[rl];W[qp];B[qq];W[rp];B[po];W[qo];B[so];W[rq];
B[qr];W[ol];B[qj];W[qh];B[qf];W[oh];B[of];W[mh];B[qc];W[pc];B[qd];W[nd];B[pe];
W[cq];B[dq];W[cp];B[co];W[dr];B[er];W[ds];B[es];W[br];B[eq];W[bp];B[ce];W[de];
B[cf];W[df];B[bg];W[ch];B[bh];W[gp];B[hq];W[gn];B[em];W[eo];B[do];W[fn];B[eh];
W[dh];B[eg];W[dg];B[ei];W[cd];B[bd];W[bc];B[be];W[gc];B[oc];W[od];B[qb];W[pb];
B[im];W[gl];B[gj];W[el];B[dl];W[ek];B[ej];W[dk];B[cl];W[il];B[hm];W[hk];B[gk];
W[hl];B[fm];W[gm];B[fl];W[jm];B[in];W[jn];B[io];W[gq];B[hp];W[jj];B[pi];W[ph];
B[nj];W[oj];B[oi];W[mi];B[ok];W[ni];B[nl];W[nm];B[pn];W[pm];B[ml];W[mm];B[lm];
W[ln];B[km];W[mo];B[no];W[kn];B[kl];W[jl];B[nn];W[mn];B[oo];W[om];B[kk];W[jk];
B[ij];W[kj];B[mj];W[lk];B[ll];W[li];B[lj];W[kh];B[ng];W[nh];B[mf];W[lq];B[mp];
W[lp];B[ko];W[lo];B[fp];W[fo];B[ho];W[go];B[gr];W[jr];B[ir];W[mq];B[np];W[mr];
B[nr];W[kp];B[jo];W[lc];B[ih];W[gf];B[ji];W[ki];B[kf];W[rm];B[sm];W[rr];B[pr];
W[sp];B[sl];W[jq];B[kd];W[kc];B[ld];W[je];B[ms];W[ls];B[ns];W[kr];B[gg];W[hf];
B[ff];W[fe];B[if];W[ie];B[hg];W[ef];B[md];W[mc];B[ne];W[oq];B[or];W[qs];B[ps];
W[am];B[bo];W[ao];B[bn];W[an];B[bl];W[al];B[bj];W[ri];B[rj];W[rg];B[rf];W[is];
B[hs];W[js];B[iq];W[ac];B[ad];W[di];B[dj];W[ak];B[aj];W[bk];B[ck];W[bm];B[cm];
W[ap];B[jf];W[ke];B[le];W[hd];B[jh];W[mg];B[lg];W[sj];B[sk];W[si];B[sg];W[sh];
B[sf];W[qg];B[qi];W[rh];B[og];W[kg];B[jg];W[rs];B[fg];W[ci];B[bi];W[ee];B[pg];
W[hj];B[hi];W[ik];B[fq];W[en];B[dn];W[qa];B[ra];W[pa];B[rb];W[ii];B[oe];W[ij];
B[jc];W[nc];B[];W[lh];B[lf];W[];B[])
