(;FF[4]BR[19k]CP[online-go.com]DT[2016-05-08]GM[1]KM[6.5]PB[jdc.amane]
PC[OGS: http://online-go.com/game/5178664]PW[rubaschet]RE[W+15.5]RU[japanese]
SZ[19]WR[11k];B[qp];W[pd];B[cd];W[dp];B[cq];W[cp];B[dq];W[eq];B[bp];W[bo];B[ap]
;W[ao];B[br];W[cn];B[oc];W[pc];B[od];W[oe];B[md];W[qg];B[mp];W[op];B[oq];W[pq];
B[pp];W[nq];B[or];W[np];B[nr];W[mq];B[mo];W[on];B[kp];W[po];B[qo];W[qn];B[rq];
W[cj];B[fd];W[cg];B[id];W[kd];B[kc];W[jc];B[lc];W[jd];B[lq];W[mr];B[pr];W[kr];
B[lr];W[ls];B[kq];W[jr];B[jq];W[iq];B[ip];W[hq];B[jo];W[jf];B[ic];W[jb];B[ib];
W[ie];B[kb];W[ia];B[ha];W[ja];B[gb];W[pj];B[ln];W[mf];B[jl];W[dl];B[ff];W[ji];
B[ml];W[om];B[ka];W[nb];B[ob];W[pb];B[pa];W[na];B[oa];W[nc];B[nd];W[mb];B[qb];
W[qc];B[rb];W[qa];B[rc];W[rd];B[sc];W[qe];B[rn];W[qm];B[rm];W[ql];B[hn];W[er];
B[dr];W[mj];B[hk];W[be];B[bd];W[bf];B[jj];W[ki];B[kj];W[lj];B[lk];W[ii];B[ij];
W[rl];B[gj];W[ep];B[fl];W[ld];B[mc];W[me];B[df];W[dg];B[eg];W[eh];B[fh];W[ei];
B[he];W[hf];B[ge];W[ad];B[ac];W[ae];B[cc];W[sm];B[so];W[fm];B[gm];W[fn];B[el];
W[ek];B[em];W[dm];B[en];W[fo];B[fk];W[fj];B[fi];W[ej];B[hh];W[hi];B[gi];W[ih];
B[hg];W[ig];B[gf];W[if];B[nk];W[nj];B[ol];W[pl];B[nm];W[ok];B[nl];W[hp];B[ho];
W[go];B[ne];W[nf];B[no];W[oo];B[cf];W[es];B[ce];W[bg];B[ds];W[dn];B[sn];W[sl];
B[ns];W[ms];B[eo];W[do];B[sd];W[se];B[nn];W[ra];B[sa];W[qa];B[gn];W[la];B[ra];
W[];B[])
