(;FF[4]BR[9k]CP[online-go.com]DT[2016-02-16]GM[1]KM[6.5]PB[m00sin]
PC[OGS: http://online-go.com/game/4016370]PW[Magus]RE[W+R]RU[japanese]SZ[19]
WR[9k];B[pd];W[dp];B[pp];W[dd];B[fq];W[cn];B[ip];W[ck];B[fc];W[cf];B[id];W[db];
B[oc];W[qj];B[qh];W[qm];B[qo];W[oj];B[oh];W[on];B[np];W[dr];B[ff];W[lq];B[mq];
W[jq];B[iq];W[ko];B[lp];W[kp];B[lr];W[kq];B[kr];W[jr];B[ir];W[js];B[lo];W[kn];
B[mm];W[nl];B[mi];W[mk];B[kl];W[jm];B[hn];W[ln];B[mn];W[mo];B[mp];W[no];B[oo];
W[nn];B[ll];W[jl];B[kj];W[hl];B[fn];W[ij];B[ih];W[ji];B[lj];W[kh];B[jh];W[ki];
B[kf];W[lg];B[lf];W[mg];B[ne];W[nf];B[pf];W[nh];B[nm];W[om];B[ok];W[ol];B[oi];
W[ni];B[pj];W[nj];B[pk];W[qn];B[qk];W[oe];B[nd];W[of];B[pe];W[eh];B[nk];W[ml];
B[dg];W[ci];B[cg];W[bg];B[bh];W[bf];B[ch];W[bi];B[df];W[de];B[di];W[dj];B[ei];
W[ej];B[fi];W[fj];B[fh];W[hp];B[ho];W[hr];B[hq];W[gr];B[gp];W[fo];B[eo];W[en];
B[ep];W[gn];B[fm];W[gm];B[er];W[is];B[dq];W[cq];B[cp];W[eq];B[lm];W[mj];B[dq];
W[oq];B[op];W[eq];B[gl];W[hm];B[dq];W[mr];B[do];W[nr];B[pr];W[rq];B[rp];W[pq];
B[qq];W[qr];B[rr];W[qp])
