(;FF[4]BR[8k]CP[online-go.com]DT[2016-07-11]GM[1]KM[6.5]PB[Valdorigamiciano]
PC[OGS: http://online-go.com/game/5792885]PW[botdf]RE[W+R]RU[japanese]SZ[19]
WR[3k];B[pc];W[po];B[eq];W[dd];B[pq];W[pe];B[qo];W[qn];B[qp];W[pn];B[nq];W[co];
B[qk];W[qi];B[ok];W[mo];B[oe];W[of];B[od];W[qc];B[qd];W[pd];B[qe];W[pf];B[qb];
W[rc];B[rb];W[oc];B[pb];W[nd];B[dn];W[em];B[fm];W[jj];B[en];W[cq];B[cn];W[gc];
B[dr];W[cr];B[bo];W[ep];B[fp];W[bp];B[do];W[cp];B[bn];W[br];B[aq];W[ch];B[mm];
W[nl];B[nm];W[ol];B[om];W[pl];B[pm];W[ql];B[qm];W[rm];B[rl];W[rn];B[rj];W[pk];
B[ri];W[qh];B[rh];W[rg];B[qj];W[sl];B[rk];W[pj];B[rf];W[sg];B[qg];W[qf];B[pg];
W[og];B[ph];W[pi];B[oh];W[nh];B[oi];W[re];B[ng];W[sf];B[ni];W[ml];B[mh];W[lm];
B[ne];W[nf];B[me];W[mf];B[lf];W[le];B[md];W[ld];B[mc])
