(;FF[4]BR[1k]CP[online-go.com]DT[2016-09-12]GM[1]KM[6.5]PB[Aloisius]
PC[OGS: http://online-go.com/game/6326718]PW[suneagle]RE[W+R]RU[japanese]SZ[19]
WR[2d];B[pp];W[dp];B[pd];W[dd];B[fq];W[cn];B[fc];W[fd];B[gd];W[fe];B[cc];W[ec];
B[be];W[cd];B[bd];W[cb];B[cg];W[bc];B[cj];W[er];B[fr];W[eq];B[fp];W[jp];B[lq];
W[lp];B[mp];W[kq];B[lo];W[kp];B[mq];W[fn];B[gn];W[go];B[fo];W[ho];B[en];W[fm];
B[do];W[co];B[em];W[fl];B[el];W[fk];B[in];W[hn];B[io];W[ip];B[hp];W[kn];B[hm];
W[gm];B[gp];W[gn];B[il];W[jm];B[im];W[ln];B[ko];W[jo];B[mo];W[jn];B[jl];W[kl];
B[kk];W[lk];B[jj];W[kj];B[jk];W[lj];B[fi];W[gi];B[gj];W[fj];B[gh];W[hi];B[hj];
W[ei];B[fh];W[dj];B[ck];W[eh];B[eg];W[fg];B[dh];W[hh];B[gg];W[ji];B[ej];W[ek];
B[di];W[ij];B[hk];W[ii];B[dk];W[ik];B[ej];W[hl];B[pf];W[qn];B[qo];W[qh];B[qj];
W[oh];B[pn];W[nc];B[oj];W[pm];B[om];W[on];B[po];W[pl];B[pi];W[ph];B[ol];W[pb];
B[nd];W[mc];B[qb];W[qc];B[ob];W[rb];B[oc];W[md];B[rd];W[rc];B[mf];W[ne];B[od];
W[nf];B[ng];W[nh];B[og];W[mg];B[mh];W[lg];B[rf];W[rg];B[oe];W[me];B[qe];W[pg];
B[se];W[of];B[qd];W[qf];B[qg];W[ok];B[pk];W[qf];B[pa];W[qa];B[qg];W[nk];B[ql];
W[qf];B[oa];W[pc];B[qg];W[qm];B[rm];W[qf];B[ra];W[sa];B[qg];W[rn];B[ro];W[qf];
B[cp];W[cq];B[qg];W[sn];B[so];W[qf];B[bp];W[bq];B[qg];W[hc];B[qf];W[ge];B[lb];
W[kc];B[jb];W[kb];B[ka];W[mb];B[ma];W[lc];B[la];W[hf];B[hb];W[ic];B[gb];W[ib];
B[ia];W[jc];B[ja];W[gc];B[fb];W[eb];B[ac];W[ha];B[ga];W[bb];B[hg];W[ig];B[es];
W[ds];B[fs];W[cr];B[ep];W[dq];B[bm];W[cm];B[cl];W[bn];B[kr];W[jr];B[lr];W[bl];
B[bk];W[am];B[nj];W[nl];B[nm];W[mm];B[nn];W[mn];B[sm];W[mj];B[rh];W[ri];B[sg];
W[qi];B[ir];W[hr];B[iq];W[is];B[hq];W[jq];B[ni];W[mi];B[rj];W[gr];B[ks];W[js];
B[si];W[ea];B[na];W[ab];B[ce];W[ad];B[ae];W[de];B[df];W[ff];B[ak];W[al];B[ef];
W[ee];B[sc];W[sb];B[sd])
