(;FF[4]BR[8k]CP[online-go.com]DT[2015-12-04]GM[1]KM[6.5]PB[Beholder]
PC[OGS: http://online-go.com/game/3399393]PW[Reflame]RE[W+0.5]RU[japanese]
SZ[19]WR[11k];B[pd];W[dp];B[cd];W[pp];B[ic];W[ed];B[df];W[cc];B[bc];W[dc];B[bb]
;W[gc];B[lc];W[jj];B[cn];W[ck];B[en];W[fp];B[ek];W[pi];B[hq];W[jq];B[ho];W[go];
B[hn];W[gn];B[hm];W[gm];B[hl];W[em];B[dm];W[el];B[dl];W[dk];B[ej];W[ch];B[gl];
W[fm];B[bp];W[cq];B[ci];W[di];B[bq];W[gq];B[cr];W[dr];B[cp];W[dq];B[bs];W[iq];
B[hp];W[hr];B[gp];W[fr];B[ei];W[dj];B[pn];W[ql];B[qp];W[qo];B[po];W[qn];B[qq];
W[pq];B[pr];W[or];B[qr];W[np];B[oq];W[op];B[nq];W[nr];B[mq];W[mr];B[mp];W[on];
B[mo];W[pm];B[ko];W[qf];B[qe];W[pf];B[re];W[rf];B[nd];W[mg];B[ml];W[nk];B[ro];
W[rn];B[sp];W[fl];B[fk];W[gk];B[fo];W[mk];B[ll];W[cf];B[ce];W[de];B[bf];W[cg];
B[eh];W[bg];B[ae];W[eg];B[ef];W[dg];B[ff];W[cb];B[eb];W[he];B[fg];W[fb];B[fd];
W[gd];B[fe];W[fc];B[hb];W[gh];B[fh];W[bm];B[bn];W[hg];B[gg];W[hi];B[hf];W[if];
B[gf];W[id];B[jc];W[jd];B[kd];W[ke];B[le];W[lf];B[me];W[kg];B[sf];W[sg];B[se];
W[rg];B[lr];W[kr];B[lq];W[ls];B[os];W[ms];B[kq];W[jr];B[jp];W[jl];B[jm];W[kl];
B[km];W[pe];B[qc];W[lk];B[ca];W[ea];B[da];W[db];B[fa];W[ec];B[ga];W[ea];B[ba];
W[cm];B[am];W[cl];B[dn];W[al];B[an];W[ag];B[ad];W[mn];B[no];W[oo];B[ak];W[bk];
B[aj];W[bi];B[bl];W[bj];B[al];W[hk];B[nn];W[nm];B[mm];W[nl];B[ln];W[sn];B[rr];
W[nf];B[ep];W[fq];B[eq];W[er];B[eo];W[ip];B[io];W[oe];B[od];W[gi];B[il];W[ik];
B[ai];W[ah];B[dd];W[ig];B[hc];W[hd];B[af];W[dh];B[ps];W[eb];B[ee];W[gb];B[ha];
W[so];B[rp];W[fi];B[do];W[ds];B[cs];W[fj];B[ne];W[mf];B[ns];W[ks];B[de];W[ie];
B[];W[])
