(;FF[4]BR[4d]CP[online-go.com]DT[2016-08-07]GM[1]KM[6.5]PB[Oberstein]
PC[OGS: http://online-go.com/game/6027391]PW[Wop]RE[B+R]RU[japanese]SZ[19]
WR[10k];B[pd];W[dq];B[pp];W[cd];B[do];W[fp];B[cq];W[cr];B[cp];W[er];B[ck];W[ip]
;B[ec];W[gc];B[ee];W[cb];B[cf];W[eb];B[dc];W[db];B[cc];W[bc];B[fc];W[fb];B[gd];
W[hc];B[hd];W[ic];B[pj];W[qf];B[qe];W[pf];B[nd];W[qi];B[qj];W[pi];B[oi];W[oh];
B[nh];W[ni];B[oj];W[ng];B[mh];W[og];B[nq];W[oe];B[od];W[re];B[rd];W[pe];B[qd];
W[rf];B[fo];W[go];B[fn];W[ch];B[eh];W[bf];B[bg];W[be];B[cg];W[lq];B[gn];W[ho];
B[im];W[ql];B[qn];W[rj];B[rk];W[ri];B[qk];W[ol];B[rl];W[qm];B[rm];W[pn];B[po];
W[on];B[lp];W[mn];B[kq];W[kp];B[lr];W[mp];B[mq];W[lo];B[np];W[mo];B[ep];W[fq];
B[ii];W[di];B[ei];W[dj];B[fk];W[dk];B[cl];W[cn];B[dm];W[dn];B[en];W[cj];B[bi];
W[cm];B[dl];W[co];B[dp];W[bj];B[bk];W[hn];B[hm];W[ak];B[al];W[aj];B[bh];W[ej];
B[fj];W[fi];B[dh];W[gi];B[id];W[gm];B[gl];W[bp];B[bq];W[bo];B[br];W[bm];B[bl];
W[bs];B[jc];W[jb];B[kb];W[aq];B[ar];W[ap];B[an];W[cs];B[ib];W[hb];B[ja];W[eq];
B[ha];W[em];B[fm];W[el];B[am];W[ek];B[fl];W[hl];B[ci];W[as];B[eo])
