(;FF[4]BR[22k]CP[online-go.com]DT[2016-04-09]GM[1]KM[6.5]PB[Woodman]
PC[OGS: http://online-go.com/game/4815983]PW[Algis9]RE[B+R]RU[japanese]SZ[19]
WR[17k];B[pd];W[oe];B[nc];W[md];B[ne];W[pg];B[pf];W[pe];B[of];W[nd];B[od];W[nf]
;B[qe];W[me];B[oe];W[og];B[mc];W[lc];B[qg];W[qh];B[rg];W[rh];B[sg];W[sh];B[dq];
W[ep];B[co];W[dn];B[eo];W[jp];B[gp];W[gq];B[ip];W[iq];B[hp];W[hq];B[fp];W[fq];
B[eq];W[dp];B[do];W[fo];B[fn];W[go];B[gn];W[io];B[cp];W[ep];B[ho];W[hn];B[in];
W[fo];B[jo];W[kp];B[hm];W[nh];B[mf];W[ng];B[mg];W[mh];B[ld];W[le];B[kd];W[kc];
B[lg];W[kg];B[ke];W[lh];B[lf];W[kf];B[jc];W[jb];B[lb];W[kb];B[la];W[ka];B[ib];
W[jd];B[ja];W[je];B[ec];W[en];B[em];W[dm];B[el];W[dl];B[cd];W[de];B[df];W[dd];
B[ee];W[dc];B[ed];W[db];B[ce])
