(;FF[4]BR[15k]CP[online-go.com]DT[2016-05-29]GM[1]KM[6.5]PB[pfrobbins]
PC[OGS: http://online-go.com/game/5393685]PW[lukbe]RE[W+R]RU[japanese]SZ[19]
WR[16k];B[qp];W[qc];B[dq];W[dd];B[cf];W[fd];B[bd];W[cc];B[ci];W[jc];B[oq];W[co]
;B[cm];W[dm];B[dl];W[dn];B[cn];W[cl];B[ck];W[bl];B[bk];W[bm];B[cp];W[do];B[gq];
W[eq];B[er];W[dp];B[cq];W[qk];B[qm];W[ph];B[lc];W[nc];B[le];W[ne];B[je];W[hd];
B[id];W[ic];B[he];W[gd];B[kq];W[kd];B[ke];W[ld];B[me];W[md];B[nm];W[nk];B[nf];
W[of];B[oe];W[nd];B[og];W[pf];B[pg];W[ng];B[mf];W[oh];B[mg];W[qg];B[kh];W[ef];
B[km];W[lj];B[hn];W[el];B[fm];W[dk];B[hh];W[eh];B[hk];W[hf];B[if];W[ji];B[jh];
W[gf];B[ol];W[ok];B[rl];W[rk];B[mo];W[lh];B[lg];W[ig];B[ih];W[hg];B[hi];W[jg];
B[jf];W[kg];B[li];W[mh];B[ki];W[mi];B[kj];W[lk];B[ll];W[fn];B[gn];W[fo];B[go];
W[fl];B[gl];W[em];B[kk];W[fq];B[fr];W[ch];B[bh];W[di];B[cg];W[cj];B[dh];W[bj];
B[bi];W[dg];B[bc];W[bb];B[cd];W[db];B[ql];W[gk];B[gm];W[gj];B[hj];W[gi];B[gh];
W[fh];B[df];W[de];B[ce];W[gp];B[hp];W[fp];B[hq])
