(;FF[4]BR[14k]CP[online-go.com]DT[2016-06-25]GM[1]KM[6.5]PB[Aznviolin]
PC[OGS: http://online-go.com/game/5646150]PW[Jwill1997]RE[B+R]RU[japanese]
SZ[19]WR[18k];B[dc];W[pp];B[qd];W[dp];B[dn];W[do];B[cn];W[iq];B[qq];W[pq];B[qp]
;W[qo];B[ro];W[qn];B[rn];W[rm];B[pr];W[or];B[qr];W[nq];B[ce];W[ql];B[jd];W[qg];
B[go];W[gp];B[fo];W[fp];B[oj];W[qj];B[oh];W[of];B[nd];W[od];B[oc];W[md];B[mc];
W[ne];B[nc];W[le];B[jf];W[dj];B[ck];W[cj];B[dk];W[dh];B[fg];W[cf];B[df];W[cg];
B[fi];W[io];B[in];W[jn];B[im];W[jm];B[jl];W[kl];B[jk];W[fj];B[gj];W[ei];B[fk];
W[ej];B[gi];W[ef];B[ee];W[dg];B[de];W[eg];B[ff];W[fh];B[gh];W[eh];B[nm];W[nl];
B[ml];W[ol];B[nk];W[ok];B[mj];W[kg];B[jh];W[jg];B[ig];W[kf];B[je];W[lk];B[mk];
W[lj];B[li];W[ki];B[kh];W[lh];B[mi];W[mh];B[kj];W[ji];B[ih];W[mm];B[ll];W[km];
B[kk];W[lm];B[nh];W[ng];B[og];W[mg];B[pd];W[pe];B[qe];W[qf];B[ho];W[hp];B[bp];
W[cq];B[bq];W[cr];B[bh];W[bk];B[bl];W[aj];B[bf];W[bg];B[be];W[pj];B[pi];W[qi];
B[ld];W[me];B[ke];W[eo];B[en];W[ph];B[co];W[oi];B[ni];W[nj];B[br];W[bs];B[ag];
W[bi];B[ah];W[ch];B[cp];W[dq];B[al];W[ai];B[af];W[ak];B[ek];W[oe];B[rf];W[rg];
B[sf];W[sg];B[re])
