(;FF[4]BR[1d]CP[online-go.com]DT[2016-08-24]GM[1]KM[6.5]PB[VincentCB]
PC[OGS: http://online-go.com/game/6165005]PW[Eyecatcher]RE[B+R]RU[japanese]
SZ[19]WR[5k];B[pd];W[dd];B[pq];W[cp];B[ep];W[gq];B[cq];W[dq];B[dp];W[eq];B[fq];
W[fp];B[fr];W[cr];B[bq];W[er];B[co];W[gr];B[fo];W[gp];B[mp];W[qf];B[pi];W[po];
B[qe];W[pf];B[nd];W[ql];B[qo];W[pp];B[qp];W[oq];B[qq];W[pn];B[nq];W[np];B[or];
W[op];B[mq];W[mo];B[lo];W[ln];B[mn];W[no];B[pk];W[ri];B[rj];W[qj];B[qi];W[rk];
B[rh];W[sj];B[qh];W[qc];B[qd];W[re];B[rd];W[rg];B[sh];W[oe];B[od];W[mg];B[og];
W[ne];B[me];W[nf];B[mj];W[oj];B[oi];W[pj];B[ni];W[md];B[ld];W[mc];B[le];W[lh];
B[lc];W[mi];B[li];W[mh];B[nj];W[lj];B[lk];W[kj];B[ml];W[kk];B[kl];W[lm];B[ll];
W[ko];B[lp];W[mm];B[fc];W[jl];B[km];W[kn];B[jm];W[hm];B[il];W[jk];B[im];W[hn];
B[ik];W[ji];B[hi];W[gk];B[ij];W[ii];B[gj];W[hh];B[gh];W[gg];B[hg];W[ih];B[fh];
W[fe];B[hd];W[gd];B[gc];W[he];B[id];W[do];B[eo];W[dn];B[cn];W[ej];B[dh];W[cj];
B[fk];W[fi];B[gi];W[eh];B[eg];W[ei];B[gf];W[dg];B[df];W[cg];B[ef];W[cf];B[dc];
W[ed];B[ge];W[ec];B[eb];W[db];B[kg];W[kh];B[jg])
