(;FF[4]BR[17k]CP[online-go.com]DT[2016-05-07]GM[1]KM[6.5]PB[manowar97]
PC[OGS: http://online-go.com/game/5171248]PW[whattheefffffffff]RE[B+R]
RU[japanese]SZ[19]WR[19k];B[pd];W[dp];B[pp];W[cd];B[ed];W[ec];B[fc];W[dc];B[gd]
;W[cg];B[kc];W[nq];B[qn];W[pr];B[qq];W[kq];B[cn];W[cl];B[fp];W[dn];B[dm];W[cm];
B[do];W[en];B[cp];W[bn];B[eo];W[co];B[fn];W[nc];B[oc];W[em];B[fm];W[cq];B[bp];
W[dq];B[bo];W[cn];B[bq];W[br];B[eq];W[aq];B[dr];W[cr];B[ep];W[fl];B[iq];W[ir];
B[jr];W[jq];B[hr];W[kr];B[is];W[ip];B[hp];W[io];B[ko];W[jo];B[qr];W[gl];B[hn];
W[im];B[np];W[oq];B[op];W[qi];B[qk];W[qf];B[qd];W[re];B[rd];W[fe];B[ee];W[ff];
B[fd];W[ef];B[ce];W[cf];B[be];W[bd];B[bf];W[bg];B[nd];W[nf];B[ph];W[qh];B[pf];
W[oe];B[qg];W[rg];B[pg];W[od];B[mc];W[nb];B[md];W[pc];B[qc];W[pb];B[pe];W[pi];
B[ng];W[mf];B[oi];W[rj];B[rk];W[sh];B[oj];W[de];B[dd];W[df];B[cc];W[bc];B[cb];
W[bb];B[eb];W[id];B[hf];W[he];B[ge];W[gf];B[if];W[kd];B[ie];W[hd];B[jd];W[jc];
B[je];W[kf];B[ke];W[ld];B[le];W[lc];B[lb];W[mg];B[of];W[ne];B[mh];W[lh];B[lg];
W[lf];B[kg];W[jg];B[kh];W[jf];B[jh];W[ig];B[ih];W[hg];B[hh];W[gh];B[li];W[mp];
B[mo];W[ln];B[mq];W[lp];B[mr];W[lo];B[kp];W[kn];B[nn];W[hj];B[hm];W[hl];B[il];
W[jk];B[jm];W[in];B[jl];W[kl];B[ik];W[ij];B[km];W[ll];B[lm];W[mm];B[kk];W[jj];
B[ml];W[lk];B[mk];W[lj];B[mj];W[kj];B[mn];W[pj];B[pk];W[ok];B[ol])
