(;FF[4]BR[8k]CP[online-go.com]DT[2016-07-08]GM[1]KM[6.5]PB[ives]
PC[OGS: http://online-go.com/game/5764233]PW[lucius286]RE[W+11.5]RU[japanese]
SZ[19]WR[8k];B[pd];W[dp];B[pq];W[dd];B[pk];W[nc];B[nd];W[md];B[ne];W[oc];B[pc];
W[jc];B[me];W[ld];B[pg];W[dj];B[jp];W[kj];B[fq];W[dr];B[cn];W[eo];B[cq];W[cp];
B[dq];W[eq];B[er];W[ep];B[cr];W[fr];B[ds];W[gq];B[bp];W[bo];B[bq];W[co];B[cc];
W[cd];B[dc];W[ec];B[eb];W[fc];B[fb];W[gc];B[bd];W[be];B[bc];W[cf];B[kf];W[mq];
B[mo];W[op];B[pp];W[oo];B[pn];W[nn];B[mn];W[mm];B[lq];W[mp];B[lp];W[lr];B[kr];
W[no];B[mr];W[lm];B[kn];W[nr];B[ls];W[oq];B[hf];W[hj];B[mj];W[je];B[jf];W[ig];
B[if];W[hm];B[km];W[po];B[qo];W[qn];B[pm];W[qp];B[ro];W[rp];B[rn];W[pr];B[rq];
W[qq];B[sp];W[rr];B[sq];W[so];B[sn];W[sr];B[qm];W[so];B[ho];W[fn];B[gh];W[fj];
B[eh];W[ch];B[fe];W[gb];B[ii];W[rc];B[re];W[pb];B[qb];W[ob];B[qc];W[kh];B[jh];
W[lj];B[mi];W[ji];B[ih];W[kg];B[lf];W[jg];B[hg];W[ij];B[nl];W[nm];B[hr];W[fa];
B[db];W[ol];B[ok];W[nk];B[nj];W[mk];B[pl];W[ml];B[hn];W[gm];B[im];W[il];B[jl];
W[jk];B[ao];W[an];B[ap];W[bn];B[hq];W[ln];B[lo];W[qa];B[ra];W[pa];B[rb];W[kl];
B[jm];W[ie];B[he];W[hd];B[kd];W[ke];B[le];W[lc];B[dg];W[dh];B[df];W[ei];B[de];
W[ce];B[ea];W[ga];B[ae];W[af];B[ad];W[cg];B[gd];W[id];B[ee];W[gi];B[gp];W[fp];
B[gr];W[fq];B[hh];W[fh];B[fg];W[eg];B[ff];W[od];B[oe];W[lh];B[mh];W[fs];B[gs];
W[lg];B[li];W[ki];B[mg];W[fd];B[ge];W[go];B[hp];W[ns];B[gn];W[fo];B[om];W[es];
B[ar];W[sp];B[ms];W[dr];B[cs];W[nl];B[er];W[eh];B[dr];W[fm];B[];W[])
