(;FF[4]BR[10k]CP[online-go.com]DT[2016-05-26]GM[1]KM[6.5]PB[hansdeutz]
PC[OGS: http://online-go.com/game/5361968]PW[ardeleanul]RE[B+R]RU[japanese]
SZ[19]WR[9k];B[cp];W[pp];B[pc];W[dc];B[ce];W[gc];B[bc];W[qe];B[pe];W[qc];B[qd];
W[rd];B[pd];W[rc];B[qf];W[pb];B[ob];W[qb];B[re];W[dj];B[fq];W[cm];B[qn];W[qj];
B[qq];W[qp];B[pq];W[oq];B[or];W[nq];B[nr];W[mq];B[rq];W[rp];B[rk];W[rj];B[qk];
W[rg];B[qg];W[qh];B[ph];W[pk];B[pl];W[pi];B[ok];W[oh];B[pg];W[oj];B[pj];W[rh];
B[op];W[oo];B[np];W[no];B[mp];W[pn];B[qo];W[lp];B[mo];W[mn];B[lo];W[ko];B[ln];
W[lm];B[kn];W[kq];B[jo];W[nm];B[kp];W[lq];B[jq];W[jr];B[iq];W[ir];B[hr];W[mr];
B[po];W[hq];B[gr];W[ls];B[hp];W[kr];B[nj];W[pk];B[nl];W[km];B[jm];W[pm];B[qm];
W[ml];B[on];W[nn];B[om];W[mm];B[mk];W[kl];B[pj];W[oi];B[jl];W[kk];B[ij];W[jj];
B[ji];W[ki];B[lj];W[kj];B[mh];W[ng];B[lg];W[jh];B[ii];W[kg];B[kf];W[ih];B[hh];
W[lf];B[nh];W[og];B[jg];W[kh];B[jf];W[mg];B[lh];W[ig];B[ge];W[hg];B[gh];W[hi];
B[hj];W[gi];B[gg];W[he];B[hd];W[ie];B[gd];W[ke];B[le];W[mf];B[je];W[id];B[kd];
W[nd];B[ic];W[jd];B[jc];W[gf];B[ff];W[if];B[ke];W[kc];B[lc];W[kb];B[lb];W[me];
B[ld];W[hc];B[jb];W[fe];B[fd];W[ik];B[hk];W[fg];B[hf];W[jn];B[in];W[gf];B[is];
W[js];B[hf];W[ib];B[ka];W[gf];B[ra];W[se];B[sf];W[sd];B[rf];W[sb];B[hf];W[oc];
B[nc];W[od];B[oe];W[of];B[gf];W[fc];B[ed];W[ec];B[jk];W[li];B[mj];W[ni];B[mi];
W[pk];B[ol];W[cg];B[fh];W[eg];B[fj];W[cb];B[cd];W[dd];B[de];W[nb];B[hb];W[gb];
B[ia];W[bb];B[cc];W[dp];B[dq];W[cq];B[do];W[ep];B[eq];W[bp];B[co];W[cr];B[bo];
W[bq];B[dr];W[cs];B[ar];W[ei];B[fi];W[gl];B[fo];W[el];B[ej];W[di];B[bf];W[bg];
B[al];W[bn];B[an];W[bl];B[am];W[bj];B[mc];W[en];B[eo];W[ak];B[ao];W[dm];B[fn];
W[fm];B[hm];W[hl];B[il];W[gk];B[gj];W[gm];B[gn];W[ef];B[ee];W[cf];B[ab];W[ba];
B[ea];W[fa];B[db];W[eb];B[af];W[ag];B[be];W[ns];B[pr];W[sm];B[sk];W[sq];B[sr];
W[so];B[rs];W[rl];B[ql];W[lk];B[ll];W[hs];B[gs];W[ek];B[sj];W[si];B[os];W[ma];
B[mb];W[oa])
