(;FF[4]BR[13k]CP[online-go.com]DT[2016-06-22]GM[1]KM[6.5]PB[coxbury]
PC[OGS: http://online-go.com/game/5621794]PW[oimena90👺]RE[W+9.5]RU[japanese]
SZ[19]WR[14k];B[pd];W[dd];B[pq];W[dp];B[qk];W[ej];B[ch];W[jc];B[ce];W[bd];B[cd]
;W[cc];B[be];W[bc];B[ck];W[el];B[cn];W[jq];B[qg];W[pn];B[qo];W[qn];B[mc];W[gd];
B[mq];W[ro];B[qp];W[rp];B[rq];W[mn];B[cq];W[dq];B[cp];W[ok];B[mg];W[og];B[ni];
W[oi];B[pi];W[oj];B[ph];W[oh];B[nh];W[kg];B[me];W[eg];B[en];W[fn];B[eo];W[fp];
B[ep];W[eq];B[fq];W[fr];B[gq];W[gr];B[hq];W[fo];B[hr];W[cr];B[br];W[do];B[dn];
W[co];B[bo];W[dr];B[es];W[bs];B[bq];W[hp];B[er];W[lj];B[gp];W[ho];B[go];W[gn];
B[jr];W[kr];B[ir];W[kp];B[lq];W[kq];B[lr];W[iq];B[fs];W[hn];B[li];W[ki];B[lh];
W[kh];B[mj];W[mk];B[je];W[ke];B[kd];W[lf];B[jd];W[mf];B[nf];W[ng];B[lk];W[kj];
B[nk];W[ml];B[le];W[kf];B[nl];W[nm];B[ol];W[nj];B[of];W[if];B[pk];W[pl];B[pg];
W[om];B[hd];W[hc];B[id];W[ic];B[kc];W[kb];B[he];W[gf];B[hf];W[hg];B[ge];W[fd];
B[fe];W[ff];B[ee];W[de];B[df];W[ed];B[ef];W[np];B[nq];W[ks];B[gg];W[fg];B[gh];
W[hh];B[fh];W[eh];B[gj];W[fi];B[gi];W[hk];B[fj];W[ei];B[ek];W[fk];B[dk];W[gk];
B[lb];W[ja];B[dl];W[fm];B[em];W[fl];B[di];W[hi];B[dg];W[hj];B[rm];W[rn];B[qm];
W[ql];B[rl];W[pj];B[qj];W[qc];B[qd];W[pc];B[oc];W[ob];B[nb];W[pb];B[sc];W[rb];
B[qa];W[rd];B[re];W[sd];B[oa];W[pa];B[se];W[rc];B[oe];W[op];B[oq];W[ls];B[ms];
W[qr];B[qq];W[pp];B[sq];W[sp];B[mp];W[mo];B[js];W[po];B[la];W[ka];B[ia];W[jb];
B[dc];W[gc];B[db];W[eb];B[ec];W[fb];B[cb];W[bb];B[ba];W[ca];B[da];W[ea];B[ad];
W[fc];B[ac];W[ca];B[ab];W[aa];B[pm];W[ol];B[ae];W[ba];B[jf];W[jg];B[ie];W[ig];
B[dj];W[os];B[ns];W[nr];B[mr];W[sr];B[rr];W[rs];B[or];W[ps];B[pr];W[lp];B[qs];
W[sm];B[sk];W[sn];B[rk];W[sl];B[na];W[dh];B[];W[])
