(;FF[4]BR[9k]CP[online-go.com]DT[2016-06-03]GM[1]KM[6.5]PB[origamista]
PC[OGS: http://online-go.com/game/5443223]PW[Bentaye]RE[B+R]RU[japanese]SZ[19]
WR[5k];B[pd];W[dp];B[pq];W[dd];B[qk];W[nc];B[lc];W[qf];B[nd];W[qc];B[qd];W[pc];
B[oc];W[rd];B[re];W[rc];B[qe];W[ob];B[od];W[pj];B[nb];W[pb];B[qo];W[jp];B[cf];
W[fc];B[bd];W[cc];B[ci];W[ic];B[cn];W[fq];B[qi];W[pi];B[qh];W[og];B[ph];W[oh];
B[pf];W[pk];B[ql];W[nq];B[bp];W[cq];B[dl];W[ef];B[ni];W[oi];B[nj];W[ol];B[nl];
W[om];B[mm];W[mg];B[ki];W[lh];B[lp];W[lq];B[kq];W[kp];B[mq];W[lr];B[mp];W[mr];
B[hp];W[hq];B[iq];W[ip];B[gq];W[hr];B[gp];W[gr];B[fp];W[eq];B[fn];W[jn];B[jl];
W[eh];B[jg];W[nn];B[mn];W[np];B[bc];W[bb];B[dg];W[eg];B[dj];W[le];B[md];W[je];
B[hg];W[pr];B[qr];W[or];B[gj];W[im];B[il];W[hm];B[hl];W[gm];B[fm];W[gl];B[gk];
W[rr];B[rq];W[qs];B[qq];W[qj];B[rj];W[pg];B[qg];W[gf];B[hf];W[he];B[kb];W[jb];
B[bq];W[br];B[ar];W[cr];B[ab];W[cb];B[gg];W[ge];B[li];W[qm];B[rm];W[qn];B[rn];
W[se];B[rf];W[co];B[bo];W[dn];B[cm];W[ce];B[be];W[dh];B[ch];W[df];B[cg];W[na];
B[mb];W[fl];B[em];W[ln];B[no];W[kh];B[jh];W[lo];B[mo];W[lm];B[ll];W[mk];B[nk];
W[kl];B[kk];W[km];B[ke];W[kf];B[kd];W[jf];B[mf];W[lf];B[mh];W[nh];B[mi];W[oo];
B[nm];W[nf];B[kg];W[lg];B[on];W[pm];B[po];W[op];B[fh];W[fi];B[gi];W[fg];B[gh];
W[ho];B[jd];W[id];B[if];W[me];B[of];W[ie];B[ei];W[ej];B[fj];W[el];B[dm];W[ek];
B[sr];W[rs];B[gn];W[dk];B[ck];W[di];B[cj];W[pp];B[qp];W[ne];B[oq];W[nr];B[hn];
W[in];B[eo];W[do];B[go];W[io];B[cd];W[de];B[ja];W[ia];B[ka];W[ld];B[kc];W[oe];
B[jc];W[ib];B[oa];W[pa];B[ra];W[rb];B[qa];W[sa];B[sb];W[sc];B[jj];W[sa];B[ps];
W[os];B[sb];W[lk];B[ml];W[sa];B[dc];W[db];B[sb];W[qb];B[ma];W[sa];B[sf];W[pe];
B[qf];W[sd];B[pn])
