(;FF[4]BR[15k]CP[online-go.com]DT[2016-05-04]GM[1]KM[6.5]PB[danmesser]
PC[OGS: http://online-go.com/game/5139390]PW[омг]RE[W+6.5]RU[japanese]SZ[19]
WR[15k];B[pd];W[dp];B[pp];W[dd];B[fc];W[cf];B[db];W[hd];B[hc];W[ec];B[eb];W[fd]
;B[dc];W[ed];B[gc];W[id];B[ck];W[ci];B[cn];W[co];B[bo];W[bn];B[bm];W[bp];B[an];
W[dn];B[dm];W[en];B[cq];W[dq];B[cp];W[do];B[jq];W[qj];B[ql];W[qg];B[nc];W[np];
B[mq];W[on];B[qn];W[ip];B[lo];W[ok];B[mm];W[nl];B[hq];W[op];B[pq];W[jp];B[kp];
W[iq];B[jr];W[ir];B[jo];W[io];B[jn];W[in];B[im];W[hm];B[il];W[oe];B[pf];W[qf];
B[pe];W[rd];B[qc];W[rc];B[me];W[ke];B[hj];W[ej];B[hl];W[gm];B[ng];W[ni];B[lk];
W[gi];B[ih];W[hi];B[ii];W[gj];B[hk];W[gg];B[if];W[ge];B[cd];W[ce];B[bd];W[bq];
B[af];W[ic];B[ld];W[kd];B[kc];W[qd];B[qb];W[le];B[md];W[pg];B[of];W[nh];B[lf];
W[kf];B[lg];W[li];B[kj];W[ki];B[ji];W[ib];B[hb];W[gd];B[ia];W[ga];B[jb];W[ha];
B[fa];W[ja];B[ka];W[fb];B[ea];W[gb];B[jc];W[jd];B[lc];W[kg];B[mh];W[kh];B[fk];
W[fj];B[fl];W[ig];B[hg];W[jg];B[hh];W[hf];B[gh];W[fh];B[bh];W[ch];B[bi];W[bj];
B[cj];W[bg];B[bk];W[ag];B[ad];W[ai];B[aj];W[ah];B[bj];W[ae];B[cb];W[be];B[dj];
W[di];B[ek];W[em];B[el];W[mp];B[nq];W[oq];B[or];W[lq];B[lp];W[lr];B[mr];W[ms];
B[nr];W[kq];B[kr];W[lj];B[mk];W[jj];B[fg];W[eg];B[gf];W[ff];B[kk];W[gg];B[jk];
W[mn];B[ln];W[pn];B[nn];W[nm];B[mo];W[oo];B[rk];W[rj];B[pm];W[om];B[pl];W[pk];
B[ol];W[nk];B[ml];W[qk];B[rl];W[rb];B[ra];W[og];B[qe];W[re];B[nf];W[po];B[qo];
W[js];B[ls];W[cr];B[mj];W[sk];B[sl];W[sj];B[ap];W[aq];B[ao];W[jh];B[ij];W[nj];
B[fm];W[fn];B[no];W[is];B[ks];W[lh];B[mi];W[gl];B[gk];W[ia];B[sa];W[sb];B[qa];
W[];B[])
