(;FF[4]BR[16k]CP[online-go.com]DT[2016-07-02]GM[1]KM[6.5]PB[neutralneutralmonk]
PC[OGS: http://online-go.com/game/5716207]PW[DanielLordSpoonJones]RE[W+69.5]
RU[japanese]SZ[19]WR[16k];B[dp];W[pd];B[pp];W[cd];B[qm];W[id];B[cm];W[pr];B[pq]
;W[oq];B[qr];W[or];B[qf];W[mp];B[ec];W[dc];B[ed];W[gc];B[gd];W[hd];B[ge];W[gq];
B[fq];W[gp];B[fp];W[cg];B[qd];W[pc];B[qc];W[pe];B[qe];W[md];B[jm];W[ko];B[kn];
W[io];B[in];W[gn];B[gl];W[cj];B[ej];W[eg];B[gg];W[if];B[ig];W[jf];B[pg];W[of];
B[og];W[ng];B[nh];W[mg];B[mh];W[nn];B[nm];W[pn];B[qn];W[jh];B[ih];W[ji];B[ij];
W[lj];B[nj];W[ol];B[nl];W[om];B[lk];W[ok];B[nk];W[oi];B[oj];W[pj];B[ph];W[pi];
B[qi];W[rj];B[ri];W[qj];B[ql];W[pk];B[fm];W[fn];B[en];W[eo];B[dn];W[fo];B[ep];
W[gr];B[ck];W[di];B[ei];W[bj];B[bk];W[do];B[co];W[fr];B[er];W[cp];B[cq];W[bp];
B[bq];W[dq];B[dr];W[eq];B[cs];W[br];B[cr];W[aq];B[ar];W[ap];B[bs];W[bo];B[cn];
W[al];B[ak];W[bl];B[bm];W[eb];B[ef];W[df];B[ff];W[fc];B[eh];W[dh];B[fg];W[dg];
B[aj];W[bi];B[ai];W[cl];B[dl];W[ah];B[dk];W[bh];B[pb];W[ob];B[qa];W[ii];B[hi];
W[jj];B[ik];W[jk];B[jl];W[hj];B[gj];W[hh];B[hg];W[gi];B[gh];W[hi];B[hk];W[fj];
B[gk];W[fi];B[fh];W[fk];B[fl];W[ek];B[dj];W[el];B[em];W[ni];B[mi];W[mj];B[mn];
W[no];B[po];W[oo];B[dd];W[db];B[de];W[ce];B[lh];W[oh];B[kj];W[ki];B[kk];W[li];
B[jg];W[kg];B[pf];W[ne];B[pm];W[on];B[lo];W[kp];B[lp];W[lq];B[jo];W[jp];B[jn];
W[mo];B[ln];W[ho];B[hn];W[mk];B[ml];W[kh];B[kf];W[lg];B[rk];W[si];B[sh];W[sj];
B[rg];W[ll];B[mm];W[kl];B[sk];W[rr];B[rq];W[qs];B[qq];W[op];B[sr];W[rs];B[hf];
W[he];B[fd];W[oa];B[pa];W[nc];B[fs];W[gs];B[es];W[];B[gm];W[dp];B[an];W[bn];
B[am];W[];B[sq];W[ps];B[];W[])
