(;FF[4]BR[13k]CP[online-go.com]DT[2016-03-13]GM[1]KM[6.5]
PB[legendofthebluemoon]PC[OGS: http://online-go.com/game/4290418]PW[aisom]
RE[W+9.5]RU[japanese]SZ[19]WR[10k];B[pd];W[dd];B[pp];W[dq];B[pj];W[nq];B[lq];
W[qq];B[qp];W[pq];B[op];W[nr];B[np];W[mp];B[mq];W[mo];B[jp];W[ko];B[gq];W[do];
B[cf];W[ci];B[cc];W[cd];B[dc];W[ed];B[bd];W[be];B[bc];W[ce];B[fc];W[ge];B[fd];
W[fe];B[jd];W[qc];B[qd];W[pc];B[od];W[rd];B[re];W[rc];B[oc];W[ob];B[nb];W[pb];
B[jf];W[rf];B[qf];W[se];B[rg];W[qe];B[pe];W[qg];B[re];W[sf];B[qh];W[pg];B[rh];
W[pf];B[qe];W[nf];B[ne];W[me];B[sd];W[sc];B[ra];W[nd];B[nc];W[md];B[lc];W[qa];
B[rb];W[oa];B[qb];W[sb];B[pa];W[mc];B[mb];W[qa];B[oq];W[sa];B[or];W[kc];B[ld];
W[oe];B[mf];W[le];B[kd];W[mg];B[lf];W[lg];B[kf];W[nh];B[og];W[ng];B[oh];W[of];
B[nj];W[lj];B[ml];W[ni];B[oi];W[mj];B[ln];W[ll];B[mm];W[lm];B[lo];W[kn];B[lp];
W[jm];B[ji];W[go];B[kk];W[jj];B[kj];W[ki];B[kh];W[li];B[ij];W[jk];B[ik];W[jl];
B[ii];W[hc];B[ic];W[ec];B[eb];W[fb];B[gb];W[gc];B[fa];W[hb];B[ib];W[nk];B[mk];
W[lk];B[oj];W[iq];B[ip];W[hq];B[hp];W[gp];B[gr];W[kp];B[jq];W[kq];B[kr];W[lr];
B[mr];W[mn];B[ls];W[nm];B[ol];W[nl];B[ck];W[cm];B[ek];W[ei];B[cp];W[cq];B[cn];
W[dn];B[dm];W[bm];B[bf];W[ae];B[bi];W[dj];B[dk];W[bh];B[bj];W[ch];B[gk];W[fl];
B[fk];W[dl];B[hm];W[fm];B[gh];W[fg];B[fh];W[eh];B[er];W[pn];B[qn];W[pl];B[om];
W[on];B[qm];W[pm];B[ql];W[ma];B[lb];W[dr];B[ep];W[eq];B[fq];W[fp];B[bl];W[em];
B[hd];W[gd];B[gg];W[ff];B[he];W[fs];B[ir];W[gs];B[bq];W[fr];B[hr];W[dp];B[ok];
W[pk];B[qk];W[ha];B[ia];W[ga];B[db];W[fb];B[ea];W[ca];B[ab];W[bb];B[cb];W[ba];
B[ad];W[kg];B[jg];W[na];B[am];W[an];B[al];W[bn];B[fi];W[cl];B[ho];W[gn];B[gm];
W[ai];B[aj];W[ah];B[cj];W[ej];B[hs];W[es];B[gf];W[la];B[ka];W[ph];B[pi];W[lh];
B[jh];W[sg];B[sh];W[sd];B[qi];W[ke];B[je];W[ne];B[no];W[nn];B[fj];W[in];B[jo];
W[jn];B[gl];W[il];B[hl];W[po];B[qo];W[hn];B[im];W[el];B[oo];W[io];B[];W[])
