(;FF[4]BR[25k]CP[online-go.com]DT[2016-06-19]GM[1]KM[6.5]PB[attb87]
PC[OGS: http://online-go.com/game/5597566]PW[Luchiru]RE[W+R]RU[japanese]SZ[19]
WR[25k];B[pd];W[dd];B[pq];W[cp];B[ep];W[eo];B[fo];W[en];B[dp];W[do];B[fn];W[fm]
;B[gm];W[fl];B[gl];W[fp];B[fq];W[gp];B[gn];W[dq];B[eq];W[dr];B[gq];W[hp];B[fk];
W[ek];B[em];W[el];B[dm];W[co];B[ej];W[fj];B[gk];W[dj];B[ei];W[dk];B[fi];W[gh];
B[gj];W[gi];B[fc];W[fd];B[gd];W[ge];B[ed];W[fe];B[ee];W[gc];B[dc];W[de];B[ef];
W[df];B[dg];W[bf];B[hd];W[he];B[hc];W[fh];B[eh];W[je];B[jd];W[kd];B[if];W[ie];
B[hh];W[hi];B[ih];W[id];B[jc];W[ic];B[gb];W[jb];B[hq];W[io];B[jo];W[iq];B[jp];
W[ip];B[ir];W[jq];B[jr];W[kq];B[lp];W[in];B[ik];W[jf];B[gg];W[ii];B[ji];W[fg];
B[ff];W[gf];B[hg];W[jh];B[jg];W[kh];B[kg];W[hf];B[ki];W[ig];B[lh];W[ih];B[lf];
W[lq];B[mp];W[jn])
