(;FF[4]BR[16k]CP[online-go.com]DT[2016-06-13]GM[1]KM[6.5]PB[Fipe]
PC[OGS: http://online-go.com/game/5536805]PW[yapai]RE[B+R]RU[japanese]SZ[19]
WR[18k];B[dd];W[pp];B[pd];W[dp];B[cn];W[co];B[bo];W[bp];B[do];W[cp];B[bn];W[eo]
;B[dn];W[go];B[gn];W[en];B[em];W[io];B[fn];W[fo];B[po];W[qo];B[pn];W[qn];B[pm];
W[op];B[qm];W[dj];B[cj];W[dl];B[el];W[ek];B[dm];W[cl];B[ck];W[dk];B[bl];W[gk];
B[fk];W[fj];B[fl];W[gj];B[gg];W[gh];B[hh];W[fh];B[fg];W[dh];B[dg];W[ij];B[di];
W[eh];B[eg];W[ci];B[bi];W[ch];B[cm];W[ei];B[bh];W[cg];B[cf];W[ih];B[ig];W[hi];
B[hg];W[jh];B[kh];W[jg];B[jf];W[kg];B[lh];W[lg];B[mh];W[ld];B[lc];W[lj];B[kd];
W[le];B[ke];W[kf];B[ie];W[oc];B[mf];W[lf];B[md];W[me];B[nd];W[ne];B[od];W[ng];
B[nf];W[of];B[mg];W[og];B[nh];W[oe];B[oh];W[qf];B[ph];W[qd];B[pc];W[qh];B[pj];
W[qj];B[qi];W[ri];B[pi];W[rh];B[qk];W[rj];B[qc];W[rm];B[rl];W[sl];B[sk];W[rk];
B[sm];W[rn];B[pl];W[sn];B[sl];W[lo];B[qp];W[rp];B[qq];W[rq];B[rr];W[qr];B[ll];
W[ok];B[nk];W[pk];B[ql];W[ol];B[nl];W[om];B[on];W[nm];B[nn];W[nj];B[mm];W[oj];
B[mj];W[mk];B[ml];W[mi];B[lk];W[kk];B[mj];W[ni];B[li])
