(;FF[4]BR[4k]CP[online-go.com]DT[2016-06-24]GM[1]KM[6.5]PB[joerg]
PC[OGS: http://online-go.com/game/5641840]PW[yuri]RE[B+R]RU[japanese]SZ[19]
WR[4k];B[pd];W[qp];B[dp];W[cd];B[op];W[oq];B[nq];W[pq];B[mp];W[pn];B[iq];W[pj];
B[ed];W[ec];B[fc];W[dc];B[fd];W[cf];B[jd];W[qf];B[nd];W[rd];B[qh];W[pc];B[oc];
W[qc];B[qj];W[qk];B[rk];W[rj];B[qi];W[rl];B[pk];W[ql];B[oj];W[cn];B[fp];W[bp];
B[cq];W[ck];B[qe];W[re];B[pf];W[pg];B[qg];W[rf];B[of];W[jc];B[ic];W[kc];B[id];
W[mc];B[nb];W[le];B[kf];W[lf];B[kg];W[lg];B[lh];W[mh];B[mi];W[li];B[kh];W[og];
B[ng];W[nh];B[oh];W[mg];B[ph];W[ni];B[mj];W[ke];B[if];W[je];B[hg])
