(;FF[4]BR[7k]CP[online-go.com]DT[2016-04-04]GM[1]KM[6.5]PB[ImprobableBlob]
PC[OGS: http://online-go.com/game/4740582]PW[Lomis]RE[W+R]RU[japanese]SZ[19]
WR[11k];B[pd];W[dc];B[qp];W[dp];B[de];W[ce];B[cf];W[cd];B[fq];W[cn];B[kq];W[qj]
;B[dg];W[fc];B[ck];W[dr];B[ql];W[qf];B[qh];W[of];B[nd];W[pi];B[qe];W[rf];B[kc];
W[lp];B[kp];W[lo];B[oq];W[ko];B[hp];W[ic];B[re];W[ld];B[lc];W[kd];B[jc];W[jd];
B[ib];W[hc];B[mf];W[me];B[nf];W[ne];B[og];W[pg];B[oe];W[pf];B[oh];W[ph];B[mh];
W[kg];B[md];W[le];B[nj];W[ok];B[bf];W[nk];B[lj];W[qn];B[rn];W[rm];B[qm];W[ro];
B[pn];W[qo];B[po];W[rl];B[rp];W[sn];B[om];W[ll];B[mk];W[ml];B[nl];W[jj];B[lk];
W[kl];B[ki];W[ji];B[oi];W[oj];B[mi];W[hn];B[hf];W[ie];B[ff];W[ek];B[gj];W[cj];
B[dj];W[dk];B[ci];W[bj];B[bi];W[bk];B[ej];W[fk];B[mq];W[be];B[fn];W[em];B[en];
W[dn];B[go];W[gm];B[hk];W[fj];B[fi];W[ei];B[di];W[gi];B[eh];W[hi];B[jn];W[jo];
B[fm];W[el];B[gl];W[io];B[hm];W[gn];B[fl];W[lq];B[lr];W[jq];B[jr];W[iq];B[hq];
W[ir];B[hr];W[js];B[ep];W[dq];B[im];W[il];B[hl];W[jl];B[kr];W[eo];B[fo];W[eq];
B[do];W[co];B[gp];W[fr];B[gr];W[eo];B[in];W[ho];B[do];W[ol];B[eo];W[nm];B[gb];
W[fb];B[hb];W[gc];B[fa];W[ea];B[ga];W[eb];B[qk];W[rk];B[gh];W[pe];B[od];W[rd];
B[qd];W[se];B[rc];W[sd];B[sc];W[sf];B[fs];W[er];B[no];W[sp];B[rq];W[sq];B[sr];
W[so];B[rr];W[hh];B[hg];W[ig];B[if];W[jf];B[kh];W[jh];B[lg];W[lf];B[nn];W[mn];
B[mp];W[gg];B[fg];W[fh];B[gf];W[gh];B[ij];W[ii];B[ks];W[is];B[ae];W[ad];B[af];
W[ee];B[dd];W[ed];B[df];W[bc];B[pk];W[pj];B[pm];W[hj];B[gk];W[cl];B[ik])
