(;FF[4]BR[11k]CP[online-go.com]DT[2016-08-16]GM[1]KM[6.5]PB[redrover]
PC[OGS: http://online-go.com/game/6102040]PW[Sexy Toaster]RE[B+R]RU[japanese]
SZ[19]WR[13k];B[qd];W[dd];B[pp];W[dq];B[do];W[co];B[dp];W[cp];B[eq];W[cq];B[dn]
;W[cm];B[cn];W[bn];B[hq];W[oc];B[pc];W[od];B[qg];W[qe];B[pe];W[pd];B[re];W[qf];
B[pf];W[qc];B[rd];W[rc];B[pm];W[kd];B[pj];W[nq];B[kq];W[qq];B[pq];W[qp];B[qo];
W[pr];B[or];W[qr];B[oq];W[po];B[ro];W[oo];B[nr];W[mq];B[mr];W[rp];B[pn];W[mo];
B[lq];W[nm];B[cf];W[ch];B[cd];W[cc];B[de];W[bd];B[ce];W[ed];B[ck];W[ko];B[dm];
W[jp];B[bm];W[ek];B[bo];W[bp];B[an];W[br];B[hc];W[ho];B[iq];W[jq];B[jr];W[gq];
B[no];W[nn];B[np];W[mp];B[op];W[jk];B[sr];W[rr];B[sp];W[sq];B[rq];W[ir];B[hr];
W[sq];B[pb];W[ob];B[rq];W[kp];B[sq];W[kr];B[is];W[lr];B[ls];W[lp];B[ks];W[on];
B[qn];W[nj];B[oh];W[ep];B[fp];W[eo];B[fo];W[en];B[fq];W[gp];B[go];W[hm];B[fm];
W[el];B[em];W[fl];B[he];W[gd];B[hd];W[ee];B[dh];W[eh];B[di];W[ei];B[cg];W[eg];
B[jb];W[lb];B[fb];W[eb];B[jd];W[ke];B[gc];W[if];B[hf];W[hg];B[ie];W[jf];B[kc];
W[lc];B[kb];W[mh];B[dj];W[ng];B[og];W[ge];B[nf];W[of];B[oe];W[ne];B[mf];W[gf];
B[bc];W[fc];B[gb];W[bb];B[be];W[ac];B[qb];W[rb];B[me];W[nd];B[lg];W[lh];B[kg];
W[kh];B[jg];W[ih];B[ig];W[ld];B[jh];W[ii];B[ji];W[kj];B[ij];W[jj];B[hh];W[hi];
B[gg];W[gh];B[hg];W[gi];B[ej];W[fj];B[hp];W[io];B[mg];W[nh];B[pk];W[oi];B[pi];
W[fg];B[gm];W[gl];B[er];W[dr];B[ki];W[li];B[md];W[mc];B[oj];W[ol];B[nk];W[pl];
B[ql];W[ok];B[nl])
