(;FF[4]BR[8k]CP[online-go.com]DT[2016-07-06]GM[1]KM[6.5]PB[S_Alexander]
PC[OGS: http://online-go.com/game/5750011]PW[amsone]RE[B+R]RU[japanese]SZ[19]
WR[10k];B[qd];W[dd];B[pq];W[dp];B[fc];W[cf];B[db];W[oc];B[pf];W[qc];B[rc];W[pd]
;B[qe];W[qb];B[qk];W[qo];B[qp];W[po];B[np];W[op];B[oq];W[rp];B[rq];W[no];B[mp];
W[mo];B[fq];W[cn];B[dr];W[hq];B[cq];W[eq];B[er];W[fp];B[gq];W[gp];B[cc];W[ci];
B[nm];W[of];B[nc];W[lc];B[ne];W[nd];B[md];W[oe];B[od];W[qr];B[pp];W[nd];B[mc];
W[nf];B[me];W[od];B[ic];W[jd];B[ke];W[jc];B[jb];W[kb];B[hb];W[id];B[hd];W[if];
B[jf];W[he];B[gd];W[oh];B[lh];W[qh];B[rg];W[qg];B[qf];W[rb];B[rh];W[pl];B[qi];
W[pi];B[pg];W[ph];B[og];W[nh];B[ng];W[mg];B[mf];W[mh];B[lg];W[nk];B[oo];W[on];
B[pn];W[op];B[qm];W[pm];B[qn];W[ro];B[ql];W[qq];B[oo];W[rr];B[op];W[om];B[nn];
W[mn];B[mm];W[lm];B[ml];W[mk];B[ll];W[li];B[jh];W[ki];B[km];W[lo];B[kq];W[lp];
B[lq];W[jo];B[jp];W[io];B[ko];W[kn];B[kp];W[jm];B[ig];W[kl];B[ln];W[lk];B[hf];
W[ie];B[ge];W[hg];B[gf];W[ih];B[jg];W[hh];B[ji];W[kh];B[kg];W[nb];B[mb];W[hj];
B[km];W[jl];B[gi];W[ij];B[jj];W[jk];B[kj];W[kk];B[mi];W[lj];B[ni];W[qj];B[pj];
W[oj];B[oi];W[bd];B[eh];W[fg];B[gg];W[gh];B[ef];W[ff];B[fh];W[ej];B[di];W[dj];
B[ch];W[cj];B[cg];W[bg];B[bh];W[bf];B[cd];W[bc];B[bb])
