(;FF[4]BR[11k]CP[online-go.com]DT[2016-01-07]GM[1]KM[6.5]PB[Hobodobo]
PC[OGS: http://online-go.com/game/3651653]PW[bear29]RE[W+R]RU[japanese]SZ[19]
WR[11k];B[pd];W[dp];B[cd];W[qp];B[ic];W[qf];B[qh];W[of];B[oh];W[nc];B[nd];W[qc]
;B[pc];W[re];B[mc];W[qj];B[ng];W[oj];B[fq];W[cn];B[dr];W[cq];B[iq];W[cj];B[ch];
W[ej];B[oq];W[mp];B[mq];W[lq];B[lp];W[nq];B[mr];W[nr];B[np];W[mo];B[or];W[pn];
B[nf];W[lr];B[ns];W[kp];B[qr];W[ed];B[de];W[cc];B[bc];W[dc];B[fc];W[bb];B[bd];
W[ee];B[ef];W[ge];B[ff];W[hd];B[hc];W[je];B[fe];W[fd];B[ec];W[dd];B[gc];W[gd];
B[gf];W[kd];B[id];W[ie];B[ig];W[jb];B[jd];W[kf];B[kc];W[ld];B[lc];W[hf];B[hg];
W[df];B[ce];W[dg];B[fh];W[dh];B[cg];W[ci];B[bh];W[kh];B[ii];W[kj];B[lg];W[kg];
B[ji];W[lh];B[lf];W[no];B[ik];W[kn];B[ql];W[qk];B[rq];W[rp];B[ei];W[di];B[ri];
W[pb];B[qd];W[rc];B[rd];W[sd];B[ob];W[qb];B[ra];W[rg];B[sf];W[rh];B[qi];W[se];
B[si];W[bi];B[bf];W[cr];B[er];W[sk];B[ki];W[li];B[lj];W[kk];B[lk];W[ll];B[kl];
W[jl];B[km];W[lm];B[jm];W[jn];B[im];W[mj];B[mi];W[mk];B[mh];W[fj];B[gj];W[fo];
B[fk];W[ek];B[fl];W[el];B[fm];W[pi];B[ph];W[sr];B[sq];W[sp];B[em];W[dm];B[oo];
W[on];B[ls];W[kr];B[ks];W[js];B[ms];W[ir];B[jq];W[jr];B[hr];W[hq];B[hp];W[gq];
B[gr];W[gp];B[go];W[fp];B[ep];W[eo];B[dq];W[do];B[fs];W[eq];B[if];W[he];B[ep];
W[cf];B[ag];W[eq];B[qg];W[rf];B[ep];W[jk];B[eq];W[il];B[hk];W[hm])
