(;FF[4]BR[6k]CP[online-go.com]DT[2016-06-15]GM[1]KM[6.5]PB[iLq]
PC[OGS: http://online-go.com/game/5559557]PW[wuigukin]RE[B+R]RU[japanese]SZ[19]
WR[10k];B[pc];W[dp];B[pj];W[dd];B[jd];W[qp];B[fc];W[cf];B[op];W[pn];B[qq];W[rq]
;B[pq];W[ro];B[lq];W[pe];B[qg];W[qc];B[pd];W[qd];B[qe];W[pb];B[nc];W[oe];B[nd];
W[qf];B[rg];W[re];B[fq];W[dn];B[ip];W[dr];B[fe];W[db];B[ql];W[rr];B[bm];W[bn];
B[cq];W[dq];B[cn];W[co];B[cm];W[bo];B[ci];W[hq];B[gq];W[hp];B[eo];W[do];B[go];
W[ho];B[fm];W[hr];B[gr];W[io];B[jp];W[hl];B[gm];W[hm];B[gk];W[eg];B[kn];W[kl];
B[fj];W[ij];B[hi];W[jh];B[mm];W[nn];B[nm];W[no];B[mp];W[pg];B[ph];W[og];B[lj];
W[lg];B[ji];W[ii];B[ih];W[hj];B[jj];W[hh];B[hk];W[ik];B[il];W[jl];B[jn];W[im];
B[ig];W[gi];B[fh];W[fi];B[eh];W[ei];B[dh];W[dj];B[dm];W[hg];B[if];W[ek];B[fk];
W[en];B[em];W[fn];B[gn];W[gp];B[fo];W[fp];B[ep];W[eq];B[cj];W[ck];B[bk];W[ob];
B[nb];W[os];B[or];W[qs];B[ns];W[ps];B[nr];W[na];B[ma];W[ga];B[gb];W[ea];B[ha];
W[fa];B[hb];W[kh];B[mi];W[oh];B[pi];W[me];B[ld];W[bh];B[bi];W[kr];B[lr];W[jr];
B[po];W[qn];B[om];W[on];B[cc];W[dc];B[be];W[bf];B[ce];W[de];B[bc];W[bb];B[df];
W[dg];B[ef];W[ff];B[ee];W[fg];B[cg];W[ch];B[af];W[ai])
