(;FF[4]BR[8k]CP[online-go.com]DT[2015-12-14]GM[1]KM[6.5]PB[Vicarios]
PC[OGS: http://online-go.com/game/3479265]PW[Darsey]RE[B+14.5]RU[japanese]
SZ[19]WR[7k];B[pd];W[dp];B[pq];W[dd];B[fc];W[cf];B[jd];W[po];B[pl];W[qq];B[qr];
W[qp];B[or];W[mp];B[np];W[no];B[rr];W[qm];B[ql];W[op];B[nq];W[pm];B[ol];W[qf];
B[ph];W[qc];B[pc];W[qd];B[pe];W[qe];B[pf];W[me];B[qg];W[pb];B[ob];W[qb];B[nc];
W[mc];B[lq];W[mm];B[cn];W[co];B[dn];W[fp];B[cj];W[cl];B[dk];W[dl];B[el];W[em];
B[dm];W[ek];B[fl];W[dj];B[ck];W[ei];B[di];W[ej];B[dh];W[hj];B[eh];W[gi];B[fe];
W[db];B[mg];W[jb];B[kc];W[kb];B[lb];W[mb];B[lc];W[gb];B[fb];W[hc];B[hd];W[lf];
B[ic];W[lg];B[iq];W[gq];B[rg];W[rf];B[mh];W[bh];B[bi];W[bg];B[eq];W[ep];B[cq];
W[dq];B[bo];W[cp];B[bp];W[bq];B[aq];W[br];B[bl];W[ap];B[ao];W[ar];B[gc];W[ig];
B[hr];W[gr];B[mk];W[lj];B[mj];W[lh];B[rm];W[rn];B[rl];W[rq];B[lp];W[lo];B[md];
W[ld];B[nd];W[en];B[gs];W[fs];B[hs];W[fr];B[io];W[hq];B[jr];W[hn];B[ne];W[mi];
B[ni];W[li];B[mf];W[kd];B[jc];W[ap];B[bm];W[fh];B[lk];W[kk];B[hh];W[hg];B[ik];
W[ij];B[fm];W[fn];B[in];W[il];B[hl];W[hk];B[hm];W[ko];B[jp];W[jm];B[de];W[ce];
B[ed];W[dc];B[gn];W[ho];B[go];W[hp];B[fo];W[eo];B[jf];W[jg];B[om];W[on];B[lm];
W[nm];B[kl];W[jk];B[ln];W[mo];B[ke];W[le];B[gg];W[gh];B[fg];W[eg];B[ef];W[dg];
B[sn];W[ro];B[mn];W[nn];B[hf];W[if];B[he];W[ie];B[je];W[mq];B[mr];W[oq];B[nr];
W[pp];B[sq];W[pr];B[ps];W[sp];B[sr];W[nl];B[nk];W[df];B[ee];W[kp];B[kq];W[fk];
B[sf];W[se];B[sg];W[rd];B[ah];W[ch];B[ci];W[ag];B[ai];W[so];B[sm];W[im];B[cm];
W[ip];B[jo];W[jn];B[jq];W[gm];B[gl];W[gp];B[gm];W[gk];B[dl];W[ml];B[ll];W[kf];
B[id];W[ea];B[fa];W[pa];B[oa];W[eb];B[pq];W[aq];B[pr];W[];B[])
