(;FF[4]BR[5k]CP[online-go.com]DT[2016-08-10]GM[1]KM[6.5]PB[jacksonh]
PC[OGS: http://online-go.com/game/6051185]PW[IvanTzar]RE[B+47.5]RU[japanese]
SZ[19]WR[12k];B[pd];W[dq];B[dd];W[qp];B[do];W[dj];B[fp];W[fq];B[gp];W[jq];B[gq]
;W[er];B[cp];W[cq];B[bq];W[br];B[bp];W[qj];B[ch];W[gd];B[jc];W[dc];B[cc];W[ec];
B[cb];W[ic];B[jd];W[id];B[je];W[qf];B[pf];W[qg];B[qe];W[nq];B[lq];W[lp];B[kq];
W[kp];B[jr];W[mq];B[jp];W[iq];B[ir];W[mn];B[cl];W[dh];B[di];W[ci];B[ei];W[cg];
B[bh];W[eg];B[bi];W[ce];B[ed];W[fd];B[cd];W[ee];B[be];W[bf];B[de];W[df];B[fe];
W[ef];B[gf];W[eh];B[fi];W[bd];B[cf];W[ge];B[ff];W[ce];B[db];W[eb];B[cf];W[gh];
B[fh];W[fg];B[gg];W[hg];B[dg];W[hf];B[ie];W[he];B[ij];W[mj];B[oh];W[mh];B[mf];
W[ng];B[nf];W[og];B[of];W[pg];B[gb];W[hb];B[gc];W[hc];B[kk];W[jg];B[kf];W[kg];
B[jo];W[ll];B[kl];W[km];B[jm];W[kn];B[jn];W[gi];B[gj];W[ii];B[lk];W[mk];B[lm];
W[mm];B[ml];W[ln];B[nl];W[ll];B[gr];W[fr];B[lm];W[ep];B[eo];W[ll];B[ni];W[lm];
B[rf];W[rg];B[re];W[dp];B[li];W[mi];B[lh];W[lg];B[ji];W[hj];B[hk];W[jj];B[ik];
W[ki];B[jk];W[hi];B[kj];W[lj];B[kh];W[jh];B[ki];W[lf];B[le];W[jb];B[kb];W[ka];
B[lb];W[la];B[ma];W[ja];B[mb];W[lr];B[kr];W[mr];B[ar];W[bs];B[ga];W[fa];B[ib];
W[ha];B[ia];W[hd];B[sg];W[sh];B[sf];W[ri];B[if];W[ig];B[da];W[ea];B[mg];W[nh];
B[ls];W[ms];B[ks];W[gs];B[hs];W[fs];B[jf];W[ko];B[aq];W[cr];B[];W[])
