(;FF[4]BR[8k]CP[online-go.com]DT[2016-06-18]GM[1]KM[6.5]PB[rafar]
PC[OGS: http://online-go.com/game/5585390]PW[uzzu]RE[B+R]RU[japanese]SZ[19]
WR[8k];B[qd];W[dd];B[pq];W[dp];B[oc];W[ci];B[qk];W[kq];B[jd];W[nq];B[po];W[gc];
B[fp];W[eq];B[eo];W[hq];B[cn];W[do];B[dn];W[en];B[dk];W[fo];B[em];W[fn];B[fm];
W[bk];B[cc];W[cd];B[bd];W[be];B[bc];W[db];B[dc];W[ec];B[cb];W[eb];B[ce];W[bf];
B[cf];W[cg];B[ab];W[cl];B[dl];W[qn];B[qo];W[ro];B[rp];W[rn];B[pm])
