(;FF[4]BR[17k]CP[online-go.com]DT[2016-04-17]GM[1]KM[6.5]PB[apipoulai]
PC[OGS: http://online-go.com/game/4922976]PW[rubaschet]RE[W+R]RU[japanese]
SZ[19]WR[11k];B[pd];W[pp];B[qf];W[dp];B[cd];W[ed];B[cg];W[hc];B[dc];W[ec];B[eb]
;W[fb];B[ea];W[fa];B[cb];W[nc];B[oc];W[nd];B[nb];W[mb];B[ob];W[lc];B[qn];W[nq];
B[qj];W[jp];B[iq];W[jq];B[ir];W[jr];B[fq];W[er];B[eq];W[dq];B[fr];W[cm];B[bm];
W[bn];B[dm];W[bl];B[cn];W[am];B[en];W[co];B[dn];W[dl];B[cj];W[fo];B[fn];W[rp];
B[ck];W[cl];B[el];W[go];B[ip];W[io];B[hp];W[ho];B[dr];W[cr];B[es];W[gs];B[gr];
W[ek];B[fk];W[fl];B[fm];W[gl];B[bo];W[bp];B[do];W[ao];B[ep];W[eo];B[cq];W[cp];
B[cs];W[br];B[hs];W[js];B[ej];W[dk];B[dj];W[gk];B[fj];W[ql];B[pl];W[pk];B[ol];
W[qk];B[pj];W[ok];B[nk];W[nl];B[nm];W[ml];B[om];W[nj];B[mk];W[lk];B[mm];W[mj];
B[no];W[jo];B[lo];W[lm];B[ln];W[qm];B[po];W[rn];B[qp];W[qq];B[op];W[qo];B[pq];
W[qp];B[oq];W[lq];B[nr];W[mr];B[np];W[mq];B[qr];W[rr];B[pr];W[ns];B[pn];W[qh];
B[ph];W[pg];B[rh];W[qg];B[rg];W[ri];B[qi];W[rj];B[og];W[pf];B[of];W[pe];B[oe];
W[qe];B[rf];W[oh])
