(;FF[4]BR[20k]CP[online-go.com]DT[2016-08-15]GM[1]KM[6.5]PB[Boba Fettucci]
PC[OGS: http://online-go.com/game/6088957]PW[Toza]RE[W+R]RU[japanese]SZ[19]
WR[17k];B[dp];W[pp];B[cd];W[pc];B[pe];W[qe];B[qf];W[qd];B[pg];W[mc];B[pj];W[ql]
;B[ec];W[fq];B[cn];W[jp];B[cg];W[jd];B[hc];W[jc];B[dj];W[rj];B[qi];W[ri];B[rh];
W[qj];B[ph];W[of];B[pf];W[oe];B[nh];W[mg];B[nk];W[nm];B[pl];W[qm];B[nq];W[oq];
B[or];W[pr];B[os];W[ps];B[mr];W[kr];B[np];W[oo];B[lp];W[lq];B[mq];W[no];B[mo];
W[mn];B[ln];W[lm];B[lr];W[kq];B[ls];W[ns];B[nr];W[kn];B[kp];W[lo];B[mp];W[ko];
B[jq];W[jr];B[iq];W[ir];B[hq];W[hr];B[jo];W[ip];B[hp];W[io];B[jn];W[in];B[jm];
W[km];B[im];W[hn];B[gm];W[gn];B[fn];W[hm];B[hl];W[gl];B[fm];W[il];B[jl];W[hk];
B[ik];W[hl];B[kk];W[op];B[lk];W[gp];B[ij])
