(;FF[4]BR[9k]CP[online-go.com]DT[2016-03-28]GM[1]KM[6.5]PB[rosseforp]
PC[OGS: http://online-go.com/game/4638341]PW[epiphi]RE[W+26.5]RU[japanese]
SZ[19]WR[6k];B[qd];W[dp];B[pq];W[qo];B[op];W[qk];B[kq];W[od];B[oc];W[pd];B[pc];
W[qe];B[rd];W[re];B[nd];W[pg];B[ne];W[of];B[dc];W[ic];B[kc];W[ie];B[gc];W[fd];
B[hd];W[gd];B[hc];W[he];B[id];W[fc];B[de];W[ee];B[df];W[jd];B[ib];W[jc];B[jb];
W[kd];B[lc];W[jg];B[ff];W[ef];B[eg];W[fg];B[eh];W[fh];B[ei];W[cj];B[fi];W[hh];
B[cn];W[dm];B[dn];W[em];B[en];W[fm];B[ep];W[eq];B[fp];W[cp];B[fq];W[er];B[dk];
W[ck];B[dl];W[cm];B[cl];W[bl];B[bn];W[dj];B[ek];W[ej];B[fk];W[fj];B[gk];W[bm];
B[gj];W[gi];B[hi];W[gh];B[ed];W[fe];B[ch];W[hm];B[ii];W[ik];B[hj];W[kk];B[ki];
W[lh];B[kh];W[li];B[kg];W[lg];B[kf];W[lf];B[je];W[le];B[ke];W[ld];B[hf];W[if];
B[gf];W[ge];B[ih];W[db];B[hg];W[cc];B[cd];W[fb];B[hb];W[bc];B[bd];W[ad];B[ae];
W[ac];B[be];W[on];B[jn];W[ln];B[jl];W[km];B[jm];W[fn];B[fo];W[ho];B[hq];W[ip];
B[iq];W[lq];B[lp];W[jp];B[kp];W[jk];B[ko];W[kn];B[jo];W[jq];B[jr];W[hs];B[hr];
W[fr];B[hp];W[io];B[go];W[gn];B[hn];W[in];B[im];W[hn];B[hl];W[an];B[ao];W[am];
B[bp];W[bi];B[cr];W[mo];B[mp];W[rq];B[po];W[pn];B[qn];W[qp];B[qm];W[qr];B[pr];
W[rs];B[ps];W[qs];B[nn];W[oo];B[no];W[nm];B[om];W[pp];B[pm];W[po];B[np];W[mm];
B[kl];W[ll];B[lj];W[mj];B[kj];W[lk];B[nj];W[mi];B[nk];W[mk];B[qj];W[pk];B[pj];
W[ok];B[oj];W[ol];B[nl];W[rk];B[rj];W[sj];B[si];W[sk];B[rh];W[rn];B[rm];W[sm];
B[ro];W[sn];B[se];W[sf];B[sd];W[rf];B[bh];W[ak];B[ci];W[qc];B[rc];W[qb];B[rb];
W[mc];B[nc];W[mb];B[md];W[kb];B[nf];W[ng];B[qg];W[qf];B[nb];W[ec];B[dd];W[ai];
B[ah];W[mn];B[di];W[bj];B[oe];W[pe];B[ph];W[qi];B[oh];W[og];B[nh];W[mg];B[sg];
W[ri];B[sh];W[ig];B[gg];W[jh];B[ji];W[na];B[pb];W[oa];B[pa];W[qq];B[oq];W[hk];
B[gl];W[ma];B[ni];W[pi];B[sl];W[rl];B[so];W[sl];B[il];W[ml];B[];W[];B[];W[];
B[cq];W[dq];B[dr];W[co];B[bo];W[do];B[eo];W[es];B[ds];W[];B[])
