(;FF[4]BR[14k]CP[online-go.com]DT[2016-02-03]GM[1]KM[6.5]PB[Stepanuchi]
PC[OGS: http://online-go.com/game/3885526]PW[arthurp]RE[W+20.5]RU[japanese]
SZ[19]WR[14k];B[pp];W[dd];B[pd];W[dq];B[pj];W[cj];B[jd];W[mq];B[fc];W[ip];B[pm]
;W[co];B[pg];W[fe];B[gd];W[dc];B[md];W[eg];B[jj];W[qc];B[qd];W[pc];B[oc];W[ob];
B[nb];W[pa];B[nd];W[rb];B[rd];W[rc];B[or];W[mo];B[em];W[hm];B[fk];W[hg];B[jg];
W[mj];B[ml];W[kk];B[lk];W[kl];B[lj];W[ik];B[cm];W[hj];B[gh];W[gg];B[hi];W[fh];
B[fi];W[ei];B[fj];W[gl];B[dp];W[cp];B[do];W[eq];B[go];W[gq];B[io];W[jo];B[in];
W[jn];B[im];W[il];B[hp];W[iq];B[hq];W[ir];B[hr];W[oq];B[pr];W[pq];B[qq];W[nr];
B[op];W[nq];B[nn];W[mn];B[mm];W[lm];B[no];W[fl];B[dk];W[bk];B[fp];W[fq];B[ij];
W[gj];B[gk];W[hk];B[gi];W[ek];B[ej];W[el];B[di];W[dj];B[eh];W[dg];B[dh];W[ch];
B[ci];W[bi];B[fg];W[ff];B[fh];W[kj];B[ki];W[qh];B[ph];W[qi];B[qj];W[re];B[rf];
W[jk];B[he];W[ii];B[ih];W[ji];B[hh];W[kh];B[gf];W[li];B[nk];W[bg];B[eb];W[db];
B[ed];W[de];B[mg];W[mh];B[nh];W[ni];B[nj];W[oh];B[ng];W[pi];B[oj];W[oi];B[kg];
W[hn];B[cn];W[fn];B[ck];W[bj];B[ep];W[en];B[bo];W[bp];B[dl];W[ao];B[bl];W[dn];
B[gr];W[dm];B[fr];W[cl];B[bn];W[cq];B[is];W[ho];B[er];W[js];B[dr];W[cr];B[hs];
W[jr];B[cs];W[gp];B[br];W[an];B[bq];W[bm];B[bs];W[qf];B[rg];W[qg];B[qe];W[og];
B[pf];W[of];B[pe];W[mf];B[lg];W[nf];B[lf];W[fd];B[ec];W[ge];B[hf];W[ee];B[hc];
W[sd];B[se];W[sc];B[qr];W[ea];B[fa];W[da];B[na];W[qa];B[ri];W[np];B[lh];W[mi];
B[jh];W[ki];B[rh];W[gb];B[gc];W[fb];B[hb];W[ga];B[ha];W[fa];B[ns];W[ms];B[os];
W[ll];B[mk];W[oa];B[aq];W[me];B[le];W[oe];B[od];W[ap];B[ds];W[lr];B[];W[])
