(;FF[4]BR[1k]CP[online-go.com]DT[2016-07-08]GM[1]KM[6.5]PB[RamiChi]
PC[OGS: http://online-go.com/game/5765906]PW[zerodan]RE[B+R]RU[japanese]SZ[19]
WR[4k];B[pd];W[dp];B[qp];W[dd];B[oq];W[nc];B[pf];W[jd];B[fq];W[dj];B[jp];W[jj];
B[cc];W[dc];B[cd];W[ce];B[be];W[bd];B[db];W[cb];B[bc];W[eb];B[cf];W[de];B[bg];
W[bb];B[ad];W[eg];B[kd];W[jc];B[kf];W[ke];B[le];W[je];B[mg];W[jf];B[kg];W[jg];
B[lj];W[qk];B[qi];W[qn];B[pl];W[ql];B[pn];W[pm];B[om];W[qm];B[on];W[ri];B[rj];
W[qj];B[rh];W[pi];B[qh];W[rk];B[si];W[ro];B[rp];W[rm];B[fo];W[dn];B[cl];W[dl];
B[dm];W[cm];B[em];W[cn];B[dk];W[fk];B[el];W[ej];B[dr];W[cq];B[jk];W[hl];B[ij];
W[ik];B[ji];W[jl];B[kk];W[hj];B[ii];W[kp];B[im];W[jq];B[kq];W[lq];B[kr];W[nq];
B[op];W[jo];B[ip];W[io];B[hp];W[hm];B[ko];W[kn];B[lo];W[kl];B[pb];W[bj];B[gm];
W[ho];B[go];W[gn];B[fn];W[hn];B[bk];W[cr];B[bm];W[bn];B[an];W[ao];B[am];W[bp];
B[lc];W[lb];B[mb];W[kb];B[nb];W[sp];B[sq];W[so];B[rr];W[hh];B[ln];W[lm];B[mm];
W[ml];B[nm];W[oh];B[dg];W[eh];B[nk];W[oj];B[pk];W[ok];B[ol];W[pj];B[qo];W[nj];
B[mk];W[ll];B[lk];W[il];B[nh];W[ni];B[ph];W[sk];B[og];W[mh];B[ng];W[er];B[fr];
W[ds];B[fs];W[kc];B[ld];W[ak];B[bl];W[fl];B[fm];W[ab];B[ac];W[jh];B[kh];W[li];
B[lh];W[mi];B[ki];W[eq];B[cj];W[ci];B[bi];W[ck];B[hi];W[gi];B[cj];W[lp];B[jr];
W[ck];B[ih];W[hg];B[cj];W[mn];B[mo];W[ck];B[gj];W[hk];B[cj];W[no];B[nn];W[ck];
B[gh];W[fi];B[cj];W[mp];B[mn];W[ck];B[sn];W[rn];B[cj];W[af];B[ag];W[ck];B[ai];
W[aj])
