(;FF[4]BR[6k]CP[online-go.com]DT[2016-06-15]GM[1]KM[6.5]PB[LaViNa66]
PC[OGS: http://online-go.com/game/5551245]PW[thouis]RE[W+44.5]RU[japanese]
SZ[19]WR[6k];B[pc];W[pp];B[dd];W[dp];B[pj];W[cf];B[jd];W[fc];B[cc];W[ee];B[ec];
W[fd];B[qe];W[jp];B[dj];W[dl];B[ch];W[ic];B[jc];W[fh];B[fi];W[fk];B[fj];W[hj];
B[gk];W[fl];B[gj];W[hi];B[gl];W[fm];B[de];W[dg];B[eh];W[eg];B[fg];W[gh];B[gf];
W[he];B[hf];W[if];B[ie];W[ig];B[ef];W[df];B[cn];W[gm];B[il];W[jm];B[ik];W[ki];
B[ji];W[jh];B[jj];W[kf];B[fe];W[ff];B[fq];W[ge];B[cq];W[dq];B[cp];W[dn];B[hm];
W[ho];B[dr];W[er];B[do];W[cr];B[ep];W[eq];B[fr];W[ds];B[fo];W[en];B[eo];W[br];
B[cl];W[gn];B[kj];W[li];B[mq];W[nq];B[mo];W[ck];B[bl];W[dk];B[bk];W[cj];B[bj];
W[ci];B[bi];W[dh];B[lj];W[mi];B[mj];W[mm];B[np];W[oq];B[oo];W[om];B[po];W[qp];
B[qo];W[qm];B[lm];W[nk];B[ml];W[nj];B[nm];W[ol];B[mn];W[mr];B[ni];W[oi];B[nh];
W[oh];B[ng];W[og];B[nf];W[qh];B[rj];W[of];B[lg];W[kh];B[md];W[oj];B[rh];W[rg];
B[qi];W[sh];B[qg];W[ri];B[ph];W[rh];B[pi];W[qf];B[pg];W[pf];B[ql];W[rl];B[rm];
W[qk];B[rn];W[rk];B[re];W[od];B[oc];W[pd];B[nd];W[qd];B[qc];W[rd];B[rc];W[sc];
B[sb];W[sd];B[oe];W[pe];B[rb];W[ne];B[me];W[ib];B[jb];W[db];B[eb];W[bd];B[bc];
W[fb];B[da];W[be];B[cb];W[lq];B[mp];W[ao];B[bo];W[aq];B[an];W[hr];B[hq];W[iq];
B[hp];W[ip];B[gr];W[ir];B[lp];W[kq];B[rp];W[rq];B[sq];W[sr];B[sp];W[qr];B[qn];
W[pm];B[jn];W[in];B[im];W[kn];B[km];W[jo];B[jl];W[ja];B[ka];W[ia];B[kb];W[mk];
B[lk];W[id];B[je];W[bh];B[ei];W[di];B[ah];W[bg];B[ej];W[gp];B[gq];W[go];B[fp];
W[ap];B[dm];W[em];B[cm];W[ag];B[ai];W[bp];B[ke];W[lf];B[mf];W[le];B[ld];W[hk];
B[hl];W[jn];B[nl];W[ac];B[ab];W[ad];B[fs];W[es];B[ii];W[ih];B[sl];W[sk];B[sm];
W[on];B[nn];W[fa];B[ek];W[ea];B[dc];W[hn];B[gi];W[hh];B[hs];W[is];B[gs];W[oe];
B[op];W[bq];B[co];W[kg];B[jf];W[];B[])
