(;FF[4]BR[18k]CP[online-go.com]DT[2016-05-11]GM[1]KM[6.5]PB[goniki]
PC[OGS: http://online-go.com/game/5213502]PW[Odo]RE[W+50.5]RU[japanese]SZ[19]
WR[14k];B[pp];W[dc];B[pd];W[dp];B[fp];W[en];B[fd];W[de];B[he];W[ip];B[gn];W[in]
;B[hl];W[hm];B[fm];W[em];B[fl];W[dk];B[ir];W[jq];B[hq];W[lq];B[mp];W[nr];B[pm];
W[jr];B[ho];W[ko];B[mm];W[qh];B[jo];W[io];B[jn];W[jp];B[hp];W[qk];B[kn];W[lo];
B[np];W[pr];B[im];W[qq];B[qp];W[jm];B[il];W[ln];B[km];W[lm];B[kl];W[ll];B[lp];
W[kk];B[jl];W[kp];B[mq];W[lr];B[mr];W[ms];B[rf];W[rm];B[rq];W[rr];B[pq];W[qr];
B[sp];W[ro];B[rp];W[ml];B[ok];W[oh];B[oq];W[rh];B[or];W[os];B[sr];W[rs];B[ps];
W[ns];B[js];W[ks];B[is];W[nm];B[qo];W[rn];B[on];W[nn];B[no];W[ld];B[qn];W[nc];
B[ob];W[oc];B[pc];W[nb];B[pa];W[ic];B[om];W[ff];B[hg];W[fh];B[dq];W[hi];B[cp];
W[do];B[co];W[cn];B[eo];W[kg];B[jh];W[jj];B[lk];W[lj];B[mk];W[mj];B[nk];W[kh];
B[jd];W[jc];B[hc];W[hb];B[gc];W[gb];B[id];W[ge];B[fb];W[ec];B[kd];W[kc];B[ke];
W[me];B[le];W[md];B[lf];W[mg];B[mf];W[nf];B[lg];W[mh];B[jg];W[kf];B[gf];W[gg];
B[gh];W[hf];B[if];W[gf];B[hh];W[gi];B[ii];W[ih];B[ig];W[ji];B[ij];W[gd];B[nl];
W[mn];B[fj];W[fi];B[dj];W[ej];B[ek];W[ei];B[dl];W[ck];B[el];W[cl];B[dm];W[dn];
B[cm];W[bm];B[eq];W[cj];B[ph];W[pi];B[pg];W[fc];B[hd];W[bo];B[bp];W[ap];B[bq];
W[aq];B[ar];W[ao];B[an];W[bn];B[bl];W[br];B[cq];W[cr];B[nq];W[qs];B[lh];W[li];
B[jf];W[ki];B[jk];W[es];B[sq];W[ls];B[ss];W[ps];B[oi];W[oj];B[ni];W[nj];B[pj];
W[qi];B[nh];W[og];B[kj];W[pf];B[qg];W[qf];B[mi];W[qe];B[ng];W[of];B[qd];W[re];
B[rd];W[sd];B[sc];W[se];B[rb];W[gr];B[od];W[ne];B[lc];W[lb];B[qj];W[rj];B[fn];
W[bk];B[ep];W[al];B[gq];W[hr];B[iq];W[fr];B[er];W[dr];B[ds];W[cs];B[fs];W[gs];
B[fq];W[as];B[hs];W[ql];B[qm];W[pk];B[oj];W[gj];B[gk];W[hn];B[hj];W[so];B[pl];
W[rl];B[si];W[sj];B[nd];W[na];B[oa];W[gm];B[gl];W[ds];B[fs];W[eb];B[kr];W[kq];
B[jb];W[ib];B[oe];W[fk];B[pe];W[fj];B[];W[])
