(;FF[4]BR[2k]CP[online-go.com]DT[2016-04-21]GM[1]KM[6.5]PB[mipli]
PC[OGS: http://online-go.com/game/4974033]PW[Terranigma]RE[W+R]RU[japanese]
SZ[19]WR[1k];B[pd];W[dc];B[pq];W[dq];B[qk];W[dj];B[de];W[ce];B[dd];W[cd];B[ec];
W[df];B[cc];W[db];B[bc];W[eb];B[fd];W[fc];B[cf];W[ed];B[ee];W[fe];B[ef];W[gd];
B[dg];W[nc];B[pf];W[pb];B[qc];W[ld];B[fq];W[do];B[jp];W[hq];B[jq];W[gp];B[cp];
W[co];B[fp];W[fo];B[dp];W[cq];B[eo];W[bp];B[fn];W[go];B[ep];W[en];B[dn];W[em];
B[bo];W[cn];B[bn];W[cm];B[bq];W[br];B[ap];W[er];B[fr];W[ar];B[aq];W[es];B[hr];
W[ir];B[iq];W[gr];B[gq];W[hs];B[hp];W[fs];B[hr];W[qq];B[pp];W[hq];B[gn];W[ho];
B[hr];W[hn];B[gs];W[qp];B[qo];W[ro];B[rn];W[qn];B[po];W[rm];B[rp];W[sn];B[rq];
W[qr];B[rr];W[ql];B[pk];W[rk];B[rj];W[pg];B[qg];W[qh];B[ph];W[og];B[oh];W[qf];
B[rg];W[pe];B[qe];W[of];B[rf];W[nh];B[ni];W[mi];B[nj];W[mj];B[nk];W[fg];B[ig];
W[ii];B[ji];W[jh];B[ih];W[kh];B[hi];W[ij];B[gh];W[fi];B[hj];W[hk];B[fh];W[eg];
B[eh];W[ff];B[ci];W[df])
