(;FF[4]BR[7k]CP[online-go.com]DT[2016-06-30]GM[1]KM[6.5]PB[gopaddy]
PC[OGS: http://online-go.com/game/5693262]PW[BenKyoTutoring]RE[W+R]RU[japanese]
SZ[19]WR[6d];B[cc];W[pp];B[nq];W[qn];B[pr];W[qq];B[kq];W[co];B[qc];W[dq];B[jd];
W[cf];B[pj];W[pd];B[qd];W[pe];B[pg];W[qe];B[pc];W[oc];B[re];W[rf];B[sd];W[qf];
B[ql];W[pb];B[nd];W[qb];B[rb];W[rc];B[rd];W[ra];B[sc];W[od];B[nb];W[ob])
