(;FF[4]BR[10k]CP[online-go.com]DT[2016-08-19]GM[1]KM[6.5]PB[twister]
PC[OGS: http://online-go.com/game/6126822]PW[moocowpong1]RE[B+R]RU[japanese]
SZ[19]WR[8k];B[pd];W[dd];B[pp];W[dp];B[dj];W[cm];B[cf];W[ce];B[df];W[fd];B[bc];
W[cc];B[be];W[nc];B[qf];W[jd];B[hd];W[ge];B[he];W[gf];B[gc];W[fb];B[fc];W[ec];
B[gb];W[eb];B[hf];W[pc];B[qc];W[pb];B[qb];W[jb];B[lc];W[md];B[kd];W[lb];B[kb];
W[jc];B[mb];W[ke];B[nb];W[ob];B[mc];W[je];B[nd];W[hg];B[if];W[jh];B[jg];W[lg];
B[kh];W[kg];B[ih];W[ig];B[jf];W[ji];B[gg];W[hh];B[gh];W[hi];B[ee];W[ed];B[bb];
W[cb];B[da];W[ca];B[db];W[hb];B[fa];W[gd];B[hc];W[ha];B[ga];W[ic];B[ba];W[kf];
B[bd];W[ie];B[ff];W[id];B[me];W[nq];B[qn];W[jp];B[fq];W[eq];B[fp];W[hq];B[hp];
W[ip];B[ho];W[em];B[cr];W[cq];B[er];W[dr];B[ds];W[dq];B[fr];W[br];B[cs];W[es];
B[fs];W[hr];B[fn];W[eo];B[fo];W[ek];B[bk];W[bl];B[ck];W[gl];B[hm];W[jm];B[hl];
W[hk];B[jl];W[kl];B[ik];W[hj];B[kk];W[ll];B[lk];W[ml];B[mk];W[nk];B[nj];W[ok];
B[oj];W[pk];B[pj];W[mj];B[ki];W[mi];B[jj];W[ii];B[og];W[im];B[il];W[li];B[nl];
W[om];B[nm];W[nn];B[km];W[mm];B[jn];W[kn];B[in];W[ln];B[qk];W[qq];B[pq];W[pr];
B[or];W[qr];B[oq];W[ro];B[nr];W[mq];B[mr];W[qo];B[lq];W[mp];B[lp];W[mo];B[jr];
W[jq];B[ir];W[hs];B[kq])
