(;FF[4]BR[23k]CP[online-go.com]DT[2016-05-01]GM[1]KM[6.5]PB[AndrewTrost]
PC[OGS: http://online-go.com/game/5102587]PW[ardnell]RE[B+R]RU[japanese]SZ[19]
WR[23k];B[pd];W[dp];B[cd];W[pp];B[jc];W[ed];B[ee];W[fd];B[fe];W[gc];B[gd];W[hd]
;B[ge];W[ic];B[id];W[jd];B[ie];W[hc];B[kd];W[je];B[jf];W[he];B[if];W[fb];B[dd];
W[dc];B[cc];W[db];B[cb];W[cn];B[dj];W[dk];B[ek];W[ej];B[ei];W[fj];B[dl];W[ck];
B[di];W[el];B[fk];W[gk];B[fl];W[em];B[gj];W[fi];B[hj];W[gh];B[gl];W[de];B[df];
W[ce];B[be])
