(;FF[4]BR[2d]CP[online-go.com]DT[2016-05-02]GM[1]KM[6.5]PB[SanDiego]
PC[OGS: http://online-go.com/game/5117365]PW[Orbix19]RE[W+R]RU[japanese]SZ[19]
WR[5k];B[pd];W[dp];B[pp];W[dd];B[fq];W[cn];B[jp];W[qn];B[ql];W[qq];B[pq];W[qp];
B[po];W[rn];B[om];W[jd];B[cf];W[ch];B[fd];W[fe];B[ge];W[ee];B[cc];W[gd];B[fc];
W[dc];B[hd];W[cd];B[ld];W[gf];B[he];W[qf];B[re];W[nd];B[rf];W[nf];B[lf];W[lc];
B[me];W[od];B[pe];W[of];B[kc];W[kd];B[mc];W[lb];B[md];W[kb];B[ic];W[jc];B[ib];
W[jf];B[hf];W[jh];B[lh];W[pb];B[pc];W[nb];B[mb];W[ma];B[oc];W[nc];B[ob];W[mg];
B[lg];W[ni];B[oa];W[na];B[ig];W[jg];B[lj];W[jj];B[ll];W[hq];B[jq];W[fp];B[gg];
W[eg];B[cq];W[eq];B[bo];W[bn];B[co];W[do];B[dr];W[er];B[br];W[ao];B[bp];W[fi];
B[bh];W[ci];B[go];W[em];B[gp];W[gq];B[fo];W[fr];B[fm];W[el];B[fl];W[fk];B[gk];
W[gj];B[ek];W[fj];B[en];W[dn];B[jk];W[hk];B[il];W[hl];B[hm];W[im];B[ik];W[hn];
B[gm];W[ij];B[jm];W[in];B[jn];W[kk];B[jl];W[lk];B[mk];W[kj];B[mj];W[ml];B[lm];
W[nl];B[mh];W[nh];B[ol];W[nk];B[nj];W[ok];B[oj];W[pk];B[qm];W[pj];B[oi];W[pi];
B[oh];W[ph];B[pg];W[og];B[qg];W[mf];B[qh];W[ne];B[qk];W[kh];B[qj];W[le];B[nm];
W[kf])
