(;FF[4]BR[1d]CP[online-go.com]DT[2016-03-09]GM[1]KM[6.5]PB[gor]
PC[OGS: http://online-go.com/game/4212380]PW[irving.lai.3]RE[B+R]RU[japanese]
SZ[19]WR[2k];B[pd];W[dp];B[pq];W[dd];B[fq];W[hq];B[dn];W[fp];B[cp];W[cq];B[gp];
W[eq];B[fo];W[ep];B[gq];W[co];B[ho];W[cn];B[dm];W[po];B[oo];W[on];B[op];W[nn];
B[pn];W[lo];B[pm];W[qo];B[qn];W[jp];B[mq];W[lq];B[mp];W[kn];B[im];W[nc];B[qf];
W[kd];B[fc];W[hc];B[cc];W[dc];B[cd];W[de];B[db];W[eb];B[cb];W[ec];B[cf];W[ne];
B[df];W[ef];B[eg];W[ff];B[fg];W[dg];B[bg];W[dh];B[ei];W[di];B[ej];W[ck];B[cm];
W[ek];B[fk];W[el];B[dj];W[cj];B[bl];W[fl];B[gk];W[gl];B[hk];W[en];B[em];W[hl];
B[il];W[ik];B[gi];W[fn];B[fm];W[gn];B[gm];W[hm];B[hn];W[cl];B[bk];W[bj];B[eo];
W[in];B[kl];W[gg];B[ii];W[jk];B[km];W[gh];B[fi];W[kk];B[mm];W[jh];B[gf];W[ih];
B[ee];W[fe];B[ge];W[fd];B[gd];W[ed];B[fb];W[fa];B[ga])
