(;FF[4]BR[10k]CP[online-go.com]DT[2016-04-24]GM[1]KM[6.5]PB[TroyTirpse]
PC[OGS: http://online-go.com/game/5015032]PW[Onion]RE[W+R]RU[japanese]SZ[19]
WR[5k];B[pd];W[dp];B[pp];W[dd];B[fc];W[cf];B[db];W[cc];B[ic];W[dj];B[jp];W[qf];
B[qh];W[pc];B[qc];W[qd];B[oc];W[pb];B[qe];W[rd];B[pe];W[re];B[ob];W[qb];B[pf];
W[kd];B[cb];W[nd];B[od];W[qq];B[qp];W[pq];B[op];W[oq];B[qk];W[np];B[no];W[mo];
B[mp];W[nq];B[mn];W[lo];B[lp];W[ko];B[kp];W[lm];B[ln];W[kn];B[nn];W[hq];B[hp];
W[iq];B[ip];W[gq];B[km];W[jm];B[kl];W[in];B[io];W[jn];B[hn];W[hm];B[gn];W[gm];
B[fn];W[fm];B[en];W[em];B[dn];W[co];B[cn];W[cq];B[ep];W[eq];B[fp];W[fq];B[gp];
W[nf];B[lb];W[nh];B[lg];W[nj];B[lj];W[le];B[je];W[kf];B[me];W[mf];B[md];W[kg];
B[lh];W[lf];B[lc];W[ig];B[ch];W[ci];B[dh];W[eg];B[ei];W[fh];B[ej];W[dl];B[ck];
W[dk];B[cl];W[di];B[eh];W[gj];B[fg];W[ef];B[ff];W[gh];B[ee];W[de];B[cg];W[df];
B[bd];W[bf];B[bc];W[fe];B[ge];W[fd];B[hf];W[hg];B[gf];W[gd];B[hd];W[gc];B[gb];
W[ed];B[fb];W[ml];B[ni];W[mi];B[nk];W[oi];B[mk];W[ok];B[ol];W[pk];B[pl];W[qj];
B[ql];W[rj];B[bi];W[bj];B[bk];W[bh];B[li];W[jk];B[kk];W[jj];B[rk];W[qg];B[pj];
W[oj];B[pi];W[ph];B[jd];W[rp];B[ro];W[rq];B[so];W[kc];B[kb];W[lr];B[kr];W[mr];
B[bn];W[bo])
