(;FF[4]BR[4d]CP[online-go.com]DT[2016-02-28]GM[1]KM[6.5]PB[MagariSimoku]
PC[OGS: http://online-go.com/game/4118357]PW[suneagle]RE[B+R]RU[japanese]SZ[19]
WR[1d];B[pd];W[pp];B[dq];W[dd];B[co];W[jq];B[qn];W[pn];B[pm];W[on];B[qo];W[qp];
B[qj];W[gq];B[fc];W[fd];B[gd];W[fe];B[dc];W[cc];B[ec];W[cd];B[ge];W[gf];B[ic];
W[ck];B[ff];W[df];B[ef];W[de];B[gg];W[hf];B[hg];W[if];B[ig];W[jf];B[eh];W[jg];
B[ch];W[cm];B[ii];W[ji];B[jj];W[ki];B[ik];W[kc];B[mc];W[jb];B[ib];W[qd];B[qc];
W[pc];B[oc];W[pb];B[qb];W[od];B[pe];W[qe];B[oe];W[ob];B[nd];W[rb];B[qf];W[rc];
B[rd];W[re];B[rf];W[sd];B[lk];W[hd];B[gc];W[lb];B[jd];W[kd];B[ke];W[mi];B[le];
W[je];B[nb];W[id];B[jc];W[nj];B[nl];W[mk];B[lj];W[mg];B[mj];W[me];B[ld];W[lf];
B[nh];W[ni];B[li];W[lh];B[mh];W[ng];B[oh];W[og];B[ph];W[ne];B[pg];W[ih];B[hi];
W[he];B[en];W[di];B[dh];W[ci];B[cb];W[bb];B[db];W[ba];B[bg];W[bf];B[bi];W[bj];
B[dj];W[ai];B[bh];W[bn];B[bo];W[bl];B[hp];W[hq];B[jp];W[kp];B[iq];W[ir];B[ip];
W[kq];B[ln];W[ko];B[om];W[qm];B[rm];W[ql];B[rl];W[fn];B[fo];W[go];B[in];W[eo];
B[mo];W[np];B[mp];W[mq];B[rp];W[rq];B[ro];W[nn];B[er];W[nm];B[pl];W[lm];B[fp];
W[gp];B[ml];W[kn];B[im];W[dn];B[cj];W[em];B[fq];W[dp];B[cq];W[il];B[jl];W[hl];
B[jm];W[lc];B[md];W[of];B[oa];W[qa];B[pf];W[sf];B[rg];W[ia];B[hb];W[ma];B[mb];
W[ka];B[po];W[op];B[mm];W[mn];B[km];W[lo];B[sq];W[rr];B[af];W[be];B[gr];W[hr];
B[fj];W[ca];B[da];W[hc];B[gb];W[ha];B[ga];W[fa];B[ja];W[ia];B[na];W[la];B[ha];
W[ed];B[ja];W[pk];B[qk];W[ia];B[kf];W[kg];B[ja];W[bp];B[cp];W[ia];B[an];W[fb];
B[ja];W[sg];B[sh];W[ia];B[mf];W[nf];B[ja];W[rh];B[se];W[ia];B[dk];W[eb];B[ja];
W[kj];B[kk];W[ia];B[ea];W[fb];B[ja];W[hh];B[gh];W[ia];B[gm];W[fa];B[ja];W[io];
B[kb])
