(;FF[4]BR[8k]CP[online-go.com]DT[2016-04-08]GM[1]KM[6.5]PB[Jerome]
PC[OGS: http://online-go.com/game/4797689]PW[Tom Newman]RE[B+33.5]RU[japanese]
SZ[19]WR[13k];B[pd];W[dp];B[pp];W[dc];B[pj];W[nq];B[qn];W[lp];B[cn];W[cl];B[cq]
;W[cp];B[bp];W[bo];B[bq];W[co];B[dq];W[ep];B[fq];W[hq];B[cg];W[ci];B[cd];W[cc];
B[dd];W[ec];B[ed];W[fd];B[fe];W[gd];B[jc];W[id];B[jd];W[ic];B[nd];W[qe];B[qd];
W[rd];B[rc];W[rf];B[di];W[dj];B[ei];W[ej];B[gp];W[fo];B[ho];W[gm];B[iq];W[jq];
B[ir];W[jr];B[jp];W[kp];B[no];W[mo];B[nn];W[pq];B[qq];W[qr];B[rr];W[pr];B[rq];
W[qi];B[qj];W[pi];B[oj];W[ni];B[nj];W[mi];B[of];W[pf];B[oi];W[oh];B[nh];W[ng];
B[mh];W[og];B[li];W[mg];B[mj];W[oe];B[ch];W[bi];B[bh];W[ai];B[bd];W[bc];B[ac];
W[ab];B[ad];W[ba];B[js];W[kr];B[ks];W[lr];B[ls];W[ms];B[is];W[mr];B[sd];W[re];
B[mn];W[ln];B[lm];W[kn];B[ao];W[an];B[ap];W[bn];B[rj];W[ri];B[si];W[sh];B[sj];
W[rg];B[jb];W[ib];B[ia];W[ha];B[ja];W[gb];B[lg];W[lf];B[kg];W[me];B[md];W[ld];
B[mc];W[lc];B[lb];W[ke];B[km];W[jo];B[ip];W[io];B[eq];W[fi];B[fh];W[gi];B[il];
W[hk];B[hl];W[gl];B[ik];W[hj];B[ji];W[ih];B[gg];W[gh];B[fg];W[jm];B[jl];W[hn];
B[go];W[gn];B[im];W[jn];B[jh];W[je];B[mb];W[od];B[oc];W[pe];B[ne];W[nf];B[mp];
W[lo];B[np];W[mq];B[oq];W[or];B[op];W[se];B[rb];W[sc];B[sb];W[sd];B[ig];W[ii];
B[ge];W[he];B[hf];W[if];B[jf];W[ie];B[qs];W[ps];B[rs];W[kf];B[jg];W[ah];B[ag];
W[kc];B[kb];W[ij];B[jj];W[hh];B[hg];W[in];B[kd];W[le];B[fp];W[en];B[];W[])
