(;FF[4]BR[12k]CP[online-go.com]DT[2016-03-18]GM[1]KM[6.5]PB[Diskciiple]
PC[OGS: http://online-go.com/game/4439197]PW[judoka_ser]RE[B+63.5]RU[japanese]
SZ[19]WR[15k];B[qd];W[dp];B[dd];W[pp];B[qn];W[qo];B[pn];W[dj];B[pj];W[cf];B[fc]
;W[cb];B[cc];W[bc];B[bd];W[dc];B[cd];W[ab];B[db];W[ba];B[ad];W[eb];B[ec];W[da];
B[dc];W[ac];B[fb];W[ea];B[fa];W[ca];B[jd];W[lc];B[ld];W[md];B[me];W[kd];B[le];
W[ke];B[nd];W[mc];B[nc];W[ne];B[mg];W[oe];B[pd];W[jn];B[op];W[oq];B[nq];W[oo];
B[np];W[or];B[po];W[qp];B[nn];W[nr];B[kc];W[kb];B[jc];W[nb];B[ob];W[ma];B[jb];
W[kf];B[lg];W[kg];B[if];W[qg];B[qh];W[rh];B[qi];W[ri];B[rf];W[rg];B[qf];W[pg];
B[oi];W[oh];B[nh];W[rk];B[rj];W[sj];B[qj];W[qk];B[pk];W[pf];B[pe];W[od];B[oc];
W[nf];B[og];W[ph];B[ng];W[mf];B[lf];W[of];B[si];W[sh];B[ql];W[rl];B[rm];W[sf];
B[se];W[re];B[qe];W[sd];B[rd];W[rc];B[qc];W[qb];B[se];W[sg];B[sc];W[rb];B[pi];
W[oa];B[lb];W[pb];B[pc];W[sb];B[mb];W[ra];B[pa];W[lq];B[ff];W[gh];B[ih];W[ki];
B[kh];W[hg];B[ig];W[ii];B[ji];W[jj];B[jh];W[hi];B[kj];W[kk];B[lj];W[lk];B[mk];
W[mj];B[nj];W[li];B[mi];W[lj];B[ml];W[lm];B[mm];W[mo];B[no];W[ln];B[eh];W[dh];
B[dg];W[cg];B[ch];W[di];B[bh];W[eg];B[df];W[ef];B[de];W[fh];B[ee];W[fg];B[gf];
W[hf];B[he];W[bj];B[cn];W[co];B[bo];W[cp];B[bp];W[bq];B[dn];W[bm];B[bn];W[cm];
B[ep];W[eq];B[fp];W[fq];B[gq];W[gr];B[hq];W[hr];B[br];W[aq];B[cq];W[cr];B[do];
W[dq];B[go];W[hn];B[fn];W[fm];B[em];W[fl];B[dm];W[el];B[am];W[bl];B[ho];W[io];
B[iq];W[ir];B[jq];W[kp];B[kq];W[kr];B[ip];W[jr];B[ah];W[bi];B[ro];W[rp];B[so];
W[sp];B[sm];W[dl];B[mn];W[mp];B[mq];W[mr];B[ei];W[ej];B[hh];W[gg];B[gn];W[hm];
B[gm];W[gl];B[jo];W[ko];B[in];W[im];B[jm];W[io];B[gi];W[fi];B[in];W[kn];B[io];
W[jl];B[hl];W[il];B[gj];W[ij];B[lh];W[al];B[an];W[ai];B[af];W[ci];B[bf];W[ie];
B[ge];W[ll];B[ap];W[bs];B[];W[])
