(;FF[4]BR[22k]CP[online-go.com]DT[2016-03-21]GM[1]KM[6.5]PB[AndresAlcarraz]
PC[OGS: http://online-go.com/game/4508617]PW[Pikachuuu]RE[B+R]RU[japanese]
SZ[19]WR[20k];B[dp];W[pd];B[pp];W[cd];B[em];W[dj];B[ej];W[ei];B[dk];W[fj];B[ek]
;W[fk];B[di];W[cj];B[ci];W[bj];B[bi];W[ck];B[cl];W[bl];B[cm];W[bm];B[aj];W[bk];
B[ak];W[al];B[bn])
