(;FF[4]BR[20k]CP[online-go.com]DT[2016-08-16]GM[1]KM[6.5]PB[jonryuga]
PC[OGS: http://online-go.com/game/6097780]PW[Bantam]RE[W+R]RU[japanese]SZ[19]
WR[17k];B[pd];W[dd];B[qp];W[ep];B[cq];W[co];B[dq];W[dp];B[bp];W[bo];B[eq];W[fp]
;B[fq];W[nc];B[qf];W[jd];B[gp];W[go];B[ho];W[hn];B[cf];W[bd];B[ci];W[cj];B[bj];
W[hp];B[hq];W[io];B[ip];W[gq];B[gr];W[gp];B[jp];W[ck];B[dj];W[di];B[ei];W[dh];
B[eg];W[eh];B[fi];W[ch];B[bi];W[bh];B[bk];W[dk];B[ek];W[bl];B[cl];W[dl];B[cm];
W[bm];B[bn];W[cn];B[dm];W[el];B[em];W[fl];B[fm];W[ej];B[fk];W[gk];B[fj];W[gm];
B[an];W[ao])
