(;FF[4]BR[14k]CP[online-go.com]DT[2016-08-03]GM[1]KM[6.5]PB[Taihuang]
PC[OGS: http://online-go.com/game/5988165]PW[leonkemna]RE[B+81.5]RU[japanese]
SZ[19]WR[12k];B[pd];W[dd];B[pq];W[eq];B[cp];W[do];B[co];W[dp];B[cq];W[nq];B[qo]
;W[jq];B[pk];W[fd];B[jd];W[he];B[hc];W[gb];B[hb];W[dg];B[ci];W[qc];B[qd];W[pc];
B[oc];W[ob];B[nc];W[nb];B[mc];W[rd];B[re];W[rc];B[qf];W[ck];B[bg];W[dm];B[cd];
W[ce];B[bd];W[be];B[dc];W[ec];B[de];W[ed];B[cf];W[df];B[ae];W[ee];B[bf];W[de];
B[db];W[eb];B[bb];W[jf];B[le];W[ch];B[bh];W[di];B[kg];W[jg];B[kh];W[oo];B[pm];
W[po];B[lk];W[mm];B[nl];W[nm];B[om];W[ml];B[mk];W[qn];B[ro];W[pn];B[qm];W[rn];
B[rm];W[qq];B[qp];W[rq];B[sn];W[pp];B[pr];W[oq];B[on];W[no];B[nn];W[mn];B[or];
W[nr];B[mo];W[lo];B[mp];W[lp];B[ln];W[lm];B[kn];W[km];B[mq];W[lq];B[mr];W[sq];
B[so];W[lr];B[ms];W[ls];B[np];W[ke];B[kd];W[kk];B[kj];W[jk];B[jj];W[ik];B[cn];
W[cm];B[dr];W[bi];B[hi];W[ii];B[ij];W[ji];B[hk];W[jm];B[hl];W[im];B[hm];W[hn];
B[hh];W[ig];B[kf];W[je];B[mb];W[ki];B[li];W[cg];B[af];W[gn];B[fj];W[id];B[jc];
W[bm];B[bn];W[ai];B[gs];W[er];B[es];W[gr];B[hs];W[hr];B[is];W[ir];B[jr];W[js];
B[ks];W[kr];B[fs];W[fr];B[ds];W[dq];B[cr];W[js];B[ah];W[fl];B[ek];W[dn];B[cj];
W[dj];B[bj];W[bk];B[aj];W[an];B[ao];W[ap];B[am];W[al];B[an];W[aq];B[ak];W[bl];
B[bp];W[fk];B[ej];W[gg];B[hg];W[hf];B[fh];W[fg];B[eh];W[gc];B[hd];W[gd];B[ic];
W[ie];B[dk];W[dh];B[gh];W[el];B[eg];W[ef];B[gm];W[fm];B[gk];W[il];B[ll];W[kl];
B[ea];W[fa];B[da];W[dl];B[ha];W[ih];B[na];W[gl];B[gj];W[pb];B[oa];W[pa];B[ma];
W[rb];B[sd];W[sc];B[se];W[ga];B[ei];W[jh];B[lg];W[];B[])
