(;FF[4]BR[13k]CP[online-go.com]DT[2016-02-15]GM[1]KM[6.5]PB[tordo]
PC[OGS: http://online-go.com/game/4010753]PW[ardnell]RE[W+3.5]RU[japanese]
SZ[19]WR[22k];B[qd];W[dp];B[pq];W[dc];B[od];W[ce];B[kc];W[fq];B[qi];W[po];B[np]
;W[pl];B[oi];W[dk];B[cn];W[dn];B[cq];W[cp];B[bp];W[bo];B[ap];W[an];B[jq];W[jo];
B[qp];W[id];B[ke];W[ig];B[kg];W[ii];B[ib];W[hb];B[ic];W[hc];B[nl];W[qm];B[rk];
W[rl];B[nn];W[kj];B[lp];W[km];B[dr];W[mj];B[ok];W[sk];B[sj];W[sl];B[rj];W[ro];
B[rp];W[sp];B[sq];W[so];B[rn];W[rq];B[rr];W[sr];B[qq];W[sq];B[mh];W[qn];B[qo];
W[qr];B[pr];W[rs];B[ps];W[rr];B[qs];W[rm];B[sn];W[sm];B[on];W[pn];B[hq];W[gp];
B[ie];W[hd];B[jd];W[he];B[if];W[hf];B[jg];W[ip];B[iq];W[mm];B[nm];W[dh];B[co];
W[cm];B[dq];W[ep];B[ih];W[hh];B[hg];W[gg];B[ig];W[gh];B[ji];W[ij];B[jj];W[jk];
B[ki];W[lk];B[gs];W[gm];B[mn];W[ln];B[ml];W[lm];B[ll];W[kl];B[bn];W[bm];B[ao];
W[am];B[bq];W[do];B[bo];W[op];B[oq];W[kp];B[kq];W[lo];B[mq];W[no];B[mo];W[oo];
B[jp];W[ko];B[hp];W[io];B[ho];W[hn];B[go];W[fo];B[gn];W[fn];B[gq];W[fr];B[gr];
W[hm];B[fs];W[ni];B[nh];W[fp];B[er];W[oj];B[pj];W[nj];B[ph];W[li];B[lh];W[qk];
B[qj];W[kk];B[mi];W[lj];B[pk];W[ql];B[om];W[gf];B[ha];W[ga];B[ia];W[gb];B[];W[]
)
