(;FF[4]BR[11k]CP[online-go.com]DT[2016-04-12]GM[1]KM[6.5]PB[prio]
PC[OGS: http://online-go.com/game/4862556]PW[Revum]RE[W+R]RU[japanese]SZ[19]
WR[6k];B[pp];W[dp];B[pd];W[dd];B[iq];W[nc];B[lc];W[ne];B[qf];W[kd];B[kc];W[jd];
B[jc];W[ic];B[ib];W[hc];B[hb];W[gc];B[gb];W[dj];B[cg];W[bj];B[bd];W[bc];B[cd];
W[cc];B[ce];W[de];B[df];W[ef];B[eg];W[ff];B[eb];W[ec];B[fc];W[fd];B[fb];W[dh];
B[dg];W[fg];B[eh];W[fh];B[ei];W[nh];B[ld];W[le];B[id];W[ie];B[me];W[lf];B[mf];
W[mg];B[nf];W[of];B[oe];W[ng];B[nd];W[ej];B[fi];W[bf];B[bg];W[ae];B[ad];W[cf];
B[hi];W[gk];B[gh];W[gj];B[gi];W[jj];B[ji];W[kj];B[ki];W[lj];B[mi];W[li];B[lh];
W[kh];B[ii];W[lg];B[he];W[hd])
