(;FF[4]BR[14k]CP[online-go.com]DT[2016-03-29]GM[1]KM[6.5]PB[はやと]
PC[OGS: http://online-go.com/game/4651253]PW[Burak5]RE[W+R]RU[japanese]SZ[19]
WR[10k];B[qd];W[pp];B[dc];W[cp];B[cj];W[od];B[qg];W[pf];B[pg];W[og];B[qf];W[of]
;B[pc];W[pd];B[oc];W[qc];B[qb];W[rc];B[rd];W[rb];B[qa];W[ra];B[pb];W[nd];B[nc];
W[mc];B[mb];W[lb];B[lc];W[md];B[kb];W[nb];B[la];W[ob];B[sc];W[qe];B[re];W[pe];
B[ld];W[le];B[ke];W[pi];B[qi];W[qj];B[ri];W[rj];B[ph];W[oi];B[sf];W[qn];B[ep];
W[eq];B[cn];W[dp];B[eo];W[fq];B[gp];W[hq];B[hp];W[iq];B[ip];W[jp];B[in];W[de];
B[ce];W[cf];B[cd];W[dg];B[ee];W[ef];B[fe];W[ff];B[ge];W[jd];B[lf];W[me];B[lg];
W[oh];B[li];W[mj];B[gg];W[gf];B[hf];W[hd];B[gd];W[gc];B[ic];W[hc];B[id];W[jc];
B[he];W[ie];B[jb];W[ib];B[if];W[jo];B[jn];W[kn];B[jl];W[ll];B[lj];W[lk];B[eh];
W[ci];B[di];W[dh];B[bi];W[ch];B[bh];W[ei];B[dj];W[fh];B[fg];W[gh];B[hh];W[ej];
B[ek];W[eg];B[hg];W[gj];B[gk];W[hj];B[hk];W[ij];B[ik];W[kk];B[jj];W[jk];B[ji];
W[je];B[jf];W[kd];B[kc];W[ja];B[qq];W[pq];B[qp];W[qo];B[pr];W[or];B[qr];W[rp];
B[rq];W[ro];B[sq];W[rs];B[fc];W[fb];B[eb];W[gb];B[fa];W[ga];B[ea];W[fk];B[fl];
W[fj];B[dl];W[rh];B[sh];W[rg];B[qh];W[sj];B[sg];W[si];B[rf];W[sd])
