(;FF[4]BR[15k]CP[online-go.com]DT[2016-05-29]GM[1]KM[6.5]PB[The3rdCoyote]
PC[OGS: http://online-go.com/game/5396021]PW[DanBoast]RE[W+0.5]RU[japanese]
SZ[19]WR[19k];B[pd];W[dd];B[pp];W[ep];B[fc];W[cf];B[db];W[co];B[pj];W[nq];B[pq]
;W[hc];B[cc];W[he];B[fe];W[gg];B[ef];W[de];B[cd];W[ch];B[eh];W[gh];B[dg];W[cg];
B[ce];W[df];B[kd];W[jp];B[dj];W[cj];B[ej];W[dl];B[cq];W[eq];B[dr];W[er];B[bp];
W[bo];B[br];W[pm];B[pn];W[om];B[no];W[nl];B[nj];W[ln];B[mm];W[ml];B[mn];W[lm];
B[jj];W[ll];B[im];W[gj];B[gk];W[jg];B[kg];W[kf];B[je];W[jf];B[kh];W[mf];B[me];
W[le];B[ld];W[nf];B[ne];W[of];B[pf];W[oe];B[mc];W[od];B[oc];W[nd];B[md];W[nc];
B[hb];W[hd];B[ib];W[nb];B[ob];W[ji];B[li];W[ij];B[jk];W[pe];B[qc];W[qe];B[rd];
W[pg];B[re];W[qf];B[rf];W[mb];B[kb];W[mh];B[lp];W[lq];B[ko];W[lo];B[kp];W[mp];
B[mo];W[qn];B[qo];W[rn];B[ro];W[pk];B[qj];W[qk];B[ok];W[ol];B[kq];W[on];B[oo];
W[mj];B[mi];W[ni];B[nh];W[oi];B[qh];W[ph];B[mg];W[ng];B[lg];W[oh];B[mk];W[oj];
B[lj];W[nk];B[ki];W[jh];B[fn];W[gp];B[do];W[dn];B[eo];W[fo];B[go];W[fp];B[lr];
W[en];B[gn];W[dp];B[ds];W[jq];B[jr];W[ir];B[js];W[is];B[hp];W[hq];B[ip];W[iq];
B[jo];W[kk];B[kj];W[gf];B[kl];W[lk];B[jl];W[qg];B[rh];W[rj];B[qi];W[sh];B[rg];
W[ri];B[sg];W[rk];B[el];W[dk];B[bf];W[bg];B[af];W[dc];B[bi];W[ag];B[bd];W[ci];
B[ao];W[an];B[ap];W[bm];B[ie];W[if];B[ke];W[fl];B[fm];W[em];B[ek];W[gl];B[hk];
W[ho];B[hn];W[io];B[in];W[hl];B[jn];W[ik];B[fk];W[il];B[lf];W[lb];B[ge];W[gc];
B[eb];W[ec];B[fd];W[hj];B[bk];W[ck];B[gb];W[fi];B[ei];W[fh];B[eg];W[kc];B[jc];
W[lc];B[ic];W[ka];B[ja];W[jb];B[ia];W[kb];B[id];W[so];B[sp];W[sn];B[rq];W[es];
B[na];W[ma];B[oa];W[qd];B[pc];W[km];B[jm];W[po];B[si];W[sj];B[gd];W[hf];B[rb];
W[mj];B[hh];W[hi];B[ee];W[dq];B[cp];W[pn];B[bl];W[bj];B[cl];W[cm];B[lh];W[nh];
B[ip];W[hp];B[sh];W[fj];B[ls];W[di];B[fb];W[hm];B[le];W[pi];B[bn];W[cn];B[op];
W[mr];B[mq];W[np];B[nr];W[lq];B[ms];W[ns];B[mq];W[ad];B[ac];W[bb];B[cb];W[];B[]
;W[])
