(;FF[4]BR[4k]CP[online-go.com]DT[2016-04-01]GM[1]KM[6.5]PB[YellowFresko]
PC[OGS: http://online-go.com/game/4700810]PW[Sliyce]RE[B+R]RU[japanese]SZ[19]
WR[8k];B[pp];W[dd];B[pc];W[dp];B[fc];W[pe];B[ph];W[md];B[oe];W[of];B[ne];W[pd];
B[nc];W[qc];B[oc];W[nf];B[me];W[rd];B[jd];W[dc];B[ce];W[ee];B[ch];W[hc];B[gd];
W[hd];B[ge];W[dg];B[cg];W[he];B[gf];W[fb];B[eb];W[gc];B[fd];W[gb];B[ec];W[db];
B[ea];W[hf];B[gg];W[kb];B[jb];W[jc];B[kc];W[ic];B[lb];W[kd];B[lc];W[ke];B[ld];
W[kf];B[df];W[bd];B[cd];W[cc];B[bb];W[pj];B[oi];W[oj];B[mi];W[nj];B[ni];W[ki];
B[mj];W[mk];B[lj];W[kj];B[lk];W[ml];B[ll];W[qn];B[pn];W[qo];B[qp];W[pm];B[po];
W[ql];B[mm];W[jp];B[lq];W[cm];B[cq];W[dq];B[cp];W[co];B[bo];W[bn];B[do];W[cn];
B[dr];W[er];B[cr];W[fq];B[bp];W[jm];B[nm];W[bi];B[ci];W[bj];B[bh];W[kq];B[lp])
