(;FF[4]BR[4k]CP[online-go.com]DT[2016-07-13]GM[1]KM[6.5]PB[joerg]
PC[OGS: http://online-go.com/game/5809749]PW[patches]RE[B+R]RU[japanese]SZ[19]
WR[4k];B[pd];W[dc];B[pp];W[dp];B[de];W[dh];B[gd];W[ee];B[ef];W[fe];B[dd];W[fc];
B[cc];W[ec];B[ff];W[ge];B[bd];W[ck];B[jc];W[qf];B[nd];W[rd];B[qc];W[qi];B[fq];
W[cn];B[jp];W[qn];B[np];W[rp];B[qq];W[pl];B[fo];W[cf];B[df];W[cg];B[cb];W[he];
B[hc];W[je];B[dq];W[kc];B[kd];W[jd];B[ld];W[ic];B[jb];W[ib];B[kb];W[cq];B[cr];
W[dr];B[eq];W[br];B[cp];W[bq];B[do];W[bp];B[co];W[bo];B[ph];W[qh];B[qe];W[re];
B[pf];W[pg];B[og];W[qg];B[of];W[kp];B[kq];W[lq];B[lp];W[ko];B[lo];W[kr];B[jq];
W[jr];B[ir];W[jo];B[io];W[in];B[ho];W[ln];B[mq];W[dn];B[eo];W[lc];B[mc];W[le];
B[kn];W[jn];B[km];W[il];B[hn];W[jl];B[ok];W[ol];B[dj];W[cj];B[ag];W[nk];B[mm];
W[oh];B[nh];W[oi];B[mg];W[ke];B[lb];W[hm];B[fm];W[kl];B[lm];W[ce];B[cd];W[rq];
B[pn];W[qr];B[qm];W[qo];B[pm];W[oq];B[op];W[pq];B[qp];W[nr];B[mr];W[rk];B[ai];
W[bj];B[fa];W[gb];B[ni];W[nj];B[ql];W[qk];B[ed];W[fd];B[fh];W[rc];B[di];W[ci];
B[eh];W[qb];B[pb];W[qd];B[pc];W[po];B[oo];W[om];B[on];W[dk];B[er];W[ek];B[fj];
W[ej];B[ei];W[fk];B[dg];W[bh];B[ah];W[bg];B[ae];W[gj];B[if];W[ga];B[da];W[db];
B[ca];W[fb];B[rl];W[rn];B[sk];W[sj];B[sl];W[nl];B[me];W[rb];B[ea];W[ie];B[lf];
W[ia];B[mj];W[kj];B[ki];W[lj];B[li];W[ji];B[jh];W[ii];B[ih];W[gm];B[jm];W[im];
B[em];W[ms];B[ls];W[ns];B[nq];W[pr];B[hi];W[hj];B[gi];W[gn];B[go];W[pe];B[oe];
W[kf];B[kg];W[hf];B[hg];W[cs];B[dm];W[cm];B[aj];W[ak];B[fl];W[gl];B[mk];W[jf];
B[gf];W[ll];B[ml];W[lk];B[dl];W[sn];B[nm];W[pj];B[bl];W[cl];B[bk];W[bm];B[al];
W[am];B[ak];W[ja];B[es];W[ds];B[qa];W[ra];B[pa];W[ka];B[be];W[la];B[ma];W[ig];
B[jg];W[if];B[qe];W[fi];B[pe];W[fj];B[ch];W[bi];B[af];W[en];B[fn];W[sm];B[dh];
W[];B[rm];W[];B[os])
