(;FF[4]BR[11k]CP[online-go.com]DT[2016-06-14]GM[1]KM[6.5]PB[sbrezee]
PC[OGS: http://online-go.com/game/5547481]PW[oldwizard1]RE[B+R]RU[japanese]
SZ[19]WR[18k];B[dp];W[pp];B[dd];W[pd];B[cj];W[qj];B[jq];W[fc];B[ec];W[fd];B[nc]
;W[qf];B[jd];W[qn];B[nq];W[pr];B[pb];W[qc];B[ne];W[ng];B[mn];W[fq];B[eq];W[fp];
B[fr];W[iq];B[gr];W[ce];B[de];W[df];B[cd];W[bf];B[be];W[cf];B[fb];W[gb];B[ef];
W[eg];B[ff];W[fg];B[gg];W[fh];B[gf];W[gh];B[dg];W[dh];B[hh];W[hi];B[eb];W[hc];
B[ic];W[he];B[if];W[bd];B[bc];W[ae];B[gi];W[fi];B[gj];W[fj];B[ii];W[gk];B[hj];
W[hk];B[ik];W[hl];B[il];W[hn];B[hm];W[im];B[gm];W[hg];B[hf];W[fl];B[jm];W[in];
B[hq];W[fn];B[em];W[fm];B[dn];W[dk];B[ck];W[ci];B[dl];W[dj];B[pl];W[ql];B[ph];
W[qh];B[og];W[oi];B[pi];W[qi];B[pj];W[pk];B[ok];W[qk];B[of];W[pg];B[oh];W[ni];
B[nh];W[mi];B[ip];W[ol];B[oj];W[pm];B[nl];W[on];B[ib];W[lm];B[jn];W[mh];B[mg];
W[ln];B[lo];W[mo];B[nm];W[nn];B[mm];W[ko];B[lp];W[kn];B[jo];W[kp];B[kq];W[jg];
B[ig];W[lk];B[kl];W[ll];B[nk];W[lg];B[mf];W[lf];B[le];W[mp];B[lq];W[kk];B[jj];
W[bj];B[bk];W[ai];B[mq])
