(;FF[4]BR[7k]CP[online-go.com]DT[2016-08-11]GM[1]KM[6.5]PB[S_Alexander]
PC[OGS: http://online-go.com/game/6053629]PW[moocowpong1]RE[W+4.5]RU[japanese]
SZ[19]WR[7k];B[qd];W[dd];B[pq];W[dp];B[fc];W[od];B[mc];W[ob];B[pf];W[of];B[pe];
W[oe];B[jc];W[pg];B[qg];W[ph];B[qh];W[pi];B[fe];W[df];B[ng];W[og];B[mf];W[qc];
B[rc];W[qb];B[fq];W[cn];B[dr];W[po];B[qm];W[qq];B[qr];W[qp];B[mq];W[qi];B[om];
W[np];B[op];W[oo];B[nq];W[mn];B[nn];W[no];B[mm];W[lo];B[mj];W[rr];B[pr];W[kq];
B[rs];W[qs];B[ps];W[sr];B[lr];W[kr];B[ns];W[lq];B[ms];W[cq];B[iq];W[io];B[fo];
W[gp];B[gq];W[fp];B[hp];W[ep];B[ho];W[in];B[hn];W[im];B[cr];W[dj];B[rb];W[pd];
B[re];W[me];B[le];W[md];B[ld];W[nf];B[mg];W[nc];B[ci];W[cj];B[di];W[ff];B[ee];
W[ef];B[fi];W[dc];B[ej];W[dl];B[bi];W[bj];B[ce];W[de];B[cf];W[bd];B[ge];W[eb];
B[fb];W[ig];B[gg];W[ii];B[li];W[ik];B[jp];W[ko];B[jo];W[jn];B[ln];W[kn];B[lm];
W[rn];B[mp];W[mo];B[rm];W[qn];B[ro];W[sn];B[rp];W[rq];B[sp];W[ir];B[hr];W[ks];
B[or];W[is];B[fl];W[gk];B[el];W[kg];B[lf];W[eh];B[ei];W[br];B[dq];W[bp];B[gl];
W[hm];B[gm];W[go];B[gn];W[hf];B[ie];W[he];B[hd];W[gf];B[id];W[fh];B[dm];W[cm];
B[en];W[dn];B[em];W[ek];B[fk];W[dk];B[mb];W[gj];B[fj];W[fa];B[ga];W[ea];B[gb];
W[cs];B[eq];W[gi];B[ec];W[db];B[if];W[sm];B[aj];W[ak];B[ai];W[bl];B[rk];W[rh];
B[rg];W[pm];B[pl];W[pn];B[pk];W[cg];B[bg];W[ch];B[bh];W[oj];B[nk];W[ok];B[ol];
W[kk];B[cd];W[cc];B[be];W[ae];B[bf];W[ac];B[dh];W[dg];B[jh];W[jg];B[kh];W[nj];
B[lk];W[kj];B[ih];W[hh];B[kl];W[jl];B[qj];W[rj];B[lg];W[sg];B[rf];W[lj];B[ni];
W[pj];B[qk];W[km];B[ll];W[nb];B[ds];W[bs];B[hl];W[ma];B[lb];W[la];B[ka];W[na];
B[kb];W[jq];B[ip];W[hs];B[gs];W[on];B[nm];W[sk];B[rl];W[ra];B[hk];W[hj];B[ki];
W[ji];B[sl];W[sj];B[sf];W[sh];B[ri];W[jf];B[je];W[hg];B[do];W[co];B[eo];W[cp];
B[pp];W[ls];B[mr];W[ed];B[fd];W[nh];B[mh];W[oh];B[af];W[ad];B[sb];W[kf];B[ke];
W[qo];B[qs];W[oi];B[mi];W[qa];B[];W[])
