(;FF[4]BR[7k]CP[online-go.com]DT[2016-03-28]GM[1]KM[6.5]PB[virako]
PC[OGS: http://online-go.com/game/4630775]PW[surema]RE[W+22.5]RU[japanese]
SZ[19]WR[6k];B[pd];W[qp];B[op];W[pq];B[oq];W[pn];B[kq];W[dc];B[de];W[dp];B[cc];
W[cb];B[cd];W[eb];B[ch];W[gd];B[fq];W[cn];B[dr];W[cq];B[cl];W[gq];B[gp];W[fp];
B[hq];W[gr];B[fr];W[hp];B[go];W[iq];B[hr];W[ir];B[gs];W[jp];B[jr];W[is];B[pr];
W[kp];B[pp];W[qq];B[lq];W[mo];B[mp];W[lo];B[no];W[nn];B[mn];W[nm];B[lm];W[nr];
B[lp];W[kn];B[km];W[jm];B[jl];W[im];B[il];W[hm];B[qr];W[rr];B[or];W[qo];B[mr];
W[qf];B[pg];W[qc];B[pc];W[qd];B[pe];W[pb];B[ob];W[qb];B[jd];W[nj];B[lk];W[ke];
B[kd];W[le];B[ld];W[me];B[oh];W[nb];B[oa];W[oc];B[nc];W[od];B[nd];W[oe];B[ne];
W[of];B[mb];W[nf];B[pf];W[pa];B[na];W[rf];B[lh];W[nh];B[oi];W[mh];B[nk];W[oj];
B[ni];W[mi];B[mj];W[pj];B[ok];W[pk];B[li];W[mf];B[je];W[jf];B[if];W[jg];B[lg];
W[kf];B[he];W[og];B[mg];W[ng];B[ig];W[jh];B[ii];W[ph];B[bm];W[fm];B[fn];W[em];
B[gm];W[ln];B[mm];W[hn];B[io];W[gn];B[ho];W[jo];B[in];W[jn];B[jq];W[fo];B[gl];
W[ip];B[gq];W[ek];B[hl];W[ei];B[dj];W[ej];B[hc];W[gc];B[cr];W[bb];B[bc];W[hb];
B[ib];W[ic];B[jc];W[hd];B[bo];W[co];B[bq];W[bn];B[bp];W[cm];B[bl];W[dg];B[cg];
W[dk];B[cj];W[ck];B[pl];W[ol];B[om];W[nl];B[on];W[mk];B[pm];W[lj];B[kj];W[mj];
B[ji];W[po];B[oo];W[rk];B[rs];W[rm];B[rn];W[qm];B[bk];W[hj];B[hi];W[gg];B[hg];
W[id];B[jb];W[ie];B[gj];W[ll];B[kk];W[ml];B[kl];W[ij];B[gh];W[fg];B[ih];W[di];
B[ci];W[ge];B[dq];W[cp];B[ql];W[rl];B[rq];W[rp];B[sr];W[sp];B[qk];W[qj];B[sq];
W[ao];B[ap];W[an];B[br];W[ac];B[ad];W[ab];B[df];W[dd];B[be];W[ee];B[ef];W[ff];
B[eg];W[fh];B[dl];W[fk];B[dm];W[gk];B[dn];W[en];B[hk];W[dh];B[do];W[ep];B[am];
W[js];B[ks];W[eq];B[er];W[hf];B[eo];W[fn];B[fi];W[eh];B[md];W[ia];B[ja];W[ha];
B[kh];W[fj];B[gi];W[kg];B[];W[lf];B[ki];W[];B[])
