(;FF[4]BR[2k]CP[online-go.com]DT[2016-06-14]GM[1]KM[6.5]PB[tg]
PC[OGS: http://online-go.com/game/5545538]PW[ardeleanul]RE[B+R]RU[japanese]
SZ[19]WR[11k];B[pd];W[dp];B[qp];W[dd];B[fq];W[oq];B[kq];W[qq];B[rq];W[pp];B[qo]
;W[qi];B[qr];W[pq];B[po];W[oo];B[on];W[pr];B[no];W[qm];B[rr];W[mp];B[lo];W[mo];
B[mn];W[np];B[nn];W[pn];B[mr];W[qn];B[rn];W[rm];B[ro];W[mq];B[nr];W[lr];B[lq];
W[lp];B[kp];W[ln];B[ko];W[lm];B[nl];W[sp];B[sq];W[kr];B[cn];W[jr];B[nq];W[iq];
B[eo];W[ep];B[fp];W[fo];B[en];W[io];B[dr];W[eq];B[er];W[fr];B[gr];W[cr];B[cq];
W[cp];B[bq];W[dq];B[bp];W[ds];B[fs];W[bo];B[fc];W[co];B[bn];W[ap];B[do])
