(;FF[4]BR[1d]CP[online-go.com]DT[2015-11-11]GM[1]KM[6.5]PB[Inoueian]
PC[OGS: http://online-go.com/game/3237697]PW[frankdong]RE[W+10.5]RU[japanese]
SZ[19]WR[3d];B[pd];W[dp];B[pq];W[dc];B[fq];W[ip];B[cn];W[fp];B[gp];W[fo];B[cq];
W[eq];B[cp];W[po];B[np];W[fr];B[de];W[lq];B[qm];W[qq];B[qr];W[oq];B[op];W[pp];
B[pr];W[nq];B[mp];W[or];B[rq];W[qp];B[rs];W[rp];B[sr];W[on];B[lp];W[kq];B[nm];
W[pl];B[jo];W[nn];B[mn];W[mm];B[ln];W[ml];B[io];W[hp];B[ho];W[go];B[qf];W[qi];
B[fd];W[jl];B[hl];W[ce];B[dd];W[cd];B[cc];W[cb];B[bc];W[bb];B[ec];W[db];B[cf];
W[bd];B[be];W[ac];B[dg];W[ef];B[df];W[pc];B[oc];W[qc];B[ob];W[re];B[rf];W[qe];
B[pf];W[pe];B[oe];W[of];B[ph];W[pb];B[od];W[qd];B[pi];W[qj];B[nf];W[gc];B[ic];
W[gd];B[eb];W[id];B[jd];W[jc];B[ib];W[je];B[kd];W[gf];B[he];W[ie];B[ke];W[jg];
B[il];W[di];B[dk];W[ck];B[cl];W[dj];B[ek];W[fj];B[fh];W[fi];B[fe];W[ge];B[gh];
W[bl];B[bk];W[cj];B[bm];W[dl];B[al];W[fl];B[hg];W[ji];B[hj];W[ni];B[pj];W[pk];
B[nh];W[mh];B[fk];W[gk];B[el];W[em];B[dm];W[ej];B[dl];W[hi];B[gi];W[gj];B[ij];
W[gl];B[kk];W[hh];B[ig];W[jh];B[gg];W[eh];B[ff];W[eg];B[fg];W[kf];B[if];W[jf];
B[ha];W[hc];B[hf];W[hd];B[lj];W[le];B[ld];W[ng];B[og];W[oh];B[nj];W[md];B[me];
W[lf];B[mc];W[nk];B[mj];W[mf];B[nd];W[oi];B[oj];W[mi];B[sp];W[ro];B[so];W[sn];
B[sq];W[rn];B[pa];W[qa];B[oa];W[rb];B[lm];W[dr];B[cr];W[hb];B[fa];W[rh];B[mq];
W[mr];B[os];W[nr];B[jp];W[jq];B[bg];W[cs];B[bs];W[ds];B[ok];W[ol];B[br];W[bi];
B[sf];W[gm];B[sd];W[se];B[sb];W[rc];B[ra];W[sa];B[li];W[lh];B[ra];W[ia];B[ja];
W[sa];B[mg];W[lg];B[ra];W[jb];B[ia];W[sa];B[gq];W[iq];B[ra];W[ga];B[gb];W[sa];
B[lr];W[kr];B[ra];W[ka];B[ga];W[sa];B[ns];W[ls];B[ra];W[ea];B[da];W[sa];B[mk];
W[nl];B[ra];W[ee];B[ed];W[sa];B[dh];W[sc];B[ei];W[ll];B[kl];W[hm];B[im];W[en];
B[hn];W[ae];B[bf];W[jj];B[jk];W[hk];B[ik];W[do];B[eh];W[co];B[bo];W[qh];B[gn];
W[kp];B[fn];W[fm];B[eo];W[ep];B[ko];W[qg];B[pg];W[sh];B[ch];W[ca];B[ea];W[no];
B[bj];W[ci];B[ai];W[ah];B[aj];W[bh];B[mo];W[dn];B[oo];W[pn];B[ki];W[kh];B[fc];
W[dq];B[ps];W[ms];B[af];W[ad];B[];W[])
