(;FF[4]BR[9k]CP[online-go.com]DT[2016-05-17]GM[1]KM[6.5]PB[rafar]
PC[OGS: http://online-go.com/game/5277353]PW[direwolf]RE[B+R]RU[japanese]SZ[19]
WR[8k];B[pd];W[dp];B[pq];W[dd];B[qk];W[qo];B[np];W[qq];B[qr];W[pp];B[oq];W[rr];
B[pr];W[rp];B[jq];W[dj];B[jd];W[qc];B[pc];W[qd];B[qe];W[re];B[qf];W[rf];B[qg];
W[pb];B[ob];W[qb];B[nc];W[rg];B[qh];W[gc];B[jj];W[jg];B[ge];W[ii];B[ij];W[hi];
B[kh];W[kg];B[lg];W[jh];B[lh];W[pl];B[nl];W[pk];B[fp];W[hj];B[hk];W[gk];B[gl];
W[hl];B[ik];W[fl];B[gm];W[fm];B[gj];W[fk];B[gn];W[ji];B[kj];W[nn];B[om];W[on];
B[pm];W[qm];B[pn];W[oo];B[qn];W[rn];B[ql];W[rm];B[pj];W[ok];B[qj];W[ml];B[nk];
W[po];B[fc];W[fd];B[hc];W[ec];B[hd];W[gd];B[he];W[fe];B[cn];W[cl];B[fn];W[en];
B[cq];W[cp];B[eo];W[do];B[em];W[dn];B[fj];W[ek];B[ff];W[ef];B[fg];W[eg];B[fh];
W[gf];B[hg];W[gh];B[gi])
