(;FF[4]BR[6k]CP[online-go.com]DT[2016-05-31]GM[1]KM[6.5]PB[thouis]
PC[OGS: http://online-go.com/game/5415985]PW[Gwendal]RE[B+R]RU[japanese]SZ[19]
WR[6k];B[pd];W[dc];B[cp];W[po];B[op];W[qq];B[or];W[mq];B[oo];W[pn];B[kq];W[nq];
B[oq];W[lp];B[kp];W[ln];B[mo];W[lo];B[lq];W[mp];B[om];W[ql];B[nm];W[mn];B[no];
W[mk];B[ok];W[hq];B[fq];W[io];B[ir];W[hr];B[hp];W[ip];B[iq];W[gp];B[ls];W[mr];
B[ms];W[lr];B[ks];W[kr];B[js];W[jq];B[nr];W[cf];B[ck];W[ho];B[oi];W[nc];B[ne];
W[ld];B[ll];W[lf];B[li];W[qf];B[rd];W[qi];B[qh];W[rh];B[rf];W[dq];B[dp];W[eq];
B[cq];W[ep];B[eo];W[fo];B[fc];W[hc];B[fe];W[fg];B[hd];W[ic];B[id];W[jd];B[if];
W[ih];B[jg];W[je];B[jh];W[hg];B[hf];W[cm];B[ek];W[en];B[bn];W[bm];B[dn];W[cn];
B[do];W[dm];B[em];W[fn];B[bo];W[el];B[fm];W[fl];B[gm];W[dj];B[dk];W[dl];B[ej];
W[gk];B[gj];W[hk];B[hj];W[ij];B[gh];W[hi];B[fh];W[gg];B[eg];W[ef];B[dg];W[df];
B[di];W[gi];B[fi];W[fj];B[dd];W[cd];B[db];W[cb];B[ec];W[cc];B[ob];W[oc];B[pc];
W[nb];B[rg];W[ph];B[qg];W[pi];B[rj];W[ri];B[qk];W[qj];B[rk];W[pl];B[pk];W[ol];
B[nl];W[nk];B[lk];W[oh];B[ni];W[nh];B[mh];W[nf];B[mg];W[oe];B[mf];W[me];B[qe];
W[of];B[qp];W[pp];B[rn];W[qn];B[rm];W[ro];B[rs];W[rr];B[rp];W[sp];B[qs];W[rl];
B[sl];W[sm];B[oj];W[sk];B[fr];W[fp];B[cs];W[dr];B[cr];W[ds];B[im];W[km];B[jl];
W[kl];B[jk];W[kk];B[jj];W[kj];B[ki];W[lj];B[lm];W[jm];B[mj];W[ji];B[ii];W[nn];
B[on];W[ji];B[in];W[il];B[ii];W[mm];B[ml];W[ji];B[nd];W[ik];B[od];W[sj];B[mc];
W[mb];B[lc];W[lb];B[kc];W[md];B[pb];W[kb];B[gb];W[kg];B[jf];W[kf];B[kh];W[gf];
B[ge];W[ie];B[he];W[bi];B[cj];W[gc];B[kd];W[le])
