(;FF[4]BR[11k]CP[online-go.com]DT[2016-04-15]GM[1]KM[6.5]PB[mdotterer]
PC[OGS: http://online-go.com/game/4897288]PW[sphaso]RE[B+R]RU[japanese]SZ[19]
WR[10k];B[pd];W[dp];B[qp];W[dc];B[oq];W[ce];B[jd];W[qi];B[ql];W[qf];B[re];W[jp]
;B[pg];W[qg];B[ph];W[pf];B[ng];W[rf];B[pj];W[qd];B[rd];W[qe];B[qc];W[pc];B[od];
W[rc];B[qb];W[rb];B[pb])
