(;FF[4]BR[24k]CP[online-go.com]DT[2016-07-09]GM[1]KM[6.5]PB[colonelvirus]
PC[OGS: http://online-go.com/game/5771256]PW[Smeg]RE[B+R]RU[japanese]SZ[19]
WR[16k];B[dp];W[pd];B[qp];W[oq];B[dd];W[fc];B[df];W[db];B[cj];W[id];B[qf];W[qc]
;B[pj];W[iq];B[mq];W[oo];B[or];W[pn];B[pq];W[np];B[nq];W[op];B[qn];W[fq];B[dr];
W[dm];B[cn];W[cm];B[bn];W[bm];B[nc];W[lc];B[ne];W[pl];B[ql];W[ok];B[oj];W[mh];
B[oh];W[of];B[nf];W[oe];B[ng];W[md];B[nd];W[le];B[rd];W[rc];B[lf];W[lg];B[kf];
W[mf];B[mg];W[me];B[ke];W[kd];B[mc];W[ld];B[jd];W[jc];B[je];W[kh];B[ig];W[ie];
B[lb];W[kc];B[if];W[hc];B[ii];W[lj];B[jk];W[mk];B[fp];W[gp];B[fo];W[go];B[fm];
W[en];B[fn];W[el];B[ej];W[fl];B[hm];W[km];B[gk])
