(;FF[4]BR[6k]CP[online-go.com]DT[2016-03-15]GM[1]KM[6.5]PB[Lorca]
PC[OGS: http://online-go.com/game/4356925]PW[Astropong]RE[B+R]RU[japanese]
SZ[19]WR[11k];B[pd];W[dd];B[pq];W[dp];B[qk];W[nc];B[pf];W[pb];B[fq];W[cn];B[jp]
;W[dj];B[fo];W[qo];B[qp];W[po];B[np];W[pl];B[oj];W[ql];B[rl];W[rm];B[rk];W[no];
B[mo];W[nn];B[mn];W[mm];B[nm];W[om];B[nl];W[pn];B[rn];W[qn];B[qm];W[ro];B[sm];
W[rp];B[rq];W[pp];B[qq];W[oq];B[op];W[or];B[nq];W[pr];B[sr];W[qr];B[rr];W[sp];
B[nr];W[sq];B[qc];W[kc];B[ld];W[ne];B[lc];W[kd];B[le];W[hc];B[mf];W[ke];B[kf];
W[lb];B[mb];W[mc];B[kb];W[nb];B[la];W[qb];B[rb];W[pc];B[qd];W[ra];B[qa];W[rc];
B[sa];W[pa];B[sc];W[od];B[md];W[nd];B[nf];W[ob];B[na];W[hh];B[hf];W[fc];B[ff];
W[ml];B[nk];W[jm];B[df];W[jf];B[je];W[jd];B[ie];W[id];B[jg];W[mk];B[mj];W[pe];
B[qe];W[of];B[og];W[oe];B[pg];W[lj];B[li];W[kj];B[ki];W[ji];B[jj];W[jk];B[ij];
W[kk];B[ii];W[ik];B[gj];W[kg];B[if])
