(;FF[4]BR[11k]CP[online-go.com]DT[2016-08-02]GM[1]KM[6.5]PB[tsitua]
PC[OGS: http://online-go.com/game/5985361]PW[ardeleanul]RE[B+22.5]RU[japanese]
SZ[19]WR[10k];B[pd];W[qp];B[dp];W[cd];B[op];W[pq];B[oq];W[ed];B[ch];W[cm];B[ck]
;W[bp];B[cq];W[co];B[gp];W[kq];B[iq];W[nr];B[or];W[pr];B[mr];W[nq];B[mq];W[np];
B[oo];W[mp];B[ns];W[lp];B[qn];W[qi];B[qk];W[qf];B[nc];W[jc];B[lc];W[qo];B[pn];
W[ql];B[pl];W[qm];B[pm];W[rn];B[rk];W[rm];B[ok];W[rd];B[qc];W[bg];B[bh];W[bl];
B[bk];W[ai];B[ah];W[ak];B[bf];W[cg];B[dg];W[cf];B[cl];W[bn];B[fl];W[jr];B[ir];
W[lr];B[mn];W[jp];B[kn];W[ks];B[in];W[ms];B[os];W[lq];B[ps];W[qr];B[qs];W[rr];
B[jf];W[rc];B[ph];W[qh];B[pi];W[jj];B[ih];W[hl];B[gj];W[hj];B[hi];W[gk];B[fk];
W[gi];B[fj];W[ii];B[hh];W[jh];B[jg];W[kh];B[ki];W[li];B[kj];W[kk];B[lj];W[lk];
B[mj];W[ji];B[ik];W[il];B[hk];W[gl];B[ij];W[jk];B[hj];W[jm];B[jn];W[gn];B[gm];
W[hm];B[fm];W[hn];B[ho];W[go];B[fp];W[mk];B[nj];W[lm];B[ln];W[mm];B[nm];W[nl];
B[kl];W[km];B[nn];W[im];B[lg];W[nk];B[ll];W[hp];B[io];W[ip];B[gr];W[hq];B[hr];
W[gq];B[fq];W[kg];B[lh];W[kf];B[ke];W[lf];B[nh];W[nf];B[pf];W[pg];B[og];W[mg];
B[mh];W[pe];B[of];W[le];B[kd];W[oe];B[me];W[ne];B[md];W[mf];B[qg];W[qd];B[rf];
W[qe];B[pc];W[rg];B[gc];W[hc];B[gd];W[gb];B[fb];W[ib];B[ga];W[hb];B[fc];W[kb];
B[ja];W[lb];B[mb];W[kc];B[id];W[hd];B[he];W[ge];B[ie];W[ld];B[mc];W[fe];B[db];
W[cb];B[dc];W[cc];B[la];W[ka];B[ma];W[ec];B[ic];W[jb];B[ha];W[ia];B[fa];W[eb];
B[jd];W[rh];B[bq];W[en];B[df];W[be];B[rb];W[eh];B[fg];W[gg];B[gh];W[eg];B[ef];
W[dh];B[fh];W[ei];B[ff];W[ci];B[bi];W[bj];B[aj];W[ea];B[ja];W[ai];B[dd];W[ag];
B[de];W[da];B[fd];W[ee];B[gf];W[ol];B[ca];W[ba];B[om];W[pj];B[qj];W[sb];B[qa];
W[ek];B[el];W[dk];B[dl];W[eo];B[ep];W[aq];B[ar];W[ap];B[br];W[da];B[ea];W[rs];
B[si];W[ri];B[sj];W[pg];B[oh];W[qg];B[sh];W[rj];B[sg];W[re];B[sf];W[se];B[sk];
W[sc];B[pk];W[is];B[hs];W[js];B[ca];W[od];B[oc];W[ra];B[qb];W[jq];B[er];W[cp];
B[ej];W[dj];B[cj];W[di];B[da];W[bb];B[sm];W[sn];B[sl];W[rq];B[rl];W[ro];B[fi];
W[dm];B[do];W[dn];B[sa];W[ko];B[lo];W[jo];B[ra];W[po];B[no];W[fo];B[ce];W[bd];
B[];W[])
