(;FF[4]BR[12k]CP[online-go.com]DT[2016-05-12]GM[1]KM[6.5]PB[Smoothtesuji]
PC[OGS: http://online-go.com/game/5226576]PW[Beards13]RE[B+14.5]RU[japanese]
SZ[19]WR[15k];B[pd];W[dd];B[pq];W[dp];B[fc];W[dc];B[jd];W[nf];B[fq];W[dq];B[qk]
;W[pg];B[cj];W[cg];B[cm];W[co];B[fo];W[jq];B[mq];W[gr];B[nd];W[qi];B[qn];W[oj];
B[fr];W[lr];B[mr];W[kg];B[qf];W[lk];B[gq];W[hr];B[lo];W[nm];B[no];W[ij];B[cs];
W[br];B[cr];W[cq];B[es];W[bn];B[bm];W[dn];B[dm];W[fm];B[en];W[hn];B[em];W[fj];
B[km];W[jm];B[jn];W[im];B[cn];W[bo];B[go];W[ho];B[hp];W[he];B[hc];W[fe];B[ei];
W[gh];B[le];W[lf];B[ke];W[jf];B[fl];W[gm];B[do];W[bs];B[dr];W[an];B[am];W[eb];
B[fb];W[eh];B[jp];W[kq];B[iq];W[ir];B[lq];W[ks];B[kp];W[js];B[ap];W[bq];B[kl];
W[jk];B[dh];W[eg];B[ch];W[bg];B[bh];W[ek];B[el];W[gk];B[dk];W[fi];B[ej];W[fk];
B[dg];W[df];B[bf];W[cf];B[ag];W[be];B[af];W[ae];B[ah];W[ce];B[qc];W[pl];B[ql];
W[gs];B[eq];W[ep];B[eo];W[ll];B[lm];W[mm];B[mn];W[pn];B[po];W[on];B[oo];W[pf];
B[pe];W[oe];B[od];W[qg];B[rf];W[rg];B[sg];W[sh];B[sf];W[ri];B[ea];W[da];B[fa];
W[db];B[gl];W[hl];B[kk];W[kj];B[rj];W[qj];B[sj];W[pk];B[qm];W[pm];B[ne];W[of];
B[mf];W[mg];B[me];W[ms];B[ns];W[ls];B[or];W[jl];B[kn];W[si];B[rk];W[gd];B[gc];
W[id];B[ic];W[je];B[jc];W[hd];B[kf];W[lg];B[ed];W[ee];B[gn];W[hm];B[io];W[fp];
B[hq];W[];B[])
