(;FF[4]BR[6k]CP[online-go.com]DT[2016-06-01]GM[1]KM[6.5]PB[surema]
PC[OGS: http://online-go.com/game/5420980]PW[LiuVII]RE[W+R]RU[japanese]SZ[19]
WR[1k];B[pd];W[dp];B[qp];W[dc];B[oq];W[qj];B[qh];W[qm];B[jd];W[ce];B[fq];W[cn];
B[ip];W[qf];B[pf];W[pc];B[qe];W[oc];B[mc];W[rd];B[re];W[od];B[di];W[md];B[ld];
W[le];B[lc];W[pg];B[qg];W[of];B[pe];W[oe];B[ph];W[np];B[nq];W[mp];B[dr];W[cq];
B[on];W[rp];B[qo];W[ro];B[qn];W[rn];B[lo];W[jq];B[lp];W[iq];B[hp];W[gr];B[hq];
W[hr];B[fo];W[fr];B[eq];W[lr];B[mq];W[hc];B[fc];W[he];B[fe];W[je];B[ke];W[kf];
B[kd];W[ef];B[gf];W[dk];B[jf];W[gc];B[ec];W[hf];B[gg];W[lf];B[ie];W[jg];B[id];
W[ge];B[if];W[ff];B[ee];W[de];B[hg];W[db];B[gb];W[hb];B[fb];W[jb];B[kb];W[ha];
B[ga];W[ed])
