(;FF[4]BR[14k]CP[online-go.com]DT[2016-05-08]GM[1]KM[6.5]PB[991107]
PC[OGS: http://online-go.com/game/5173825]PW[nglenghu]RE[B+R]RU[japanese]SZ[19]
WR[3k];B[pd];W[dp];B[qp];W[dd];B[oq];W[qf];B[nc];W[rd];B[qc];W[qi];B[qk];W[qm];
B[ok];W[om];B[oi];W[rc];B[ml];W[rk];B[rl];W[ql];B[rj];W[pk];B[qj];W[pj];B[pi];
W[ri];B[sk];W[pl];B[rm];W[rn];B[qn];W[qo];B[pn];W[rp];B[po];W[ro];B[qq];W[sm];
B[rq];W[si];B[sj];W[qh];B[oj];W[nn];B[mn];W[mo];B[ol];W[ln];B[mm];W[no];B[pm];
W[ko];B[fq];W[cn];B[dr];W[cq];B[iq];W[in];B[lp];W[kp];B[lo];W[lq];B[de];W[ed];
B[ee];W[fe];B[fd];W[ce];B[ff];W[ge];B[fc];W[cf];B[dg];W[db];B[eb];W[gf];B[cd];
W[cc];B[bd];W[dc];B[cg];W[bg];B[bh];W[bf];B[df];W[bc];B[ic];W[fg];B[ci];W[nq];
B[cl];W[lc];B[rb];W[pb];B[ob];W[qb];B[ra];W[pc];B[qd];W[od];B[pe];W[qe];B[oe];
W[oc];B[nd];W[nb];B[pa];W[le];B[kd];W[ke];B[kc];W[ld];B[gb];W[id];B[hd];W[ie];
B[kb];W[oa];B[qa];W[lb];B[cr];W[fn];B[bn];W[bo];B[bm];W[br];B[dq];W[cp];B[bs];
W[ar];B[ep];W[eo];B[gp];W[dk];B[dl];W[ek];B[ck];W[kj];B[jl];W[ik];B[ei];W[fi];
B[lh];W[mi];B[li];W[lj];B[mj];W[mk];B[nj];W[lk];B[lm];W[kn];B[km];W[mh];B[mg];
W[lg];B[nh];W[kh];B[ni];W[ki];B[lf];W[kg];B[el];W[eh];B[fk];W[di];B[gl];W[il];
B[gj];W[fm];B[fl];W[bj];B[cj];W[bk];B[ag];W[ad];B[dn];W[do];B[cm];W[ej];B[co];
W[er];B[fr];W[cn];B[gi];W[gh];B[hm];W[hn];B[im];W[hi];B[nr];W[mr];B[or];W[af];
B[ah];W[op];B[kr];W[og];B[ob];W[mf];B[nf];W[kf];B[rg];W[rf];B[qg];W[pg];B[sg];
W[ph])
