(;FF[4]BR[10k]CP[online-go.com]DT[2016-06-14]GM[1]KM[6.5]PB[wuigukin]
PC[OGS: http://online-go.com/game/5548579]PW[ardeleanul]RE[B+98.5]RU[japanese]
SZ[19]WR[11k];B[qd];W[dp];B[pq];W[dc];B[de];W[cd];B[ce];W[fc];B[di];W[qj];B[ql]
;W[qg];B[oc];W[jq];B[cn];W[cl];B[cq];W[cp];B[dq];W[eq];B[bq];W[co];B[er];W[fq];
B[mq];W[cj];B[kc];W[ic];B[ke];W[qn];B[ol];W[qp];B[qq];W[rq];B[rr];W[ro];B[rm];
W[sp];B[pp];W[po];B[rn];W[no];B[lp];W[pm];B[pl];W[op];B[oq];W[nq];B[nr];W[np];
B[om];W[on];B[ph];W[qh];B[pj];W[re];B[rd];W[pg];B[oe];W[ch];B[ci];W[bi];B[dh];
W[cg];B[dg];W[cf];B[df];W[be];B[bm];W[bo];B[bj];W[bh];B[ck];W[bk];B[dj];W[aj];
B[dl];W[cj];B[dk];W[bl];B[gd];W[gc];B[ed];W[fd];B[fe];W[hd];B[he];W[ie];B[hf];
W[if];B[ig];W[ge];B[gf];W[hg];B[gg];W[jg];B[ih];W[kf];B[jd];W[id];B[lf];W[lg];
B[mf];W[mg];B[il];W[kl];B[mk];W[ij];B[jk];W[jj];B[kk];W[ff];B[fg];W[ee];B[dd];
W[cc];B[ec];W[eb];B[jh];W[kh];B[ki];W[ji];B[hh];W[kj];B[li];W[lj];B[mi];W[lk];
B[ll];W[ml];B[lm];W[mj];B[ni];W[nk];B[mm];W[oj];B[oi];W[pk];B[pi];W[ok];B[qk];
W[qi];B[og];W[ng];B[nf];W[nm];B[nl];W[nn];B[mk];W[ik];B[nj];W[jl];B[im];W[jm];
B[jn];W[in];B[jo];W[hl];B[hm];W[gm];B[hn];W[gn];B[ho];W[gk];B[fl];W[gl];B[fo];
W[go];B[eo];W[hp];B[io];W[ep];B[gp];W[fp];B[ip];W[hq];B[iq];W[ir];B[hr];W[gq];
B[jr];W[fr];B[ds];W[ln];B[kn];W[cm];B[dn];W[dm];B[em];W[bn];B[rf];W[qf];B[qe];
W[rg];B[se];W[pe];B[pd];W[rk];B[si];W[rl];B[qm];W[sj];B[sg];W[ri];B[sh];W[pf];
B[of];W[mn];B[jb];W[km];B[ml];W[kr];B[is];W[or];B[mr];W[qr];B[os];W[pr];B[lo];
W[fk];B[ef];W[fm];B[el];W[en];B[fn];W[gi];B[fe];W[gh];B[hb];W[ib];B[ia];W[jc];
B[kb];W[je];B[kd];W[gb];B[ga];W[fa];B[ha];W[hc];B[ja];W[ei];B[nh];W[ej];B[ap];
W[eh];B[eg];W[ao];B[lh];W[kg];B[mh];W[jf];B[gd];W[rh];B[rj];W[ge];B[bf];W[db];
B[bd];W[bc];B[ae];W[bg];B[bb];W[ab];B[ac];W[ad];B[gd];W[cr];B[fb];W[dr];B[ac];
W[do];B[aa];W[en];B[gs];W[es];B[fs];W[cs];B[sn];W[pn];B[gr];W[ps];B[ns];W[ag];
B[af];W[cb];B[bj];W[ba];B[ca];W[cj];B[hi];W[hj];B[bj];W[da];B[ea];W[cj];B[fh];
W[fi];B[bj];W[js];B[ir];W[cj];B[];W[bj];B[];W[])
