(;FF[4]BR[13k]CP[online-go.com]DT[2016-05-27]GM[1]KM[6.5]PB[rantash]
PC[OGS: http://online-go.com/game/5373487]PW[Paxequikz]RE[W+R]RU[japanese]
SZ[19]WR[14k];B[pd];W[dp];B[pp];W[dc];B[fq];W[cn];B[dr];W[gq];B[gp];W[hq];B[jq]
;W[fp];B[go];W[eq];B[fr];W[er];B[de];W[fd];B[cc];W[cb];B[cd];W[eb];B[jc];W[cg];
B[ci];W[eg];B[bf];W[bg];B[cf];W[dj];B[pj];W[cr];B[oq];W[nc];B[oc];W[nd];B[gc];
W[bb];B[ge];W[gd];B[fe];W[fc];B[hd];W[he];B[gg];W[id];B[ie];W[hc];B[hf];W[ee];
B[ef];W[ed];B[jd];W[ff];B[dg];W[gf];B[if];W[dh];B[df];W[ch];B[ah];W[ag];B[eh];
W[fg];B[di];W[ei];B[fh];W[bi];B[cj];W[ck];B[gk];W[nf];B[lf];W[oi];B[pi];W[oh];
B[ph];W[gh];B[hg];W[fi];B[ii];W[hh];B[ih];W[je];B[jf];W[ke];B[ld];W[kf];B[mf];
W[kg];B[mh];W[jg];B[ig];W[lh];B[mi];W[li];B[lj];W[kj];B[lk];W[kk];B[ll];W[ik];
B[hj];W[hl];B[gl];W[ij];B[hi];W[hm];B[gn];W[gm];B[fm];W[km];B[kl];W[jl];B[ji];
W[ki];B[jj];W[hk];B[gj];W[jk])
