(;FF[4]BR[10k]CP[online-go.com]DT[2016-06-11]GM[1]KM[6.5]PB[mingwei]
PC[OGS: http://online-go.com/game/5519119]PW[aisom]RE[W+R]RU[japanese]SZ[19]
WR[9k];B[pd];W[dd];B[pq];W[dp];B[pk];W[nc];B[qf];W[jd];B[cj];W[cl];B[cf];W[fc];
B[ej];W[fq];B[ip];W[po];B[qo];W[pp];B[nq];W[qp];B[qq];W[rp];B[qm];W[qn];B[me];
W[ld];B[kf];W[rm];B[rn];W[ro];B[rl];W[sn];B[pm];W[pb];B[ge];W[bd];B[hc];W[gd];
B[be];W[ce];B[kc];W[kd];B[jc];W[id];B[gb];W[ib];B[hd];W[ic];B[de];W[cd];B[df];
W[he];B[fd];W[gc];B[ec];W[hb];B[ed];W[cb];B[mn];W[pg];B[nd];W[qg];B[qi];W[pi];
B[nj];W[qj];B[ri];W[rf];B[qe];W[rj];B[oh];W[pj];B[ok];W[rh];B[re];W[sf];B[ig];
W[hg];B[hh];W[gg];B[em];W[dk];B[cn];W[dj];B[ei];W[di];B[eh];W[ek];B[fk];W[fl];
B[el];W[fm];B[bp];W[cq];B[en];W[fn];B[eo];W[fo];B[bm];W[bq];B[bk];W[cm];B[bl];
W[dn];B[do];W[co];B[bn];W[ep];B[gk];W[dm];B[cp];W[dl];B[hm];W[bi];B[ci];W[ch];
B[bj];W[bh];B[dh];W[bf];B[bg];W[ae];B[cg];W[kp];B[hq];W[kn];B[jl];W[io];B[ho];
W[in];B[hn];W[jp];B[jq];W[mo];B[no];W[mp];B[np];W[ln];B[lq];W[lp];B[jm];W[mm];
B[nn];W[jn];B[ko];W[kq];B[mq];W[jr];B[iq];W[ir];B[lr];W[kr];B[hr];W[hs];B[gs];
W[is];B[fr];W[ks];B[ll];W[gq];B[gr];W[er];B[oc];W[mc];B[ob];W[nb];B[oa];W[se];
B[rc];W[sc];B[sb];W[sd];B[rb];W[rd];B[qd];W[og];B[ng];W[nf];B[mf];W[nh];B[mg];
W[ni];B[mi];W[oi];B[if];W[fe];B[ee];W[gf];B[lm];W[rq];B[rr];W[mh];B[lh];W[gh];
B[hi];W[im];B[il];W[km];B[kl];W[sr];B[qr];W[bo];B[fb];W[db];B[eb];W[gl];B[hl];
W[gp];B[hp];W[es];B[rk];W[sj];B[of];W[ag];B[ai];W[af];B[ah];W[ls];B[ms];W[pf];
B[oe];W[gi])
