(;FF[4]BR[20k]CP[online-go.com]DT[2016-04-28]GM[1]KM[6.5]PB[luckyredz]
PC[OGS: http://online-go.com/game/5058735]PW[silverjohnny]RE[B+R]RU[japanese]
SZ[19]WR[21k];B[qd];W[dp];B[pq];W[ed];B[oc];W[pp];B[qq];W[qo];B[jd];W[ic];B[jc]
;W[id];B[cd];W[de];B[cc];W[ce];B[ec];W[fc];B[eb];W[fb];B[ea];W[gd];B[pj];W[jj];
B[jp];W[jq];B[mq];W[op];B[oq];W[kp];B[kq];W[lq];B[kr];W[lp];B[iq];W[jr];B[js];
W[mp];B[nq];W[np];B[ck];W[dj];B[cn];W[co];B[bo];W[dn];B[cp];W[do];B[bp];W[dq];
B[cr];W[dr];B[ch];W[dh];B[cj];W[dk];B[cm];W[oj];B[oh];W[ip];B[jo];W[io];B[in];
W[ir];B[hr];W[hq];B[lr];W[jn];B[is];W[ko];B[qm];W[gr];B[mr];W[hs];B[ks];W[mf];
B[jg];W[cq];B[br];W[bq];B[aq];W[cs];B[ar];W[dm];B[gg];W[ig];B[ih];W[hg];B[hh];
W[he];B[lh];W[mh];B[ol];W[ni];B[oi];W[nj];B[of];W[nl];B[me];W[lg];B[kh];W[kg];
B[jf];W[if];B[gf];W[ie];B[lf];W[mg];B[gi];W[li];B[le];W[rm];B[rl];W[rn];B[hk];
W[ji];B[jh];W[ki];B[fe];W[fd];B[dg];W[di];B[jl];W[kl];B[gm];W[eg];B[df];W[ef];
B[bf];W[im];B[hn];W[jm];B[il];W[dd];B[ee];W[eh];B[fa];W[ge];B[ff];W[je];B[kf];
W[mi];B[gb];W[hc];B[jb];W[hb];B[be];W[dc];B[ga];W[cf];B[cg];W[db];B[ha];W[ia];
B[ib];W[ka];B[ja];W[kd];B[kb];W[kc];B[lc];W[qj];B[pk];W[qk];B[ql];W[qi];B[qg];
W[sl];B[sk];W[sm];B[rk];W[pi];B[qn];W[ro];B[on];W[pn];B[pm];W[ok];B[pl];W[po];
B[om];W[nm];B[qh];W[ri];B[rh];W[nn];B[si])
