(;FF[4]BR[6k]CP[online-go.com]DT[2016-04-08]GM[1]KM[6.5]PB[Copacetic]
PC[OGS: http://online-go.com/game/4805167]PW[Bogdan13x]RE[W+R]RU[japanese]
SZ[19]WR[2k];B[pd];W[dp];B[pq];W[dd];B[fq];W[po];B[np];W[qq];B[pp];W[qp];B[oo];
W[qo];B[cq];W[cp];B[dq];W[ep];B[fp];W[dn];B[on];W[eq];B[er];W[nc];B[qf];W[pb];
B[qm];W[ne];B[og];W[mg];B[ni];W[li];B[fn];W[lk];B[mf];W[nf];B[mh];W[lh];B[lg];
W[ng];B[lf];W[jh];B[md];W[nd];B[kd];W[lb];B[fc];W[jc];B[jf];W[df];B[kc];W[kb];
B[id];W[io];B[im];W[go];B[fo];W[hm];B[hn];W[in];B[gm];W[hl];B[ho];W[hp];B[gn];
W[jm];B[ip];W[jp];B[iq];W[il];B[dj];W[ck];B[cj];W[cl];B[cg];W[ec];B[fd];W[cf];
B[dg];W[oh];B[ph];W[oi];B[pi];W[oj];B[pj];W[ic];B[ff];W[eg];B[fg];W[eh];B[bg];
W[bf];B[ef];W[fh];B[fj];W[hh];B[ii];W[hi];B[hj];W[ij];B[gi];W[gh];B[el];W[hd];
B[hc];W[he];B[hf];W[gc];B[fb];W[hb];B[ig];W[ge];B[ed];W[gf];B[gg];W[hg];B[if];
W[ih];B[cd];W[dc];B[de];W[ce];B[cc];W[cb];B[af];W[ee];B[be];W[fe];B[bd];W[bn])
