(;FF[4]BR[2k]CP[online-go.com]DT[2016-04-01]GM[1]KM[6.5]PB[komoku0]
PC[OGS: http://online-go.com/game/4699442]PW[zhongzzy9]RE[B+R]RU[japanese]
SZ[19]WR[9k];B[qd];W[dd];B[pq];W[dp];B[oc];W[qo];B[qk];W[qq];B[qr];W[pp];B[oq];
W[op];B[nq];W[np];B[mp];W[mo];B[lp];W[mm];B[fq];W[iq];B[fo];W[cn];B[io];W[lr];
B[mr];W[lq];B[mq];W[kp];B[ko];W[jp];B[jo];W[gr];B[gq];W[fr];B[er];W[hq];B[eq];
W[cq];B[jr];W[kr];B[js];W[ms];B[jq])
