(;FF[4]BR[9k]CP[online-go.com]DT[2016-05-11]GM[1]KM[6.5]PB[Poller]
PC[OGS: http://online-go.com/game/5212812]PW[ardeleanul]RE[W+27.5]RU[japanese]
SZ[19]WR[10k];B[qc];W[dq];B[pp];W[cd];B[pj];W[pe];B[oc];W[qh];B[ph];W[qg];B[pg]
;W[pf];B[qi];W[qd];B[pc];W[rd];B[rc];W[dj];B[jq];W[jd];B[co];W[cp];B[do];W[gq];
B[cl];W[ck];B[bk];W[bj];B[dk];W[cj];B[bl];W[lq];B[kp];W[oq];B[pq];W[pr];B[qr];
W[or];B[rq];W[qm];B[pn];W[pm];B[qn];W[ol];B[hp];W[hq];B[ip];W[kr];B[jr];W[lp];
B[ko];W[on];B[rm];W[rl];B[rn];W[op];B[oo];W[no];B[po];W[nn];B[pk];W[ql];B[oi];
W[ri];B[rj];W[rh];B[rk];W[qk];B[qj];W[sl];B[nk];W[ok];B[oj];W[nj];B[ni];W[mj];
B[ng];W[ne];B[ec];W[gc];B[cc];W[bc];B[dd];W[cb];B[dc];W[ce];B[fe];W[mc];B[me];
W[nb];B[ob];W[nf];B[mf];W[mg];B[mh];W[lg];B[nd];W[og];B[lh];W[nh];B[mi];W[mk];
B[jh];W[oh];B[kg];W[lf];B[md];W[lc];B[ra];W[dg];B[db];W[fd];B[ee];W[ge];B[fg];
W[hg];B[hh];W[gg];B[fh];W[gh];B[ig];W[hi];B[dh];W[ch];B[fb];W[if];B[kj];W[kl];
B[ik];W[jk];B[ij];W[ih];B[ji];W[jg];B[kf];W[le];B[fj];W[nc];B[od];W[ei];B[fi];
W[ek];B[dl];W[ej];B[gk];W[il];B[hl];W[jj];B[ii];W[ke];B[sd];W[sb];B[sc];W[fo];
B[ep];W[eq];B[fp];W[gp];B[go];W[gn];B[im];W[ho];B[io];W[bo];B[bn];W[ao];B[an];
W[bp];B[jl];W[kk];B[lj];W[lk];B[aj];W[el];B[em];W[fm];B[en];W[fk];B[gj];W[in];
B[jn];W[hn];B[rf];W[qf];B[ah];W[bi];B[ai];W[bg];B[bb];W[km];B[jm];W[ln];B[fr];
W[fq];B[gs];W[ir];B[is];W[gr];B[fs];W[hs];B[hr];W[cn];B[bm];W[hs];B[gb];W[js];
B[hc];W[ic];B[ib];W[hd];B[hb];W[jb];B[bd];W[be];B[ac];W[eo];B[dn];W[dp];B[ja];
W[kb];B[eh];W[gl];B[hm];W[de];B[ed];W[ef];B[ff];W[gf];B[cm];W[gm];B[jf];W[ig];
B[je];W[ie];B[kh];W[re];B[se];W[rg];B[sf];W[pd];B[na];W[ma];B[oa];W[ka];B[ia];
W[ld];B[lo];W[mo];B[kq];W[lr];B[ps];W[os];B[qs];W[iq];B[kn];W[lm];B[pi];W[af];
B[pl];W[hj];B[hk];W[ag];B[oe];W[of];B[si];W[bh];B[ak];W[gi];B[eg];W[df];B[di];
W[sh];B[sj];W[sm];B[sn];W[ae];B[ad];W[gd];B[sk];W[om];B[];W[])
