(;FF[4]BR[26k]CP[online-go.com]DT[2016-07-19]GM[1]KM[6.5]PB[Eric Han]
PC[OGS: http://online-go.com/game/5865447]PW[Birch22]RE[W+R]RU[japanese]SZ[19]
WR[20k];B[pc];W[pp];B[dp];W[dd];B[qn];W[nq];B[ro];W[qe];B[rd];W[pg];B[od];W[oe]
;B[ld];W[dg];B[dl];W[jp];B[eq];W[pn];B[on];W[po];B[oo];W[op];B[qk];W[pj];B[pl];
W[no];B[nn];W[mn];B[pm];W[om];B[nm];W[nl];B[mm];W[ol];B[ml];W[mo];B[oc];W[ok];
B[ql];W[qo];B[rn];W[gc];B[pe];W[pf];B[pd];W[nf];B[lf];W[lk];B[mk];W[mj];B[ng];
W[me];B[le];W[md];B[mc];W[lm];B[ll];W[kl])
