(;FF[4]BR[25k]CP[online-go.com]DT[2016-03-12]GM[1]KM[6.5]PB[zigioman]
PC[OGS: http://online-go.com/game/4263831]PW[Algis9]RE[B+R]RU[japanese]SZ[19]
WR[16k];B[pd];W[oe];B[cd];W[de];B[ec];W[fd];B[fc];W[gd];B[ic];W[jd];B[hd];W[gc]
;B[gb];W[hc];B[hb];W[jc];B[ib];W[dd];B[id];W[nc];B[oc];W[od];B[pc];W[dc];B[ed];
W[nb];B[fe];W[ge];B[gf];W[he];B[ee];W[db];B[ie];W[hf];B[hg];W[if];B[jf];W[ig];
B[ih];W[jg];B[kg];W[jh];B[ji];W[kh];B[lh];W[ki];B[kj];W[li];B[mi];W[lj];B[lk];
W[mj];B[nj];W[mk];B[ml];W[nk];B[ok];W[nl];B[nm];W[ol];B[pl];W[om];B[on];W[pm];
B[qm];W[pn];B[po])
