(;FF[4]BR[10k]CP[online-go.com]DT[2016-03-10]GM[1]KM[6.5]PB[orbitaleccentric]
PC[OGS: http://online-go.com/game/4228946]PW[thebbb]RE[W+R]RU[japanese]SZ[19]
WR[9k];B[dp];W[pd];B[qp];W[dd];B[oq];W[jd];B[jp];W[cn];B[fp];W[qf];B[cf];W[ce];
B[df];W[dm];B[dj];W[qi];B[nc];W[oc];B[ld];W[nd];B[mc];W[kc];B[le];W[ie];B[fe];
W[hd];B[hf];W[if];B[ig];W[jg];B[ih];W[jh];B[pl];W[pk];B[ok];W[pj];B[oj];W[oi];
B[mj];W[cl];B[en];W[em];B[fm];W[fl];B[gm];W[gl];B[hl];W[gj];B[ii];W[hk];B[il];
W[ik];B[jk];W[ji];B[ij];W[jj];B[hj];W[gk];B[gg];W[fc];B[nb];W[ob];B[ni];W[oh];
B[nh];W[md];B[lc];W[lb];B[mf];W[kk];B[jl];W[lj];B[mg];W[ll];B[mp];W[ol];B[nl];
W[om];B[ml];W[lm];B[mm];W[ql];B[mn];W[kn];B[ln];W[jm];B[hm];W[cp];B[cq];W[bp];
B[bq];W[do];B[eo];W[jo];B[io];W[kp];B[kq];W[jq];B[ip];W[lq];B[kr];W[lp];B[og];
W[pg];B[of];W[me];B[kf];W[jf];B[bf];W[be];B[ae];W[ad];B[af];W[bd];B[ed];W[ec];
B[gd];W[gc];B[ee];W[fh];B[fi];W[gi];B[gh];W[ei];B[eh];W[fj];B[dh];W[fg];B[ff];
W[eg];B[dg];W[hh];B[hg];W[hi];B[de];W[cc];B[dk];W[el];B[ek];W[he];B[gf];W[bj])
