(;FF[4]BR[15k]CP[online-go.com]DT[2016-02-03]GM[1]KM[6.5]PB[oldwizard1]
PC[OGS: http://online-go.com/game/3893765]PW[Burak5]RE[W+R]RU[japanese]SZ[19]
WR[12k];B[pd];W[dp];B[pp];W[dd];B[ha];W[qn];B[nq];W[qk];B[qi];W[nc];B[qf];W[pb]
;B[qc];W[kc];B[fc];W[hc];B[gb];W[ec];B[fe];W[df];B[de];W[ce];B[ee];W[dg];B[fq];
W[cn];B[jp];W[dj];B[cd];W[cc];B[bd];W[bc];B[ed];W[dc];B[cf];W[be];B[ia];W[jb];
B[fg];W[gf];B[gg];W[ff];B[ge];W[hf];B[he];W[ie];B[gc];W[hd];B[gd];W[eb];B[if];
W[id];B[ig];W[ef];B[ea];W[da];B[cg];W[dh];B[ch];W[ci];B[jj];W[hg];B[gi];W[hj];
B[gj];W[hk];B[gk];W[gl];B[hl];W[fl];B[hi];W[il];B[hm];W[ik];B[jm];W[im];B[hn];
W[in];B[jn];W[io];B[ho];W[ip];B[hp];W[iq];B[hq];W[er];B[pk];W[rp];B[qq];W[pj];
B[qj];W[ql];B[le];W[ne];B[og];W[oi];B[pi];W[oj];B[jq];W[ir];B[hr];W[jo];B[lp];
W[jr];B[kq];W[ko];B[ln];W[lo];B[mo];W[jl];B[kl];W[kn];B[km];W[mn];B[mm];W[lm];
B[ll];W[mp];B[mq];W[no];B[np];W[oo];B[mo];W[nn];B[ln];W[mp];B[nm];W[om];B[lm];
W[mo];B[co];W[do];B[en];W[em];B[dn];W[dm];B[cm];W[bn];B[jd];W[je];B[kd];W[ke];
B[md];W[lf];B[nd];W[me];B[ld];W[od];B[oc];W[oe];B[nb];W[pc];B[ob];W[qd];B[pe];
W[jc];B[qb];W[mc];B[pa];W[oh];B[ph];W[ng];B[of];W[nf];B[kr];W[fr];B[ei];W[di];
B[is];W[js];B[hs];W[gr];B[ij];W[hh];B[ih];W[ej];B[fi];W[ki];B[nh];W[ni];B[mh];
W[mi];B[lh];W[kh];B[lg];W[lc];B[ol];W[li];B[jg];W[ji];B[ii];W[kg];B[po];W[pn];
B[pm];W[on];B[op])
