(;FF[4]BR[17k]CP[online-go.com]DT[2016-07-22]GM[1]KM[6.5]PB[pawell]
PC[OGS: http://online-go.com/game/5885761]PW[maciej.rozalski.7]RE[W+138.5]
RU[japanese]SZ[19]WR[12k];B[pd];W[pq];B[dp];W[ec];B[qo];W[fq];B[cn];W[ck];B[cq]
;W[fo];B[em];W[ek];B[gm];W[ip];B[qk];W[nc];B[jd];W[ne];B[pg];W[ng];B[oi];W[ni];
B[nk];W[kh];B[hh];W[dg];B[fe];W[de];B[jk];W[ke];B[np];W[lq];B[ko];W[kp];B[io];
W[hp];B[ho];W[go];B[hm];W[ep];B[qc];W[pb];B[qb];W[oc];B[pe];W[hc];B[hd];W[gd];
B[ge];W[fd];B[id];W[he];B[hf];W[ie];B[je];W[if];B[ig];W[jf];B[kf];W[jg];B[jh];
W[kg];B[lf];W[gf];B[hg];W[ff];B[ld];W[kc];B[kd];W[lc];B[ic];W[hb];B[mi];W[mh];
B[oh];W[nh];B[nf];W[mf];B[of];W[oe];B[me];W[mg];B[pc];W[ob];B[od];W[nd];B[mc];
W[mb];B[md];W[lg];B[le];W[ib];B[ki];W[li];B[mj];W[ji];B[kj];W[ii];B[hi];W[ij];
B[hj];W[ik];B[ih];W[hk];B[gk];W[il];B[jm];W[gl];B[fl];W[gj];B[hl];W[gi];B[fk];
W[fj];B[ej];W[ei];B[dj];W[dk];B[di];W[gh];B[lj];W[im];B[in];W[jl];B[kl];W[gg];
B[kn];W[gn];B[en];W[do];B[cp];W[co];B[eo];W[dn];B[bo];W[dm];B[cm];W[dl];B[eq];
W[fp];B[er];W[hn];B[fr];W[gr];B[hr];W[gs];B[ir];W[jq];B[jr];W[kr];B[nq];W[lo];
B[mo];W[ln];B[lm];W[mn];B[oo];W[rp];B[ro];W[qp];B[pp];W[qr];B[rr];W[rq];B[sp];
W[sq];B[so];W[rs];B[or];W[pr];B[bk];W[bj];B[bl];W[cj];B[aj];W[ai];B[bi];W[ak];
B[ah];W[aj];B[al];W[ci];B[bh];W[bf];B[dh];W[ch];B[eh];W[eg];B[ps];W[qs];B[os];
W[oq];B[mr];W[lr];B[mp];W[lp];B[nn];W[mm];B[ml];W[nm];B[om];W[nl];B[ol];W[og];
B[pf];W[nj];B[oj];W[jj];B[kk];W[jo];B[km];W[jn];B[op];W[mq];B[ls];W[ks];B[ms];
W[nr];B[ns];W[nr];B[ns];W[fs];B[es];W[gq];B[pa];W[oa];B[qa];W[jc];B[cl];W[bn];
B[an];W[dr];B[dq];W[cr];B[br];W[bp];B[bq];W[ao];B[aq];W[am];B[bs];W[ap];B[fi];
W[lh];B[ma];W[];B[])
