(;FF[4]BR[13k]CP[online-go.com]DT[2016-06-09]GM[1]KM[6.5]PB[turns_ago]
PC[OGS: http://online-go.com/game/5503172]PW[Tom Newman]RE[B+44.5]RU[japanese]
SZ[19]WR[14k];B[pd];W[dp];B[pq];W[dc];B[pk];W[di];B[fq];W[hq];B[cq];W[dq];B[cp]
;W[do];B[dr];W[er];B[cr];W[eq];B[cn];W[co];B[bo];W[dn];B[cm];W[dm];B[jc];W[nq];
B[op];W[np];B[no];W[oo];B[on];W[po];B[nn];W[pn];B[pm];W[qm];B[ql];W[rm];B[ml];
W[qf];B[qh];W[qc];B[qd];W[pc];B[od];W[oc];B[nd];W[rd];B[re];W[rc];B[qe];W[nc];
B[md];W[gc];B[hd];W[gd];B[he];W[ge];B[gf];W[ff];B[gg];W[fg];B[fh];W[gh];B[hh];
W[gi];B[hi];W[gj];B[hj];W[hk];B[gk];W[fk];B[gl];W[ej];B[ik];W[hl];B[hm];W[il];
B[jl];W[im];B[in];W[gm];B[jm];W[fl];B[gn];W[fm];B[qp];W[ro];B[rp];W[rl];B[rk];
W[pp];B[oq];W[qo];B[sl];W[sm];B[sk];W[sp];B[rq];W[rn];B[so];W[jo];B[mp];W[mq];
B[lp];W[kq];B[fo];W[fn];B[go];W[fp];B[gp];W[eo];B[ip];W[gq];B[iq];W[fr];B[ir];
W[hr];B[nr];W[mr];B[or];W[cl];B[bl];W[ck];B[bk];W[bj];B[bn];W[aj];B[ak];W[om];
B[pl];W[nm];B[mm];W[mo];B[mn];W[lo];B[kp];W[jp];B[ko];W[jr];B[is];W[io];B[hn];
W[hp];B[ho];W[jq];B[lq];W[lr];B[kn];W[hc];B[ic];W[ib];B[jb];W[ia];B[mc];W[mb];
B[lb];W[ma];B[la];W[nb];B[ja];W[hb];B[jn];W[js];B[se];W[ns];B[os];W[ms];B[sd];
W[sc];B[es];W[fs];B[ds];W[qr];B[qq];W[rr];B[sr];W[sn];B[sq];W[pr];B[so];W[hf];
B[hg];W[sp];B[if];W[ps];B[so];W[am];B[qn];W[bm];B[an];W[al];B[bp];W[ar];B[bs];
W[br];B[aq];W[ks];B[];W[])
