(;FF[4]BR[6k]CP[online-go.com]DT[2016-04-23]GM[1]KM[6.5]PB[cook777]
PC[OGS: http://online-go.com/game/5004728]PW[ryuzakee]RE[W+R]RU[japanese]SZ[19]
WR[1d];B[pd];W[gq];B[dc];W[qp];B[dq];W[qf];B[nc];W[pm];B[de];W[kq];B[do];W[cj];
B[cl];W[cg];B[ce];W[ej];B[jd];W[pi];B[el];W[bl];B[bk];W[ck];B[cm];W[bm];B[bn];
W[bj];B[eg];W[rd];B[of];W[qc];B[iq];W[je];B[id];W[le];B[kd];W[mh];B[oq];W[op];
B[np];W[pq];B[oo];W[pp];B[mp];W[ko];B[io];W[mr];B[nr];W[mq];B[nq];W[mn];B[nn];
W[nm];B[pn];W[qn];B[om];W[ol];B[on];W[mm];B[lo];W[kn];B[kp];W[jp];B[lp];W[jq];
B[ln];W[lm];B[jo];W[km];B[ip];W[ir])
