(;FF[4]BR[5k]CP[online-go.com]DT[2016-03-26]GM[1]KM[6.5]PB[El.Loco]
PC[OGS: http://online-go.com/game/4600819]PW[patches]RE[B+R]RU[japanese]SZ[19]
WR[4k];B[qd];W[dd];B[pq];W[dp];B[oc];W[po];B[qo];W[rd];B[re];W[qn];B[qp];W[qe];
B[pe];W[qf];B[rf];W[qg];B[rg];W[qh];B[qj];W[qc];B[pd];W[rb];B[rh];W[pb];B[qi];
W[og];B[oh];W[of];B[ne];W[mf];B[ld];W[mg];B[mi];W[pn];B[nq];W[no];B[lp];W[pk];
B[oj];W[pj];B[pi];W[ok];B[nj];W[qk];B[kh];W[kf];B[jd];W[kg];B[jh];W[if];B[hg];
W[hf];B[gg];W[hd];B[ob];W[sd];B[fq];W[cn];B[ip];W[ic];B[jc];W[ib];B[jb];W[ce];
B[mn];W[fo];B[rl];W[rm];B[rk];W[ql];B[ro];W[nm];B[mm];W[nn];B[nl];W[ol];B[pm];
W[om];B[fm];W[gn];B[hl];W[eg];B[ci];W[ck];B[cf];W[be];B[ff];W[df];B[fd];W[fc];
B[ec];W[ed];B[gc];W[gd];B[fb];W[fe];B[ge];W[fc];B[op];W[oo];B[fd];W[ee];B[he];
W[gf];B[ie];W[je];B[id];W[fg];B[hc];W[hj];B[gi];W[gj];B[ei];W[fj];B[fi];W[ig];
B[ih];W[hh];B[hi];W[ik];B[ij];W[hk];B[dr];W[hp];B[hq];W[io];B[jp];W[gp];B[gq];
W[db];B[dc];W[cc];B[cq];W[cp];B[dk];W[dl];B[ek];W[il])
