(;FF[4]BR[6k]CP[online-go.com]DT[2016-06-01]GM[1]KM[6.5]PB[serieux]
PC[OGS: http://online-go.com/game/5422960]PW[pulentoshorizo]RE[B+137.5]
RU[japanese]SZ[19]WR[21k];B[pd];W[dp];B[dd];W[pp];B[cn];W[bp];B[cq];W[fq];B[cp]
;W[dq];B[dr];W[er];B[cr];W[en];B[dm];W[qf];B[pf];W[qg];B[pg];W[qh];B[qe];W[re];
B[rd];W[sf];B[qc];W[pi];B[nq];W[pr];B[kq];W[iq];B[ko];W[io];B[km];W[im];B[qn];
W[pn];B[qq];W[qp];B[pq];W[oq];B[or];W[op];B[qr];W[no];B[mq];W[mo];B[pm];W[om];
B[pl];W[ol];B[ok];W[nk];B[nj];W[mm];B[pj];W[qj];B[qk];W[rj];B[mk];W[nl];B[qo];
W[po];B[rp];W[ll];B[kk];W[lk];B[lj];W[oi];B[oj];W[kl];B[jl];W[kj];B[jk];W[ln];
B[kn];W[nn];B[ki];W[jj];B[ij];W[mi];B[mj];W[ni];B[jd];W[ng];B[nd];W[lf];B[ke];
W[kf];B[jf];W[kh];B[jh];W[li];B[ji];W[kg];B[jg];W[le];B[ld];W[ne];B[md];W[me];
B[oe];W[og];B[cc];W[el];B[dl];W[ek];B[em];W[fm];B[fl];W[gl];B[fk];W[gk];B[fj];
W[dj];B[cj];W[di];B[ci];W[ei];B[gj];W[ch];B[dh];W[eg];B[dg];W[fi];B[gi];W[gh];
B[df];W[hj];B[hi];W[hk];B[gm];W[fn];B[hl];W[gn];B[ik];W[hm];B[ef];W[fg];B[ff];
W[gf];B[ge];W[hf];B[he];W[hh];B[ih];W[eh];B[hg];W[co];B[bo];W[do];B[bn];W[dn];
B[dk];W[jq];B[kr];W[jr];B[js];W[is];B[ks];W[lp];B[kp];W[lq];B[lr];W[jm];B[nr];
W[jo];B[jn];W[in];B[gl];W[lo];B[jp];W[ip];B[es];W[fs];B[ds];W[gr];B[sd];W[se];
B[of];W[nf];B[ph];W[oh];B[];W[];B[rk];W[sk];B[sl];W[sj];B[rl];W[qi];B[];W[])
