(;FF[4]BR[18k]CP[online-go.com]DT[2016-04-23]GM[1]KM[6.5]PB[mrac]
PC[OGS: http://online-go.com/game/5001776]PW[vlahopol]RE[B+R]RU[japanese]SZ[19]
WR[17k];B[dp];W[pc];B[cd];W[qp];B[ec];W[jd];B[cg];W[jp];B[gq];W[pj];B[cm];W[gc]
;B[gn];W[gf];B[ef];W[mo];B[fj];W[gj];B[gk];W[hk];B[gi];W[hj];B[gl];W[gh];B[fh];
W[hi];B[fi];W[eb];B[db];W[fc];B[ed];W[gb];B[ir];W[jr];B[js];W[ks];B[is];W[kq];
B[iq];W[ho];B[go];W[op];B[hp])
