(;FF[4]BR[18k]CP[online-go.com]DT[2016-05-26]GM[1]KM[6.5]PB[harrypotter192]
PC[OGS: http://online-go.com/game/5358121]PW[Landroval]RE[W+2.5]RU[japanese]
SZ[19]WR[18k];B[dp];W[pd];B[dc];W[pp];B[cj];W[pj];B[jc];W[jp];B[nc];W[qf];B[pb]
;W[jj];B[qn];W[qo];B[np];W[lp];B[oo];W[op];B[no];W[po];B[pn];W[on];B[ml];W[nn];
B[mn];W[mo];B[om];W[nm];B[nl];W[nq];B[mm];W[nn];B[oh];W[nj];B[mh];W[qh];B[lj];
W[mi];B[lh];W[li];B[ki];W[kj];B[mj];W[ni];B[nh];W[mp];B[on];W[ql];B[ok];W[oj];
B[pl];W[jm];B[im];W[il];B[in];W[jn];B[io];W[jo];B[cf];W[fd];B[gc];W[gd];B[hg];
W[ig];B[if];W[jg];B[cp];W[hd];B[fc];W[hc];B[jd];W[ne];B[hf];W[lf];B[mf];W[me];
B[le];W[kf];B[kg];W[jf];B[pi];W[qi];B[qj];W[rj];B[qk];W[pk];B[ii];W[ji];B[ih];
W[jh];B[nk];W[rk];B[hl];W[hk];B[ik];W[jl];B[ij];W[ld];B[lc];W[ip];B[gm];W[go];
B[hp];W[ho];B[gp];W[fo];B[em];W[eq];B[fp];W[ep];B[eo];W[hq];B[dq];W[en];B[dn];
W[do];B[co];W[eo];B[cm];W[hm];B[hn];W[gn];B[fm];W[hm];B[gl];W[gk];B[ie];W[dl];
B[fk];W[jb];B[ib];W[cc];B[dd];W[eb];B[ec];W[db];B[cd];W[bc];B[bd];W[fb];B[hb];
W[gb];B[ic];W[qm];B[pm];W[ro];B[rn];W[rm];B[sn];W[so];B[qc];W[qd];B[rd];W[re];
B[sd];W[se];B[rc];W[oc];B[ob];W[nd];B[mc];W[je];B[kd];W[ke];B[sm];W[sl];B[er];
W[fr];B[es];W[fs];B[dr];W[ac];B[ad];W[lk];B[mk];W[ln];B[kk];W[jk];B[kl];W[km];
B[ll];W[ha];B[ia];W[ga];B[pc];W[od];B[md];W[le];B[kr];W[mr];B[ir];W[hr];B[];
W[dm];B[cn];W[fn];B[gj];W[];B[])
