(;FF[4]BR[5k]CP[online-go.com]DT[2016-06-23]GM[1]KM[6.5]PB[nazar]
PC[OGS: http://online-go.com/game/5629798]PW[Orbix19]RE[B+R]RU[japanese]SZ[19]
WR[4k];B[pd];W[dc];B[dq];W[pp];B[ce];W[do];B[cm];W[cq];B[cr];W[cp];B[fp];W[en];
B[fc];W[de];B[df];W[ee];B[cd];W[ec];B[gd];W[cc];B[ef];W[fe];B[ci];W[dl];B[cl];
W[dk];B[ck];W[hq];B[hp];W[fq];B[ep];W[iq];B[fn];W[em];B[kq];W[mq];B[ko];W[ip];
B[gq];W[gr];B[gp];W[io];B[mp];W[np];B[mo];W[lq];B[kp];W[er];B[dr];W[gl];B[hm];
W[jn];B[gm];W[fm];B[hl];W[gn];B[hn];W[fo];B[ho];W[km];B[no];W[op];B[gk];W[fl];
B[gj];W[br];B[bs];W[bn];B[bq];W[bp];B[ar];W[cn];B[mm];W[kk];B[mk];W[ki];B[qj];
W[nl];B[nm];W[ql];B[qn];W[pn];B[pm];W[qo];B[qm];W[nc];B[lc];W[ne];B[oc];W[nb];
B[le];W[pb];B[pf];W[qc];B[ob];W[oa];B[qd];W[rc];B[rd];W[sd];B[pc];W[qa];B[se];
W[sc];B[rf];W[hc];B[gc];W[jc];B[kb];W[je];B[jb];W[hb];B[rb];W[sb];B[ra];W[me];
B[md];W[nd];B[lf];W[ng];B[mg];W[kd];B[ld];W[oh];B[of];W[nf];B[mh];W[qh];B[rh];
W[pj];B[nh];W[og];B[ri];W[ni];B[oi];W[oj];B[pi];W[qi];B[nj];W[ph];B[oi];W[nk];
B[mj];W[rj];B[rk];W[qk];B[rl];W[pl];B[ge];W[ff];B[if];W[jf];B[ig];W[kg];B[fb];
W[li];B[id];W[ie];B[hd];W[hf];B[gf];W[fg];B[cf];W[mi];B[gh];W[gg];B[hg];W[bc];
B[eb];W[bd];B[db];W[be];B[bf];W[cb];B[ae];W[ad];B[ab];W[fh];B[fi];W[dd];B[fd];
W[sj];B[on];W[qg];B[rg];W[qf];B[jl];W[kl];B[ml];W[ro];B[rn];W[sn];B[sm];W[so];
B[sk];W[qj];B[dj];W[eo];B[kr];W[ls];B[lr];W[mr];B[po];W[qq];B[hh];W[ak];B[aj];
W[al];B[bj];W[jk];B[jm];W[kn];B[jd];W[ke];B[kc];W[ii];B[jh];W[lg];B[ji];W[ik];
B[jj];W[lk];B[mf];W[hk];B[ij];W[ap];B[ds];W[aq];B[br];W[hj];B[hi];W[ir];B[ks];
W[ms];B[bm];W[am];B[jg];W[kf];B[ej];W[ek];B[mb])
