(;FF[4]BR[18k]CP[online-go.com]DT[2016-05-31]GM[1]KM[6.5]PB[AurelianTutuianu]
PC[OGS: http://online-go.com/game/5410031]PW[shinkurex]RE[W+R]RU[japanese]
SZ[19]WR[21k];B[qp];W[pd];B[dq];W[cd];B[nq];W[do];B[co];W[dp];B[cp];W[eq];B[dr]
;W[dn];B[ec];W[df];B[gd];W[cj];B[kc];W[mc];B[pj];W[jp];B[ej];W[di];B[ei];W[eh];
B[gi];W[gg];B[jn];W[ic];B[jd];W[id];B[ie];W[je];B[he];W[jf];B[jc];W[ib];B[ld];
W[md];B[lf];W[le];B[ke];W[me];B[kf];W[mf];B[hg];W[jg];B[lh];W[mg];B[jh];W[ih];
B[kg];W[ig];B[hh];W[ji];B[kh];W[ii];B[lj];W[ph];B[gl];W[fi];B[fh];W[gh];B[fj];
W[hi];B[hf];W[gj];B[fg];W[fi];B[eg];W[dh];B[gi];W[li];B[ki];W[fi];B[gf];W[gi];
B[ee];W[ef];B[ff];W[fk];B[ek];W[el];B[fl];W[gk];B[dl];W[em];B[ck];W[dk];B[mi];
W[ni];B[nj];W[oi];B[oj];W[qj];B[qk];W[pk];B[qi];W[rj];B[pl];W[ok];B[ol];W[nk];
B[mk];W[pi];B[ri];W[mj])
