(;FF[4]BR[15k]CP[online-go.com]DT[2016-03-02]GM[1]KM[6.5]PB[Nails]
PC[OGS: http://online-go.com/game/4146448]PW[围棋哆啦A梦]RE[W+R]
RU[japanese]SZ[19]WR[10k];B[dd];W[pp];B[dp];W[pd];B[cj];W[pj];B[gc];W[gq];B[kc]
;W[cn];B[en];W[dl];B[cl];W[dm];B[np];W[lq];B[mq];W[lp];B[pq];W[qq];B[pr];W[qr];
B[op];W[po];B[oo];W[on];B[pn];W[qn];B[pm];W[qm];B[pl];W[ql];B[pk];W[qk];B[ok];
W[go];B[cp];W[fl];B[fn];W[ej];B[dg];W[bm];B[bo];W[bk];B[ck];W[cm];B[ci];W[bj];
B[bi];W[bl];B[lo];W[ko];B[ln];W[kn];B[ip];W[jp];B[ho];W[iq];B[gn];W[hp];B[fo];
W[gp];B[in];W[io];B[hn];W[dr];B[eq];W[er];B[cr];W[gh];B[oc];W[pb];B[ob];W[pc];
B[pf];W[qf];B[qh];W[qi];B[ph];W[qe];B[pe];W[od];B[md];W[nc];B[nb];W[mc];B[nd];
W[mb];B[lc];W[na];B[oe];W[cc];B[cd];W[dc];B[ec];W[eb];B[fb];W[bd];B[be];W[bc];
B[cf];W[jj];B[jl];W[if];B[ie];W[db];B[le];W[hf];B[he];W[kf];B[ke];W[je];B[jd];
W[jf];B[lf];W[ge];B[gd];W[fe];B[ii];W[ji];B[gj];W[hk];B[gk];W[gl];B[km];W[ij];
B[fi];W[eh];B[ei];W[di];B[dh];W[dj];B[dk];W[ek];B[em];W[el];B[fh];W[gi];B[eg];
W[fj];B[lj];W[li];B[mj];W[mi];B[ni];W[lg];B[mg];W[lh];B[nh];W[kk];B[ll];W[lk];
B[mk];W[lb];B[kb];W[ba];B[ad];W[ac];B[ae];W[rg];B[rh];W[ri];B[pi];W[sh];B[qg];
W[rf];B[oj];W[qj];B[qs];W[rs];B[ps];W[sr];B[qp];W[qo];B[oq];W[mp];B[mo];W[mr];
B[nr];W[nq];B[oa];W[pa];B[la];W[dq];B[cq];W[ep];B[do];W[fp];B[hl];W[hj];B[mq];
W[lr];B[nq];W[il];B[hm];W[jk];B[im];W[ik];B[dn];W[fg];B[eh];W[ef];B[df];W[ai];
B[bh];W[cs];B[br];W[ed];B[fc];W[ma];B[ka];W[an];B[ao];W[co];B[bp];W[ah];B[ag];
W[aj];B[bn];W[bg])
