(;FF[4]BR[9k]CP[online-go.com]DT[2016-04-29]GM[1]KM[6.5]PB[mikserc]
PC[OGS: http://online-go.com/game/5066871]PW[jmrt]RE[W+R]RU[japanese]SZ[19]
WR[9k];B[pd];W[dp];B[pq];W[dd];B[qk];W[cj];B[fq];W[nc];B[pf];W[kc];B[pb];W[ne];
B[fc];W[hc];B[fe];W[cb];B[id];W[hd];B[ic];W[hf];B[md];W[nd];B[lc];W[me];B[kd];
W[kb];B[lb];W[ib];B[ke];W[lg];B[lf];W[le];B[ld];W[mf];B[na];W[kf];B[gf];W[ie];
B[jd];W[gg];B[df];W[ce];B[cf];W[bg];B[bf];W[be];B[fg];W[gh];B[fh];W[fi];B[ge];
W[he];B[ei];W[ej];B[di];W[dj];B[bi];W[ci];B[bh];W[ch];B[cg];W[eh];B[gi];W[fj];
B[eg];W[dh];B[hg];W[hh];B[ig];W[ih];B[ed];W[dc];B[de];W[hq];B[cq];W[cp];B[dq];
W[fp];B[gp];W[eq];B[er];W[ep];B[gq];W[hr];B[io];W[kq];B[fn];W[go];B[hp];W[hn];
B[in];W[hm];B[mq];W[lr];B[mr];W[qp];B[qq];W[qm];B[ok];W[rq];B[rr];W[sq];B[oo];
W[po];B[on];W[pn];B[jr];W[jq];B[kr];W[lq];B[ls];W[mp];B[lm];W[nq];B[nr];W[or];
B[oq];W[np];B[pr];W[ms];B[ns];W[ks];B[os];W[ir];B[ms];W[js];B[lo];W[lp];B[ro];
W[rp];B[rm])
