(;FF[4]BR[15k]CP[online-go.com]DT[2016-02-05]GM[1]KM[6.5]PB[tel]
PC[OGS: http://online-go.com/game/3916418]PW[AlbertSN]RE[W+R]RU[japanese]SZ[19]
WR[12k];B[pd];W[pp];B[cd];W[dp];B[ic];W[qf];B[nd];W[rd];B[qc];W[qi];B[cn];W[fq]
;B[nq];W[lq];B[qq];W[pq];B[qp];W[po];B[pr];W[or];B[qr];W[oq];B[qn];W[cl];B[bp];
W[cq];B[do];W[cp];B[bq];W[eo];B[en];W[fo];B[fm];W[co];B[bo];W[dn];B[dm];W[ci];
B[cm];W[cf];B[ed];W[pm];B[pj];W[qj];B[pk];W[ql];B[cj];W[dj];B[dk];W[ck];B[ej];
W[bj];B[di];W[dl];B[el];W[ek];B[fk];W[ei];B[dk];W[dh];B[pg];W[qg];B[ph];W[fn];
B[em];W[gm];B[gl];W[hm];B[iq];W[jq];B[jp];W[kp];B[jo];W[jm];B[ln];W[ll];B[nm];
W[mm];B[mn];W[nn];B[on];W[no];B[pn];W[om];B[nl];W[oo];B[qm];W[qo];B[pl];W[rn];
B[ol];W[rm];B[lk];W[kl];B[kk];W[rp];B[ff];W[gh];B[hf];W[ih];B[jg];W[jh];B[hi];
W[hh];B[kh];W[br];B[fh];W[fi];B[gi];W[fg];B[eg];W[eh];B[gg];W[fh];B[ef];W[jk];
B[jj];W[ij];B[ii];W[ji];B[ik];W[kj];B[hj];W[hk];B[jj];W[jl];B[be];W[aq];B[ap];
W[bn];B[ar];W[bm];B[cr];W[dr];B[bs];W[kg];B[kf];W[lg];B[lf];W[mg];B[lj];W[ki];
B[lh];W[li];B[mh];W[mi];B[nh];W[mk];B[ng];W[bf])
