(;FF[4]BR[11k]CP[online-go.com]DT[2016-03-20]GM[1]KM[6.5]PB[TARAHUMARA]
PC[OGS: http://online-go.com/game/4474690]PW[tel]RE[B+1.5]RU[japanese]SZ[19]
WR[15k];B[pd];W[dp];B[pq];W[ec];B[pk];W[mp];B[qo];W[jp];B[cd];W[de];B[ce];W[df]
;B[bg];W[kc];B[mc];W[cj];B[dh];W[ej];B[fh];W[ff];B[dc];W[db];B[cb];W[gq];B[eb];
W[fb];B[da];W[fd];B[cq];W[cp];B[bp];W[bo];B[dq];W[ep];B[fr];W[qh];B[qf];W[oh];
B[of];W[gi];B[mf];W[mh];B[mk];W[kk];B[lj];W[kj];B[li];W[lh];B[ki];W[kh];B[ji];
W[ij];B[jj];W[jk];B[gh];W[hh];B[jh];W[kf];B[hg];W[jg];B[gj];W[fi];B[ei];W[di];
B[eh];W[ih];B[hi];W[fj];B[ii];W[hj];B[ig];W[qc];B[pc];W[qd];B[qe];W[pb];B[ob];
W[re];B[rf];W[rd];B[se];W[rb];B[pa];W[qa];B[qb];W[oq];B[op];W[or];B[pr];W[np];
B[oo];W[lm];B[nm];W[gr];B[fq];W[fp];B[bq];W[if];B[jm];W[hl];B[ln];W[mn];B[mm];
W[ll];B[mo];W[lo];B[nn];W[kn];B[no];W[qk];B[ql];W[rk];B[rl];W[pj];B[ok];W[oj];
B[ni];W[nh];B[ko];W[lp];B[mn];W[jn];B[eq];W[bh];B[ch];W[ci];B[bi];W[bj];B[ah];
W[hf];B[gp];W[hp];B[go];W[ho];B[gn];W[em];B[dn];W[en];B[bn];W[co];B[ao];W[cn];
B[bm];W[cm];B[bl];W[cl];B[bk];W[ck];B[aj];W[lb];B[mb];W[gk];B[lk];W[kl];B[os];
W[ns];B[ps];W[mr];B[gs];W[hs];B[fs];W[hr];B[nj];W[dd];B[rj];W[qj];B[sk];W[ri];
B[sj];W[si];B[sl];W[me];B[ne];W[le];B[ra];W[sg];B[sd];W[md];B[nd];W[cf];B[bf];
W[fa];B[ml];W[pg];B[rh];W[rg];B[oi];W[pi];B[jo];W[ik];B[lc];W[la];B[kd];W[ld];
B[kb];W[jc];B[ka];W[jb];B[ma];W[ja];B[je];W[jd];B[ke];W[lf];B[gf];W[ge];B[gg];
W[sf];B[rc];W[mg];B[qg];W[sh];B[pf];W[og];B[nf];W[eg];B[dg];W[fg];B[ea];W[mi];
B[mj];W[];B[])
