(;FF[4]BR[12k]CP[online-go.com]DT[2016-04-11]GM[1]KM[6.5]PB[KingYiuSuen]
PC[OGS: http://online-go.com/game/4842319]PW[acotis]RE[B+R]RU[japanese]SZ[19]
WR[10k];B[pd];W[dp];B[qp];W[dd];B[oq];W[qj];B[fc];W[jc];B[cf];W[fd];B[gd];W[fe]
;B[dc];W[ce];B[cc];W[ci];B[be];W[df];B[cd];W[cg];B[de];W[ed];B[ec];W[cm];B[ge];
W[dg];B[ff];W[mc];B[qg];W[qm];B[jp];W[hq];B[dj];W[ck];B[cj];W[bj];B[bi];W[bh];
B[bk];W[ai];B[cl];W[di];B[dk];W[co];B[fi];W[jr];B[kd];W[ld];B[kc];W[lb];B[kb];
W[pb];B[qc];W[qb];B[jf];W[ho];B[il];W[jn];B[kl];W[lo];B[mq];W[kq];B[le];W[me];
B[mf];W[ke];B[lf];W[ka];B[ja];W[la];B[jb];W[md];B[je];W[em];B[fk];W[jk];B[jl];
W[lk];B[ll];W[mk];B[kk];W[nm];B[li];W[mi];B[mh];W[ni];B[rb];W[lj];B[kj];W[lh];
B[ki];W[nh];B[mg];W[nf];B[oe];W[ne];B[ml];W[nk];B[gm];W[fn];B[qi];W[ri];B[rh];
W[rj];B[rn];W[rm];B[qn];W[pn];B[po];W[qq];B[pq];W[qr];B[pr];W[rp];B[ro];W[sq];
B[rr];W[on];B[pi];W[pc];B[rc];W[fl];B[gl];W[ek];B[ej];W[el];B[oc];W[ob];B[bm];
W[bn];B[in];W[hn];B[im];W[io];B[gn];W[go];B[dm];W[dn];B[dl];W[cn];B[kn];W[jo];
B[pj];W[pk];B[of];W[fg];B[gg];W[ef];B[ee];W[fh];B[gh];W[ei];B[sm];W[sl];B[sn];
W[lr];B[mr];W[os];B[ms];W[qs];B[oo];W[no];B[np];W[mp];B[ps];W[lq];B[si];W[sj];
B[sh];W[rl];B[qa];W[nc];B[od];W[og];B[ng];W[ph];B[na];W[ma];B[nb])
