(;FF[4]BR[9k]CP[online-go.com]DT[2016-04-02]GM[1]KM[6.5]PB[V-Sapristi]
PC[OGS: http://online-go.com/game/4707950]PW[theemathas]RE[W+R]RU[japanese]
SZ[19]WR[10k];B[pd];W[dd];B[pq];W[dp];B[qj];W[po];B[jc];W[np];B[qp];W[qo];B[rp]
;W[cj];B[fq];W[fp];B[gp];W[fo];B[jp];W[eq];B[go];W[gn];B[mq];W[ql];B[oj];W[nl];
B[qc];W[ko];B[nq];W[mp];B[lp];W[lo];B[kp];W[in];B[fd];W[df];B[ff];W[fc];B[gc];
W[ec];B[ge];W[mj];B[ni];W[lh];B[eh];W[eg];B[fg];W[fh];B[gh];W[fi];B[gi];W[gj];
B[nf];W[hj];B[kg];W[ih];B[ig];W[jh];B[jg];W[gq];B[hq];W[fr];B[gr];W[fq];B[hr];
W[io];B[ip];W[mi];B[mg];W[pk];B[pj];W[ro];B[op];W[oo];B[qk];W[pl];B[gb];W[fb];
B[fj];W[ei];B[ej];W[di];B[dj];W[ck];B[em];W[fk])
