(;FF[4]BR[21k]CP[online-go.com]DT[2016-05-06]GM[1]KM[6.5]PB[Jwill1997]
PC[OGS: http://online-go.com/game/5151658]PW[ChrisPhillips]RE[W+R]RU[japanese]
SZ[19]WR[16k];B[qd];W[op];B[dd];W[dp];B[qp];W[pq];B[qq];W[kp];B[ql];W[cg];B[cf]
;W[dj];B[jc];W[qf];B[pe];W[qj];B[pf];W[pg];B[md];W[ng];B[eg];W[fi];B[hg];W[cc];
B[dc];W[cd];B[ce];W[db];B[eb];W[bb];B[bd];W[bc];B[da];W[cb];B[be];W[ca];B[ea];
W[ec];B[fc];W[ed];B[de];W[fb];B[ee];W[fa];B[fd];W[eb];B[dm];W[cm];B[cn];W[dn];
B[cl];W[bm];B[do];W[en];B[eo];W[em];B[el];W[dl];B[dk];W[dm];B[cj];W[ek];B[ck];
W[fl];B[di];W[ej];B[eh];W[co];B[cp];W[bo];B[dq];W[ep];B[fo];W[cq];B[eq];W[fp];
B[fq];W[gp];B[fn];W[gm];B[bq];W[bp];B[cr];W[cp];B[hq];W[gq];B[gr];W[br];B[jq];
W[kq];B[io];W[nj];B[nl];W[pn];B[qn];W[po];B[qo];W[pm];B[qm];W[pl];B[pk];W[nm];
B[ml];W[mm];B[lm];W[ln];B[km];W[pj];B[qk];W[ok];B[rj];W[ri];B[sj];W[si];B[rk];
W[ll];B[lk];W[kl];B[jl];W[lj];B[kk];W[kj];B[jj];W[jh];B[hi];W[hj];B[ij];W[hk];
B[he];W[pc];B[oc];W[pd];B[od];W[qe];B[qc];W[pb];B[qb];W[ne];B[ob];W[of];B[oe];
W[me];B[le];W[lf];B[ke];W[kf];B[jf];W[jg];B[gh];W[gi];B[ko];W[lo];B[kn];W[ci];
B[ch];W[bi];B[bj];W[bh];B[dg];W[dh];B[ei];W[fh];B[fg];W[bl];B[ch];W[bg];B[ph];
W[qh];B[oi];W[oj];B[nd];W[gc];B[gd];W[hc];B[ic];W[ib];B[ia];W[ha];B[hd];W[jb];
B[kb];W[kc];B[lc];W[rm];B[pr];W[or];B[ps];W[os];B[qr];W[hr];B[ir];W[fr])
