(;FF[4]BR[3k]CP[online-go.com]DT[2016-09-12]GM[1]KM[6.5]PB[RamiChi]
PC[OGS: http://online-go.com/game/6327247]PW[Orbix19]RE[W+R]RU[japanese]SZ[19]
WR[5k];B[pd];W[dp];B[qp];W[op];B[oq];W[nq];B[pq];W[dd];B[fq];W[jq];B[cn];W[eo];
B[cq];W[dq];B[dr];W[er];B[cr];W[eq];B[co];W[em];B[dl];W[el];B[dk];W[ci];B[pn];
W[np];B[nn];W[mn];B[mm];W[ln];B[lm];W[km];B[kl];W[jl];B[kk];W[jm];B[mk];W[nc];
B[kd];W[pf];B[qc];W[ne];B[of];W[oe];B[pe];W[qf];B[og];W[qi];B[re];W[rf];B[qk];
W[qe];B[rd];W[pb];B[qb];W[pc];B[qd];W[se];B[sb];W[ra];B[qa];W[rb];B[sd];W[rc])
