(;FF[4]BR[19k]CP[online-go.com]DT[2016-04-25]GM[1]KM[6.5]PB[pawell]
PC[OGS: http://online-go.com/game/5022521]PW[Woodman]RE[W+42.5]RU[japanese]
SZ[19]WR[20k];B[pd];W[dq];B[pp];W[dc];B[de];W[ce];B[dd];W[cd];B[df];W[ec];B[fe]
;W[hc];B[jd];W[jc];B[hd];W[gd];B[ge];W[id];B[ie];W[he];B[hf];W[hd];B[jf];W[kd];
B[je];W[ld];B[dj];W[ch];B[do];W[co];B[cn];W[cp];B[dp];W[dr];B[dm];W[bn];B[bm];
W[an];B[am];W[bo];B[jp];W[ep];B[jj];W[gp];B[pj];W[jq];B[kq];W[iq];B[mf];W[qc];
B[qd];W[pc];B[gn];W[eo];B[dn];W[qq];B[qp];W[pq];B[oq];W[or];B[nq];W[kr];B[lq];
W[nr];B[mr];W[lr];B[ms];W[os];B[rq];W[rr];B[sq];W[rp];B[ro];W[sr];B[sp];W[qs];
B[ns];W[pr];B[ip];W[ls];B[mq];W[js];B[hq];W[hr];B[hp];W[gq];B[cq];W[bq];B[oc];
W[ob];B[nc];W[nb];B[rc];W[rb];B[sc];W[od];B[qb];W[pb];B[nd];W[oe];B[ne];W[of];
B[nh];W[re];B[rd];W[qe];B[dh];W[dg];B[cg];W[eg];B[bh];W[ci];B[di];W[cf];B[bg];
W[fh];B[cj];W[gf];B[gg];W[hg];B[ff];W[gh];B[ig];W[hh];B[gj];W[kh];B[jh];W[kg];
B[jg];W[kf];B[ke];W[le];B[ji];W[lf];B[mg];W[ki];B[lj];W[li];B[nj];W[mj];B[mk];
W[mi];B[kj];W[ni];B[oj];W[oi];B[oh];W[pi];B[ph];W[qi];B[qj];W[rj];B[rk];W[sj];
B[sk];W[rh];B[ql];W[go];B[ho];W[hn];B[in];W[hm];B[im];W[gm];B[hl];W[gl];B[hk];
W[gk];B[fj];W[ek];B[el];W[fk];B[ej];W[dk];B[cl];W[ck];B[bk];W[en];B[em];W[fm];
B[br];W[cr];B[fg];W[bf];B[ag];W[fd];B[eh];W[ee];B[ef];W[ed];B[nl];W[af];B[gr];
W[hs];B[fr];W[eq];B[jl];W[fn];B[gs];W[ir];B[cc];W[bc];B[cb];W[bb];B[db];W[eb];
B[bd];W[ca];B[ae];W[da];B[hi];W[dl];B[kc];W[kb];B[jb];W[lc];B[sh];W[rg];B[ri];
W[qh];B[sg];W[sf];B[si];W[se];B[pe];W[pf];B[mb];W[mc];B[lb];W[la];B[ib];W[hb];
B[ic];W[kc];B[ha];W[ja];B[qa];W[ra];B[oo];W[fl];B[cm];W[];B[])
