(;FF[4]BR[1d]CP[online-go.com]DT[2016-04-21]GM[1]KM[6.5]PB[GetStrong]
PC[OGS: http://online-go.com/game/4971181]PW[mentikora]RE[B+120.5]RU[japanese]
SZ[19]WR[25k];B[pd];W[dp];B[pp];W[dd];B[fq];W[hq];B[fo];W[dn];B[ip];W[eq];B[iq]
;W[fr];B[gq];W[gr];B[hr];W[go];B[hp];W[gn];B[fn];W[of];B[gm];W[hn];B[im];W[hm];
B[hl];W[fm];B[gl];W[in];B[jn];W[jm];B[il];W[kn];B[jo];W[pj];B[qf];W[nd];B[ic];
W[fc];B[lc];W[nb];B[cl];W[dj];B[el];W[dg];B[ql];W[qj];B[ol];W[nj];B[oc];W[nc];
B[ob];W[fj];B[oi];W[oj];B[oe];W[ne];B[nf];W[le];B[ke];W[lf];B[gd];W[fd];B[co];
W[cp];B[cd];W[cc];B[ce];W[de];B[bc];W[cf];B[cb];W[dc];B[bf];W[bg];B[be];W[bj];
B[ef];W[df];B[gf];W[jg];B[jf];W[kf];B[je];W[kh];B[ig];W[ih];B[hg];W[hh];B[gh];
W[ng];B[og];W[nh];B[pf];W[mf];B[ji];W[hj];B[jh];W[kg];B[hi];W[ij];B[ii];W[jj];
B[ki];W[kj];B[km];W[jl];B[lm];W[nl];B[nm];W[ml];B[mm];W[kl];B[ll];W[kk];B[ep];
W[dq];B[do];W[bo];B[cn];W[bn];B[bm];W[li];B[lk];W[mj];B[an];W[ap];B[gs];W[fs];
B[er];W[hs];B[es];W[dr];B[gs];W[ds];B[is];W[lj];B[bq];W[bp];B[cr];W[ar];B[br];
W[bs];B[aq];W[cs];B[as];W[fh];B[am];W[ar];B[eh];W[dh];B[ei];W[fi];B[as];W[dl];
B[ao];W[ar];B[ej];W[fl];B[em];W[fk];B[as];W[ek];B[cq];W[dm];B[en];W[eg];B[gp];
W[dk];B[qp];W[ld];B[kc];W[mc];B[lb];W[kd];B[jd];W[oh];B[rh];W[ff];B[rk];W[rj];
B[oa];W[na];B[qh];W[pg];B[of];W[ph];B[qg];W[qi];B[od];W[pl];B[pm];W[pk];B[gb];
W[fb];B[gc];W[db];B[bb];W[ca];B[ba];W[da];B[af];W[bh];B[bk];W[cj];B[fa];W[ea];
B[ga];W[sk];B[sl];W[sj];B[qm];W[ak];B[al];W[aj];B[ag];W[ah];B[si];W[qk];B[rl];
W[ok];B[om];W[mk];B[ma];W[ge];B[he];W[fe];B[gg];W[fg];B[io];W[];B[ik];W[hk];
B[ho];W[gi];B[mb];W[gk];B[ri];W[cm];B[bl];W[ck];B[];W[])
