(;FF[4]BR[1k]CP[online-go.com]DT[2016-04-27]GM[1]KM[6.5]PB[dodofish]
PC[OGS: http://online-go.com/game/5044288]PW[lys1030]RE[W+R]RU[japanese]SZ[19]
WR[11k];B[qd];W[cd];B[fd];W[dp];B[pp];W[nq];B[pn];W[jp];B[cn];W[cl];B[cq];W[dq]
;B[cp];W[do];B[dn];W[co];B[bo];W[bn];B[bm];W[bp];B[an];W[bq];B[cr];W[br];B[fn];
W[em];B[en];W[ci];B[lq];W[lp];B[kq];W[kp];B[jq];W[hp];B[iq];W[pq];B[qq];W[op];
B[pr];W[po];B[oq];W[qp];B[pq];W[oo];B[qo];W[qn];B[rp];W[ro];B[qp];W[hc];B[dd];
W[cc];B[df];W[de];B[ee];W[ce];B[fg];W[fi];B[kc];W[jd];B[jc];W[kd];B[ld];W[lc];
B[mc];W[lb];B[mb];W[le];B[md];W[ge];B[ff];W[pm];B[ke];W[je];B[kf];W[jf];B[kg];
W[jg];B[kh];W[jh];B[ei];W[ej];B[fh];W[gi];B[di];W[dj];B[ch];W[cg];B[dg];W[bh];
B[dh];W[bg];B[dc];W[ki];B[li];W[lh];B[kj];W[ji];B[lf];W[lj];B[mi];W[mj];B[ni];
W[nj];B[oi];W[fb];B[fe];W[fc];B[eg];W[gq];B[ip];W[io];B[fr];W[er];B[mq];W[mp];
B[nr];W[oj];B[pi];W[pj];B[qi];W[bl];B[fm];W[hn];B[hm];W[im];B[hl];W[fl];B[el];
W[fk];B[dl];W[cm];B[dm];W[ck];B[np];W[no])
