(;FF[4]BR[8k]CP[online-go.com]DT[2016-02-10]GM[1]KM[6.5]PB[reese_anschultz]
PC[OGS: http://online-go.com/game/3962169]PW[ives]RE[B+31.5]RU[japanese]SZ[19]
WR[8k];B[qd];W[dd];B[pq];W[dq];B[gc];W[cg];B[jd];W[po];B[np];W[qq];B[pp];W[qp];
B[oo];W[pn];B[co];W[cm];B[eo];W[fp];B[dp];W[cq];B[dl];W[dm];B[el];W[em];B[fm];
W[fn];B[fo];W[gn];B[go];W[hq];B[en];W[bk];B[ck];W[bl];B[fl];W[hn];B[gp];W[fq];
B[gq];W[gr];B[hp];W[iq];B[ip];W[hk];B[ci];W[bj];B[bi];W[cj];B[dj];W[di];B[ei];
W[dh];B[eh];W[eg];B[db];W[cc];B[cb];W[bb];B[dc];W[cd];B[oc];W[qj];B[pk];W[qk];
B[pl];W[ql];B[pm];W[on];B[nn];W[ej];B[dk];W[fj];B[hl];W[il];B[gk];W[gj];B[ik];
W[hj];B[im];W[jl];B[in];W[jj];B[jq];W[qg];B[lc];W[fd];B[fc];W[gd];B[hd];W[gf];
B[jr];W[hr];B[eq];W[er];B[ep];W[fr];B[bq];W[br];B[bp];W[ar];B[qm];W[qr];B[om];
W[qo];B[pr];W[ps];B[os];W[qs];B[mr];W[pj];B[rn];W[ro];B[sp];W[sr];B[so];W[sq];
B[rs];W[rp];B[rr];W[sn];B[so];W[sm];B[rm];W[of];B[nj];W[oj];B[nk];W[ni];B[mi];
W[nh];B[pf];W[pg];B[qf];W[oe];B[rf];W[rg];B[ii];W[ij];B[ji];W[hh];B[hi];W[gi];
B[ig];W[mh];B[li];W[mo];B[no];W[mm];B[kk];W[jk];B[kj];W[km];B[nm];W[nc];B[od];
W[nd];B[pe];W[le];B[lf];W[nb];B[ne];W[me];B[nf];W[mf];B[og];W[lg];B[kf];W[oh];
B[sj];W[sk];B[rk];W[rj];B[sl];W[si];B[sk];W[sg];B[sf];W[pb];B[qb];W[ob];B[pc];
W[kc];B[kd];W[ic];B[jc];W[id];B[he];W[ie];B[if];W[hf];B[hc];W[ke];B[je];W[kg];
B[jf];W[ih];B[kb];W[ld];B[mb];W[qa];B[ra];W[pa];B[rb];W[lo];B[ln];W[kn];B[mn];
W[kp];B[lm];W[jp];B[jo];W[jn];B[kl];W[jm];B[io];W[ko];B[lq];W[bn];B[am];W[bm];
B[dn];W[bh];B[cp];W[ba];B[na];W[jh];B[ki];W[ec];B[eb];W[ed];B[ge];W[fe];B[hg];
W[gg];B[mc];W[md];B[ng];W[mg];B[ok];W[ca];B[ea];W[ib];B[hb];W[da];B[fb];W[oa];
B[ma];W[mp];B[mq];W[kq];B[kr];W[aq];B[ap];W[an];B[is];W[hs];B[fk];W[ir];B[js];
W[ek];B[gm];W[rl];B[sm];W[jg];B[];W[])
