(;FF[4]BR[13k]CP[online-go.com]DT[2016-04-27]GM[1]KM[6.5]PB[BeefStroganoff]
PC[OGS: http://online-go.com/game/5050646]PW[Kirill7777]RE[B+45.5]RU[japanese]
SZ[19]WR[15k];B[pd];W[dp];B[qp];W[dd];B[oq];W[pj];B[fc];W[dc];B[cf];W[ce];B[de]
;W[df];B[ee];W[bf];B[cg];W[bd];B[eg];W[jp];B[cn];W[cp];B[en];W[qf];B[nd];W[qd];
B[qc];W[rd];B[rc];W[lc];B[mc];W[ld];B[ic];W[pe];B[oe];W[of];B[nf];W[og];B[je];
W[me];B[ne];W[lg];B[le];W[ke];B[lf];W[kf];B[mf];W[kd];B[jf];W[jg];B[ig];W[jh];
B[hg];W[qn];B[on];W[pn];B[po];W[om];B[nn];W[nm];B[mm];W[mo];B[mn];W[mq];B[lo];
W[lp];B[ko];W[go];B[gn];W[ci];B[bh];W[cl];B[dl];W[ck];B[bj];W[ej];B[cj];W[dk];
B[el];W[di];B[cm];W[bg];B[ch];W[bi];B[ai];W[bk];B[aj];W[ak];B[bo];W[gq];B[gj];
W[fi];B[eh];W[gi];B[hj];W[fo];B[fn];W[im];B[in];W[jm];B[jo];W[jj];B[ii];W[hl];
B[fk];W[ml];B[ll];W[mk];B[lk];W[jk];B[ji];W[kj];B[lj];W[ki];B[li];W[lh];B[ni];
W[nh];B[oi];W[mh];B[mi];W[pi];B[nk];W[nl];B[ok];W[pk];B[ip];W[jq];B[iq];W[ir];
B[bq];W[bp];B[ap];W[cr];B[cq];W[dq];B[br];W[ds];B[hr];W[js];B[hq];W[os];B[nr];
W[ms];B[ns];W[mr];B[np];W[nq];B[or];W[mp];B[no];W[kr];B[er];W[fr];B[dr];W[eq];
B[cs];W[hs];B[hi];W[gr];B[eb];W[db];B[jd];W[ia];B[jb];W[mb];B[nb];W[la];B[kb];
W[lb];B[na];W[md];B[nc];W[pc];B[pb];W[od];B[oc];W[pd];B[sd];W[se];B[sc];W[rf];
B[oh];W[ph];B[ng];W[kl];B[km];W[ho];B[io];W[hn];B[gm];W[hm];B[gl];W[ik];B[da];
W[ca];B[ea];W[bb];B[ec];W[sq];B[ro];W[rn];B[so];W[kn];B[lm];W[jn];B[ln];W[sn];
B[eo];W[qo];B[rp];W[pp];B[pq];W[oo];B[op];W[po];B[qq];W[oj];B[nj];W[pl];B[ol];
W[hp];B[kp];W[kq];B[ep];W[fp];B[co];W[hk];B[do];W[fq];B[es];W[fs];B[ed];W[kc];
B[jc];W[ag];B[ah];W[kk];B[ih];W[ka];B[ja];W[kg];B[mj];W[pm];B[];W[])
