(;FF[4]BR[24k]CP[online-go.com]DT[2016-06-27]GM[1]KM[6.5]PB[MannyMomot]
PC[OGS: http://online-go.com/game/5670599]PW[FireWriter]RE[W+13.5]RU[japanese]
SZ[19]WR[15k];B[pd];W[dp];B[dc];W[pp];B[ce];W[jd];B[hc];W[mc];B[oc];W[ic];B[hd]
;W[jp];B[dk];W[pj];B[pg];W[qh];B[ph];W[qg];B[id];W[jc];B[jf];W[le];B[lf];W[ne];
B[mf];W[me];B[pf];W[cm];B[ok];W[pk];B[ol];W[pl];B[om];W[pm];B[lq];W[nq];B[mo];
W[on];B[nn];W[oo];B[hq];W[hp];B[gp];W[gq];B[iq];W[fq];B[go];W[jq];B[ho];W[ip];
B[jn];W[em];B[fk];W[ck];B[dj];W[cj];B[ci];W[bi];B[ch];W[ir];B[fm];W[el];B[oj];
W[pi];B[oi];W[hb];B[gb];W[ib];B[qf];W[rf];B[re];W[rg];B[nb];W[mb];B[nf];W[ko];
B[kn];W[fl];B[gl];W[ek];B[fj];W[ej];B[ei];W[fn];B[gm];W[bh];B[cg];W[bg];B[fi];
W[nc];B[dl];W[dm];B[fp];W[ep];B[fo];W[eo];B[gn];W[ob];B[pb];W[na];B[od];W[nd];
B[mp];W[mq];B[lp];W[pa];B[qb];W[qa];B[ra];W[oa];B[rb];W[ga];B[fa];W[ha];B[fc];
W[be];B[bd];W[cf];B[df];W[bf];B[cd];W[ad];B[ac];W[ae];B[bc];W[lr];B[kr];W[mr];
B[jr];W[hr];B[kq];W[lo];B[jo];W[kp];B[ln];W[ke];B[kf];W[oe];B[pe];W[of];B[og];
W[io];B[in];W[je];B[ie];W[cl];B[di];W[np];B[no];W[se];B[sd];W[sf];B[rd];W[cq];
B[en];W[dn];B[fn];W[ks];B[js];W[ls];B[is];W[hs];B[];W[])
