(;FF[4]BR[7k]CP[online-go.com]DT[2016-08-13]GM[1]KM[6.5]PB[sigsfried]
PC[OGS: http://online-go.com/game/6074174]PW[Antoon]RE[W+R]RU[japanese]SZ[19]
WR[3k];B[pd];W[qp];B[dd];W[cp];B[jc];W[qf];B[nc];W[pj];B[ep];W[hp];B[dm];W[eo];
B[fo];W[en];B[dp];W[cn];B[cq];W[bp];B[fn];W[em];B[dj];W[bq];B[fq];W[cr];B[jp];
W[gp];B[fp];W[hn];B[fm];W[dl];B[el];W[ek];B[fl];W[dk];B[dn];W[cm];B[do];W[lp];
B[jm];W[jo];B[ko];W[kp];B[io];W[jq];B[jn];W[ip];B[ho];W[go];B[gn];W[jo];B[co];
W[bo];B[jp];W[cf];B[jo];W[gr];B[gq];W[hr];B[lo];W[mp];B[ch];W[ef];B[fc];W[ej];
B[di];W[ei];B[eh];W[fh];B[eg];W[fg];B[ff];W[ee];B[bf];W[ce];B[fe];W[bg];B[cg];
W[be];B[dg];W[cj];B[fi];W[hh];B[fj];W[ci];B[gh];W[gg];B[hg];W[gi];B[gf];W[gh];
B[ih];W[gj];B[fk];W[bh];B[hj];W[hf];B[ig];W[df];B[gk];W[dh];B[op];W[fd];B[ge];
W[gd])
