(;FF[4]BR[25k]CP[online-go.com]DT[2016-03-19]GM[1]KM[6.5]PB[Loefwing]
PC[OGS: http://online-go.com/game/4455057]PW[Raidel]RE[W+R]RU[japanese]SZ[19]
WR[22k];B[pd];W[dp];B[pp];W[dd];B[nq];W[nc];B[qf];W[pb];B[qc];W[kc];B[qb];W[jq]
;B[pj];W[dj];B[lp];W[ko];B[jp];W[kp];B[jo];W[jn];B[io];W[in];B[iq];W[ho];B[ip];
W[kq];B[hp];W[go];B[ir];W[gq];B[jr];W[kr];B[js];W[ks];B[gp];W[fp];B[fo];W[fn];
B[fq];W[ep];B[gr];W[fr];B[hq];W[eq];B[hs];W[nj];B[mk];W[nk];B[nl];W[ml];B[mj];
W[ni];B[mi];W[nh];B[ll];W[mm];B[nm];W[lm];B[mo];W[kl];B[lk];W[kk];B[kj];W[jj];
B[ki];W[ji];B[jh];W[kh];B[lh];W[kg];B[lg];W[kf];B[lf];W[le];B[me];W[ne];B[ld];
W[ke];B[nf];W[li];B[lj];W[mh];B[li];W[md];B[mf];W[oe];B[of];W[pe];B[pf];W[qe];
B[re];W[qd];B[pc];W[ih];B[er];W[gq];B[fs];W[eo];B[fq];W[qq];B[qp];W[pq];B[oq];
W[rp];B[ro];W[rr];B[pr];W[ps];B[qr];W[rq];B[os];W[ns];B[or];W[ms];B[nn];W[lo];
B[mp];W[mn];B[np];W[rn];B[qn];W[so];B[qo];W[rm];B[qm];W[rl];B[ql];W[qk];B[pk];
W[qj];B[qi];W[ri];B[qh];W[rh];B[rg];W[pi];B[ph];W[gd];B[cq];W[cp];B[kd];W[jd];
B[bp];W[bo];B[bq];W[ap];B[aq];W[ao];B[dq];W[cg];B[rd];W[ob];B[od];W[nd];B[pa];
W[oa];B[qa];W[rj];B[bn];W[cn];B[bm];W[cm];B[hk];W[gj];B[gk];W[fk];B[hj];W[gi];
B[gm];W[fm];B[ik];W[jk];B[fl];W[el];B[gl];W[il];B[hn];W[ek];B[gn];W[fo];B[hi];
W[gh];B[oc];W[nb];B[im];W[jm];B[hh];W[hg])
