(;FF[4]BR[12k]CP[online-go.com]DT[2016-02-27]GM[1]KM[6.5]PB[rold2007]
PC[OGS: http://online-go.com/game/4108938]PW[ntinos]RE[B+8.5]RU[japanese]SZ[19]
WR[12k];B[pd];W[dc];B[pp];W[dp];B[qj];W[cj];B[fq];W[jc];B[nc];W[cf];B[jq];W[ld]
;B[fo];W[cn];B[fm];W[fk];B[dl];W[cl];B[dm];W[cm];B[dj];W[dk];B[ek];W[ck];B[ej];
W[di];B[ei];W[dh];B[dq];W[cp];B[cq];W[bq];B[br];W[ap];B[eh];W[eg];B[gh];W[qf];
B[qg];W[qd];B[pf];W[qe];B[pe];W[pc];B[qc];W[rc];B[qb];W[pb];B[rb];W[sd];B[oc];
W[rg];B[qh];W[rh];B[ri];W[sf];B[si];W[sh];B[fg];W[oh];B[og];W[nh];B[oj];W[nj];
B[nk];W[mj];B[mk];W[lk];B[ll];W[kk];B[jm];W[qo];B[rp];W[ro];B[qp];W[po];B[oo];
W[ol];B[qm];W[pm];B[pn];W[qn];B[on];W[rm];B[ql];W[rl];B[so];W[rn];B[rk];W[ok];
B[pl];W[pj];B[pk];W[qk];B[nm];W[kl];B[lm];W[km];B[kn];W[jj];B[ef];W[dg];B[gf];
W[fe];B[ff];W[ee];B[ge];W[gd];B[df];W[de];B[cg];W[ci];B[ce];W[bf];B[cd];W[dd];
B[bg];W[cc];B[be];W[bd];B[af];W[ac];B[bi];W[bj];B[ai];W[aj];B[ch];W[he];B[hf];
W[ie];B[if];W[jf];B[jg];W[kf];B[kg];W[lg];B[lh];W[mg];B[ng];W[mh];B[ki];W[jh];
B[ji];W[ih];B[kh];W[ii];B[ig];W[ik];B[hl];W[il];B[im];W[hk];B[gl];W[lj];B[gk];
W[gj];B[fj];W[gi];B[hh];W[hi];B[lc];W[kc];B[lb];W[kb];B[md];W[la];B[ma];W[ka];
B[nb];W[sb];B[pa];W[pi];B[qi];W[sk];B[rj];W[sn];B[sp];W[om];B[nn];W[dn];B[en];
W[op];B[nq];W[nl];B[ml];W[ln];B[lo];W[mn];B[mo];W[mm];B[no];W[ar];B[ep];W[cr];
B[dr];W[bs];B[ds];W[cs];B[le];W[kd];B[ke];W[je];B[mf];W[lf];B[me];W[ph];B[pg];
W[np];B[mp];W[fi];B[fh];W[jl];B[oq];W[sa];B[ob];W[li];B[ra];W[sc];B[ae];W[ad];
B[do];W[co];B[eo];W[sl];B[];W[])
