(;FF[4]BR[19k]CP[online-go.com]DT[2016-04-14]GM[1]KM[6.5]PB[Elwijhiah]
PC[OGS: http://online-go.com/game/4888676]PW[KevinAkhlaghi]RE[B+45.5]
RU[japanese]SZ[19]WR[22k];B[pd];W[dp];B[pp];W[ed];B[cd];W[de];B[ce];W[cf];B[cc]
;W[dd];B[dc];W[ec];B[eb];W[fb];B[ea];W[fa];B[db];W[be];B[bd];W[ad];B[bf];W[bg];
B[ae];W[ag];B[ac];W[df];B[mc];W[af];B[be];W[jd];B[fq];W[fp];B[ep];W[eq];B[eo];
W[gq];B[fr];W[dq];B[gp];W[fo];B[hq];W[en];B[gr];W[do];B[lq];W[ho];B[cg];W[bh];
B[ch];W[bi];B[ci];W[bj];B[cj];W[bk];B[ck];W[bl];B[cl];W[bm];B[cm];W[bn];B[cn];
W[an];B[co];W[cp];B[bo];W[bp];B[el];W[fm];B[fl];W[gl];B[gk];W[hl];B[hk];W[ik];
B[il];W[jl];B[im];W[in];B[gm];W[jm];B[hm];W[jk];B[pj];W[jh];B[hh];W[ij];B[hj];
W[ii];B[hi];W[ig];B[hg];W[hf];B[if];W[jf];B[ie];W[he];B[id];W[ic];B[hd];W[gd];
B[hc];W[ib];B[ge];W[gf];B[fe];W[ff];B[fd];W[gc];B[hb];W[je];B[jc];W[ha];B[ef];
W[eg];B[fg];W[gb];B[eh];W[ee];B[dg];W[ef];B[gg];W[em];B[dm];W[dn];B[go];W[io];
B[jp];W[jo];B[ko];W[kn];B[lo];W[ip];B[iq];W[hp];B[ln];W[gn];B[gq];W[lm];B[mm];
W[lk];B[pm];W[nk];B[nm];W[pk];B[oj];W[ok];B[mj];W[mk];B[kj];W[lj];B[qh];W[qj];
B[qi];W[rk];B[rm];W[nj];B[ni];W[mi];B[nh];W[ri];B[rh];W[mh];B[ng];W[qm];B[qn];
W[ql];B[om];W[hn];B[qq];W[kc];B[mb];W[md];B[nd];W[nf];B[of];W[mg];B[me];W[ld];
B[mf];W[lf];B[ne];W[le];B[qc];W[sh];B[sg];W[si];B[rg];W[rj];B[rl];W[sl];B[rn];
W[sm];B[sk];W[sj];B[sn];W[qk];B[dr];W[er];B[es];W[cr];B[ds];W[cs];B[fs];W[ao];
B[kq];W[mr];B[or];W[nr];B[lr];W[np];B[op];W[dj];B[dk];W[];B[])
