(;FF[4]BR[20k]CP[online-go.com]DT[2016-06-23]GM[1]KM[6.5]PB[Yakori]
PC[OGS: http://online-go.com/game/5634224]PW[KayoHinazuki]RE[B+R]RU[japanese]
SZ[19]WR[20k];B[pd];W[dd];B[qp];W[dq];B[oq];W[do];B[jp];W[nc];B[pc];W[kd];B[dj]
;W[cg];B[dl];W[gd];B[pj];W[cm];B[pg];W[bk];B[fo];W[fp];B[go];W[gp];B[hp];W[hq];
B[ip];W[fg];B[gh];W[kh];B[lj];W[en];B[fm];W[gg];B[hh];W[jj];B[ki];W[jh];B[ji];
W[ih];B[ii];W[hg];B[fh];W[pq];B[pp];W[op];B[nq];W[jr];B[gq];W[iq];B[gr];W[hr];
B[fq];W[ep];B[jq];W[kr];B[is];W[hs];B[lq];W[lr];B[mr];W[eh];B[fi];W[ng];B[ni];
W[lh];B[li];W[ci];B[ei];W[dh];B[ne];W[me];B[md];W[nd];B[mc];W[lc];B[le];W[ld];
B[mf];W[mb];B[me];W[ke];B[kf];W[jf];B[lb];W[nb];B[je];W[jd];B[ie];W[id];B[he];
W[hd];B[ge];W[fe];B[mh];W[mg];B[lg];W[kg];B[oe];W[lf];B[og];W[nh];B[mi];W[oh];
B[ph];W[oi];B[oj];W[cl];B[dm];W[dn];B[fn];W[pb];B[qb];W[pa];B[qa];W[ob];B[oo];
W[pi];B[qi];W[qk];B[qj];W[qn];B[rk];W[rl];B[ql];W[rm];B[ro];W[pk];B[pl];W[ok];
B[nk];W[qe];B[qd];W[pe];B[re];W[od];B[qf];W[kq];B[kp];W[lo];B[gs];W[lp];B[mq];
W[ol];B[pm];W[om];B[pn];W[rj];B[ri];W[sk];B[nl];W[nm];B[mm];W[rc];B[qc];W[eq];
B[ir];W[qm];B[nn];W[mn];B[on];W[rk];B[ln];W[mo];B[lm];W[dk];B[ek];W[cj];B[di];
W[ck];B[em];W[kb];B[ko];W[es];B[mp];W[er])
