(;FF[4]BR[24k]CP[online-go.com]DT[2016-07-11]GM[1]KM[6.5]PB[MannyMomot]
PC[OGS: http://online-go.com/game/5792829]PW[Algis9]RE[B+R]RU[japanese]SZ[19]
WR[16k];B[pd];W[oe];B[dc];W[ed];B[dd];W[ee];B[df];W[ef];B[dg];W[eg];B[dh];W[eh]
;B[ld];W[ne];B[id];W[lf];B[od];W[me];B[md];W[nd];B[nc];W[le];B[kd];W[ke];B[je];
W[jf];B[qi];W[pe];B[qd];W[ie];B[jd];W[he];B[pp];W[oo];B[qm];W[pl];B[pm];W[om];
B[ol];W[pk];B[nl];W[ql];B[dq];W[ep];B[dp];W[eo];B[ml];W[pn];B[qn];W[qo];B[po];
W[on];B[qp];W[rm];B[ro];W[rn];B[qo];W[rk];B[oi];W[qj];B[mn];W[op];B[oq];W[nq];
B[lp];W[pq];B[or];W[nr];B[pr];W[qq];B[rq];W[qr];B[rr];W[so];B[qs];W[os];B[lq];
W[mp];B[mo];W[no];B[mq];W[np];B[lo];W[mr];B[lr];W[ls];B[ks];W[kr];B[ms];W[js];
B[ls];W[jq];B[gq];W[eq];B[ho];W[jo];B[hm];W[jm];B[jk];W[il];B[im];W[jl];B[jn];
W[kn];B[in];W[io];B[km];W[lm];B[kl];W[ll];B[kk];W[lk];B[ln];W[ko];B[hk];W[ij];
B[ik];W[gl];B[hl];W[pi];B[lj];W[mk];B[nj];W[nk];B[ok];W[oj];B[mj];W[pj];B[dn];
W[en];B[dm];W[em];B[dl];W[el];B[dj];W[ej];B[qf];W[qe];B[re];W[pf];B[qg];W[pg];
B[ri];W[ni];B[mi];W[oh];B[gd];W[hd];B[hc];W[ge];B[fc];W[fd];B[gc];W[di];B[ci];
W[ei];B[dk];W[ek];B[hp];W[iq];B[hr];W[ir];B[ip];W[jp];B[hq];W[do];B[co];W[dr];
B[cr];W[ds];B[cs];W[fr];B[cq];W[hs];B[gs];W[gr];B[is];W[bp];B[hs];W[cp];B[bq];
W[bo];B[cn];W[aq];B[bn];W[br];B[ao];W[bs];B[hj];W[ii];B[hi];W[ih];B[hh];W[ig];
B[de];W[ec];B[eb];W[ap];B[an];W[sp];B[sq];W[rj];B[sj];W[sk])
