(;FF[4]BR[16k]CP[online-go.com]DT[2016-04-27]GM[1]KM[6.5]PB[Seferi]
PC[OGS: http://online-go.com/game/5051687]PW[redrose]RE[B+R]RU[japanese]SZ[19]
WR[12k];B[qd];W[dp];B[pq];W[dd];B[qj];W[oc];B[mc];W[oe];B[pf];W[le];B[kd];W[ld]
;B[lc];W[nd];B[ic];W[gc];B[he];W[dg];B[ec];W[fd];B[cc];W[ed];B[dc];W[cd];B[bd];
W[be];B[bc];W[ge];B[bf];W[cf];B[ae];W[ce];B[bg];W[cj];B[jp];W[po];B[qm];W[no];
B[mq];W[ol];B[oj];W[ml];B[fq];W[cn];B[dr];W[pd];B[qe];W[qc];B[rc];W[cq];B[qb];
W[pc];B[pl];W[om];B[lo];W[ok];B[pk];W[pb];B[rb];W[jl];B[fo];W[fm];B[of];W[nf];
B[hf];W[gg];B[gf];W[ff];B[hh];W[gh];B[hi];W[qp];B[ro];W[rp];B[qo];W[pp];B[oq];
W[qq];B[qr];W[rr];B[pr];W[np];B[mj];W[nh];B[oh];W[ke];B[jd];W[kg];B[gi];W[fi];
B[eh];W[eg];B[ei];W[fh];B[bi];W[ci];B[ch];W[dh];B[bj];W[ej];B[ck];W[gj];B[hg];
W[hd];B[je];W[lh];B[ni];W[ng];B[og];W[nb];B[mb];W[bk];B[bl];W[dk];B[cl];W[cr];
B[eq];W[ho];B[hp];W[dq];B[er];W[nq];B[nr];W[io];B[ip];W[fk];B[go];W[hm];B[en];
W[dl];B[mp];W[dn];B[em];W[dm];B[kb];W[id];B[ie];W[jj];B[qn];W[rs];B[cs];W[bs];
B[ds];W[br];B[hc];W[gd];B[ao];W[bo];B[an];W[am];B[bm];W[ap];B[bn];W[cm];B[ak];
W[bp];B[lm];W[mm];B[ll];W[hj];B[ii];W[qs];B[ps];W[op];B[lr];W[hb];B[ib];W[gb];
B[fb];W[lj];B[mn];W[nn];B[jn];W[el];B[jo];W[im];B[ji];W[lk];B[jm];W[cg];B[bh];
W[mo];B[ln];W[pn];B[pm];W[fc];B[eb];W[ia];B[ja];W[ha];B[jf];W[jg];B[ig];W[mi];
B[nk];W[nl];B[ij];W[ik];B[kj];W[jk];B[ki];W[mk];B[nj];W[fn];B[eo];W[so];B[sn];
W[sp];B[nc];W[ma];B[la];W[na];B[li];W[mh];B[kl];W[gn];B[in];W[hn];B[pa];W[ob];
B[md];W[me];B[kf];W[lf])
