(;FF[4]BR[11k]CP[online-go.com]DT[2016-04-26]GM[1]KM[6.5]PB[KingYiuSuen]
PC[OGS: http://online-go.com/game/5031159]PW[Tangerine]RE[B+9.5]RU[japanese]
SZ[19]WR[6k];B[pd];W[dc];B[pq];W[dp];B[qk];W[jq];B[de];W[cg];B[cc];W[cb];B[cd];
W[fd];B[ef];W[bb];B[dh];W[nc];B[pf];W[jd];B[cm];W[po];B[oo];W[pp];B[op];W[qq];
B[oq];W[rp];B[pn];W[qn];B[qm];W[on];B[pm];W[rn];B[kp];W[jp];B[ko];W[co];B[cj];
W[qh];B[me];W[ld];B[qg];W[qc];B[pc];W[rg];B[rf];W[pg];B[qf];W[ok];B[nm];W[qj];
B[pk];W[oi];B[nk];W[rj];B[ni];W[oj];B[mk];W[nh];B[gd];W[ge];B[he];W[hd];B[gc];
W[hc];B[fe];W[gb];B[gf];W[fc];B[eq];W[dq];B[dr];W[cr];B[hq];W[ho];B[io];W[hr];
B[hn];W[gq];B[hp];W[fr];B[go];W[lh];B[ii];W[kj];B[ik];W[dm];B[dn];W[cn];B[cl];
W[en];B[dl];W[em];B[fk];W[kq];B[ob];W[nb];B[na];W[ma];B[oa];W[bc];B[bd];W[lb];
B[lq];W[ad];B[ae];W[ac];B[be];W[jh];B[ih];W[kl];B[lr];W[lm];B[mn];W[ol];B[om];
W[nl];B[fp];W[er];B[bm];W[bn];B[js];W[ir];B[qs];W[qr];B[pr];W[rs];B[ps];W[rh];
B[mm];W[ml];B[mg];W[ng];B[nf];W[lf];B[mf];W[sf];B[se];W[sg];B[re];W[ig];B[hg];
W[lg];B[rr];W[sr];B[ss];W[rl];B[rm];W[sm];B[rq];W[qp];B[mh];W[mi];B[jk];W[kk];
B[rk];W[rs];B[jr];W[kr];B[ks];W[is];B[ls];W[iq];B[ss];W[sk];B[sq];W[gm];B[so];
W[ro];B[sp];W[sn];B[hl];W[gl];B[gk];W[el];B[ek];W[ln];B[lo];W[og];B[ji];W[ki];
B[jg];W[oc];B[pb];W[nd];B[of];W[ie];B[if];W[je];B[md];W[mc];B[oe];W[ge];B[gd];
W[le];B[ed];W[ec];B[eo];W[fn];B[fo];W[do];B[pj];W[pi];B[fl];W[jm];B[hm];W[dn];
B[kn];W[km];B[gn];W[fm];B[fq];W[am];B[al];W[an];B[gp];W[gr];B[kh];W[kg];B[jf];
W[jj];B[ij];W[kf];B[dd];W[in];B[jo];W[gc];B[ge];W[sl];B[jh];W[];B[])
