(;FF[4]BR[14k]CP[online-go.com]DT[2016-05-04]GM[1]KM[6.5]PB[DK]
PC[OGS: http://online-go.com/game/5139373]PW[омг]RE[W+R]RU[japanese]SZ[19]
WR[15k];B[po];W[dd];B[pe];W[dp];B[ec];W[dc];B[db];W[qj];B[cc];W[eb];B[ed];W[de]
;B[ca];W[ee];B[fb];W[cj];B[cd];W[ce];B[be];W[bf];B[ae];W[jq];B[gq];W[mq];B[oq];
W[qm];B[qn];W[pm];B[ro];W[qg];B[qf];W[pg];B[rg];W[rh];B[sf];W[jd];B[ic];W[jc];
B[jb];W[id];B[hc];W[kb];B[he];W[oc];B[pc];W[od];B[ob];W[pd];B[qd];W[pb];B[qc];
W[nb];B[nc];W[oe];B[pf];W[oa];B[md];W[lf];B[kc];W[ib];B[kd];W[je];B[kf];W[ke];
B[le];W[mf];B[lb];W[ja];B[jf];W[mc];B[ie];W[me];B[hd];W[ld];B[hb];W[af];B[bd];
W[qb];B[rb];W[rc];B[rd];W[ra];B[sc];W[er];B[eq];W[dq];B[cr];W[fr];B[fq];W[en];
B[dr];W[gr];B[hq];W[io];B[hr];W[go];B[eo];W[do];B[dn];W[cn];B[dm];W[fn];B[fp];
W[cm];B[dl];W[ck];B[cl];W[bl];B[cg];W[cf];B[ff];W[ek];B[bp];W[bo];B[cp];W[co];
B[cq];W[nn];B[km];W[jk];B[kk];W[jl];B[im];W[jm];B[jn];W[in];B[ko];W[hm];B[il];
W[ik];B[gk];W[gj];B[hk];W[hj];B[dk];W[dj];B[fk];W[fj];B[al];W[ak];B[jr];W[kr];
B[iq];W[kq];B[jp];W[ip];B[jo];W[oo];B[np];W[mp];B[op];W[no];B[mo];W[pn];B[qp];
W[kl];B[ll];W[lm];B[ln];W[mm];B[om];W[ol];B[pl];W[pk];B[mn];W[nl];B[ml];W[kn];
B[hp];W[ho];B[lj];W[mj];B[ki];W[mi];B[ij];W[ii];B[jj];W[hl];B[hi];W[lk];B[mk];
W[nk];B[lk];W[li];B[kj];W[kh];B[ri];W[rj];B[qh];W[ph];B[qi];W[pi];B[sh];W[ji];
B[bg];W[dg];B[ef];W[df];B[eh];W[dh];B[di];W[ci];B[ei];W[hh];B[gi];W[gh];B[fi];
W[eg];B[ao];W[an];B[ap];W[am];B[ig];W[fo];B[ep];W[js];B[es];W[fe];B[fg];W[fh];
B[gg];W[hg];B[gf];W[fc];B[ea];W[fd];B[eb];W[nr];B[nq];W[or];B[pr];W[pq];B[pp];
W[qq];B[qr];W[rq];B[qo];W[rr];B[rk];W[rm];B[sj];W[rl])
