(;FF[4]BR[14k]CP[online-go.com]DT[2016-03-15]GM[1]KM[6.5]PB[mrbadexample]
PC[OGS: http://online-go.com/game/4342349]PW[Sammm]RE[B+R]RU[japanese]SZ[19]
WR[19k];B[pd];W[dp];B[pp];W[dd];B[fq];W[eq];B[fp];W[cj];B[cq];W[cp];B[er];W[dr]
;B[ep];W[dq];B[bo];W[bp];B[ap];W[aq];B[ao];W[br];B[fm];W[dn];B[dm];W[cm];B[cl];
W[dl];B[em];W[ck];B[bl];W[bm];B[dk];W[dj];B[el];W[ek];B[dl];W[fk];B[hm];W[hk];
B[gl];W[gk];B[cf];W[ce];B[am];W[co];B[al];W[bk];B[an];W[cg];B[df];W[bf];B[ff];
W[fd];B[cc];W[bc];B[ei];W[dh];B[dg];W[ch];B[di];W[ci];B[ak];W[aj];B[gi];W[hi];
B[ge];W[gd];B[hd];W[hc];B[ai];W[bj];B[hh];W[ii];B[ih];W[im];B[in];W[jm];B[jn];
W[lm];B[ln];W[nm];B[nn];W[pm];B[qn];W[qm];B[rn];W[rm];B[ml];W[mm];B[mn];W[mk];
B[nl];W[nk];B[ol];W[om];B[pk];W[pl];B[ok];W[pj];B[oj];W[oi];B[lk];W[mj];B[mi];
W[lj];B[ni];W[pi];B[nj];W[li];B[mg];W[ll];B[qf];W[og];B[of];W[qg];B[qk];W[mh];
B[nh];W[lh];B[ng];W[ld];B[nc];W[nf];B[mf];W[ne];B[me];W[oe];B[pf];W[pg];B[rf];
W[rg];B[sg];W[sh];B[sf];W[ri];B[qj];W[qi];B[rj];W[oh];B[qh];W[md];B[nd];W[jd];
B[kf];W[jf];B[kc];W[kd];B[lc];W[jc];B[mc];W[he];B[ie];W[hf];B[if];W[id];B[jg];
W[je];B[kg];W[ig];B[hg];W[gf];B[gg];W[jh];B[if];W[eh];B[fh];W[ej];B[eg];W[fi];
B[ee];W[fe];B[de];W[cd];B[ed];W[ec];B[kh];W[ji];B[ki];W[kj];B[kn];W[km];B[kk];
W[jk];B[lg];W[kl];B[le];W[ke];B[kq];W[fr];B[gr];W[es];B[hq];W[qq];B[pq];W[pr];
B[or];W[qs];B[rr];W[qr];B[qp];W[on];B[oo];W[kb];B[lb];W[ka];B[la];W[ib];B[cn];
W[eo];B[en];W[do];B[fo];W[gs];B[hs];W[fs];B[sm];W[sl];B[sn];W[sj];B[rl];W[sk];
B[hl];W[il];B[ql])
