(;FF[4]BR[10k]CP[online-go.com]DT[2016-05-04]GM[1]KM[6.5]PB[tsitua]
PC[OGS: http://online-go.com/game/5136964]PW[direwolf]RE[W+R]RU[japanese]SZ[19]
WR[8k];B[pd];W[cp];B[pp];W[dc];B[ci];W[cg];B[cl];W[cn];B[eq];W[dq];B[ep];W[kp];
B[iq];W[nq];B[pq];W[qn];B[ro];W[no];B[ql];W[rn];B[qo];W[on];B[pi];W[nc];B[ic];
W[gc];B[lc];W[qc];B[qd];W[pc];B[rc];W[rb];B[rd];W[od];B[of];W[oe];B[pf];W[pe];
B[qe];W[nf];B[me];W[ne];B[md];W[sc];B[qf];W[mf];B[ke];W[nh];B[ce];W[cd];B[de];
W[eg];B[fe];W[gg];B[he];W[bi];B[bj];W[bh];B[dh];W[dg];B[em];W[ek];B[dk];W[ej];
B[dj];W[ei];B[dn];W[cm];B[dm];W[eh];B[ol];W[mm];B[im];W[ip];B[hp];W[io];B[ho];
W[jq];B[ir];W[oj];B[pj];W[ok];B[pk];W[nl];B[jh];W[jg];B[ig];W[kg];B[kh];W[ih];
B[ii];W[hh];B[if];W[di];B[lg];W[lf];B[kf];W[hi];B[ij];W[hj];B[ik];W[bd];B[be];
W[hb];B[ib];W[gd];B[ge];W[el];B[dl];W[dr];B[er];W[jr];B[js];W[ks];B[is];W[kr];
B[or];W[nr];B[rq];W[om];B[pl];W[hn];B[in];W[hq];B[hr];W[gq];B[gr];W[go];B[gn];
W[hm];B[hl];W[gm];B[fn];W[gl];B[hk];W[gk];B[fo];W[gp];B[ds];W[cs];B[es];W[cr];
B[bm];W[bn];B[bl];W[oi];B[og];W[oh];B[ph];W[ji];B[li];W[ki];B[jf];W[kj];B[lk];
W[kk];B[ll];W[kl];B[km];W[lm];B[jl];W[kn];B[jm];W[lj];B[an];W[bo];B[ec];W[eb];
B[fc];W[fb];B[dd];W[cb];B[mi];W[mh];B[mj];W[mk];B[lh];W[mb];B[lb];W[fd];B[ed];
W[sl];B[rm];W[sm];B[rk];W[sk];B[rj];W[sj];B[si];W[le];B[ld];W[ma];B[la];W[ia];
B[ja];W[ha];B[ao];W[ap];B[am];W[bq];B[ad];W[bc];B[do];W[co];B[fm];W[ac];B[ae];
W[ch];B[cj];W[hc];B[hd];W[fq];B[fr])
