(;FF[4]BR[9k]CP[online-go.com]DT[2016-04-10]GM[1]KM[6.5]PB[Revar Isavé]
PC[OGS: http://online-go.com/game/4826216]PW[sp3d86]RE[B+24.5]RU[japanese]
SZ[19]WR[7k];B[pd];W[dp];B[pq];W[dd];B[fq];W[cn];B[jp];W[jd];B[qk];W[oo];B[qo];
W[dr];B[fo];W[lq];B[np];W[lo];B[jn];W[jr];B[iq];W[nr];B[no];W[pr];B[oq];W[or];
B[ci];W[cg];B[cl];W[cc];B[qf];W[pb];B[nc];W[rc];B[rd];W[qc];B[qd];W[ob];B[nb];
W[ra];B[jb];W[gc];B[ic];W[oc];B[od];W[nd];B[lc];W[ne];B[of];W[ld];B[kc];W[kd];
B[id];W[lg];B[if];W[kh];B[ih];W[jg];B[ig];W[he];B[ie];W[nh];B[ph];W[oj];B[pk];
W[om];B[nl];W[nm];B[mm];W[mn];B[nn];W[ml];B[lm];W[ol];B[nk];W[ok];B[mk];W[mj];
B[lk];W[nj];B[jj];W[qm];B[on];W[qn];B[qr];W[qs];B[rr];W[ro];B[qp];W[rp];B[rq];
W[rs];B[ln];W[mo];B[lp];W[mp];B[mq];W[kp];B[ko];W[lp];B[lr];W[en];B[fm];W[eh];
B[dh];W[ej];B[eg];W[el];B[em];W[dg];B[fh];W[ei];B[ff];W[ef];B[fg];W[cj];B[bj];
W[bi];B[ck];W[dj];B[fk];W[dl];B[dm];W[cm];B[gj];W[qi];B[pi];W[pj];B[qj];W[ri];
B[rj];W[pg];B[og];W[oh];B[qh];W[lj];B[kj];W[hr];B[fr];W[fl];B[gl];W[fn];B[gn];
W[dn];B[gm];W[ee];B[fe];W[fd];B[gd];W[hd];B[ge];W[hc];B[fc];W[ed];B[fb];W[gb];
B[hf];W[eb];B[ga];W[ec];B[hb];W[sd];B[se];W[sc];B[re];W[rh];B[rg];W[oi];B[qg];
W[ql];B[rl];W[rm];B[je];W[pl];B[si];W[sl];B[kf];W[lf];B[kg];W[jh];B[ke];W[le];
B[nf];W[mf];B[dq];W[cq];B[eq];W[sp];B[pn];W[sr];B[mr];W[sq];B[qq];W[rk];B[sh];
W[ng];B[oa];W[pa];B[pc];W[qb];B[na];W[mc];B[mb];W[md];B[lb];W[ji];B[ii];W[ki];
B[er];W[cr];B[ea];W[da];B[fa];W[cb];B[ek];W[dk];B[eo];W[do];B[oe];W[ep];B[fp];
W[bh];B[nq];W[ss];B[ns];W[ps];B[fj];W[ch];B[fi];W[di];B[ds];W[cs];B[es];W[];
B[jf];W[];B[ms];W[];B[])
