(;FF[4]BR[13k]CP[online-go.com]DT[2016-08-28]GM[1]KM[6.5]PB[eazzyg]
PC[OGS: http://online-go.com/game/6196595]PW[New Shampoo]RE[W+R]RU[japanese]
SZ[19]WR[14k];B[pd];W[pq];B[cd];W[ic];B[gc];W[dp];B[po];W[qo];B[qn];W[qp];B[pn]
;W[mq];B[qj];W[dj];B[lc];W[gd];B[fd];W[ge];B[ec];W[cf];B[fq];W[hq];B[cq];W[dq];
B[cp];W[do];B[dr];W[er];B[cr];W[fr];B[cn];W[co];B[bo];W[dn];B[cm];W[dm];B[pg];
W[cl];B[bl];W[hm];B[lp];W[lq];B[je];W[fe];B[dd];W[ee];B[jj];W[hj];B[ih];W[mk];
B[kl];W[lm];B[km];W[ln];B[mo];W[ko];B[ml];W[ll];B[lk];W[kk];B[lj];W[jk];B[nl];
W[kj];B[ji];W[li];B[mj];W[mi];B[nj];W[ki];B[kh];W[ik];B[ni];W[mg];B[lg];W[nh];
B[oh];W[mf];B[nd];W[mn];B[no];W[kp];B[qc];W[ck];B[gh];W[gj];B[hd];W[hc];B[id];
W[eh];B[ng];W[mh];B[le];W[bk];B[al];W[ak];B[am];W[bn];B[an];W[bm];B[ap];W[ao];
B[bp];W[fi];B[jc];W[ro];B[rn];W[be];B[gf];W[he];B[ie];W[hf];B[if];W[hg];B[hh];
W[gg];B[fh];W[fg];B[bd];W[ce];B[de];W[df];B[ig];W[nf];B[og];W[oe];B[pe];W[lo];
B[op];W[oq];B[om];W[ar];B[br];W[sn];B[sm];W[so];B[rl];W[ij];B[od];W[lf];B[kf];
W[mp];B[pp];W[ed];B[fc];W[ad];B[ac];W[ae];B[bb];W[np];B[eg];W[dg])
