(;FF[4]BR[6k]CP[online-go.com]DT[2016-06-07]GM[1]KM[6.5]PB[LaViNa66]
PC[OGS: http://online-go.com/game/5482386]PW[yuri]RE[W+8.5]RU[japanese]SZ[19]
WR[5k];B[pc];W[pp];B[dd];W[cp];B[pj];W[pe];B[qe];W[qf];B[qd];W[pf];B[nc];W[qj];
B[qk];W[qi];B[pl];W[qm];B[rk];W[mf];B[jp];W[nm];B[pm];W[qn];B[pi];W[qh];B[ep];
W[eq];B[co];W[dp];B[do];W[fp];B[eo];W[gq];B[mq];W[bo];B[bn];W[bp];B[jj];W[mj];
B[mi];W[ni];B[nj];W[mk];B[nh];W[li];B[mh];W[lh];B[nk];W[oh];B[oi];W[nl];B[lj];
W[ll];B[pn];W[po];B[nn];W[kj];B[oo];W[oq];B[np];W[df];B[cf];W[cg];B[ce];W[dg];
B[fd];W[ck];B[cm];W[hc];B[kc];W[he];B[ci];W[ek];B[ei];W[dm];B[bk];W[bj];B[cl];
W[bl];B[dk];W[cj];B[dj];W[bi];B[dl];W[jk];B[ik];W[ij];B[ji];W[ii];B[jh];W[ih];
B[jg];W[kf];B[ig];W[hg];B[hh];W[hj];B[gh];W[hk];B[il];W[hl];B[im];W[if];B[kk];
W[jl];B[kl];W[jm];B[km];W[jn];B[ki];W[kg];B[kn];W[in];B[em];W[fm];B[dn];W[fi];
B[gg];W[hf];B[fh];W[eh];B[eg];W[dh];B[ff];W[ee];B[fe];W[ed];B[ec];W[di];B[ej];
W[fc];B[dc];W[gd];B[ef];W[de];B[bg];W[ch];B[bh];W[ci];B[ai];W[ak];B[bm];W[gf];
B[gi];W[fj];B[gj];W[fk];B[gk];W[fl];B[hm];W[hn];B[gm];W[gl];B[gn];W[fn];B[go];
W[fo];B[ho];W[jq];B[iq];W[kp];B[jo];W[lq];B[mr];W[ir];B[hr];W[hq];B[ip];W[jr];
B[fb];W[gc];B[ps];W[qr];B[or];W[mo];B[lo];W[ko];B[lp];W[kq];B[mn];W[pr];B[nq];
W[mc];B[md];W[nd];B[ld];W[oc];B[nb];W[od];B[ob];W[re];B[rd];W[bc];B[bd];W[gb];
B[ea];W[jb];B[kb];W[cc];B[cb];W[bb];B[db];W[cd];B[be];W[ba];B[ca];W[af];B[ac];
W[bf];B[ab];W[jc];B[jf];W[je];B[ke];W[mg];B[ng];W[nf];B[og];W[rg];B[pg];W[pd];
B[qc];W[le];B[kd];W[kh];B[io];W[me];B[of];W[ph];B[sh];W[rh];B[si];W[sg];B[sj];
W[se];B[qg];W[oe];B[ni];W[rf];B[sn];W[ro];B[sm];W[sd];B[sc];W[qs];B[os];W[so];
B[aa];W[ah];B[ae];W[ag];B[jd];W[id];B[ja];W[ia];B[ka];W[ib];B[mb];W[ga];B[ks];
W[js];B[ls];W[ql];B[ao];W[ap];B[an];W[al];B[op];W[pq];B[fa];W[rn];B[sl];W[gr];
B[lr];W[gp];B[ie];W[en];B[el];W[je];B[bh];W[aj];B[ie];W[rb];B[rc];W[je];B[kr];
W[hs];B[ie];W[pb];B[qb];W[je];B[lg];W[lf];B[ie];W[lk];B[kj];W[je];B[dq];W[cr];
B[ie];W[qa];B[pa];W[je];B[cq];W[bq];B[ie];W[ln];B[mp];W[je];B[br];W[dr];B[ie];
W[sb];B[ra];W[je];B[rl];W[rj];B[pk];W[ie];B[sk];W[];B[])
