(;FF[4]BR[16k]CP[online-go.com]DT[2016-04-09]GM[1]KM[6.5]PB[malner]
PC[OGS: http://online-go.com/game/4817340]PW[mav2029]RE[B+R]RU[japanese]SZ[19]
WR[17k];B[qc];W[dp];B[qq];W[cd];B[ec];W[ee];B[cj];W[jp];B[pj];W[kc];B[cb];W[gc]
;B[ic];W[id];B[bc];W[bd];B[cg];W[ib];B[nc];W[me];B[fb];W[fc];B[dc];W[ed];B[cn];
W[bp];B[gq];W[er];B[cq];W[cp];B[eq];W[dq];B[fr];W[cr];B[iq];W[pf];B[qh];W[oh];
B[nk];W[mi];B[pm];W[qm];B[ql];W[qn];B[op];W[pn];B[lp];W[ih];B[dl];W[fl];B[fh];
W[eg];B[dh];W[eh];B[il];W[lk];B[kf];W[jf];B[nq];W[hp];B[hq];W[ep];B[jq];W[fq];
B[kq];W[gr];B[hr];W[fs];B[jj];W[ki];B[gj];W[fj];B[gf];W[ge];B[jg];W[jh];B[if];
W[je];B[hh];W[ig];B[hg];W[hi];B[gi];W[hj];B[gk];W[gl];B[hk];W[ji];B[ij];W[jk];
B[ik];W[ii];B[jl];W[kk];B[km])
