(;FF[4]BR[23k]CP[online-go.com]DT[2016-03-27]GM[1]KM[6.5]PB[pawell]
PC[OGS: http://online-go.com/game/4607611]PW[goniki]RE[W+R]RU[japanese]SZ[19]
WR[25k];B[pd];W[pp];B[dd];W[dp];B[cn];W[dj];B[cj];W[ci];B[bj];W[bi];B[ai];W[ck]
;B[bh];W[bk];B[aj];W[ag];B[ah];W[bg];B[ch];W[di];B[cg];W[bf];B[cf];W[be];B[bd];
W[ce];B[de];W[cd];B[cc];W[bc];B[ad];W[ac];B[ae];W[af];B[ad];W[cb];B[dc];W[bb];
B[db];W[df])
