(;FF[4]BR[10k]CP[online-go.com]DT[2016-04-10]GM[1]KM[6.5]PB[Desyatnik-2]
PC[OGS: http://online-go.com/game/4828404]PW[Odo]RE[B+R]RU[japanese]SZ[19]
WR[14k];B[pd];W[cp];B[dd];W[pp];B[ep];W[dn];B[hq];W[dj];B[np];W[pn];B[kp];W[qf]
;B[nd];W[rd];B[qc];W[cf];B[fd];W[dq];B[qh];W[qj];B[oh];W[rg];B[rh];W[rc];B[qg];
W[rf];B[pf];W[qb];B[pb];W[qd];B[pc];W[oj];B[jd];W[oq];B[nq];W[nn];B[ij];W[cc];
B[cd];W[bd];B[be];W[bc];B[ce];W[eb];B[ch];W[bj];B[df];W[gc];B[dc];W[db];B[ic];
W[hd];B[if];W[mi];B[lm];W[ml];B[ll];W[mk];B[sk])
