(;FF[4]BR[10k]CP[online-go.com]DT[2016-05-19]GM[1]KM[6.5]PB[unstable]
PC[OGS: http://online-go.com/game/5291512]PW[Dryade]RE[B+R]RU[japanese]SZ[19]
WR[6k];B[pd];W[dp];B[pq];W[dc];B[pk];W[mp];B[de];W[dh];B[cc];W[cb];B[dd];W[bc];
B[ec];W[cd];B[eb];W[hd];B[gd];W[he];B[ge];W[gf];B[hc];W[ic];B[hb];W[ff];B[ib];
W[kc];B[jc];W[je];B[id];W[pn];B[qo];W[qf];B[nc];W[qi];B[qn];W[oj];B[qm];W[nl];
B[fq];W[fo];B[dr];W[eq];B[er];W[fr];B[gr];W[gq];B[fs];W[fp];B[fr];W[le];B[ie])
