(;FF[4]BR[6k]CP[online-go.com]DT[2016-06-04]GM[1]KM[6.5]PB[Copacetic]
PC[OGS: http://online-go.com/game/5447698]PW[sigsfried]RE[W+R]RU[japanese]
SZ[19]WR[8k];B[pd];W[dp];B[pq];W[dd];B[fq];W[cn];B[qk];W[nc];B[pf];W[jd];B[lp];
W[hq];B[fo];W[ho];B[fm];W[ck];B[hm];W[kq];B[ip];W[iq];B[kp];W[jp];B[jo];W[jq];
B[io];W[mr];B[nq];W[cg];B[lc];W[ld];B[md];W[mc];B[nd];W[kc];B[lb];W[kb];B[le];
W[kd];B[oc];W[nb];B[ob];W[la];B[gd];W[jg];B[jf];W[if];B[je];W[ie];B[lg];W[hd];
B[ig];W[jh];B[hg];W[ge];B[gf];W[fe];B[ff];W[ef];B[eg];W[df];B[di];W[ci];B[dj];
W[cj];B[dm];W[dk];B[fk];W[ek];B[fj];W[po];B[nn];W[qp];B[pm];W[qm];B[pn];W[qn];
B[oo];W[pl];B[ql];W[ol];B[pp];W[qo];B[qq];W[nm];B[on];W[qj];B[pk];W[rj];B[oj];
W[qg];B[pg];W[ph];B[oh];W[pi];B[qf];W[oi];B[nj];W[ni];B[mj];W[rg];B[rf];W[pj];
B[nl];W[rl];B[ok];W[rk];B[mh];W[mi];B[li];W[dr];B[gr];W[hr];B[nr];W[mq];B[lq];
W[lr];B[ms];W[fp];B[gp];W[gq];B[ep];W[fr];B[er];W[gs];B[ds];W[cr];B[do];W[co];
B[dq];W[cp];B[cq];W[bq];B[eq];W[ej];B[rp];W[ro];B[sq];W[rm];B[br];W[fi];B[dh];
W[ei];B[dg];W[hi];B[ih];W[ii];B[ji];W[jj];B[ki];W[hl];B[hk];W[ik];B[il];W[gl];
B[fl];W[gk];B[gj];W[hj];B[gi];W[gh];B[hh];W[hf];B[cm];W[dn];B[en];W[bm];B[bl];
W[bo];B[am];W[an];B[bn];W[ar];B[cs];W[bm];B[al];W[ap];B[bn];W[mp];B[mo];W[bm];
B[kg];W[gg];B[bn];W[cr];B[ao];W[im];B[jl];W[an];B[kr];W[ks];B[ao];W[ko];B[lo];
W[an];B[jr];W[js];B[ao];W[jm];B[kl];W[an];B[np];W[ir];B[ao];W[hp];B[gm];W[an];
B[cc];W[cd];B[dc];W[ec];B[eb];W[fb];B[fc];W[ed];B[db];W[gb];B[bd];W[be];B[bc];
W[bm];B[kr];W[bn];B[ch];W[bg];B[bh];W[cl];B[ls];W[kn];B[na];W[mb];B[fs];W[es];
B[ae];W[af];B[fs];W[hk];B[gr])
