(;FF[4]BR[1d]CP[online-go.com]DT[2016-04-18]GM[1]KM[6.5]PB[xgp328]
PC[OGS: http://online-go.com/game/4940251]PW[calantir]RE[B+R]RU[japanese]SZ[19]
WR[5k];B[dd];W[pp];B[dq];W[pd];B[co];W[fc];B[df];W[jd];B[nq];W[lq];B[qq];W[qp];
B[pq];W[op];B[nr];W[mo];B[qj];W[pl];B[qf];W[qe];B[pf];W[nd];B[rl];W[pj];B[pi];
W[oj];B[oi];W[rm];B[ql];W[qm];B[nj];W[nl];B[ni];W[ch];B[cj];W[eh];B[fd];W[gd];
B[fe];W[ec];B[dc];W[bf];B[gg];W[ge];B[di];W[dh];B[fi];W[ce];B[gc];W[hc];B[gb];
W[hb];B[eb];W[fb];B[bd];W[bj];B[bk];W[bi];B[ei];W[ff];B[ef];W[fg];B[fh];W[gf];
B[ed];W[ga];B[eg];W[de];B[ee];W[cd];B[cc];W[be];B[bc];W[db];B[cb];W[ea];B[bg];
W[cg];B[ag];W[cf];B[ae];W[af];B[ad];W[ab];B[ca];W[bb];B[aj];W[ai];B[ci];W[ak];
B[al];W[bl];B[aj];W[ck];B[dg];W[ak];B[bh];W[el];B[qc];W[qd];B[pb];W[rb];B[rc];
W[rd];B[sb];W[rf];B[qh];W[ob];B[ra];W[cp];B[dp];W[bo];B[bp];W[cn];B[cq];W[do];
B[eo];W[cp];B[oc];W[nb];B[od];W[oe];B[nc])
