(;FF[4]BR[9k]CP[online-go.com]DT[2016-08-06]GM[1]KM[6.5]PB[Rataridicta]
PC[OGS: http://online-go.com/game/6017764]PW[AlexKrh]RE[B+R]RU[japanese]SZ[19]
WR[15k];B[qd];W[dd];B[pp];W[dp];B[oc];W[qj];B[qm];W[qf];B[qh];W[pi];B[pg];W[pf]
;B[og];W[ph];B[qg];W[ok];B[om];W[pl];B[pm];W[ni];B[fc];W[cf];B[jd];W[nq];B[mg];
W[ml];B[kp];W[mn];B[mp];W[np];B[no];W[mo];B[lp];W[oo];B[nn];W[op];B[po];W[on];
B[nm];W[qq];B[pq];W[pr];B[or];W[qr];B[nr];W[ro];B[qp];W[rp];B[gq];W[dn];B[fe];
W[cj];B[go];W[km];B[mm];W[kn];B[ll];W[lj];B[kk];W[lh];B[lg];W[ki];B[il];W[ii];
B[jh];W[ji];B[hg];W[ek];B[cq];W[cp];B[dq];W[ep];B[eq];W[fp];B[gp];W[fq];B[fr];
W[cc];B[eg];W[dh];B[gl];W[eh];B[kh];W[mk];B[mh];W[mi];B[bp];W[bo];B[bq];W[os];
B[sq];W[sm];B[rn];W[sn];B[rq];W[rr];B[sr];W[sp];B[qo];W[ss];B[bn];W[co];B[ao];
W[bm];B[am];W[cn];B[an];W[al];B[ap];W[cl];B[mq];W[pd];B[pc];W[qc];B[rd];W[ql];
B[rm];W[rl];B[ri];W[rj];B[hj];W[lk];B[kl];W[jk];B[jj];W[ij];B[ik];W[kj];B[jl];
W[hi];B[gj];W[gh];B[gg];W[fj];B[dg];W[cg];B[ee];W[de];B[db];W[cb];B[eb];W[fn];
B[gn];W[fm];B[gm];W[fl];B[fo];W[eo];B[ns];W[ps];B[oh];W[oi];B[hh];W[ih];B[ig];
W[fh];B[fg];W[si];B[sh];W[sj];B[qi];W[jb];B[jc];W[lc];B[od];W[ib];B[mb];W[lb];
B[mc];W[gb];B[hc];W[gc];B[hb];W[hd];B[ic])
