(;FF[4]BR[22k]CP[online-go.com]DT[2016-04-14]GM[1]KM[6.5]PB[GrigorescuViorel]
PC[OGS: http://online-go.com/game/4881763]PW[Jwill1997]RE[B+R]RU[japanese]
SZ[19]WR[22k];B[qd];W[dp];B[pq];W[cd];B[oc];W[po];B[qo];W[pp];B[qp];W[qn];B[rn]
;W[pn];B[oq];W[mq];B[fq];W[ep];B[dr];W[cq];B[kq];W[mp];B[ql];W[op];B[ec];W[dc];
B[ed];W[dg];B[ck];W[ip];B[iq];W[kp];B[jp];W[jo];B[jq];W[io];B[jd];W[pj];B[ol];
W[nj];B[qh];W[qj];B[oi];W[oj];B[ni];W[hj];B[lj];W[li];B[mi];W[mj];B[lk];W[ki];
B[lm];W[ln];B[mm];W[mn];B[jm];W[im];B[ko];W[lp];B[kn];W[ik];B[cn];W[co];B[ch];
W[cg];B[dh];W[cm];B[dm];W[dn];B[cl];W[bn];B[em];W[en];B[nq];W[np];B[nn];W[on];
B[om];W[no];B[nm];W[lo];B[eg];W[ef];B[dd];W[cc];B[df];W[cf];B[de];W[ce];B[ff];
W[bh];B[bi];W[bg];B[lg];W[hg];B[jg];W[kg];B[kf];W[kh];B[lh];W[jj];B[hf];W[ig];
B[fh];W[fj];B[if];W[jh];B[jf];W[gg];B[fg];W[pe];B[pf];W[oe];B[me];W[nd];B[nc];
W[of];B[pg];W[qe];B[pd];W[pi];B[ph];W[md];B[mc];W[ld];B[lc];W[rd];B[rc];W[rf];
B[sd];W[re];B[og];W[rh];B[ri];W[rg];B[qi];W[se];B[sc];W[sh];B[si];W[le];B[mf];
W[ke];B[je];W[od];B[pc];W[eb];B[fb];W[db];B[gf];W[fc];B[gb];W[fd];B[ee];W[hb];
B[gc];W[fe];B[ef];W[gd];B[hd];W[fa];B[ga];W[ea];B[kj];W[fm];B[ih];W[ji];B[hh];
W[dl];B[el];W[ek];B[dk];W[fl];B[dl];W[bl];B[ej];W[jl];B[fk])
