(;FF[4]BR[18k]CP[online-go.com]DT[2016-01-17]GM[1]KM[6.5]PB[kyky]
PC[OGS: http://online-go.com/game/3718199]PW[Expt626]RE[W+26.5]RU[japanese]
SZ[19]WR[14k];B[qd];W[dq];B[pq];W[dc];B[oc];W[po];B[qo];W[oq];B[qn];W[pn];B[pm]
;W[pp];B[qp];W[pr];B[qq];W[np];B[do];W[eo];B[dn];W[en];B[em];W[dm];B[el];W[cm];
B[ep];W[dp];B[fo];W[fn];B[gn];W[fp];B[fm];W[eq];B[eo];W[gp];B[de];W[dg];B[fe];
W[fc];B[he];W[hc];B[ic];W[ee];B[ed];W[ef];B[fd];W[dd];B[hd];W[gc];B[ph];W[pk];
B[qm];W[nk];B[jd];W[nh];B[jp];W[io];B[jo];W[jn];B[lq];W[lp];B[kq];W[ip];B[iq];
W[hq];B[mq];W[mp];B[ir];W[hr];B[in];W[im];B[hn];W[kn];B[nr];W[or];B[os];W[ps];
B[ns];W[nq];B[mr];W[kp];B[hs];W[js];B[is];W[ls];B[kr];W[ks];B[jq];W[fr];B[lc];
W[cj];B[ei];W[hk];B[fg];W[gh];B[gg];W[hg];B[jg];W[jh];B[kh];W[kg];B[ig];W[ih];
B[hf];W[fh];B[lg];W[kf];B[hh];W[hi];B[lh];W[lf];B[ng];W[mg];B[mf];W[mh];B[nf];
W[li];B[le];W[pi];B[oh];W[oi];B[hg];W[om];B[eg];W[ce];B[gi];W[hj];B[fi];W[dh];
B[eh];W[di];B[bn];W[bm];B[cn];W[bp];B[qk];W[qj];B[rk];W[qh];B[qg];W[rh];B[rg];
W[sg];B[sf];W[sh];B[re];W[ib];B[jb];W[ha];B[go];W[hp];B[ke];W[ki];B[qr];W[qs];
B[dk];W[ck];B[jf];W[ja];B[ka];W[ia];B[kb];W[fk];B[ek];W[fj];B[ej];W[rr];B[rq];
W[sr];B[sq];W[rs];B[ff];W[df];B[ec];W[eb];B[gs];W[fs];B[gr];W[fq];B[am];W[al];
B[bl];W[an];B[cl];W[bk];B[dl];W[am];B[hl];W[il];B[rj];W[qi];B[ao];W[ak];B[bo];
W[ap];B[pl];W[ol];B[ko];W[lo];B[gd];W[ga];B[cp];W[cq];B[co];W[bq];B[sj];W[gl];
B[hm];W[fl];B[gj];W[gk];B[gm];W[dj];B[];W[])
