(;FF[4]BR[8k]CP[online-go.com]DT[2016-08-25]GM[1]KM[6.5]PB[mikserc]
PC[OGS: http://online-go.com/game/6171692]PW[gopaddy]RE[B+9.5]RU[japanese]
SZ[19]WR[7k];B[pd];W[cc];B[pq];W[nc];B[dp];W[dn];B[cn];W[cm];B[co];W[qo];B[np];
W[rq];B[ql];W[qr];B[pr];W[pb];B[qc];W[kc];B[qh];W[dl];B[fq];W[jj];B[ce];W[dd];
B[de];W[ci];B[ed];W[ec];B[fc];W[ee];B[fd];W[ef];B[ic];W[eb];B[gf];W[dg];B[jf];
W[qb];B[ne];W[fo];B[ip];W[lf];B[jh];W[ki];B[le];W[ke];B[je];W[ld];B[jc];W[me];
B[ng];W[lh];B[ni];W[hi];B[hg];W[fh];B[im];W[in];B[jn];W[hn];B[jo];W[jm];B[km];
W[jl];B[qn];W[po];B[om];W[no];B[mp];W[nm];B[ol];W[on];B[mn];W[nn];B[bc];W[bb];
B[cd];W[dc];B[fb];W[bd];B[rn];W[ro];B[fp];W[go];B[nl];W[mm];B[ln];W[kl];B[lm];
W[ml];B[mk];W[lk];B[mj];W[ll];B[rb];W[hp];B[hq];W[iq];B[gp];W[jp];B[io];W[mo];
B[lo];W[lp];B[kp];W[op];B[mq];W[oq];B[nr];W[or];B[os];W[pp];B[lq];W[bm];B[bn];
W[do];B[bp];W[pc];B[rd];W[od];B[oe];W[nd];B[pe];W[qq];B[ps];W[sn];B[sm];W[so];
B[qm];W[ep];B[eq];W[kb];B[jb];W[mg];B[am];W[al];B[an];W[bl];B[gh];W[gi];B[ka];
W[la];B[ja];W[nf];B[of];W[nh];B[oh];W[og];B[pg];W[lj];B[mi];W[ng];B[lb];W[ma];
B[mb];W[na];B[nb];W[ob];B[oa];W[pa];B[na];W[ra];B[sb];W[li];B[ih];W[lc];B[ho];
W[eo];B[ii];W[ij];B[fa];W[ea];B[fg];W[eg];B[mc];W[md];B[la];W[pn];B[nq];W[kg];
B[jg];W[mh];B[oi];W[qs];B[ns];W[fe];B[ge];W[pm];B[pl];W[hh];B[gg];W[jd];B[id];
W[kd];B[sa];W[oc];B[qa];W[dq];B[cp];W[ra];B[];W[qa];B[];W[])
