(;FF[4]BR[22k]CP[online-go.com]DT[2016-03-28]GM[1]KM[6.5]PB[acepoint]
PC[OGS: http://online-go.com/game/4631880]PW[TheKreligerMan]RE[B+R]RU[japanese]
SZ[19]WR[25k];B[pd];W[dp];B[pp];W[dd];B[fq];W[hq];B[qf];W[eq];B[fp];W[fo];B[hp]
;W[gq];B[gp];W[ho];B[ld];W[ip];B[er];W[gr];B[dq];W[ep];B[fr];W[go];B[cq];W[fs];
B[dr];W[bp];B[cp];W[co];B[bo];W[bn];B[do];W[eo];B[cn];W[ao];B[co];W[bq];B[iq];
W[ir];B[jq];W[jp];B[kq];W[lp];B[kp];W[ko];B[lo];W[mp];B[jo];W[io];B[kn];W[jn];
B[ko];W[jm];B[km];W[mo];B[jl];W[kl];B[il];W[im];B[hm];W[in];B[en];W[gm];B[gn];
W[hl];B[fn])
