(;FF[4]BR[8k]CP[online-go.com]DT[2016-09-05]GM[1]KM[6.5]PB[DerScharlatan]
PC[OGS: http://online-go.com/game/6265654]PW[guided]RE[B+R]RU[japanese]SZ[19]
WR[10k];B[pd];W[dd];B[qp];W[dp];B[oq];W[nc];B[qf];W[pb];B[qc];W[kc];B[cf];W[fd]
;B[fq];W[dn];B[dj];W[jp];B[lp];W[gp];B[pj];W[oo];B[pn];W[nq];B[mo];W[np];B[pp];
W[op];B[or];W[lq];B[on];W[kp];B[cq];W[dq];B[dr];W[er];B[cr];W[eq];B[bo];W[qh];
B[ph];W[pi];B[oh];W[qi];B[oj];W[qg];B[pf];W[qj];B[qk];W[rk];B[ql];W[rl];B[rm];
W[rf];B[re];W[sg];B[sl];W[sk];B[rj];W[sm];B[sj];W[ri];B[sl];W[rk];B[sk];W[si];
B[sn];W[rh];B[id];W[ce];B[df];W[ke];B[if];W[kg];B[md];W[mc];B[jd];W[kd];B[cl];
W[bn];B[bp];W[cm];B[bl];W[dl];B[dk];W[el];B[ee];W[ed];B[fj];W[lo];B[ln];W[mp];
B[kn];W[mn];B[mm];W[nn];B[nm];W[no];B[gf];W[nd];B[oe];W[ne];B[in];W[jj];B[kk];
W[kj];B[lj];W[jk];B[kl];W[hl];B[gn];W[fo];B[io];W[ip];B[li];W[ki];B[hb];W[fb];
B[qb];W[ob];B[ls];W[ks];B[ms];W[kr];B[go];W[fp];B[jh];W[kh];B[jf];W[kf];B[be];
W[bd];B[bf];W[hc];B[ic];W[gb];B[jb];W[hd];B[he];W[kb];B[nf];W[mf];B[hi];W[ih];
B[hh];W[jg];B[es];W[fs];B[ds];W[jm];B[jn];W[gj];B[gi];W[hj];B[fk];W[fl];B[gk];
W[gl];B[hq];W[hp];B[fr];W[gq];B[gs];W[gr];B[hs])
