(;FF[4]BR[4k]CP[online-go.com]DT[2016-04-02]GM[1]KM[6.5]PB[calantir]
PC[OGS: http://online-go.com/game/4713313]PW[joerg]RE[W+31.5]RU[japanese]SZ[19]
WR[4k];B[qd];W[dp];B[pp];W[dd];B[oc];W[qj];B[fq];W[qn];B[nq];W[rp];B[qq];W[pl];
B[cn];W[dn];B[cq];W[co];B[dq];W[cm];B[fc];W[cf];B[jd];W[qf];B[db];W[cc];B[ch];
W[cj];B[cb];W[fd];B[gd];W[gc];B[ed];W[fe];B[ee];W[ec];B[de];W[fb];B[dc];W[cd];
B[bc];W[ce];B[eb];W[fc];B[bd];W[ef];B[eh];W[jb];B[ej];W[ep];B[gp];W[nn];B[ck];
W[dk];B[cl];W[dl];B[bn];W[bm];B[bo];W[lq];B[mo];W[iq];B[kp];W[kq];B[ip];W[lp];
B[jq];W[jr];B[jp];W[hq];B[lo];W[hp];B[ho];W[mr];B[nr];W[gq];B[fp];W[gr];B[fr];
W[is];B[io];W[of];B[ib];W[ic];B[jc];W[kb];B[hc];W[hb];B[id];W[ia];B[mc];W[lm];
B[om];W[on];B[pm];W[pn];B[ol];W[ql];B[qm];W[rm];B[pk];W[qk];B[oj];W[nk];B[ok];
W[mg];B[mi];W[li];B[mj];W[kj];B[kk];W[lk];B[lj];W[mk];B[ki];W[jj];B[lh];W[nj];
B[ni];W[oi];B[oh];W[pi];B[nh];W[pg];B[jk];W[hf];B[ig];W[if];B[jf];W[ij];B[ik];
W[hj];B[hk];W[hg];B[hh];W[ih];B[ii];W[gh];B[jh];W[gi];B[nf];W[gk];B[km];W[mm];
B[fk];W[gl];B[fl];W[fm];B[fi];W[gj];B[dj];W[bj];B[dg];W[df];B[ci];W[cp];B[bp];
W[im];B[jm];W[be];B[ba];W[ne];B[mf];W[oe];B[bi];W[bk];B[bg];W[rq];B[rr];W[qp];
B[pr];W[me];B[lf];W[nb];B[nc];W[mb];B[ob];W[rd];B[re];W[qe];B[rc];W[pd];B[qc];
W[rf];B[sd];W[pc];B[pb];W[lc];B[le];W[ge];B[hd];W[fh];B[fj];W[fo];B[go];W[fn];
B[sf];W[rg];B[sg];W[sh];B[se];W[ri];B[ph];W[qh];B[hm];W[hl];B[il];W[gm];B[in];
W[eg];B[cg];W[fs];B[es];W[gs];B[eq];W[sr];B[rs];W[op];B[oq];W[po];B[np];W[pq];
B[ha];W[ga];B[pp];W[ln];B[kn];W[pq];B[qr];W[pp];B[mq];W[ms];B[ns];W[lr];B[ae];
W[af];B[ad];W[bf];B[ah];W[an];B[bq];W[kd];B[ke];W[ld];B[od];W[pe];B[ao];W[am];
B[ss];W[og];B[ng];W[ie];B[je];W[el];B[sq];W[sp];B[gn];W[oa];B[pa];W[na];B[qb];
W[no];B[mp];W[aj];B[ll];W[ml];B[kl];W[mn];B[ea];W[ic];B[ji];W[hi];B[ih];W[ib];
B[di];W[md];B[];W[])
