(;FF[4]BR[13k]CP[online-go.com]DT[2016-04-09]GM[1]KM[6.5]PB[Debroos]
PC[OGS: http://online-go.com/game/4808692]PW[stenlof]RE[W+R]RU[japanese]SZ[19]
WR[16k];B[qd];W[dq];B[pq];W[dd];B[oc];W[jc];B[co];W[cp];B[dp];W[bp];B[bo];W[ep]
;B[do];W[fp];B[cg];W[cf];B[bg];W[bf];B[dj];W[fj];B[fo];W[eo];B[en];W[ap];B[ao];
W[fn];B[go];W[dn];B[cn];W[dm];B[cm];W[em];B[dl];W[el];B[ek];W[fk];B[eg];W[io];
B[kq];W[iq];B[ir];W[hr];B[jr];W[ip];B[gn];W[hm];B[pj];W[gg];B[fe];W[ff];B[df];
W[de];B[je];W[ef];B[dh];W[ee];B[ge];W[gc];B[lb];W[he];B[hd];W[hf];B[jb];W[id];
B[hc];W[ic];B[hb];W[ib];B[ia];W[kb];B[kc];W[ja];B[kj];W[hn];B[jm];W[cl];B[ck];
W[bl];B[bm];W[am];B[bk];W[dk];B[ie];W[ej];B[di];W[fh];B[ha];W[kd];B[lc];W[jd];
B[ke];W[ld];B[md];W[le];B[mg];W[kf];B[lf];W[jf];B[me];W[if];B[ij];W[ko];B[ln];
W[lo];B[mo];W[lp];B[mq];W[mp];B[no];W[np];B[op];W[nq];B[oq];W[mr];B[or];W[lq];
B[kn];W[jn];B[kl];W[im];B[il];W[nb];B[ob];W[mb];B[la];W[mc];B[nc];W[gb];B[na];
W[lg];B[lh];W[mf];B[nf];W[lf];B[nh];W[ji];B[ki];W[ii];B[hj];W[kh];B[jh];W[kg];
B[gi];W[hi];B[gj];W[gh];B[fi];W[ei];B[eh];W[bj];B[cj];W[ak];B[bi];W[aj];B[ai];
W[al];B[ch];W[gd];B[gl];W[gm];B[fl];W[fm];B[gk];W[ek];B[jj];W[hh];B[ka];W[ma];
B[oa];W[po];B[oo];W[pn];B[nm];W[rq];B[qp];W[rp];B[qo];W[ro];B[qn];W[rn];B[ql];
W[rm];B[rl];W[qq];B[qm];W[qr];B[hq];W[gq];B[gr];W[hs];B[be];W[af];B[ce];W[bd];
B[ae];W[dg];B[lb];W[df];B[lc];W[ag];B[ah];W[ne];B[la];W[ka];B[kc];W[ga])
