(;FF[4]BR[13k]CP[online-go.com]DT[2016-07-11]GM[1]KM[6.5]PB[gfj1979]
PC[OGS: http://online-go.com/game/5795512]PW[guided]RE[B+R]RU[japanese]SZ[19]
WR[14k];B[pd];W[dp];B[pq];W[dd];B[cj];W[qo];B[oo];W[qq];B[pp];W[qp];B[om];W[ql]
;B[ip];W[ch];B[cn];W[cl];B[dl];W[dm];B[ck];W[dk];B[cm];W[el];B[bl];W[dn];B[cp];
W[dq];B[cq];W[dj];B[qj];W[nc];B[fc];W[dc];B[lc];W[qc];B[qd];W[pc];B[nd];W[qh];
B[pk];W[oh];B[mh];W[of];B[nf];W[oe];B[od];W[oc];B[ni];W[rd];B[re];W[rc];B[qf];
W[ng];B[mf];W[mg];B[lg];W[ne];B[me];W[oi];B[pg];W[og];B[ph];W[ok];B[oj];W[nj];
B[pi];W[mi];B[li];W[mj];B[lh];W[nh];B[pj];W[pl];B[ol];W[nk];B[qn];W[rn];B[qm];
W[rm];B[rk];W[rl];B[fq];W[kq];B[ml];W[lj];B[kj];W[lk];B[ll];W[kk];B[jl];W[kl];
B[km];W[jk];B[il];W[nq];B[or];W[nr];B[mp];W[mq];B[jq];W[jr];B[ir];W[js];B[lr];
W[jp];B[iq];W[kr];B[kp];W[oq];B[pr];W[pn];B[on];W[pm];B[lq])
