(;FF[4]BR[15k]CP[online-go.com]DT[2016-03-30]GM[1]KM[6.5]PB[hpb0215]
PC[OGS: http://online-go.com/game/4657853]PW[oimena90👺]RE[W+5.5]RU[japanese]
SZ[19]WR[17k];B[qd];W[dd];B[pq];W[dp];B[oc];W[dj];B[fq];W[jc];B[cn];W[iq];B[ck]
;W[cj];B[cp];W[fp];B[dq];W[eq];B[do];W[ep];B[dr];W[er];B[em];W[mq];B[qo];W[jj];
B[kd];W[kc];B[ld];W[qj];B[ql];W[qg];B[kp];W[kq];B[lp];W[lq];B[mp];W[jf];B[mf];
W[mg];B[nf];W[ng];B[ol];W[ml];B[nm];W[ok];B[mm];W[nl];B[pl];W[pk];B[ll];W[lk];
B[kl];W[jl];B[kk];W[lj];B[kj];W[jk];B[li];W[mk];B[ni];W[nj];B[lg];W[oi];B[mh];
W[nh];B[mi];W[fl];B[fm];W[hm];B[jm];W[hd];B[ji];W[ii];B[jh];W[ih];B[cc];W[cd];
B[dc];W[bc];B[bb];W[bd];B[ec];W[fc];B[fb];W[ed];B[fd];W[gc];B[gb];W[db];B[cb];
W[fe];B[hc];W[gd];B[ic];W[jd];B[id];W[ie];B[jb];W[kb];B[ia];W[bk];B[cl];W[bl];
B[bm];W[dm];B[dl];W[el];B[cm];W[re];B[rd];W[qe];B[pe];W[pf];B[oe];W[nb];B[ob];
W[nc];B[nd];W[mc];B[lc];W[lb];B[ke];W[je];B[io];W[ho];B[in];W[hn];B[ip];W[hp];
B[md];W[rk];B[rl];W[or];B[pr];W[oq];B[op];W[np];B[no];W[nq];B[mj];W[nk];B[og];
W[oh];B[pg];W[ph];B[of];W[qf];B[qk];W[pj];B[rj];W[ri];B[sk];W[si];B[sj];W[im];
B[kn];W[jp];B[jo];W[jq];B[es];W[fs];B[ds];W[gq];B[na];W[mb];B[ma];W[ja];B[ka];
W[la];B[oa];W[ha];B[hb];W[ja];B[ib];W[ka];B[eb];W[ga];B[jg];W[ig];B[kf];W[fn];
B[en];W[fo];B[bq];W[gm];B[dk];W[ek];B[al];W[bj];B[ak];W[aj];B[am];W[ej];B[se];
W[sf];B[sd];W[rg];B[ac];W[ad];B[ab];W[mo];B[oo];W[ps];B[qs];W[os];B[rr];W[eo];
B[dn];W[];B[])
