(;FF[4]BR[19k]CP[online-go.com]DT[2016-04-13]GM[1]KM[6.5]PB[kissmecomix]
PC[OGS: http://online-go.com/game/4876712]PW[Paxequikz]RE[W+R]RU[japanese]
SZ[19]WR[18k];B[dp];W[pd];B[de];W[qp];B[np];W[oq];B[nq];W[op];B[oo];W[po];B[or]
;W[pr];B[pq];W[pp];B[qq];W[nr];B[qr];W[os];B[qs];W[pn];B[rp];W[ro];B[ps];W[or];
B[sq];W[rr];B[sr];W[rs];B[sp];W[so];B[on];W[no])
