(;FF[4]BR[4k]CP[online-go.com]DT[2016-06-28]GM[1]KM[6.5]PB[jetlag11235]
PC[OGS: http://online-go.com/game/5674701]PW[Zwergesel]RE[B+R]RU[japanese]
SZ[19]WR[1k];B[qp];W[op];B[pc];W[dp];B[cd];W[pn];B[qn];W[pm];B[oq];W[pq];B[pp];
W[qq];B[rq];W[rr];B[ro];W[sq];B[rp];W[or];B[nq];W[nr];B[mq];W[oo];B[mr];W[ps];
B[ql];W[lo];B[kp];W[pk];B[qk];W[qj];B[pj];W[pl];B[rj];W[qi];B[oj];W[ri];B[qf];
W[rk];B[rl];W[sj];B[po];W[nk];B[mi];W[pg];B[pf];W[nj];B[oh];W[ni];B[ph];W[nh];
B[qh];W[rh];B[rg];W[og];B[ng];W[of];B[qg];W[oe];B[mg];W[qd];B[pd];W[pe];B[qe];
W[me];B[rd];W[sh];B[mh];W[nc];B[jd];W[ke];B[jh];W[je];B[id];W[ie];B[hd];W[hh];
B[hi];W[ii];B[lk];W[ji];B[kj];W[ki];B[li];W[ko];B[jp];W[mj];B[lj];W[jl];B[kl];
W[jm];B[nl];W[ml];B[nm];W[mm];B[mk];W[ok];B[nn];W[mo];B[no];W[np];B[mp];W[on];
B[mn];W[lm];B[ln];W[km];B[kn];W[jn])
