(;FF[4]BR[10k]CP[online-go.com]DT[2016-02-28]GM[1]KM[6.5]PB[bear29]
PC[OGS: http://online-go.com/game/4123134]PW[Gao Shan]RE[W+R]RU[japanese]SZ[19]
WR[7k];B[qd];W[dp];B[pq];W[dd];B[fc];W[hc];B[oc];W[kc];B[cf];W[ce];B[cc];W[be];
B[dc];W[ed];B[gb];W[ec];B[eb];W[fd];B[bc];W[po];B[qo];W[qn];B[qp];W[pn];B[qj];
W[oq];B[or];W[pp];B[nq];W[qq];B[pr];W[rq];B[op];W[cn];B[cq];W[dq];B[hq];W[ck];
B[eg];W[dh];B[cj];W[dj];B[dk];W[di];B[cl];W[bk];B[bl];W[bj];B[ek];W[gp];B[dm];
W[dn];B[fq];W[gq];B[fm];W[fp];B[fi];W[eh];B[fg];W[fh];B[gg];W[dg];B[ge];W[ef];
B[gd];W[gc];B[fb];W[id];B[if];W[he];B[hf];W[fe];B[hi];W[gh];B[hh];W[gi];B[gk];
W[gj];B[hj];W[hk];B[gl];W[ik];B[im];W[pg];B[qh];W[ph];B[pi];W[oi];B[oj];W[nj];
B[ni];W[oh];B[mi];W[ok];B[qg];W[pj];B[qi];W[mn];B[mj];W[lp];B[lq];W[kq];B[lr];
W[kr];B[mp];W[kn];B[kl];W[jj];B[kj];W[ji];B[kf];W[me];B[mf];W[nf];B[mg];W[le];
B[cp];W[bn];B[dr];W[er];B[br];W[ds];B[cs];W[cr];B[jp];W[kp];B[ho];W[hp];B[io];
W[ip];B[dr];W[jl];B[jm];W[cr];B[ne];W[nd];B[oe];W[bs];B[od];W[mc];B[pk];W[oj];
B[ql];W[pl];B[qk];W[pm];B[ja];W[ka];B[ia];W[jb];B[hb];W[ib];B[pf];W[rm];B[rl];
W[lk];B[ll];W[ml];B[mk];W[km];B[kk];W[mm];B[nb];W[mb];B[rr];W[qr];B[qs];W[sr];
B[rs];W[rp];B[jo];W[jq];B[fn];W[lf];B[lg];W[jf];B[jg];W[je];B[ha];W[hd];B[gf];
W[go];B[gn];W[jn];B[in];W[ad];B[ac];W[no];B[np];W[of];B[ng];W[og];B[sq];W[sp];
B[sn];W[sm];B[la];W[sl];B[sk];W[nc];B[ob];W[lb];B[kb];W[ps];B[os];W[ka];B[nh];
W[nk];B[kb];W[sj];B[rk];W[ka];B[oo];W[on];B[kb];W[ls];B[ms];W[ks];B[mr];W[fj])
