(;FF[4]BR[10k]CP[online-go.com]DT[2016-03-28]GM[1]KM[6.5]PB[lucius286]
PC[OGS: http://online-go.com/game/4629336]PW[nwurd]RE[B+R]RU[japanese]SZ[19]
WR[6k];B[pp];W[pd];B[cp];W[eq];B[ep];W[fp];B[eo];W[dq];B[cq];W[iq];B[cl];W[qn];
B[nq];W[rp];B[qq];W[qk];B[dd];W[fc];B[ic];W[cc];B[dc];W[cd];B[de];W[db];B[eb];
W[cb];B[ec];W[cf];B[eg];W[nc];B[ch];W[bf];B[fo];W[gp];B[qg];W[qd];B[og];W[ie];
B[gd];W[hd];B[hc];W[ge];B[fd];W[hg];B[fl];W[fh];B[eh];W[fi];B[ej];W[ph];B[pg];
W[qh];B[le];W[ne];B[mg];W[mf];B[oh];W[ri];B[lg];W[lf];B[lj];W[kd];B[ok];W[on];
B[rq];W[qo];B[lq];W[mk];B[mj];W[nk];B[nj];W[ol];B[pj];W[pk];B[oj];W[ki];B[lk];
W[mm];B[qj];W[rj];B[km];W[kg];B[ce];W[be];B[jd];W[ke];B[kc];W[lc];B[bh];W[ea];
B[fa];W[da];B[gb];W[ei];B[di];W[fj];B[ek];W[jk];B[ml];W[nl];B[ll];W[mo];B[hl];
W[il];B[im];W[hk];B[jl];W[ik];B[gm];W[sq];B[cr];W[dr];B[kb];W[lb];B[la];W[ma];
B[ka];W[nb];B[rh];W[rg];B[rf];W[sh];B[qe];W[rr];B[qr];W[cs];B[rd];W[rc];B[bs];
W[ds];B[br];W[kr];B[lr];W[kq];B[ks];W[js];B[ls];W[ir];B[sc];W[sb];B[sd];W[qb];
B[gk];W[gj];B[rs];W[sr];B[qp];W[ro];B[je];W[jf];B[kj];W[jj];B[li];W[kh];B[go];
W[lh];B[mh];W[sf];B[re];W[jn];B[jm];W[lp];B[mp];W[np];B[mq];W[oo];B[lo];W[kp];
B[mn];W[no];B[ln];W[ho];B[hn];W[io];B[fe];W[gf];B[id];W[he];B[pe];W[oe];B[df];
W[op];B[oq];W[ag];B[ah];W[bg];B[po];W[pn];B[in];W[jo];B[of];W[nf];B[dp];W[fr];
B[ng];W[nm];B[pi];W[fg];B[qi];W[rh];B[fk];W[lm];B[kn];W[ff];B[ef];W[kk];B[cg];
W[sp];B[nn];W[ss];B[qs];W[sg];B[kl];W[];B[se];W[];B[pl])
