(;FF[4]BR[13k]CP[online-go.com]DT[2016-05-07]GM[1]KM[6.5]PB[azerwhites]
PC[OGS: http://online-go.com/game/5171294]PW[Azumi]RE[B+R]RU[japanese]SZ[19]
WR[10k];B[pd];W[dd];B[pq];W[dp];B[qk];W[dj];B[kq];W[jd];B[fq];W[dq];B[fo];W[cn]
;B[jj];W[nc];B[oc];W[nb];B[ob];W[gc];B[nd];W[md];B[ch];W[cf];B[eh];W[ff];B[gh];
W[fk];B[gm];W[em];B[hk];W[qf];B[qh];W[rd];B[of];W[qc];B[hf];W[qo];B[oo];W[rq];
B[pm];W[rm];B[me];W[ld];B[le];W[ke];B[kf];W[jf];B[kg];W[jg];B[jh];W[ih];B[ji];
W[hg];B[hh];W[gg];B[ii];W[ig];B[bj];W[bk];B[ck];W[cj];B[bl];W[bi];B[ak];W[ci];
B[bn];W[cm];B[bo];W[bp];B[co];W[do];B[cp];W[bq];B[cq];W[br];B[cr];W[dr];B[cs];
W[bs];B[ds];W[bm];B[am];W[cl];B[er];W[dk];B[bk];W[ai];B[an];W[fp];B[gp];W[en];
B[pg];W[rg];B[rh];W[qb];B[qr];W[rr];B[rs];W[qq];B[or];W[gq];B[ep];W[gn];B[hn];
W[fn];B[hq];W[gr];B[hr];W[hp];B[ho];W[ip];B[jq];W[go];B[fp];W[aj];B[al];W[hm];
B[im];W[hl];B[il];W[gl];B[gk];W[fl];B[in];W[fi];B[fh];W[gi];B[hi];W[bg];B[ef];
W[ee];B[na];W[mb];B[ma];W[la];B[oa];W[lb];B[rl];W[qm];B[ql];W[pn];B[on];W[eo];
B[gs];W[es];B[fs];W[ap];B[ar];W[ao];B[es];W[mq];B[nr];W[mr];B[lr];W[lp];B[mn];
W[ms];B[df];W[ce];B[cg];W[bh];B[ei];W[fj];B[qn];W[rn];B[po];W[qp];B[so];W[jo];
B[kn];W[ko];B[qe];W[re];B[pf];W[qd];B[sp])
