(;FF[4]BR[16k]CP[online-go.com]DT[2016-07-06]GM[1]KM[6.5]PB[IMnew]
PC[OGS: http://online-go.com/game/5745203]PW[kabakabon]RE[B+8.5]RU[japanese]
SZ[19]WR[11k];B[qd];W[dp];B[pq];W[dc];B[fq];W[od];B[oc];W[nc];B[pc];W[nd];B[qf]
;W[ic];B[cn];W[fp];B[gp];W[fo];B[eq];W[dq];B[dm];W[co];B[bo];W[dn];B[bn];W[ip];
B[iq];W[po];B[qm];W[pj];B[ci];W[om];B[qo];W[pn];B[qn];W[oq];B[pp];W[op];B[kq];
W[qq];B[pr];W[qr];B[qp];W[sq];B[rp];W[or];B[ps];W[lq];B[jp];W[hp];B[hq];W[fn];
B[go];W[hn];B[lp];W[mp];B[cp];W[dr];B[cq];W[gr];B[fr];W[gn];B[gq];W[lo];B[kp];
W[rk];B[rl];W[rh];B[cf];W[ce];B[de];W[cd];B[ph];W[nj];B[nh];W[df];B[dg];W[ef];
B[eg];W[cg];B[bf];W[bg];B[ff];W[ee];B[gg];W[fe];B[bh];W[be];B[ch];W[fh];B[fg];
W[af];B[ge];W[if];B[gc];W[gd];B[hd];W[fd];B[kc];W[hf];B[gf];W[id];B[eb];W[gb];
B[hb];W[he];B[ib];W[fc];B[jc];W[hc];B[mb];W[re];B[rf];W[pe];B[qe];W[rc];B[rd];
W[nb];B[mc];W[le];B[ke];W[mg];B[ob];W[pa];B[qb];W[oa];B[ma];W[na];B[ka];W[pd];
B[qc];W[qa];B[rb];W[kh];B[jg];W[kf];B[jf];W[jd];B[kd];W[je];B[ih];W[kg];B[hh];
W[jh];B[ig];W[fj];B[ei];W[fi];B[fl];W[ej];B[dj];W[eh];B[dh];W[dk];B[ck];W[di];
B[cj];W[ik];B[hj];W[gk];B[hk];W[gl];B[dl];W[el];B[ek];W[do];B[jn];W[in];B[qi];
W[qk];B[kn];W[mh];B[kk];W[ql];B[sm];W[hl];B[mm];W[em];B[lr];W[fk];B[dk];W[ij];
B[hi];W[kl];B[lm];W[lk];B[nl];W[mq];B[mr];W[cr];B[bq];W[ri];B[ok];W[oh];B[og];
W[oj];B[oi];W[nn];B[ld];W[md];B[me];W[mf];B[ne];W[nf];B[lf];W[of];B[pf];W[qg];
B[pg];W[ln];B[km];W[jo];B[ko];W[jl];B[ga];W[jb];B[ja];W[fa];B[ia];W[ha];B[ii];
W[hg];B[gh];W[ji];B[mn];W[mo];B[lg];W[lh];B[le];W[oe];B[ni];W[mi];B[br];W[qh];
B[pi];W[sn];B[rn];W[sl];B[sk];W[sj];B[so];W[sl];B[rm];W[nk];B[ol];W[pm];B[pl];
W[ah];B[ai];W[aj];B[bi];W[nm];B[ml];W[qj];B[nr];W[nq];B[mk];W[mj];B[ll];W[lj];
B[ra];W[sg];B[bs];W[os];B[ns];W[no];B[jm];W[il];B[ep];W[eo];B[es];W[er];B[io];
W[ho];B[jo];W[gs];B[hr];W[sf];B[se];W[ds];B[fs];W[im];B[jr];W[ga];B[rg];W[sh];
B[ag];W[ei];B[ah];W[sk];B[];W[])
