(;FF[4]BR[2k]CP[online-go.com]DT[2016-04-11]GM[1]KM[6.5]PB[Onirik]
PC[OGS: http://online-go.com/game/4844189]PW[Buridan]RE[B+R]RU[japanese]SZ[19]
WR[7k];B[pd];W[dp];B[qp];W[dd];B[fq];W[op];B[mq];W[pp];B[qq];W[qo];B[qn];W[ro];
B[po];W[rn];B[oo];W[np];B[qm];W[rm];B[no];W[mp];B[mo];W[pq];B[lp];W[qr];B[ql];
W[lo];B[kp];W[ip];B[fo];W[dn];B[ln];W[in];B[jo];W[io];B[fm];W[dl];B[il])
