(;FF[4]BR[7k]CP[online-go.com]DT[2016-03-10]GM[1]KM[6.5]PB[Buridan]
PC[OGS: http://online-go.com/game/4223327]PW[udhar_nabresh]RE[B+R]RU[japanese]
SZ[19]WR[6k];B[pc];W[dp];B[qp];W[dc];B[oq];W[ci];B[fd];W[de];B[ec];W[qj];B[qh];
W[qm];B[jc];W[jq];B[cq];W[cp];B[dq];W[eq];B[er];W[fq];B[fr];W[gq];B[bp];W[bo];
B[bq];W[cn];B[qe];W[ld];B[je];W[od];B[of];W[mf];B[nh];W[kf];B[jf];W[pd];B[qd];
W[oc];B[pb];W[ob];B[lb];W[mb];B[lc];W[mc];B[kd];W[le];B[db];W[cc];B[lq];W[ei];
B[om];W[pn];B[on];W[po];B[oo];W[pp];B[pq];W[op];B[np];W[ro];B[rp];W[qo];B[cb];
W[fe];B[ge];W[ff];B[ko];W[io];B[bc];W[bd];B[bb];W[ad];B[gl];W[hk];B[hm];W[il];
B[fj];W[fi];B[gj];W[gi];B[hj];W[gk];B[fk];W[ij];B[hi];W[dk];B[im];W[ii];B[hh];
W[ki];B[kg];W[kl];B[jm];W[jl];B[ml];W[mk];B[nk];W[mj];B[nj];W[ll];B[mm];W[mh];
B[pi];W[ri];B[rh];W[rk];B[kr];W[jr];B[rr];W[em];B[fm];W[el];B[fl];W[fn];B[gn];
W[fo];B[ac];W[dd];B[gr];W[hq];B[gf];W[gg];B[hg];W[gh];B[lg];W[mg];B[so];W[sn];
B[sp];W[rm];B[oa];W[na];B[pa];W[la];B[kb];W[ng];B[oh];W[sh];B[sg];W[si];B[rf];
W[kq];B[lr];W[kp];B[lp];W[jo];B[kn];W[go];B[hl];W[ik];B[ho];W[hp];B[hn];W[lm];
B[mn];W[ln];B[lo];W[pl];B[jh];W[ji];B[ne];W[md];B[lf];W[nf];B[oe];W[me];B[nd];
W[ke];B[nc];W[nb];B[li];W[lh];B[mi];W[kh];B[jg];W[lj];B[ni];W[kk];B[ed];W[hr];
B[ee];W[ef];B[df];W[ce];B[dg];W[eh];B[bf];W[bg];B[cf];W[af];B[be])
