(;FF[4]BR[1k]CP[online-go.com]DT[2016-03-12]GM[1]KM[6.5]PB[Zwergesel]
PC[OGS: http://online-go.com/game/4264301]PW[calantir]RE[B+R]RU[japanese]SZ[19]
WR[4k];B[pd];W[dp];B[pp];W[dd];B[pj];W[nq];B[kp];W[qn];B[np];W[qq];B[oq];W[qp];
B[mq];W[nc];B[qf];W[jd];B[cf];W[ch];B[gd];W[df];B[cc];W[dc];B[cd];W[ce];B[be];
W[de];B[bf];W[ne];B[fq];W[cn];B[dr];W[cq];B[hp];W[qh];B[ph];W[pi];B[qi];W[pg];
B[oi];W[qg];B[og];W[pf];B[qe];W[of];B[pb];W[qk];B[dg];W[cg];B[eg];W[fe];B[gg];
W[ge];B[di];W[ci];B[cj];W[dj];B[bj];W[fh];B[ei];W[fg];B[db];W[eb];B[cb];W[fc];
B[cr];W[br];B[cl];W[bp];B[om];W[on];B[nn];W[oo];B[nm];W[no];B[mo];W[nr];B[or];
W[mr];B[op];W[lq];B[mp];W[kq];B[jq];W[jr];B[iq];W[ir];B[hr];W[ls];B[kr];W[os];
B[pr])
