(;FF[4]BR[7k]CP[online-go.com]DT[2016-04-20]GM[1]KM[6.5]PB[Arion]
PC[OGS: http://online-go.com/game/4955605]PW[udhar_nabresh]RE[B+27.5]
RU[japanese]SZ[19]WR[7k];B[pp];W[dd];B[dq];W[qd];B[pj];W[kc];B[cn];W[jq];B[mq];
W[gq];B[cf];W[fd];B[dj];W[eg];B[dg];W[eh];B[qg];W[od];B[ef];W[ff];B[ee];W[ed];
B[fe];W[gf];B[ge];W[hc];B[hd];W[id];B[hf];W[gh];B[ie];W[jd];B[hh];W[gi];B[go];
W[hi];B[jj];W[ih];B[ng];W[qm];B[qo];W[rj];B[rl];W[ql];B[rk];W[qk];B[qj];W[rm];
B[ri];W[nl];B[nn];W[nm];B[gk];W[hg];B[jo];W[lr];B[mr];W[lq];B[lp];W[fk];B[fj];
W[gj];B[ek];W[hk];B[gl];W[hl];B[gm];W[on];B[oo];W[pn];B[ok];W[ol];B[mn];W[pk];
B[nk];W[pm];B[bd];W[cc];B[bc];W[bb];B[ab];W[cb];B[hr];W[hq];B[ir];W[gr];B[iq];
W[ip];B[jp];W[ho];B[hn];W[jr];B[gp];W[hp];B[pe];W[pd];B[ne];W[md];B[me];W[oe];
B[of];W[qe];B[pf];W[lh];B[lj];W[fi];B[ej];W[fg];B[nd];W[nc];B[ld];W[mc];B[lc];
W[lb];B[ke];W[kd];B[le];W[jb];B[fq];W[ds];B[cr];W[sp];B[rp];W[so];B[sq];W[sn];
B[rq];W[je];B[jf];W[ig];B[if];W[li];B[mj];W[nh];B[oh];W[ni];B[oi];W[rf];B[gd];
W[gc];B[ij];W[hj];B[kg];W[kh];B[ml];W[ch];B[dh];W[di];B[ei];W[ci];B[cj];W[er];
B[cs];W[eq];B[ep];W[fr];B[fp];W[jl];B[kl];W[jk];B[kk];W[in];B[jn];W[hm];B[gn];
W[dr];B[cp];W[ms];B[ns];W[ls];B[nr];W[kp];B[ko];W[kq];B[rg];W[sl];B[sj];W[jm];
B[km];W[ik];B[qf];W[re];B[sk];W[ce];B[be];W[de];B[df];W[mm];B[lm];W[lg];B[lf];
W[jg];B[mg];W[ji];B[nj];W[io];B[lo];W[ii];B[kj];W[kf];B[js];W[is];B[kg];W[bj];
B[kf];W[bg];B[bf];W[bl];B[ai];W[ah];B[bi];W[aj];B[bk];W[bh];B[cl];W[ak];B[ck];
W[po];B[ro];W[rn];B[sf];W[se];B[sg];W[cd];B[ac];W[ki];B[ba];W[ca];B[aa];W[sm];
B[];W[op];B[no];W[pq];B[qp];W[oq];B[qr];W[pr];B[ps];W[rr];B[rs];W[sr];B[ss];W[]
;B[])
