(;FF[4]BR[18k]CP[online-go.com]DT[2016-05-16]GM[1]KM[6.5]PB[mikoth]
PC[OGS: http://online-go.com/game/5260073]PW[naught101]RE[B+R]RU[japanese]
SZ[19]WR[15k];B[dd];W[pd];B[dp];W[pp];B[nc];W[qf];B[pb];W[qc];B[kc];W[fq];B[cn]
;W[dq];B[cq];W[dr];B[cr];W[cf];B[fc];W[cj];B[eq];W[er];B[ep];W[fp];B[fo];W[go];
B[fn];W[gn];B[fm];W[mq];B[qn];W[qo];B[pn];W[rn];B[rm];W[sn];B[qj];W[qh];B[pi];
W[ki];B[og];W[qm];B[pm];W[ql];B[pl];W[rl];B[qk];W[mm];B[oe];W[pe];B[of];W[nk];
B[no];W[mo];B[nn];W[mn];B[mi];W[mj];B[li];W[lj];B[hl];W[hm];B[gm];W[im];B[il];
W[gj];B[jm];W[jn];B[km];W[kn];B[kh];W[ji];B[jh];W[jl];B[jk];W[kl];B[ii];W[kk];
B[ij];W[kj];B[gh];W[fh];B[fg];W[eh];B[eg];W[dg];B[fe];W[gi];B[hh];W[el];B[fk];
W[ej];B[ek];W[dk];B[dl];W[cl];B[dm];W[cm];B[bn];W[bm];B[be];W[bf];B[ce];W[ri];
B[nq];W[nr];B[oq];W[pq];B[or];W[ns];B[pr];W[qr];B[df];W[ch];B[mp];W[lp];B[np];
W[lr];B[ph];W[pf];B[qb];W[rb];B[pc];W[qd];B[od];W[nm];B[om];W[ol];B[ok];W[nl];
B[oj];W[oo];B[on];W[ps];B[po];W[qp];B[op];W[rk];B[rj];W[sj];B[qi];W[rh];B[ds];
W[es];B[fr];W[gr];B[fs];W[gs];B[hn];W[in])
