(;FF[4]BR[11k]CP[online-go.com]DT[2016-08-13]GM[1]KM[6.5]PB[matslina]
PC[OGS: http://online-go.com/game/6070352]PW[silversmith7]RE[W+37.5]
RU[japanese]SZ[19]WR[6k];B[pp];W[pd];B[dp];W[cd];B[qf];W[nc];B[rd];W[qc];B[pi];
W[dj];B[ec];W[gc];B[ee];W[cf];B[gd];W[hd];B[ge];W[ic];B[fc];W[gb];B[fg];W[fq];
B[hq];W[cq];B[dq];W[cp];B[co];W[do];B[cr];W[br];B[dr];W[bo];B[eo];W[cn];B[ep];
W[en];B[go];W[nq];B[lq];W[pr];B[qq];W[no];B[pn];W[oj];B[pj];W[ok];B[pl];W[pk];
B[qk];W[ol];B[pm];W[nm];B[lo];W[kp];B[lp];W[jn];B[jo];W[kn];B[ko];W[ln];B[ek];
W[dk];B[dh];W[ch];B[nh];W[oi];B[ph];W[oh];B[og];W[ng];B[of];W[mg];B[mh];W[lg];
B[li];W[ji];B[kh];W[ih];B[jg];W[ig];B[jf];W[if];B[me];W[le];B[mf];W[lf];B[od];
W[oc];B[nd];W[mc];B[hm];W[il];B[cc];W[bc];B[cb];W[md];B[oe];W[in];B[hn];W[im];
B[hk];W[hl];B[gl];W[ik];B[hj];W[io];B[ip];W[rc];B[sc];W[re];B[rf];W[qd];B[qe];
W[sd];B[ej];W[di];B[ei];W[dg];B[eg];W[eh];B[fh];W[ho];B[hp];W[gn];B[gm];W[fn];
B[gp];W[fo];B[fp];W[el];B[fl];W[hi];B[ij];W[jj];B[gi];W[em];B[hh];W[ii];B[hg];
W[he];B[bb];W[bd];B[oq];W[np];B[or];W[nr];B[os];W[mr];B[lr];W[ls];B[ks];W[ms];
B[kr];W[mn];B[fb];W[fm];B[gk];W[hf];B[gf];W[de];B[dd];W[nf];B[ne];W[pe];B[pf];
W[sb];B[ga];W[hb];B[ha];W[ia];B[fa];W[sf];B[rg];W[sg];B[sh];W[se];B[rh];W[jb];
B[bs];W[ar];B[oo];W[op];B[om];W[nn];B[ac];W[ad];B[ab];W[on];B[po];W[df];B[ef];
W[ns];B[pq];W[dh];B[nl];W[nk];B[];W[])
