(;FF[4]BR[9k]CP[online-go.com]DT[2016-06-28]GM[1]KM[6.5]PB[tomb]
PC[OGS: http://online-go.com/game/5677478]PW[HyunJung]RE[W+R]RU[japanese]SZ[19]
WR[9k];B[pp];W[dp];B[cd];W[qd];B[fc];W[nc];B[cm];W[cg];B[cj];W[dd];B[dc];W[ce];
B[cc];W[de];B[ed];W[di];B[ci];W[dh];B[bp];W[fq];B[cq];W[iq];B[mq];W[qj];B[jc];
W[qp];B[qn];W[pq];B[qo];W[op];B[po];W[rq];B[or];W[oq];B[qr];W[pr];B[qq];W[rp];
B[rr];W[sr];B[nr];W[om];B[oo];W[np];B[no];W[mp];B[lq];W[lp];B[ro];W[qs];B[jq];
W[jp];B[jr];W[kp];B[ir];W[kq];B[kr];W[mm];B[qk];W[pk];B[ql];W[rj];B[rm];W[pm];
B[pl];W[ok];B[ol];W[nk];B[nm];W[nl];B[nn];W[ll];B[mf];W[of];B[md];W[nd];B[mc];
W[hd];B[hc];W[gd];B[ee];W[gc];B[fb];W[ic];B[hb];W[ib];B[gb];W[jd];B[jb];W[gg];
B[ia];W[ek];B[fm];W[em];B[en];W[fl];B[fn];W[hp];B[dm];W[gl];B[in];W[il];B[kd];
W[je];B[id];W[ie];B[ke];W[jg];B[mh];W[oh];B[ne];W[oe];B[nb];W[ob];B[mb];W[pc];
B[eg];W[fh];B[kh];W[jh];B[ki];W[ji];B[kk];W[hr];B[is];W[jk];B[mj];W[hn];B[kl];
W[jm];B[lm];W[co];B[bo];W[dr];B[dq];W[eq];B[km];W[cr];B[cp];W[do];B[jl];W[ik];
B[im];W[jn];B[mn];W[hm];B[ml];W[bh];B[bi];W[br];B[el];W[dk];B[ck];W[nf];B[me];
W[ch];B[ge];W[he];B[gf];W[hf];B[fg];W[eh];B[oi];W[pi];B[ni];W[be];B[hg];W[gh];
B[bd];W[dg];B[fd];W[ff];B[fe];W[ef];B[jf];W[hh];B[if];W[kg];B[lg];W[mk];B[lk];
W[dl];B[cl];W[bq];B[cn];W[go];B[eo];W[ep];B[hs];W[gr];B[gs];W[fs];B[nq];W[ig];
B[oj];W[pj];B[hf];W[ap];B[an];W[ng];B[os];W[rk];B[rl];W[ah];B[nh];W[qh];B[ai];
W[ae];B[sp];W[rs])
