(;FF[4]BR[23k]CP[online-go.com]DT[2016-03-26]GM[1]KM[6.5]PB[no good]
PC[OGS: http://online-go.com/game/4590961]PW[timothyd]RE[W+R]RU[japanese]SZ[19]
WR[24k];B[pd];W[qp];B[dd];W[dp];B[pj];W[dj];B[md];W[nq];B[jd];W[hp];B[pn];W[po]
;B[nn];W[no];B[oo];W[op];B[qo];W[on];B[qm];W[ro];B[qn];W[rq];B[rn];W[ln];B[om];
W[oo];B[so];W[rp];B[sn];W[nm];B[mn];W[mm];B[mo];W[mp];B[lo];W[ko];B[nl];W[km];
B[fm];W[gm];B[qg];W[fl];B[of];W[fn];B[dg];W[em];B[ei];W[ii];B[gh];W[gi];B[ih];
W[hh];B[hg];W[hi];B[ci];W[ej];B[di];W[gg];B[fh];W[ig];B[eh];W[jh];B[gf];W[hf];
B[fg];W[hg];B[cj];W[ck];B[bk];W[cl];B[bl];W[bm];B[ef];W[mj];B[ge];W[mg];B[mf];
W[lg];B[bn];W[cn];B[am];W[cm];B[an];W[bo];B[al];W[ao];B[bj];W[oh];B[lp];W[lq];
B[ol];W[ml];B[co];W[cp];B[pl];W[nk];B[ok];W[oj];B[oi];W[nj];B[ph];W[ni];B[pi];
W[og];B[nh];W[ng];B[kp];W[jp];B[do];W[eo];B[dn];W[dm];B[kg];W[kh];B[ke];W[kf];
B[lf];W[jf];B[pg];W[ie];B[li];W[lh];B[kj];W[kk];B[jk];W[il];B[ji];W[ki];B[jj];
W[ij];B[jl];W[jm];B[lj];W[lk];B[nf];W[mi];B[id];W[he];B[jo];W[kq];B[bp];W[en];
B[qk];W[bq];B[hd];W[io];B[fj];W[fi];B[le];W[fk];B[pq];W[pr];B[qr];W[or];B[qq];
W[pp];B[sm];W[rr];B[qs];W[rs];B[gk];W[hk];B[hl];W[hm];B[ik];W[gl];B[];W[ps];
B[gp];W[gq];B[fq];W[fp];B[go];W[gn];B[hq];W[gr];B[fr];W[fo];B[iq];W[ir];B[ip];
W[ho];B[eq];W[dq];B[dr];W[cr];B[cs];W[bs];B[ds];W[fs];B[es];W[gs];B[];W[jq])
