(;FF[4]BR[11k]CP[online-go.com]DT[2016-05-05]GM[1]KM[6.5]PB[mdotterer]
PC[OGS: http://online-go.com/game/5150112]PW[tomb]RE[W+R]RU[japanese]SZ[19]
WR[11k];B[pd];W[ep];B[dd];W[qp];B[dn];W[co];B[do];W[dp];B[cn];W[cp];B[dj];W[dg]
;B[fd];W[hc];B[jc];W[he];B[ff];W[di];B[ej];W[ce];B[cd];W[de];B[eh];W[dh];B[cf];
W[bf];B[hg];W[ee];B[fe];W[ed];B[ec];W[fc];B[eb];W[fb];B[cb];W[gd];B[ib];W[hb];
B[ie];W[ic];B[jb];W[id];B[je];W[ge];B[ef];W[df];B[op];W[pn];B[qq];W[pp];B[pq];
W[qg];B[qi];W[rd];B[qc];W[qd];B[rc];W[jd];B[kd];W[pe];B[od];W[oe];B[oi];W[qk];
B[oo];W[jq];B[lq];W[jo];B[kp];W[jp];B[gn];W[gp];B[cj];W[ci];B[og];W[ne];B[rg];
W[rf];B[rh];W[pg];B[of];W[pf];B[sd];W[se];B[qe];W[sc];B[pb];W[oh];B[nh];W[ph];
B[ng];W[pi];B[oj];W[qj];B[lf];W[md];B[nd];W[le];B[ke];W[nc];B[ld];W[me];B[mc];
W[mb];B[lc];W[ob];B[pc];W[rb];B[oa];W[qb];B[na];W[ma])
