(;FF[4]BR[1k]CP[online-go.com]DT[2016-04-25]GM[1]KM[6.5]PB[Zwergesel]
PC[OGS: http://online-go.com/game/5023735]PW[Bogdan13x]RE[B+R]RU[japanese]
SZ[19]WR[2k];B[pd];W[dp];B[pp];W[dd];B[fc];W[df];B[db];W[cc];B[ic];W[qn];B[nq];
W[pj];B[qg];W[fq];B[ck];W[qc];B[pc];W[qd];B[qe];W[re];B[rf];W[pe];B[qf];W[pb];
B[ob];W[qb];B[nc];W[sd];B[oe];W[ch];B[cn];W[co];B[dn];W[rp];B[qq];W[on];B[kq];
W[jd];B[jc];W[ld];B[kd];W[ke];B[kc];W[le];B[hf];W[kg];B[hq];W[bo];B[fn];W[gq];
B[hp];W[ng];B[rj];W[pf];B[ql];W[od];B[pg];W[oc];B[pm];W[pn];B[nl];W[rq];B[rr];
W[qp];B[pq];W[rl];B[rk];W[rm];B[mn];W[qk];B[ol];W[oi];B[rh];W[og];B[qi];W[sr];
B[rs];W[sn];B[lk];W[ij];B[ep];W[eq];B[il];W[lc];B[cb];W[no];B[mo];W[np];B[mp];
W[bb];B[bi];W[bh];B[lb];W[mb];B[kb];W[kj];B[jk];W[jj];B[gk];W[hr];B[ir];W[gr];
B[bn];W[gp];B[go];W[jr];B[jq];W[is];B[kr];W[iq];B[ip];W[ir];B[ao];W[ap];B[an];
W[bq];B[ci];W[kk];B[kl];W[hk];B[hl];W[gj];B[fk];W[lj];B[mk];W[dc];B[eb];W[ks];
B[mr];W[ie];B[he];W[id];B[hd];W[if];B[ah];W[ag];B[ai];W[bf];B[nb];W[mc];B[ma];
W[nd];B[la];W[hg];B[gg];W[hh];B[ro];W[so];B[sq];W[sl];B[qo])
