(;FF[4]BR[21k]CP[online-go.com]DT[2016-03-24]GM[1]KM[6.5]PB[Pikachuuu]
PC[OGS: http://online-go.com/game/4557591]PW[Sebbu]RE[B+R]RU[japanese]SZ[19]
WR[21k];B[pd];W[dp];B[pq];W[dc];B[qk];W[fq];B[jd];W[hc];B[ge];W[jb];B[lc];W[np]
;B[oo];W[lq];B[ln];W[qc];B[qd];W[pc];B[oc];W[rd];B[re];W[rc];B[pa];W[qe];B[pe];
W[qf];B[pf];W[rf];B[rb];W[qb];B[qa];W[qh];B[ph];W[rj];B[qj];W[qi];B[pi];W[rk];
B[rl];W[lb];B[mb];W[kc];B[la];W[kb];B[ld];W[ce];B[ef];W[cg];B[ei];W[he];B[hf];
W[gd];B[fe];W[fd];B[ed];W[ec];B[dd];W[cd];B[ie];W[gk];B[hn];W[ek];B[en];W[dn];
B[el];W[dl];B[dm];W[cm];B[em];W[cl];B[cq];W[cp];B[dq];W[eq];B[bp];W[cs];B[er];
W[fr];B[ds];W[ep];B[bo];W[bn];B[an];W[am];B[ao];W[co];B[bq];W[di];B[dh];W[ci];
B[ej];W[dk];B[dj];W[cj];B[ch];W[dg];B[eh];W[eg];B[fg];W[de];B[ee];W[fl];B[fm];
W[bh];B[gl];W[fk];B[fh];W[hl];B[gm];W[hj];B[jj];W[ii];B[ij];W[hh];B[kh];W[hm];
B[in];W[go];B[gn];W[ig];B[if];W[jg];B[kg];W[jf];B[je];W[ke];B[kd];W[kf];B[lf];
W[le];B[me];W[mf];B[lg];W[jl];B[kk];W[kl];B[ll];W[kn];B[ip];W[iq];B[kp];W[kq];
B[lo];W[op];B[pp];W[no];B[on];W[nn];B[nm];W[or];B[pr];W[oq];B[km];W[jm];B[lm];
W[jn];B[jo];W[jk];B[lj];W[ji];B[kj];W[ki];B[li];W[ik];B[mg];W[gg];B[gf];W[sb];
B[ra];W[ho];B[io];W[lp];B[ko];W[hp];B[ic];W[ib];B[hd];W[gc];B[df];W[cf];B[gh];
W[gi];B[hg];W[jh];B[fj];W[gj];B[mo];W[im];B[mp];W[mq];B[om];W[mn];B[mm];W[ka];
B[ma];W[pg];B[og];W[qg];B[oj];W[sl];B[sm];W[rm];B[sk];W[ql];B[qm];W[sl];B[rn];
W[sn];B[qo];W[pl];B[ol];W[pk];B[pj];W[ok];B[nk];W[so];B[rp];W[sp];B[ro];W[rq];
B[rr];W[qq];B[qr];W[sr];B[qp];W[sq];B[rs];W[pm];B[qn];W[pn];B[po];W[rl];B[ss];
W[sm];B[ri];W[sj];B[si])
