(;FF[4]BR[2k]CP[online-go.com]DT[2016-05-17]GM[1]KM[6.5]PB[yumm]
PC[OGS: http://online-go.com/game/5271955]PW[MacNala]RE[B+R]RU[japanese]SZ[19]
WR[3k];B[dd];W[dp];B[qd];W[qp];B[cn];W[en];B[do];W[eo];B[cp];W[dq];B[cq];W[od];
B[oc];W[nc];B[pc];W[md];B[qf];W[ic];B[kq];W[nq];B[hq];W[cr];B[br];W[er];B[cs];
W[qk];B[gc];W[gn];B[ko];W[qh];B[cl];W[cc];B[cd];W[dc];B[ec];W[eb];B[fb];W[ed];
B[fc];W[bd];B[be];W[bb];B[ad];W[bc];B[cf];W[db];B[fe];W[el];B[dj];W[fj];B[eh];
W[ie];B[oo];W[no];B[nn];W[mo];B[pp];W[pq];B[oq];W[or];B[op];W[qr];B[pn];W[mn];
B[qo];W[nm];B[on];W[qm];B[rp];W[qq];B[qn];W[rn];B[pl];W[ro];B[ql];W[rl];B[pk];
W[nj];B[oi];W[ni];B[mm];W[lm];B[oh];W[nh];B[qj];W[rk];B[pg];W[rj];B[ml];W[nl];
B[np];W[ll];B[mp];W[mk];B[gh];W[ig];B[ng];W[mg];B[kc];W[nf];B[ib];W[hb];B[hc];
W[mq];B[lq];W[lo];B[lp];W[jb];B[id];W[jc];B[jd];W[kb];B[kd];W[kf];B[hi];W[hh];
B[gi];W[gg];B[fg];W[ii];B[hk];W[ij];B[gk];W[gp];B[gq];W[fq];B[hp];W[im];B[hm];
W[gr];B[hr];W[hg];B[gs];W[ho];B[fp];W[go];B[fr];W[in];B[eq];W[ep];B[dr];W[hd];
B[he];W[gf];B[ff];W[ge];B[gd];W[rg];B[rf];W[sf];B[se];W[sg];B[rd];W[ob];B[pb];
W[fq];B[pm];W[mb];B[rm];W[sm];B[so];W[qm];B[qi];W[ac];B[ae];W[ri];B[rm];W[ce];
B[de];W[qm];B[il];W[rm];B[jk];W[jl];B[jm];W[kl];B[kn];W[ik];B[hl];W[fl];B[eq];
W[dm];B[cm];W[fq];B[gm];W[fm];B[eq];W[hf];B[fq];W[fo];B[hd];W[pa];B[qa];W[dk];
B[ck];W[oa];B[qb];W[pj];B[pi];W[lr];B[kr];W[og];B[oj];W[fk];B[mr];W[nr];B[ls];
W[dn];B[co];W[hj];B[gj];W[fi];B[fh];W[ei];B[di];W[ip];B[iq];W[jp];B[kp];W[jq];
B[jr];W[je];B[le];W[ok];B[qg];W[ke];B[ld];W[nd];B[lf];W[lg];B[lb];W[la];B[lc];
W[jn];B[km];W[ja];B[of];W[oe];B[ng];W[sd];B[sc];W[og];B[pf];W[ha];B[ea];W[da];
B[fa];W[pe];B[qe];W[cj];B[ci];W[ng];B[ol];W[nk];B[me];W[ne];B[ns];W[os];B[ms];
W[ee];B[ef];W[bf];B[bg];W[dg];B[df];W[af];B[ag])
