(;FF[4]BR[1d]CP[online-go.com]DT[2016-04-07]GM[1]KM[6.5]PB[xgp328]
PC[OGS: http://online-go.com/game/4782316]PW[yuri]RE[B+R]RU[japanese]SZ[19]
WR[6k];B[dd];W[pd];B[dp];W[pq];B[po];W[qo];B[pp];W[qp];B[oq];W[pn];B[qq];W[pr];
B[rq];W[oo];B[op];W[qn];B[or];W[no];B[qf];W[qi];B[of];W[nd];B[rd];W[qc];B[oi];
W[ph];B[oh];W[pg];B[pf];W[pk];B[mf];W[le];B[rc];W[fd];B[oc];W[od];B[qb];W[cd];
B[cc];W[dc];B[ec];W[db];B[ce];W[bd];B[ed];W[be];B[cb];W[de];B[eb];W[ee];B[cf];
W[cg];B[bf];W[bg];B[df];W[af];B[dg];W[dh];B[ae];W[eg];B[me];W[md];B[ld];W[kd];
B[lc];W[kc];B[mb];W[nb];B[kb];W[jb];B[jc];W[pb];B[rb];W[la];B[lb];W[jd];B[ic];
W[id];B[ib];W[cn];B[hd];W[he];B[ge];W[hf];B[gd];W[gf];B[ff];W[ef];B[fe];W[fg];
B[jf];W[ie];B[dn];W[dm];B[en];W[dq];B[eq];W[cq];B[cp];W[er];B[fr];W[bp];B[ep];
W[bo];B[em];W[el];B[fl];W[ek];B[fk];W[ej];B[mp];W[io];B[mo];W[om];B[im];W[kn];
B[kp];W[in];B[lm];W[jm];B[jl];W[hm];B[il];W[go];B[iq];W[hq];B[hr];W[gq];B[gr];
W[gl];B[gm];W[jp];B[jq];W[hl];B[hk];W[kl];B[km];W[ik];B[jk];W[gk];B[gj];W[hj];
B[hn];W[hk];B[hi];W[ij];B[jj])
