(;FF[4]BR[8k]CP[online-go.com]DT[2016-03-15]GM[1]KM[6.5]PB[Buridan]
PC[OGS: http://online-go.com/game/4349314]PW[Umsturz]RE[B+R]RU[japanese]SZ[19]
WR[8k];B[pd];W[dp];B[cd];W[qo];B[ic];W[qf];B[nd];W[pj];B[kp];W[pq];B[gp];W[dj];
B[pr];W[oq];B[qq];W[qp];B[rq];W[or];B[qs];W[dn];B[gq];W[dg];B[cq];W[cp];B[dq];
W[dd];B[dc];W[cc];B[bd];W[ed];B[db];W[ec];B[eb];W[gc];B[ie];W[fb];B[cb];W[ld];
B[kf];W[lf];B[kg];W[mg];B[of];W[mi];B[gf];W[ig];B[hh];W[ih];B[lh];W[mh];B[ji];
W[ii];B[kj];W[je];B[ke];W[kd];B[jd];W[jf];B[le];W[me];B[md];W[jc];B[id];W[kc];
B[ib];W[lb];B[nb];W[li];B[ki];W[hi];B[rd];W[re];B[qd];W[ph];B[ql];W[ol];B[rj];
W[rh];B[pm];W[nn];B[rn];W[rp];B[rr];W[kr];B[ro];W[sp];B[so];W[qn];B[rm];W[qk];
B[rk];W[sj];B[qi];W[qh];B[pi];W[oi];B[oh];W[oj];B[pg];W[pf];B[qg];W[rg];B[og];
W[oe];B[nf];W[mf];B[ne];W[ri];B[qj];W[pk];B[sk];W[sl];B[si];W[sm];B[sf];W[qm];
B[pl];W[rl];B[sn];W[sl];B[rl];W[om];B[rf];W[se];B[sd];W[sg];B[rf];W[sf];B[qe];
W[pn];B[bg];W[ch];B[bh];W[ci];B[ak])
