(;FF[4]BR[21k]CP[online-go.com]DT[2016-03-30]GM[1]KM[6.5]PB[AndresAlcarraz]
PC[OGS: http://online-go.com/game/4670861]PW[iketeru]RE[W+R]RU[japanese]SZ[19]
WR[20k];B[dd];W[pd];B[dp];W[qp];B[hc];W[fc];B[fd];W[gd];B[gc];W[fb];B[ge];W[cc]
;B[ec];W[ee];B[ed];W[cd];B[ce];W[be];B[bf];W[db];B[bd];W[ad];B[ae];W[bc];B[ac];
W[ab];B[ad];W[eb];B[bb];W[dc];B[ef];W[fe];B[de];W[ff];B[fg];W[gf];B[he];W[gg];
B[eg];W[fq];B[fp];W[gp];B[eq];W[fo];B[ep];W[fr];B[er];W[hq];B[fs];W[gs];B[es];
W[gr];B[go];W[ho];B[gn];W[fn];B[hn];W[fm];B[io];W[im];B[hp];W[oq];B[gq];W[qf];
B[hr];W[nc];B[iq];W[qm];B[cb];W[gb];B[hb];W[ha];B[ia];W[ga];B[ib];W[ea];B[aa];
W[ca];B[fl];W[dn];B[gm];W[dl];B[en];W[em];B[eo];W[dj];B[el];W[dm];B[do];W[fi];
B[ei];W[ej];B[eh];W[hi];B[ek];W[gl];B[gk];W[dk];B[hl];W[ik];B[fj];W[gj];B[fk];
W[hk];B[gl];W[ji];B[di];W[bj];B[cn];W[cm];B[co];W[bl];B[bn];W[bm];B[ci];W[bi];
B[ck];W[cj];B[bh];W[ah];B[ak];W[ai];B[bk];W[an];B[ao];W[am];B[gh];W[hh];B[hg];
W[ig];B[hf];W[kk];B[gi];W[id];B[jd];W[je];B[jc];W[ld];B[hj];W[ij];B[gj];W[kn];
B[ie];W[jf];B[kp];W[mp];B[lo];W[mn];B[il];W[jl];B[jn];W[ln];B[jm];W[km];B[ko];
W[lq];B[mo];W[no];B[lc];W[mc];B[kd];W[ke];B[mb];W[lb];B[kc];W[kb];B[jb];W[ma];
B[hd];W[qc];B[kq];W[mr];B[kr];W[lr];B[ls];W[ms];B[ks];W[bg];B[ch];W[ag];B[ab];
W[la];B[ba];W[ka];B[cg];W[nb];B[af];W[qi];B[al];W[oh];B[cl];W[aj];B[bk];W[ak])
