(;FF[4]BR[16k]CP[online-go.com]DT[2016-06-05]GM[1]KM[6.5]PB[Mesarune]
PC[OGS: http://online-go.com/game/5464362]PW[pfrobbins]RE[B+R]RU[japanese]
SZ[19]WR[16k];B[dp];W[pq];B[pd];W[dc];B[de];W[ce];B[cf];W[cd];B[be];W[bd];B[bg]
;W[gc];B[qj];W[qo];B[fq];W[lq];B[mc];W[cl];B[cj];W[co];B[cp];W[bk];B[bo];W[cn];
B[dn];W[bn];B[ao];W[an];B[bq];W[bj];B[ci];W[qf];B[pf];W[rd];B[qc];W[qh];B[ph];
W[qi];B[pi];W[pl];B[ok];W[ol];B[nk];W[nl];B[ml];W[mm];B[ql];W[qm];B[pk];W[ll];
B[mk];W[jc];B[ke];W[je];B[jf];W[kf];B[kg];W[lf];B[ld];W[kd];B[le];W[if];B[jg];
W[hf];B[fd];W[fc];B[ff];W[hq];B[ho];W[io];B[hg];W[ig];B[ih];W[gg];B[hh];W[gf];
B[fh];W[gh];B[gi];W[lj];B[lk];W[kj];B[kk];W[jh];B[kh];W[ji];B[ii];W[ij];B[hi];
W[jk];B[lm];W[kl];B[nm];W[nn];B[mn];W[om];B[mm];W[no];B[jl];W[km];B[ik];W[mh];
B[lg];W[mf];B[mg];W[jj];B[hk];W[jm];B[il];W[lo];B[in];W[jn];B[im];W[jo];B[hp];
W[ip];B[cm];W[bm];B[al];W[dm];B[dl];W[dk];B[el];W[em];B[fm];W[fl];B[ek];W[fk];
B[ej];W[bi];B[ai];W[bh];B[ah];W[fn];B[en];W[cm];B[gm];W[hj];B[gj])
