(;FF[4]BR[6k]CP[online-go.com]DT[2016-07-17]GM[1]KM[6.5]PB[Nordamar]
PC[OGS: http://online-go.com/game/5847693]PW[welshgoplayer]RE[W+R]RU[japanese]
SZ[19]WR[1d];B[pd];W[dp];B[pq];W[dd];B[qk];W[nc];B[pf];W[qc];B[pc];W[pb];B[ob];
W[qb];B[nb];W[re];B[qe];W[rf];B[fc];W[hc];B[cc];W[dc];B[cd];W[de];B[db];W[eb];
B[cb];W[ec];B[cf];W[lc];B[mb];W[mc];B[oc];W[np];B[po];W[oq];B[or];W[nr];B[op];
W[nq];B[no];W[mo];B[nn];W[mn];B[cn];W[fp];B[bp];W[cq];B[ck];W[nm];B[ip];W[ho];
B[lq];W[io];B[gq];W[jp];B[jq];W[hp];B[iq];W[hq];B[hr];W[ir];B[jr];W[gr];B[is];
W[fr];B[kp];W[jo];B[mp];W[pr];B[qr];W[os];B[qq];W[lr];B[kr];W[ls];B[ks];W[mq];
B[jc];W[lb];B[hd];W[gc];B[gd];W[fd];B[fe];W[fb];B[ic];W[mf];B[mh];W[ng];B[ph];
W[nh];B[oj];W[mi];B[lh];W[ni];B[ri];W[id];B[kd];W[ie];B[hf];W[if];B[gf];W[ig];
B[lf];W[le];B[me];W[ke];B[ne];W[ld];B[mg];W[nf];B[oe];W[ki];B[jh];W[ii];B[ji];
W[jj];B[li];W[lj];B[ih];W[hh];B[fh];W[gi];B[df];W[ej];B[di];W[dl];B[en];W[cl];
B[bk];W[bl])
