(;FF[4]BR[15k]CP[online-go.com]DT[2016-04-10]GM[1]KM[6.5]PB[cfoo]
PC[OGS: http://online-go.com/game/4823097]PW[oimena90👺]RE[B+R]RU[japanese]
SZ[19]WR[16k];B[pd];W[dd];B[dp];W[pp];B[fc];W[db];B[ic];W[qm];B[nq];W[pi];B[qe]
;W[dj];B[gq];W[kq];B[np];W[ko];B[nn];W[mm];B[nm];W[dn];B[co];W[eq];B[fp];W[ep];
B[eo];W[cr];B[dq];W[er];B[dr];W[ds];B[bq];W[cq];B[cp];W[br];B[bp];W[do];B[cn];
W[en];B[fo];W[fn];B[fr];W[hn];B[md];W[ff];B[di];W[fi];B[cj];W[cl];B[ci];W[mf];
B[gf];W[gd];B[gc];W[fb];B[gb];W[ec];B[fd];W[hd];B[hc];W[id];B[jd];W[hf];B[ge];
W[he];B[fe];W[ef];B[gg];W[hg];B[fh];W[hi];B[eh];W[cg];B[pq];W[rq];B[qp];W[po];
B[qo];W[pn];B[qq];W[rn];B[ro];W[so];B[sp];W[sn];B[qn];W[rm];B[pm];W[pl];B[om];
W[nk];B[qh];W[ph];B[ql];W[rl];B[qk];W[rk];B[qj];W[qi];B[rj];W[ri];B[sk];W[rp];
B[rr];W[pk];B[sq];W[mo];B[sm];W[hq];B[hp];W[iq];B[jn];W[io];B[kf];W[le];B[ld];
W[ke];B[ej];W[dk];B[fj];W[gj];B[fl];W[gl];B[fm];W[gm];B[dm];W[em];B[el];W[gn];
B[dl];W[gi];B[ei];W[gh];B[fg];W[df];B[og];W[of];B[ng];W[pf];B[nf];W[ne];B[me];
W[lf];B[pg];W[qg];B[qf];W[mh];B[mn];W[lm];B[ln];W[kn];B[lo];W[lp];B[mp];W[lr];
B[km];W[ml];B[je];W[kd];B[kc];W[jf];B[mg];W[lg];B[lh];W[kg];B[nh];W[mi];B[ni];
W[pj];B[sl];W[nj];B[mj];W[li];B[lj];W[ki];B[kk];W[kl];B[jl];W[jm];B[im];W[km];
B[ik];W[jj];B[jk];W[ij];B[hl];W[hk];B[rg];W[nr];B[or];W[mr];B[cc];W[dc];B[bf];
W[bg];B[ce];W[cd];B[bh];W[ah];B[ai];W[ag];B[bj];W[ch];B[fa];W[eb];B[bd];W[bc];
B[bb];W[cb];B[ac];W[de];B[hr];W[ir];B[is];W[js];B[hs];W[jr];B[ns];W[ms];B[os];
W[nb];B[pb];W[nd];B[mb];W[mc];B[lc];W[pc];B[qc];W[oc];B[lb];W[aq];B[cm];W[ea];
B[ga];W[cs];B[fq];W[go];B[es];W[gp];B[rh];W[ob];B[qb])
