(;FF[4]BR[15k]CP[online-go.com]DT[2016-04-25]GM[1]KM[6.5]PB[mozkaynak]
PC[OGS: http://online-go.com/game/5024534]PW[SooFlauschig]RE[W+35.5]
RU[japanese]SZ[19]WR[19k];B[pd];W[dc];B[pp];W[dp];B[qj];W[oj];B[jq];W[qg];B[jc]
;W[ce];B[fq];W[dn];B[qn];W[qc];B[pc];W[qd];B[qb];W[pe];B[oe];W[of];B[ne];W[pf];
B[nl];W[dj];B[il];W[hc];B[id];W[he];B[ie];W[hf];B[ih];W[ig];B[lh];W[nh];B[fl];
W[kg];B[ke];W[gi];B[hj];W[ql];B[pk];W[mj];B[lj];W[lk];B[ll];W[kj];B[li];W[ki];
B[mg];W[ii];B[jh];W[kh];B[lf];W[ij];B[gj];W[fi];B[kk];W[jk];B[mk];W[dq];B[fn];
W[hh];B[nj];W[jl];B[km];W[jm];B[im];W[jn];B[ko];W[io];B[ho];W[dl];B[ip];W[kn];
B[lm];W[ln];B[mo];W[mn];B[nn];W[lo];B[mp];W[lp];B[lq];W[jp];B[hq];W[kp];B[kq];
W[ri];B[pl];W[rj];B[pj];W[ni];B[mi];W[qq];B[pq];W[qp];B[qr];W[rn];B[rm];W[qm];
B[ro];W[qo];B[sn];W[pn];B[rn];W[rl];B[rq];W[pm];B[ok];W[oi];B[po];W[on];B[oo];
W[nm];B[no];W[mm];B[in];W[qi];B[rc];W[rd];B[sc];W[sd];B[ra];W[fj];B[fk];W[dr];
B[jf];W[jg];B[kf];W[ib];B[jb];W[fr];B[gr];W[er];B[ep];W[eo];B[fo];W[en];B[em];
W[dm];B[el];W[ek];B[ik];W[pi];B[nf];W[qk];B[cg];W[ch];B[bf];W[be];B[bh];W[ci];
B[bi];W[bj];B[ag];W[ai];B[ah];W[aj];B[dg];W[eg];B[df];W[ef];B[de];W[cd];B[ed];
W[ec];B[fd];W[fc];B[hd];W[gd];B[ic];W[hb];B[gs];W[fs];B[ml];W[jo];B[sl];W[sk];
B[sm];W[dh];B[lg];W[ng];B[ol];W[om];B[kl];W[fe];B[ia];W[ha];B[ja];W[eq];B[fp];
W[if];B[hi];W[mh];B[];W[])
