(;FF[4]BR[13k]CP[online-go.com]DT[2016-06-02]GM[1]KM[6.5]PB[kirjoittaessani]
PC[OGS: http://online-go.com/game/5434982]PW[kru.bash.all]RE[B+R]RU[japanese]
SZ[19]WR[19k];B[pd];W[dp];B[pp];W[dc];B[pj];W[ce];B[fq];W[cn];B[dr];W[cq];B[jq]
;W[dj];B[jd];W[qg];B[qe];W[of];B[nd];W[rj];B[qh];W[rh];B[qi];W[ri];B[nh];W[qn];
B[ql];W[rl];B[qm];W[fo];B[ho];W[gp];B[gq];W[rm];B[pn];W[oq];B[mq];W[qq];B[pq];
W[pr];B[qp];W[rq];B[rp];W[sp];B[rn];W[sn];B[ro];W[so];B[fj];W[eh];B[hi])
