(;FF[4]BR[10k]CP[online-go.com]DT[2016-02-23]GM[1]KM[6.5]PB[swordfish]
PC[OGS: http://online-go.com/game/4081555]PW[Bevis]RE[W+R]RU[japanese]SZ[19]
WR[11k];B[pd];W[dp];B[pq];W[dd];B[fc];W[cf];B[lc];W[po];B[qo];W[qn];B[qp];W[pn]
;B[nq];W[qk];B[fq];W[hq];B[fo];W[dn];B[cq];W[dq];B[dr];W[er];B[cr];W[eq];B[bo];
W[bn];B[co];W[cn];B[do];W[eo];B[en];W[fp];B[ep];W[gp];B[eo];W[fr];B[dl];W[ck];
B[cl];W[bl];B[bk];W[bj];B[bm];W[ak];B[an];W[kq];B[db];W[cc];B[fe];W[pf];B[nd];
W[nf];B[pi];W[qe];B[qd];W[rd];B[rc];W[re];B[ni];W[lf];B[qj];W[rk];B[rj];W[qh];
B[pk];W[pl];B[ok];W[nm];B[ol];W[pm];B[ic];W[ef];B[kh];W[mh];B[mi];W[lh];B[li];
W[jf];B[om];W[on];B[kg];W[kf];B[lg])
