(;FF[4]BR[9k]CP[online-go.com]DT[2016-04-28]GM[1]KM[6.5]PB[kraszer]
PC[OGS: http://online-go.com/game/5060249]PW[csaba]RE[W+5.5]RU[japanese]SZ[19]
WR[7k];B[qd];W[dp];B[pq];W[dd];B[pj];W[dj];B[fc];W[cf];B[kc];W[jq];B[mp];W[jn];
B[jj];W[db];B[cq];W[cp];B[dq];W[eq];B[er];W[fr];B[fq];W[dr];B[ep];W[bq];B[cr];
W[cm];B[en];W[qo];B[qp];W[po];B[ql];W[oq];B[nq];W[pp];B[qq];W[np];B[or];W[op];
B[mq];W[mo];B[lo];W[mn];B[ln];W[mm];B[lm];W[pr];B[nr];W[ll];B[kl];W[ml];B[jm];
W[in];B[gm];W[hq];B[gr];W[kq];B[lp];W[hr];B[ks];W[ls];B[lr];W[kr];B[js];W[is];
B[ms];W[gn];B[fn];W[hm];B[gl];W[hl];B[gk];W[gq];B[fs];W[go];B[om];W[mi];B[mj];
W[lj];B[mk];W[lk];B[li];W[ni];B[nk];W[nl];B[ok];W[ki];B[lh];W[kj];B[ji];W[kh];
B[jk];W[jh];B[hi];W[od];B[pf];W[qc];B[rc];W[pc];B[nc];W[rb];B[rd];W[of];B[lg];
W[pg];B[qg];W[pe];B[qf];W[me];B[le];W[md];B[ld];W[mc];B[fe];W[hg];B[fg];W[kf];
B[lf];W[ie];B[kg];W[jg];B[jf];W[if];B[hd];W[ke];B[jd];W[je];B[ih];W[hh];B[gi];
W[on];B[dh];W[ch];B[cg];W[bg];B[ci];W[dg];B[di];W[cj];B[bj];W[bk];B[ej];W[bi];
B[dk];W[ck];B[dl];W[dm];B[br];W[lb];B[kb];W[id];B[ic];W[kd];B[lc];W[jc];B[jb];
W[hc];B[ib];W[gd];B[fd];W[mb];B[hb];W[gc];B[gb];W[ge];B[gf];W[he];B[og];W[ng];
B[oh];W[nh];B[nf];W[mf];B[oe];W[mg];B[pd];W[ne];B[of];W[oc];B[eg];W[ei];B[eh];
W[ek];B[fj];W[el];B[bp];W[bo];B[aq];W[jr];B[ls];W[ro];B[rp];W[sb];B[jo];W[io];
B[kn];W[jp];B[gp];W[hp];B[co];W[do];B[cn];W[bn];B[dn];W[sp];B[rr];W[sq];B[qr];
W[oi];B[pi];W[ol];B[pm];W[pl];B[pk];W[qm];B[rm];W[qn];B[rl];W[hs];B[sn];W[rn];
B[sm];W[so];B[sr];W[eb];B[fb];W[fp];B[df];W[cg];B[de];W[ce];B[ed];W[dc];B[hk];
W[fo];B[eo];W[gs];B[fr];W[sc];B[sd];W[il];B[jl];W[ik];B[ij];W[im];B[ao];W[bm];
B[an];W[am];B[ap];W[ko];B[ea];W[da];B[fa];W[gg];B[gh];W[ig];B[ii];W[em];B[kp];
W[jo];B[la];W[ma];B[ka];W[hf];B[ff];W[jd];B[];W[])
