(;FF[4]BR[17k]CP[online-go.com]DT[2016-06-06]GM[1]KM[6.5]PB[vaughnhannon]
PC[OGS: http://online-go.com/game/5470479]PW[hahar123]RE[W+58.5]RU[japanese]
SZ[19]WR[11k];B[pd];W[dp];B[dc];W[pp];B[jd];W[cm];B[qm];W[nq];B[ci];W[df];B[ff]
;W[eh];B[ej];W[gh];B[gj];W[jh];B[pi];W[lk];B[jk];W[ij];B[ik];W[hk];B[hj];W[hl];
B[fl];W[hn];B[nn];W[lp];B[km];W[mn];B[mm];W[mo];B[lm];W[nk];B[lh];W[jj];B[im];
W[hm];B[jo];W[ip];B[ol];W[nl];B[nm];W[pk];B[ok];W[om];B[on];W[pm];B[pn];W[pl];
B[qo];W[oj];B[qq];W[qp];B[rp];W[qr];B[rq];W[pr];B[rr];W[nh];B[mf];W[kf];B[ld];
W[nf];B[ne];W[pc];B[qd];W[qc];B[oc];W[ob];B[nc];W[nb];B[mb];W[ma];B[lb];W[pa];
B[pf];W[ph];B[qh];W[oh];B[qj];W[qg];B[qf];W[rg];B[rh];W[rf];B[re];W[rc];B[pg];
W[pj];B[qk];W[ql];B[rl];W[rm];B[qn];W[rk];B[rj];W[sl];B[sn];W[rn];B[ro];W[ri];
B[si];W[sk];B[sj];W[mg];B[pq];W[op];B[or];W[nr];B[ps];W[oq];B[qs];W[gd];B[if];
W[gf];B[fe];W[ge];B[fd];W[fg];B[gc];W[dd];B[cd];W[de];B[bf];W[cc];B[db];W[bd];
B[ce];W[cb];B[ec];W[be];B[cf];W[af];B[bg];W[ac];B[dg];W[eg];B[cl];W[ef];B[em];
W[dn];B[fn];W[fo];B[jg];W[kg];B[lf];W[lg];B[of];W[ng];B[sf];W[kk];B[kl];W[in];
B[jm];W[jn];B[kn];W[ko];B[ih];W[ii];B[hh];W[hi];B[gi];W[ki];B[kh];W[ji];B[hc];
W[jf];B[hf];W[ie];B[he];W[hg];B[hd];W[ig];B[gg];W[je];B[kd];W[kb];B[ka];W[ja];
B[la];W[mc];B[lc];W[nd];B[md];W[na];B[dh];W[bl];B[ae];W[ad];B[bb];W[ba];B[ab];
W[ck];B[bj];W[ek];B[fk];W[dj];B[dl];W[di];B[ch];W[bk];B[dk];W[cj];B[bi];W[en];
B[gn];W[go];B[ei];W[dm];B[el];W[fi];B[ak];W[bm];B[cq];W[bq];B[ns];W[ms];B[os];
W[lr];B[id];W[cr];B[ed];W[gf];B[ge];W[gg];B[ke];W[no];B[rd];W[sd];B[se];W[sc];
B[ml];W[mk];B[il];W[aj];B[ag];W[al];B[ai];W[ak];B[so];W[gq];B[sm];W[rl];B[sg];
W[oi];B[qi];W[ln];B[oo];W[];B[])
