(;FF[4]BR[24k]CP[online-go.com]DT[2016-06-19]GM[1]KM[6.5]PB[Baddymassindex]
PC[OGS: http://online-go.com/game/5596480]PW[Boba Fettucci]RE[W+R]RU[japanese]
SZ[19]WR[22k];B[pd];W[dp];B[dd];W[pp];B[dl];W[jp];B[om];W[pm];B[ok];W[pk];B[pl]
;W[ql];B[ol];W[pn];B[jn];W[pi];B[pg];W[qg];B[qf];W[ph];B[pf];W[pj];B[nh];W[ln];
B[co];W[on];B[nn];W[hn];B[hm];W[gm];B[hl];W[ll];B[km];W[lm];B[mm];W[mk];B[mj];
W[lj];B[mi];W[no];B[ml];W[nk];B[oj];W[ni];B[nj];W[oi];B[nl];W[lk];B[mh];W[jc];
B[kd];W[gc];B[fc];W[ge];B[fd];W[gd];B[fm];W[hp];B[gn];W[jo];B[in];W[ho];B[go];
W[gp];B[fp];W[fq];B[ep];W[eq];B[do];W[fo];B[eo];W[fn];B[gl];W[gn];B[en];W[cp];
B[bp];W[bq];B[dq];W[cq];B[ao];W[hi];B[rg];W[qh];B[rh];W[ri];B[qj];W[qi];B[mo];
W[mn];B[gi];W[hh];B[ki];W[sh];B[sf];W[rj];B[rf];W[mp];B[kn];W[lo];B[io];W[ip];
B[aq];W[ar];B[ap];W[cr];B[gh];W[kc];B[mc];W[ko];B[fe];W[kl];B[jl];W[jk];B[il];
W[ik];B[gf];W[hf];B[fg];W[gj];B[fj];W[gk];B[fl];W[hk];B[fk];W[fb];B[hg];W[ig];
B[gg];W[ie];B[lc];W[jd];B[le];W[ke];B[ld];W[kf];B[lf];W[db];B[dc];W[eb];B[kg];
W[jg];B[jh];W[ih];B[lh];W[ji];B[kh];W[cc];B[cd];W[bc];B[bd];W[ad];B[ae])
