(;FF[4]BR[6k]CP[online-go.com]DT[2016-06-20]GM[1]KM[6.5]PB[ekabiljo]
PC[OGS: http://online-go.com/game/5602440]PW[Lomis]RE[W+R]RU[japanese]SZ[19]
WR[6k];B[pd];W[dc];B[pp];W[dp];B[pj];W[nq];B[lq];W[qq];B[qp];W[pq];B[op];W[np];
B[oq];W[or];B[pr];W[qr];B[nr];W[ps];B[no];W[mr];B[mp];W[ns];B[mq];W[nr];B[mn];
W[lo];B[mo];W[nc];B[nd];W[md];B[oc];W[ne];B[od];W[me];B[pf];W[ce];B[cn];W[dj];
B[cq];W[cp];B[dq];W[ep];B[bp];W[bo];B[bq];W[co];B[fq];W[dn];B[fp];W[fo];B[go];
W[fn];B[gn];W[gm];B[hm];W[hl];B[im];W[il];B[jm];W[kr];B[lr];W[ls];B[jq];W[jr];
B[iq];W[qm];B[pn];W[qj];B[qk];W[pk];B[rk];W[ok];B[pi];W[mk];B[kk];W[lj];B[kj];
W[li];B[ki];W[mg];B[gl];W[fm];B[gk];W[id];B[hh];W[ee];B[dh];W[ei];B[eh];W[fh];
B[fg];W[gg];B[gh];W[fi];B[ef];W[gf];B[cf];W[bf];B[bg];W[df];B[cg];W[be];B[cj];
W[ck];B[di];W[ek];B[bj];W[bk];B[bh];W[ci];B[if];W[he];B[mc];W[lc];B[nb];W[kd];
B[lb];W[kb];B[ka];W[ja];B[la];W[jb];B[pl];W[ql];B[rj];W[pm];B[ol];W[nl];B[om];
W[on];B[nm];W[rp];B[ro];W[rq];B[rn];W[mm];B[nn];W[lm];B[ln];W[km];B[kn];W[eq];
B[er];W[gr];B[fr];W[ir];B[hq];W[hr];B[kg];W[lh];B[oj];W[nk];B[fj];W[ej];B[gi];
W[fk];B[gj];W[og];B[pg];W[kq];B[kp];W[gq];B[gp];W[hf];B[ig];W[oh];B[ph];W[nj])
