(;FF[4]BR[7k]CP[online-go.com]DT[2016-06-04]GM[1]KM[6.5]PB[theemathas]
PC[OGS: http://online-go.com/game/5450263]PW[Inimma]RE[B+R]RU[japanese]SZ[19]
WR[8k];B[pd];W[cp];B[dd];W[qp];B[ep];W[dn];B[cq];W[bq];B[dq];W[bo];B[iq];W[nq];
B[jd];W[pj];B[dj];W[ee];B[ed];W[fe];B[cf];W[fd];B[hc];W[gc];B[he];W[hb];B[ib];
W[ic];B[hd];W[jb];B[gb];W[ia];B[fc];W[lc];B[gd];W[md];B[qf];W[ck];B[gi];W[gq];
B[hp];W[eh];B[gg];W[ci];B[di];W[ch];B[dh];W[cg];B[dg];W[cj];B[em];W[en];B[fm];
W[fn];B[gp];W[gm];B[gn];W[dm];B[ek];W[qc];B[pc];W[qb];B[pb];W[ob];B[pa];W[re];
B[rf];W[qe];B[pe];W[sb];B[ra];W[qa];B[rd];W[qd])
