(;FF[4]BR[18k]CP[online-go.com]DT[2016-04-11]GM[1]KM[6.5]PB[jnkstry]
PC[OGS: http://online-go.com/game/4842265]PW[ribabo]RE[W+R]RU[japanese]SZ[19]
WR[11k];B[pp];W[dd];B[dq];W[pd];B[cf];W[fc];B[dh];W[do];B[fp];W[cl];B[cj];W[bp]
;B[jp];W[qn];B[np];W[pi];B[kc];W[mc];B[hc];W[bd];B[pn];W[rp];B[qp];W[pm];B[on];
W[qo];B[om];W[pl];B[ol];W[pk];B[ok];W[hp];B[hq];W[gq];B[gp];W[iq];B[hr];W[ip];
B[gr];W[lp];B[jn];W[jq];B[jo];W[ir];B[fq];W[mq];B[nq];W[nr];B[or];W[ns];B[os];
W[lr];B[rq];W[sp];B[sq];W[rn];B[qq];W[qf];B[ke];W[me];B[mg];W[nf];B[lf];W[ni];
B[mi];W[oj];B[mj];W[ln];B[kl];W[il];B[jm];W[fl];B[ho];W[io];B[in];W[hn];B[go];
W[kp];B[lo];W[mo];B[ko];W[mp];B[no];W[mm];B[ml];W[nl];B[nk];W[ll];B[lk];W[mk];
B[jk];W[jl];B[km];W[kj];B[kk];W[jh];B[ml];W[cr];B[dr];W[cq];B[hm];W[gn];B[hl];
W[ik];B[gm];W[fn];B[fm];W[em];B[en];W[dn];B[eo];W[dl];B[hk];W[ij];B[hj];W[hi];
B[jj];W[ih];B[ji];W[ii];B[kh];W[hf];B[he];W[ee];B[if];W[gf];B[hd];W[fg];B[eg];
W[ef];B[fh];W[gh];B[fi])
