(;FF[4]BR[18k]CP[online-go.com]DT[2016-03-11]GM[1]KM[6.5]PB[Weiqibaduk]
PC[OGS: http://online-go.com/game/4245981]PW[mtgo2]RE[W+85.5]RU[japanese]SZ[19]
WR[18k];B[pp];W[pd];B[dd];W[dp];B[iq];W[cf];B[hc];W[dj];B[mc];W[qn];B[qo];W[pn]
;B[gq];W[qi];B[mp];W[cd];B[dc];W[cc];B[gf];W[ef];B[mf];W[md];B[lc];W[ld];B[kd];
W[ke];B[jd];W[je];B[ie];W[fc];B[fb];W[eb];B[gb];W[db];B[gc];W[fd];B[fe];W[ee];
B[gg];W[jg];B[ig];W[jh];B[ih];W[nc];B[nb];W[oc];B[ob];W[qf];B[fh];W[pb];B[fj];
W[dl];B[ij];W[mi];B[mm];W[pl];B[fl];W[kp];B[kq];W[lp];B[lq];W[jp];B[ip];W[km];
B[ln];W[kn];B[on];W[om];B[oo];W[lm];B[ml];W[mn];B[nn];W[mo];B[np];W[io];B[ep];
W[dq];B[eq];W[do];B[dh];W[nm];B[ci];W[cj];B[cg];W[bi];B[bh];W[jj];B[ji];W[ki];
B[ii];W[jk];B[hl];W[bj];B[rn];W[rm];B[ro];W[go];B[dr];W[cr];B[es];W[cs];B[gn];
W[eo];B[em];W[dm];B[ej];W[di];B[ch];W[ek];B[fk];W[el];B[fm];W[en];B[fn];W[ei];
B[eh];W[if];B[hf];W[jf];B[ik];W[il];B[im];W[jl];B[jm];W[hn];B[hm];W[oa];B[na];
W[pa];B[mb];W[bf];B[df];W[de];B[eg];W[ql];B[po];W[fr];B[er];W[fq];B[fp];W[gp];
B[gr];W[hp];B[hq];W[fo];B[sm];W[sl];B[sn];W[jn];B[in];W[id];B[he];W[kc];B[kb];
W[jc];B[jb];W[ds];B[fs];W[ho];B[no];W[lo];B[jq];W[ic];B[ib];W[kd];B[ff];W[fa];
B[ga];W[ea];B[hd];W[ne];B[fi];W[ah];B[dg];W[bg];B[gd];W[cb];B[];W[])
