(;FF[4]BR[4k]CP[online-go.com]DT[2016-05-24]GM[1]KM[6.5]PB[jetlag11235]
PC[OGS: http://online-go.com/game/5345348]PW[RDiaz]RE[B+R]RU[japanese]SZ[19]
WR[7k];B[qp];W[qd];B[dq];W[dc];B[de];W[ch];B[fd];W[ce];B[dd];W[cd];B[cc];W[db];
B[ec];W[bc];B[cf];W[bf];B[eb];W[cb];B[df];W[jq];B[oc];W[kc];B[pe];W[qe];B[pf];
W[qf];B[pg];W[hc];B[qg];W[pb];B[lq];W[gq];B[do];W[qk];B[qm];W[ok];B[om];W[np];
B[lo];W[nn];B[nm];W[mn];B[ln];W[mm];B[nk];W[nj];B[mk];W[lm];B[oj];W[oi];B[pj];
W[pi];B[qj];W[mj];B[lk];W[km];B[jo];W[kp];B[lp];W[ko];B[kn];W[jn];B[in];W[jm];
B[jp];W[kq];B[iq];W[ir];B[ip];W[hr];B[lr];W[jr];B[oq];W[jk];B[go];W[fo];B[fn];
W[er];B[eq];W[dr];B[fq];W[fr];B[cr];W[gs];B[cj];W[dh];B[ej];W[cq];B[cp];W[br];
B[bq];W[qi];B[rj];W[nh];B[lj];W[li];B[ki];W[lh];B[kh];W[lg];B[kg];W[hm];B[gn];
W[hj];B[lf];W[mf];B[me];W[nf];B[ne];W[le];B[kf];W[oe];B[od];W[of];B[pd];W[mh])
