(;FF[4]BR[1d]CP[online-go.com]DT[2016-03-05]GM[1]KM[6.5]PB[xgp328]
PC[OGS: http://online-go.com/game/4165050]PW[milseman]RE[B+R]RU[japanese]SZ[19]
WR[2k];B[dd];W[pp];B[qd];W[cp];B[ep];W[hp];B[dm];W[eo];B[fo];W[en];B[cq];W[cn];
B[bp];W[dq];B[dp];W[co];B[dr];W[fp];B[eq];W[gp];B[gn];W[dj];B[gl];W[em];B[dh];
W[fj];B[el];W[dl];B[dk];W[ek];B[cl];W[fl];B[dl];W[gm];B[hm];W[fm];B[hn];W[cj];
B[jo];W[jp];B[kp];W[ko];B[jn];W[jq];B[kq];W[kr];B[lr];W[jr];B[mq];W[fr];B[ln];
W[qn];B[kc];W[od];B[oc];W[pd];B[pc];W[qe];B[qc];W[nd];B[qi];W[pf];B[mb];W[qk];
B[oi];W[fc];B[dc];W[ic];B[fd];W[gd];B[fe];W[eb];B[db];W[gb];B[qq];W[pq];B[pr];
W[qp];B[rr];W[bh];B[bg];W[cg];B[ch];W[bf];B[bi];W[ag];B[ci];W[bj];B[aj];W[ak];
B[ai];W[bl];B[ei];W[ej];B[df];W[bd];B[bc];W[mi];B[qg];W[nj];B[ng];W[rf];B[me];
W[nc];B[nb];W[oh];B[nh];W[ph];B[pi];W[ld];B[md];W[mc];B[lc];W[mf];B[nf];W[of];
B[ni];W[ne];B[le];W[lf];B[ke];W[lh];B[lg];W[kf];B[rg];W[rd];B[rc];W[sg];B[pe])
