(;FF[4]BR[18k]CP[online-go.com]DT[2016-03-01]GM[1]KM[6.5]PB[ferde]
PC[OGS: http://online-go.com/game/4136518]PW[mil0622]RE[W+R]RU[japanese]SZ[19]
WR[10k];B[dd];W[pp];B[dp];W[pd];B[fq];W[cf];B[fc];W[bd];B[bc];W[cc];B[bb];W[cd]
;B[cb];W[dc];B[db];W[ec];B[eb];W[ed];B[fd];W[ee];B[he];W[qj];B[pg];W[qe];B[mc];
W[od];B[kd];W[me];B[lf];W[ng];B[oc];W[pc];B[nd];W[ne];B[le];W[ni];B[of];W[mg];
B[ob];W[pb];B[md];W[dk];B[cl];W[ck];B[jq];W[nq];B[qn];W[qo];B[ro];W[rp];B[rn];
W[pn];B[pl];W[ok];B[ol];W[nl];B[pm];W[on];B[pk];W[pj];B[oj];W[nk];B[rk];W[rj];
B[qk];W[oi];B[sm];W[dl];B[cm];W[gl];B[jl];W[jn];B[hm];W[hl];B[kn];W[im];B[il];
W[hn];B[gm];W[ko];B[jm];W[jo];B[in];W[io];B[im];W[hq];B[ho];W[hp];B[gn];W[gr];
B[fr];W[kq];B[ik];W[gj];B[fl];W[fk];B[hk];W[gk];B[em];W[gf];B[hf];W[hg];B[ig];
W[hh];B[ih];W[kh];B[kg];W[ki];B[ln];W[ll];B[ii];W[km];B[kl];W[lm];B[lk];W[mk];
B[lj];W[kj];B[kk];W[mi];B[li];W[lh];B[mj];W[nj];B[jj];W[ge];B[gd];W[oa];B[na];
W[pa];B[nb];W[fs];B[es];W[gs];B[er];W[gp];B[fp];W[go];B[fo];W[so];B[rl];W[sk];
B[qm];W[dm];B[dn];W[bk];B[bl];W[al];B[cn];W[an];B[bm];W[am];B[bp];W[ap];B[aq];
W[ao];B[bq];W[bo];B[co];W[el];B[fm];W[ac];B[ab];W[ad];B[hi];W[gi];B[mf];W[nf];
B[jh];W[lg];B[kf];W[fe];B[hd];W[gq];B[bn];W[ak];B[en];W[hj];B[ij];W[om];B[sl];
W[sj];B[sn];W[sp])
