(;FF[4]BR[10k]CP[online-go.com]DT[2016-08-30]GM[1]KM[6.5]PB[aurelito]
PC[OGS: http://online-go.com/game/6218351]PW[IMnew]RE[B+2.5]RU[japanese]SZ[19]
WR[11k];B[qd];W[dd];B[pp];W[dq];B[do];W[co];B[dp];W[cp];B[eq];W[cn];B[dn];W[dm]
;B[cq];W[dr];B[bq];W[br];B[cm];W[bp];B[cl];W[em];B[fo];W[ci];B[dj];W[di];B[ej];
W[gm];B[ho];W[mq];B[kq];W[pq];B[oq];W[op];B[qq];W[pr];B[or];W[qr];B[qp];W[nq];
B[oo];W[np];B[im];W[od];B[pf];W[qc];B[rc];W[pc];B[mc];W[rb];B[rd];W[of];B[pg];
W[jd];B[me];W[nc];B[md];W[gc];B[mg];W[nf];B[mf];W[jf];B[cc];W[cd];B[dc];W[ec];
B[bd];W[be];B[bc];W[cf];B[eb];W[fb];B[da];W[qk];B[qm];W[qh];B[ph];W[rf];B[qe];
W[qf];B[oe];W[pd];B[pe];W[nd];B[ne];W[rl];B[mb];W[ob];B[qi];W[ri];B[rh];W[qj];
B[qg];W[pi];B[qh];W[sj];B[ol];W[ok];B[nl];W[oi];B[nh];W[oh];B[og];W[rr];B[nk];
W[rm];B[gj];W[fi];B[fj];W[lo];B[er];W[cr];B[ck];W[kh];B[gi];W[fh];B[ii];W[hg];
B[oj];W[pj];B[nj];W[rn];B[qn];W[ro];B[jo];W[jk];B[ik];W[ji];B[ih];W[ig];B[jb];
W[ic];B[jh];W[jl];B[il];W[mi];B[ni];W[lk];B[ki];W[kj];B[jj];W[lm];B[kg];W[kc];
B[kb];W[ib];B[lj];W[kk];B[mj];W[bj];B[mn];W[ln];B[lr];W[mr];B[ms];W[ns];B[ls];
W[rq];B[kp];W[jn];B[in];W[qo];B[po];W[no];B[nn];W[bk];B[bl];W[es];B[fs];W[ds];
B[gr];W[bn];B[gh];W[gg];B[ei];W[eh];B[sb];W[ra];B[jm];W[kn];B[pl];W[pk];B[na];
W[oa];B[kf];W[ke];B[lc];W[jc];B[km];W[ll];B[lq];W[mo];B[sh];W[rp];B[on];W[fa];
B[ba];W[ea];B[db];W[cj];B[dk];W[hh];B[hi];W[le];B[ia];W[ha];B[ja];W[nb];B[ma];
W[lf];B[lg];W[ae];B[ad];W[mm];B[nm];W[lp];B[ld];W[kd];B[si];W[rj];B[am];W[an];
B[ak];W[aj];B[al];W[jg];B[sc];W[ko];B[jp];W[ql];B[sa];W[qb];B[ml];W[mk];B[kl];
W[];B[])
