(;FF[4]BR[14k]CP[online-go.com]DT[2016-04-29]GM[1]KM[6.5]PB[New Shampoo]
PC[OGS: http://online-go.com/game/5076414]PW[neutralneutralmonk]RE[B+20.5]
RU[japanese]SZ[19]WR[15k];B[pd];W[pq];B[dp];W[cc];B[dd];W[qo];B[cd];W[dc];B[ch]
;W[qc];B[qd];W[pc];B[oc];W[ob];B[nc];W[nb];B[rd];W[rc];B[mc];W[cq];B[cp];W[dq];
B[eq];W[er];B[fq];W[fr];B[gq];W[kq];B[cm];W[pj];B[qh];W[bd];B[be];W[ad];B[ae];
W[bb];B[mh];W[mj];B[ql];W[qm];B[qj];W[pl];B[pk];W[rl];B[qk];W[ol];B[oj];W[pi];
B[ph];W[oi];B[ni];W[nj];B[ok];W[nh];B[mi];W[oh];B[qi];W[ng];B[mg];W[kj];B[mp];
W[mq];B[kp];W[mo];B[lq];W[lr];B[lp];W[jq];B[kr];W[jr];B[mr];W[ks];B[nq];W[gr];
B[nk];W[mk];B[nl];W[nm];B[ml];W[ll];B[mm];W[nn];B[mn];W[np];B[lo];W[no];B[rm];
W[rn];B[pm];W[om];B[qn];W[pn];B[qm];W[rp];B[po];W[oo];B[on];W[op];B[pp];W[oq];
B[qp];W[ro];B[qq];W[qr];B[or];W[pn];B[rq];W[rr];B[on];W[pr];B[pn];W[sq];B[sp];
W[os];B[sr];W[nr];B[kn];W[jl];B[kl];W[km];B[jm];W[kk];B[mf];W[im];B[ed];W[hk];
B[dk];W[ih];B[gn];W[fi];B[fg];W[lh];B[li];W[kh];B[ec];W[ek];B[ej];W[fk];B[dl];
W[ei];B[di];W[gg];B[ff];W[he];B[kf];W[jf];B[ke];W[hc];B[je];W[if];B[jc];W[fc];
B[eb];W[jb];B[kb];W[ib];B[id];W[ic];B[kd];W[hq];B[hp];W[ip];B[ho];W[jo];B[jn];
W[lm];B[io];W[in];B[hn];W[ln];B[fm];W[gl];B[db];W[cb];B[bq];W[br];B[cr];W[dr];
B[ar];W[cs];B[eh];W[ca];B[gd];W[bp];B[bo];W[aq];B[ao];W[hd];B[gc];W[gb];B[fb];
W[ge];B[fd];W[ga];B[da];W[ab];B[mb];W[pa];B[el];W[ie];B[sc];W[sb];B[sd];W[ra];
B[na];W[oa];B[ma];W[jd];B[kc];W[fe];B[ee];W[fh];B[dg];W[fj];B[dj];W[lg];B[lf];
W[ka];B[la];W[ja];B[ki];W[ji];B[lj];W[lk];B[hm];W[il];B[ep];W[gf];B[ap];W[bq];
B[co];W[fa];B[fl];W[hl];B[gm];W[rs];B[sq];W[jp];B[];W[kg];B[id];W[];B[])
