(;FF[4]BR[9k]CP[online-go.com]DT[2016-05-07]GM[1]KM[6.5]PB[uzzu]
PC[OGS: http://online-go.com/game/5166220]PW[gopaddy]RE[B+R]RU[japanese]SZ[19]
WR[8k];B[pd];W[cc];B[dp];W[pp];B[nq];W[np];B[mp];W[no];B[mq];W[pk];B[hq];W[qf];
B[nc];W[rd];B[qc];W[dj];B[qh];W[ph];B[pi];W[pg];B[oi];W[rc];B[rb];W[sb];B[qk];
W[ql];B[rk];W[rl];B[pj];W[pl];B[qq];W[qp];B[pq];W[lc];B[qb];W[rh];B[ri];W[rg];
B[jc];W[le];B[gc];W[ec];B[nf];W[oe];B[ne];W[od];B[nd];W[oc];B[ob];W[ng];B[of];
W[pe];B[og];W[pc];B[pb];W[qd];B[oh];W[mb];B[nb];W[id];B[kd];W[ld];B[ic];W[hd];
B[hc];W[gd];B[ke];W[lf];B[jf];W[lh];B[kg];W[lg];B[fd];W[fc];B[fe];W[df];B[gf];
W[lk];B[mj];W[ki];B[lj];W[kj];B[cl];W[cq];B[dq];W[bo];B[cp];W[bp];B[cr];W[dn];
B[bi];W[ch];B[cj];W[dk];B[bh];W[bg];B[cg];W[cf];B[ci];W[dg];B[di];W[ei];B[eh];
W[dh];B[dl];W[ej];B[fl];W[fn];B[gj];W[gi];B[hj];W[hi];B[ij];W[ii];B[fj];W[fi];
B[ek];W[em];B[el];W[hn];B[fg];W[ji];B[kk];W[jk];B[kl];W[jj];B[hl];W[jl];B[im];
W[km];B[ll];W[jm];B[in];W[bq];B[cn];W[co];B[cm];W[do];B[fp];W[br];B[dr];W[bs];
B[bn];W[ao];B[an];W[mn];B[ko];W[ml];B[mk];W[lm];B[lk];W[nk];B[nj];W[ok];B[rp];
W[ro];B[rq];W[qn];B[fb];W[kb];B[jb];W[hp];B[go];W[ho];B[ip];W[gn];B[gp];W[io];
B[jp];W[jo];B[kp];W[nh];B[qi];W[eb];B[gb];W[ee];B[ed];W[dd];B[ef];W[de];B[hf];
W[ig];B[if];W[kf];B[jg];W[kc];B[eg])
