(;FF[4]BR[16k]CP[online-go.com]DT[2016-04-20]GM[1]KM[6.5]PB[ferde]
PC[OGS: http://online-go.com/game/4956352]PW[Smoothtesuji]RE[W+R]RU[japanese]
SZ[19]WR[14k];B[pd];W[dd];B[pq];W[dp];B[fq];W[po];B[cn];W[eo];B[cq];W[cp];B[dq]
;W[eq];B[er];W[ep];B[fp];W[np];B[lq];W[dl];B[fo];W[en];B[dm];W[em];B[lo];W[nc];
B[qf];W[kc];B[fc];W[ec];B[fd];W[cf];B[ic];W[nq];B[qp];W[qo];B[rp];W[ro];B[or];
W[nr];B[ql];W[qr];B[rr];W[oq];B[pr];W[pp];B[qs];W[nn];B[lp];W[io];B[iq];W[gn];
B[ch];W[cj];B[el];W[gm];B[cl];W[dk];B[ck];W[dj];B[bj];W[bi];B[ak];W[ci];B[dn];
W[fl];B[qi];W[eg];B[ff];W[je];B[jd];W[kd];B[ie];W[gj];B[jf];W[pb];B[qc];W[qb];
B[jb];W[kb];B[ke];W[le];B[lf];W[me];B[mf];W[ne];B[nf];W[ol];B[nj];W[kg];B[jh];
W[kh];B[kf];W[ji];B[gh];W[fh];B[gg];W[gi];B[ki];W[ih];B[jg];W[kj];B[li];W[jj];
B[jn];W[jo];B[jp];W[kn];B[hj];W[hi];B[jm];W[ln];B[ko];W[mn];B[ho];W[in];B[ip];
W[hn];B[lk];W[kl];B[kk];W[jk];B[ig];W[bq];B[fr];W[br];B[cr];W[cs];B[dr];W[am];
B[bo];W[bp];B[ao];W[co];B[bm];W[ai];B[aj];W[ap];B[al];W[fb];B[ok];W[pl];B[pk];
W[qm];B[rl];W[oe];B[of];W[pe];B[qe];W[pf];B[pg];W[od];B[ed];W[dc];B[de];W[ce];
B[ef];W[df];B[nl];W[nm];B[ml];W[ll];B[lj];W[ks];B[kr];W[ls];B[js];W[ms];B[jr];
W[gb];B[gc];W[hb];B[hc];W[ib];B[fg];W[eh];B[ee];W[jc];B[rm];W[qn];B[rb];W[pc];
B[qd];W[go];B[gp];W[sp];B[sq];W[so];B[ra];W[qa];B[hh];W[ii];B[lr];W[mm];B[mr];
W[ns];B[fn];W[fm];B[hp];W[os];B[ds];W[ps];B[qq];W[bs];B[sn];W[rn];B[sm];W[mo])
