(;FF[4]BR[4k]CP[online-go.com]DT[2016-06-12]GM[1]KM[6.5]PB[Messias]
PC[OGS: http://online-go.com/game/5526170]PW[mtgo2]RE[B+R]RU[japanese]SZ[19]
WR[14k];B[pp];W[pd];B[co];W[dd];B[jq];W[dq];B[ep];W[eq];B[fp];W[gq];B[gp];W[jc]
;B[fq];W[fr];B[gr];W[es];B[hq];W[bp];B[cp];W[cq];B[bo];W[bq];B[cf];W[fd];B[bd];
W[cc];B[ci];W[qn];B[qj];W[qg];B[qo];W[pn];B[np];W[nn];B[oj];W[pk];B[pj];W[po];
B[ro];W[oq];B[op];W[dl];B[ql];W[pl];B[rm];W[qk];B[rk];W[qm];B[rl];W[lq];B[nq];
W[mq];B[nr];W[lo];B[mo];W[ln];B[mn];W[nk];B[mm];W[lm];B[ml];W[mj];B[ll];W[kl];
B[kk];W[jl];B[lj];W[mi];B[gl];W[hm];B[gm];W[hn];B[kp];W[ko];B[jn];W[jo];B[ik];
W[dp];B[do];W[eo];B[en];W[fo];B[go];W[fn];B[gn];W[fm];B[em];W[fl];B[el];W[fk];
B[ek];W[fj];B[ej];W[jp])
