(;FF[4]BR[11k]CP[online-go.com]DT[2016-05-11]GM[1]KM[6.5]PB[DerScharlatan]
PC[OGS: http://online-go.com/game/5210581]PW[Misawa]RE[B+29.5]RU[japanese]
SZ[19]WR[10k];B[pd];W[dp];B[qp];W[de];B[dc];W[fd];B[oq];W[nc];B[pf];W[kc];B[fc]
;W[gc];B[gd];W[ec];B[fb];W[dd];B[eb];W[cc];B[ed];W[db];B[fe];W[ec];B[oc];W[nd];
B[cn];W[fq];B[bp];W[cq];B[ck];W[ch];B[qk];W[np];B[lq];W[nq];B[iq];W[hp];B[ip];
W[hc];B[hd];W[ic];B[je];W[qi];B[pi];W[ph];B[oh];W[pj];B[oi];W[qj];B[pk];W[oj];
B[ok];W[nj];B[ml];W[pg];B[og];W[qf];B[qe];W[rg];B[of];W[re];B[rd];W[nl];B[nk];
W[nm];B[mm];W[mn];B[ln];W[op];B[pq];W[lo];B[nn];W[no];B[on];W[pp];B[qo];W[kn];
B[mo];W[mp];B[lp];W[mn];B[lm];W[kp];B[mo];W[qq];B[qr];W[or];B[pr];W[mn];B[in];
W[km];B[kk];W[im];B[kq];W[jn];B[hn];W[kl];B[mj];W[mo];B[gl];W[il];B[ij];W[jp];
B[jq];W[pn];B[po];W[rq];B[rr];W[om];B[oo];W[rk];B[rl];W[ll];B[mk];W[rm];B[sl];
W[qm];B[rp];W[ni];B[mi];W[jo];B[hj];W[io];B[ho];W[hq];B[mr];W[nr];B[ns];W[os];
B[hr];W[gr];B[is];W[jr];B[kr];W[ms];B[ls];W[mq];B[ns];W[hm];B[ms];W[gn];B[ps];
W[ko];B[jk];W[go];B[ld];W[nh];B[mh];W[ng];B[mf];W[lc];B[eh];W[dj];B[cj];W[di];
B[ci];W[dh];B[eg];W[ee];B[dc];W[ff];B[ef];W[ec];B[fd];W[gk];B[fl];W[fk];B[em];
W[bq];B[co];W[cp];B[bo];W[fi];B[gh];W[fh];B[fg];W[gf];B[hf];W[gi];B[hh];W[ei];
B[se];W[rf];B[qh];W[ri];B[rh];W[ql];B[sh];W[sm];B[mg];W[si];B[qg];W[sk];B[bh];
W[bg];B[bi];W[dg];B[gg];W[gb];B[id];W[kd];B[ke];W[le];B[lf];W[me];B[ne];W[md];
B[bf];W[af];B[cf];W[df];B[cg];W[be];B[ag];W[ce];B[ae];W[ad];B[af];W[bc];B[do];
W[eo];B[en];W[fn];B[nb];W[mb];B[ob];W[nf];B[oe];W[od];B[qc];W[gs];B[hs];W[lk];
B[lj];W[so];B[sp];W[qn];B[aq];W[ar];B[ap];W[br];B[ga];W[ha];B[fa];W[jd];B[dk];
W[ek];B[el];W[hk];B[ik];W[hi];B[ii];W[ih];B[ge];W[gj];B[dc];W[da];B[ec];W[na];
B[oa];W[ma];B[ro];W[rn];B[sq];W[sn];B[ea];W[cb];B[];W[jl];B[pl];W[pm];B[];W[ol]
;B[ki];W[ji];B[jh];W[ig];B[];W[])
