(;FF[4]BR[9k]CP[online-go.com]DT[2016-06-06]GM[1]KM[6.5]PB[amsone]
PC[OGS: http://online-go.com/game/5471835]PW[reese_anschultz]RE[B+33.5]
RU[japanese]SZ[19]WR[8k];B[qd];W[dq];B[pq];W[dc];B[oc];W[ce];B[qo];W[co];B[cj];
W[ph];B[ql];W[qf];B[rj];W[jp];B[mq];W[kq];B[gp];W[hq];B[gq];W[hp];B[ho];W[go];
B[fo];W[gn];B[eo];W[fp];B[eq];W[fq];B[gr];W[fr];B[ep];W[er];B[cn];W[cq];B[hn];
W[gm];B[jo];W[ko];B[jn];W[kn];B[il];W[hm];B[im];W[in];B[io];W[jm];B[jd];W[dn];
B[en];W[em];B[dm];W[do];B[el];W[fm];B[cm];W[dk];B[dl];W[ck];B[ei];W[dj];B[ci];
W[di];B[ch];W[dh];B[cg];W[dg];B[cf];W[df];B[be];W[cd];B[bd];W[bc];B[bk];W[bl];
B[bj];W[cl];B[gc];W[fd];B[gd];W[ge];B[he];W[hf];B[gf];W[fe];B[if];W[hg];B[oe];
W[pm];B[qm];W[pn];B[jl];W[km];B[ig];W[hh];B[ji];W[ih];B[jh];W[hd];B[ie];W[hc];
B[gb];W[hb];B[ia];W[jc];B[ic];W[ib];B[jb];W[fb];B[id];W[qn];B[rn];W[po];B[qp];
W[pp];B[ok];W[qq];B[rq];W[qr];B[pr];W[oq];B[or];W[nq];B[nr];W[lr];B[np];W[op];
B[mr];W[no];B[lp];W[kp];B[mp];W[mo];B[lo];W[ln];B[kl];W[qi];B[ri];W[rh];B[pl];
W[nm];B[ng];W[ni];B[oh];W[oi];B[pg];W[qg];B[re];W[pe];B[pd];W[of];B[og];W[pf];
B[nf];W[hk];B[mk];W[qj];B[rk];W[ol];B[nl];W[om];B[pj];W[oj];B[mi];W[mh];B[lf];
W[nh];B[li];W[ne];B[lg];W[od];B[nd];W[oe];B[md];W[ll];B[lk];W[ml];B[nk];W[ij];
B[jj];W[ad];B[bf];W[ah];B[ai];W[ak];B[bh];W[fc];B[ha];W[lq];B[hl];W[ip];B[in];
W[fk];B[ik];W[hj];B[gl];W[fl];B[fa];W[eb];B[gk];W[gj];B[ii];W[gi];B[hi];W[gh];
B[aj];W[ms];B[rr];W[ns];B[al];W[am];B[ak];W[bn];B[ae];W[ac];B[ea];W[da];B[ga];
W[os];B[qs];W[ls];B[ps];W[];B[])
