(;FF[4]BR[17k]CP[online-go.com]DT[2016-03-28]GM[1]KM[6.5]PB[pcesar22]
PC[OGS: http://online-go.com/game/4636888]PW[mtm6556]RE[B+R]RU[japanese]SZ[19]
WR[11k];B[pp];W[dd];B[pc];W[dp];B[pi];W[nq];B[lq];W[no];B[pn];W[qq];B[qp];W[pq]
;B[or];W[nr];B[op];W[oq];B[np];W[mp];B[mq];W[lp];B[kp];W[ko];B[jp];W[jo];B[ip];
W[kq];B[kr];W[lr];B[jq];W[mr];B[kq];W[mn];B[fq];W[eq];B[fp];W[dm];B[io];W[jm];
B[fn];W[jd];B[lc];W[kc];B[ld];W[qe];B[pe];W[pf];B[qf];W[qg];B[rf];W[re];B[pg];
W[of];B[rg];W[qh];B[rh];W[qi];B[og];W[pj];B[qj];W[oi];B[ph];W[ng];B[ri];W[oe];
B[pd];W[nc];B[nd];W[od];B[oc];W[md];B[nf];W[ne];B[mf];W[me];B[le];W[lf];B[mg];
W[nh];B[mc])
