(;FF[4]BR[8k]CP[online-go.com]DT[2016-04-12]GM[1]KM[6.5]PB[Lao Tzu]
PC[OGS: http://online-go.com/game/4852774]PW[stanleychen8]RE[W+31.5]
RU[japanese]SZ[19]WR[4k];B[pp];W[dd];B[cp];W[qd];B[iq];W[dm];B[ep];W[dj];B[od];
W[ld];B[qc];W[rc];B[pc];W[pf];B[of];W[pg];B[lf];W[jd];B[rb];W[rd];B[qj];W[ne];
B[oe];W[og];B[nf];W[me];B[mc];W[nq];B[qn];W[pr];B[qq];W[kq];B[ni];W[qh];B[ri];
W[rh];B[pe];W[qe];B[rf];W[qi];B[rj];W[pj];B[oi];W[pi];B[oh];W[ng];B[mg];W[pk];
B[ql];W[mh];B[mf];W[jf];B[lh];W[mi];B[nj];W[mj];B[nk];W[nh];B[nm];W[no];B[ke];
W[kd];B[fd];W[df];B[ie];W[je];B[id];W[if];B[ic];W[eb];B[gf];W[kg];B[lg];W[gc];
B[gd];W[fc];B[hh];W[ji];B[hj];W[hc];B[kj];W[kb];B[ib];W[hf];B[ff];W[gh];B[hg];
W[gg];B[gi];W[eg];B[fi];W[he];B[hd];W[fg];B[jj];W[ii];B[hi];W[mb];B[nb];W[lc];
B[md];W[jc];B[ma];W[la];B[lb];W[le];B[kf];W[mb];B[na];W[hb];B[jb];W[lb];B[jh];
W[ef];B[ed];W[ec];B[mk];W[sb];B[sc];W[rg];B[qf];W[sf];B[sh];W[lk];B[lj];W[sd];
B[ra];W[re];B[ko];W[gq];B[fq];W[qr];B[rr];W[pq];B[qp];W[op];B[bm];W[dq];B[dp];
W[fr];B[eq];W[er];B[dr];W[ir];B[gp];W[hq];B[hp];W[ip];B[io];W[jq];B[dl];W[cl];
B[cm];W[ck];B[el];W[mn];B[lm];W[ds];B[cr];W[rs];B[di];W[ci];B[dh];W[ej];B[fh];
W[ch];B[lp];W[fk];B[fl];W[gk];B[hm];W[lq];B[aj];W[bj];B[ak];W[ai];B[bl];W[hl];
B[im];W[po];B[pn];W[mp];B[jg];W[lo];B[kn];W[il];B[gl];W[hk];B[ij];W[on];B[om];
W[qo];B[ro];W[oo];B[jl];W[sr];B[rq];W[sq];B[rp];W[rn];B[rm];W[bk];B[al];W[pl];
B[pm];W[qk];B[rk];W[jo];B[jn];W[jp];B[dg];W[cg];B[cs];W[gr];B[es];W[mm];B[ml];
W[ho];B[in];W[go];B[fp];W[dn];B[bo];W[sg];B[si];W[kp];B[ol];W[ik];B[sn];W[qs];
B[li];W[jk];B[ph];W[qg];B[kk];W[fs];B[ds];W[ee];B[ig];W[ei];B[eh];W[sc];B[dk];
W[cj];B[sp];W[ss];B[ln];W[nn];B[qb];W[nd];B[nc];W[];B[])
