(;FF[4]BR[19k]CP[online-go.com]DT[2016-05-20]GM[1]KM[6.5]PB[guided]
PC[OGS: http://online-go.com/game/5307233]PW[Medve]RE[B+R]RU[japanese]SZ[19]
WR[14k];B[pp];W[cd];B[pd];W[dp];B[pj];W[ec];B[fq];W[eq];B[fp];W[jp];B[do];W[co]
;B[dn];W[mp];B[cp];W[cq];B[bp];W[bq];B[ep];W[dq];B[bo];W[fr];B[gr];W[es];B[hq];
W[jr];B[pn];W[dj];B[jd];W[hd];B[ee];W[oq];B[pq];W[dg];B[fc];W[fd];B[eb];W[fb];
B[ed];W[gc];B[dc];W[fc];B[ce];W[cc];B[dd];W[db];B[cb];W[ea];B[bc];W[cl];B[cm];
W[dl];B[cg];W[ch];B[bg];W[bh];B[ah];W[ai];B[ag];W[bj];B[bl];W[bk];B[al];W[ak];
B[bn];W[gg];B[md];W[jj];B[pg];W[qc];B[pc];W[qd];B[qe];W[re];B[rf];W[qf];B[pe];
W[rg];B[qg];W[sf];B[pf];W[rf];B[qb];W[rc];B[rb];W[sd];B[rh])
