(;FF[4]BR[8k]CP[online-go.com]DT[2016-04-18]GM[1]KM[6.5]PB[Lao Tzu]
PC[OGS: http://online-go.com/game/4941885]PW[epiphi]RE[B+R]RU[japanese]SZ[19]
WR[6k];B[pp];W[dc];B[cp];W[eq];B[gq];W[do];B[co];W[dn];B[cm];W[dm];B[cl];W[dl];
B[ck];W[dk];B[qd];W[od];B[pf];W[pe];B[qe];W[of];B[oc];W[pg];B[qf];W[oh];B[nd];
W[ng];B[de];W[dh];B[cc];W[dd];B[cd];W[cb];B[cf];W[ee];B[ef];W[fe];B[jd];W[ic];
B[id];W[hd];B[jc];W[ib];B[jb];W[he];B[jp];W[pn];B[np];W[lp];B[mo];W[lo];B[mn];
W[jo];B[ip];W[io];B[er];W[fq];B[fr];W[hp];B[hq];W[gp];B[jr];W[kk];B[pl];W[qo];
B[qp];W[om];B[ol];W[nm];B[mk];W[ml];B[ll];W[lk];B[mm];W[nl];B[nk];W[lm];B[kl];
W[jl];B[km];W[ln];B[jm];W[im];B[mh];W[ok];B[jk];W[mj];B[nj];W[ni];B[il];W[oj];
B[qh];W[jj];B[ij];W[hk];B[ik];W[ii];B[hi];W[hj];B[ji];W[ih];B[in];W[hm];B[kj];
W[kg];B[hl];W[fk];B[jh];W[jg];B[lj];W[mk];B[hn];W[gm];B[gh];W[if];B[gl];W[ej];
B[gn];W[fm];B[jn];W[mp];B[no];W[nq];B[oq];W[mr];B[ho];W[or];B[pr];W[oo];B[po];
W[on];B[op];W[qr];B[os];W[nr];B[qn];W[qq];B[pq];W[qs];B[ps];W[rq];B[rp];W[qm];
B[rn];W[rm];B[gj];W[sn];B[ro];W[ns];B[kr];W[nn];B[sr];W[sp];B[sq];W[bb];B[bh];
W[bi];B[ch];W[ci];B[dg];W[eh];B[eg];W[be];B[ce];W[bg];B[cg];W[bf];B[ah];W[bd];
B[gg];W[gk];B[fn];W[fl];B[cj];W[ai];B[dj];W[di];B[fi];W[ei];B[hh];W[ig];B[en];
W[ff];B[fg];W[fh];B[em];W[el];B[dp];W[fj];B[gi];W[bc];B[eo];W[gf];B[ne];W[cn];
B[bn];W[al];B[am];W[ak];B[bj];W[aj];B[qj];W[qg];B[rg];W[oe];B[ia];W[hb];B[ha];
W[ga];B[ja];W[gb];B[qk];W[sm];B[so];W[ql];B[pk];W[pm];B[mg];W[ph];B[qi];W[pc];
B[pd];W[nc];B[ob];W[mc];B[pb];W[lc];B[ke];W[le];B[lf];W[kd];B[je];W[kf];B[me];
W[md];B[ld];W[lr];B[ls];W[le];B[kc];W[ld];B[mf];W[lb];B[nb];W[ka];B[kb])
