(;FF[4]BR[14k]CP[online-go.com]DT[2016-06-26]GM[1]KM[6.5]PB[atechnik]
PC[OGS: http://online-go.com/game/5657446]PW[Deimorz]RE[W+34.5]RU[japanese]
SZ[19]WR[15k];B[pd];W[pq];B[dc];W[cq];B[po];W[qo];B[qn];W[ro];B[pn];W[np];B[qj]
;W[ce];B[cd];W[de];B[fc];W[di];B[fp];W[dn];B[jq];W[kp];B[jp];W[ko];B[jo];W[jn];
B[eq];W[go];B[gp];W[ho];B[hp];W[nc];B[pf];W[pb];B[qc];W[kc];B[ne];W[le];B[cj];
W[ci];B[bi];W[bh];B[bj];W[ge];B[cm];W[cn];B[bn];W[bo];B[bm];W[eo];B[dr];W[cr];
B[nn];W[lm];B[nl];W[mg];B[oh];W[mj];B[oj];W[hc];B[dm];W[em];B[dj];W[ei];B[ej];
W[fi];B[el];W[fm];B[fl];W[gl];B[fj];W[gj];B[ao];W[ap];B[an];W[cp];B[qb];W[kr];
B[jr];W[mn];B[no];W[mo];B[pp];W[qp];B[pc];W[ob];B[bd];W[be];B[ed];W[ee];B[dd];
W[gb];B[fb];W[ml];B[nk];W[mk];B[ni];W[mi];B[gc];W[hb];B[op];W[oq];B[md];W[lc];
B[mc];W[mb];B[ld];W[kd];B[me];W[lf];B[rn];W[qq];B[ad];W[og];B[pg];W[of];B[oe];
W[nh];B[oi];W[gd];B[kq];W[lq];B[lr];W[mr];B[ks];W[mq];B[io];W[in];B[ae];W[bf];
B[af];W[ag];B[nf];W[ng];B[sn];W[dq];B[er];W[ep];B[gr];W[fa];B[ea];W[ga];B[db];
W[oc];B[od];W[ms];B[ls];W[qa];B[ra];W[pa];B[sb];W[ds];B[es];W[cs];B[so];W[sp];
B[fo];W[fn];B[fd];W[fe];B[ai];W[gk];B[fk];W[mm];B[nm];W[ch];B[ah];W[bg];B[nj];
W[mf];B[];W[])
