(;FF[4]BR[18k]CP[online-go.com]DT[2016-05-31]GM[1]KM[6.5]PB[apipoulai]
PC[OGS: http://online-go.com/game/5408583]PW[gomad361]RE[W+R]RU[japanese]SZ[19]
WR[2d];B[pd];W[dd];B[pq];W[dp];B[qk];W[nc];B[oc];W[nd];B[pf];W[jd];B[cl];W[cn];
B[ci];W[cg];B[bh];W[jq];B[el];W[po];B[qp];W[oq];B[op];W[pp];B[qq];W[nq];B[no];
W[qo];B[ro];W[rn];B[so];W[qm];B[lo];W[mp];B[mo];W[om];B[ll];W[pk];B[pl];W[ql];
B[pj];W[ok];B[rk];W[oj];B[pi];W[kp];B[ko];W[jo];B[jn];W[io];B[in];W[hn];B[il];
W[hl];B[ik];W[hk];B[ho];W[gn];B[hp];W[iq];B[bm];W[fp];B[bn];W[bo];B[co];W[cp];
B[bp];W[ao];B[cm];W[dn];B[eh];W[fd];B[ng];W[ij];B[jj];W[ji];B[kj];W[ki];B[lj];
W[hi];B[gj];W[hj];B[gi];W[rr];B[or];W[nr];B[os];W[sn];B[rp];W[ns];B[pr];W[sq];
B[qs];W[rs];B[rq];W[sr];B[qr];W[rl];B[rj];W[bg];B[ch];W[eg];B[fh];W[fg];B[hh];
W[gg];B[gh];W[ih];B[hg];W[hf];B[ig];W[jg];B[if];W[he];B[ie];W[id];B[nl];W[ol];
B[nm];W[ob];B[pb];W[nb];B[dg];W[df];B[dh];W[cf];B[kf];W[ld];B[ke];W[kd];B[mh];
W[pa];B[qb];W[qa];B[ra];W[oa];B[rc];W[cc])
