(;FF[4]BR[4d]CP[online-go.com]DT[2016-07-17]GM[1]KM[6.5]PB[dima.kirakosyan]
PC[OGS: http://online-go.com/game/5846339]PW[lagavulin]RE[W+R]RU[japanese]
SZ[19]WR[1d];B[pc];W[qp];B[dq];W[dd];B[oq];W[po];B[lp];W[do];B[eo];W[en];B[fo];
W[dp];B[eq];W[cq];B[dn];W[cn];B[dm];W[cm];B[cr];W[dl];B[em];W[fl];B[fm];W[el];
B[cp];W[gm];B[fn];W[co];B[bq];W[pe];B[nd];W[qc];B[qb];W[qd];B[ob];W[qi];B[cf];
W[ch];B[cd];W[cc];B[bc];W[dc];B[be];W[de];B[df];W[bg];B[bf];W[hc];B[ff];W[eh];
B[hf];W[ge];B[gf];W[kc];B[pj];W[qj];B[pk];W[oh];B[qk];W[no];B[mp];W[pq];B[op];
W[oo];B[io];W[nj];B[nk];W[mk];B[mj];W[ni];B[ml];W[lk];B[nl];W[qm];B[ll];W[kk];
B[kl];W[jk];B[kf];W[jl];B[jn];W[jm];B[kn];W[pr];B[or];W[os];B[ns];W[ps];B[mr];
W[gh];B[ih];W[kh];B[hh];W[mb];B[oe];W[of];B[pd];W[qf];B[me];W[jd];B[gi];W[fi];
B[cg];W[bh];B[gj];W[fj];B[bo];W[bn];B[an];W[am];B[ao];W[bl];B[bb];W[cb];B[rl];
W[rm];B[pi];W[ph];B[rj];W[ri];B[si];W[sh];B[sj];W[rh];B[sm];W[sn];B[sl];W[ro];
B[mc];W[fe];B[kg];W[lh];B[lb];W[kb];B[nb];W[hn];B[ho];W[hi];B[ie];W[ii];B[ji];
W[ij];B[jh];W[rb];B[ra];W[rc];B[ka];W[ja];B[la];W[ib];B[im];W[hm];B[in];W[il];
B[gg];W[fh];B[id];W[ic];B[mg];W[nf];B[mf];W[je];B[jf];W[km];B[lm];W[mo];B[lo];
W[mn];B[ln];W[np];B[nq];W[ce];B[bd];W[ba];B[mh];W[mi];B[ng];W[og];B[hd];W[gd];
B[ee];W[ed];B[ef];W[ne];B[od];W[ep];B[fp];W[om];B[pl];W[pm];B[ke];W[kd];B[ld];
W[he];B[if];W[gc])
