(;FF[4]BR[7k]CP[online-go.com]DT[2016-06-20]GM[1]KM[6.5]PB[Umsturz]
PC[OGS: http://online-go.com/game/5603771]PW[dol]RE[W+R]RU[japanese]SZ[19]
WR[4k];B[pd];W[pp];B[cd];W[dp];B[cn];W[fq];B[dj];W[ed];B[gd];W[ef];B[cf];W[cc];
B[bc];W[dc];B[bb];W[id];B[gf];W[eh];B[ch];W[pj];B[nq];W[qf];B[nc];W[gc];B[hc];
W[hd];B[fc];W[ge];B[gb];W[fd];B[ec];W[dd];B[ce];W[gc];B[hb];W[jb];B[eb];W[db];
B[fa];W[oq];B[np];W[qn];B[jq];W[on];B[bp];W[cq];B[en];W[go];B[rd];W[mn];B[qh];
W[of];B[oh];W[qe];B[qd];W[ni];B[nh];W[mf];B[rj];W[qi];B[ri];W[ph];B[pg];W[pi];
B[qg];W[og];B[pf];W[oe];B[pe];W[mh];B[ql];W[pl];B[qm];W[pm];B[fj];W[dl];B[fl];
W[ek];B[ej];W[fk];B[gk];W[dn];B[dm];W[em];B[do];W[fm];B[dk];W[el];B[cl];W[gl];
B[gn];W[fn];B[fo];W[fp];B[eo];W[hn];B[gh];W[hk];B[gj];W[lr];B[mr];W[lp];B[kr];
W[lq];B[ls];W[or];B[hq];W[ir];B[hr];W[gr];B[is];W[ip];B[iq];W[gp];B[jp];W[lo];
B[io];W[hp];B[jm];W[kn];B[jn];W[jk];B[km];W[ko];B[bq];W[br];B[rn];W[qo];B[ro];
W[rp];B[ji];W[kk];B[jf];W[kd];B[le];W[md];B[ld];W[lc];B[mc];W[ha];B[ib];W[ia];
B[jc];W[kc];B[kb];W[lb];B[ja];W[ke];B[lf];W[kf];B[lg];W[kg];B[me];W[od];B[oc];
W[mg];B[lh];W[kh];B[li];W[nd];B[ki];W[ii];B[jh];W[hi];B[ih];W[gi];B[fh];W[fi];
B[ei];W[fg];B[hj];W[ij];B[hl];W[ik];B[il];W[jo];B[ml];W[hh];B[gg];W[hf])
