(;FF[4]BR[7k]CP[online-go.com]DT[2016-05-10]GM[1]KM[6.5]PB[Smigles]
PC[OGS: http://online-go.com/game/5202334]PW[Lomis]RE[W+R]RU[japanese]SZ[19]
WR[8k];B[pd];W[dc];B[pq];W[dp];B[qk];W[mp];B[po];W[jp];B[de];W[cg];B[cc];W[gc];
B[db];W[cd];B[ec];W[dd];B[ed];W[ce];B[ee];W[cb];B[eb];W[bc];B[jc];W[dj];B[fq];
W[eq];B[fp];W[cn];B[hp];W[iq];B[gm];W[qf];B[re];W[rf];B[qe];W[pf];B[nd];W[pj];
B[ri];W[pk];B[ql];W[qh];B[pl];W[ol];B[om];W[nl];B[og];W[of];B[ng];W[qi];B[rj];
W[nf];B[mg];W[ge];B[eg];W[gg];B[ei];W[ej];B[fi];W[gk];B[hi];W[jf];B[mf];W[jh];
B[nj];W[ok];B[ji];W[ki];B[jj];W[ih];B[hj];W[jl];B[kj];W[hl];B[em];W[dl];B[el];
W[dm];B[fj];W[fk];B[ek];W[dk];B[gl];W[hk];B[jn];W[lm];B[kl];W[km];B[jm];W[kk];
B[il];W[ll];B[ik];W[ko];B[hd];W[he];B[id];W[ff];B[hg];W[hh];B[ie];W[hf];B[gd];
W[if];B[nr];W[mq];B[lr];W[mr];B[ms];W[qq];B[qp];W[pr];B[oq];W[rq];B[rp];W[rs];
B[sr];W[or];B[nq];W[rr];B[ns];W[os];B[fr];W[er];B[mk];W[lk];B[ml];W[mm];B[lj];
W[nm];B[on];W[jk];B[io];W[jo];B[ch];W[dh];B[di];W[ci];B[bh];W[bi];B[dg];W[bg];
B[ah];W[ai];B[eh];W[oc];B[od];W[nc];B[pb];W[md];B[me];W[ld];B[ke];W[kb];B[jb];
W[ob];B[lb];W[mb];B[kc];W[pc];B[qb];W[qc];B[rc];W[qd];B[rd];W[pe];B[ne];W[rb];
B[ra];W[sb];B[sc];W[pa];B[qa];W[sa];B[qb];W[na];B[se];W[sf];B[ra];W[pb];B[es];
W[ds];B[fs];W[dr];B[sq];W[qs];B[im];W[kq];B[fe];W[fg];B[ag];W[af];B[dh];W[cf];
B[kh];W[en];B[fn];W[kg];B[lh];W[oi];B[ni];W[eo];B[lc];W[mc];B[kn];W[ln];B[lq];
W[lp];B[no];W[kr];B[ks];W[ls];B[lr];W[fo];B[go];W[np];B[op];W[nk])
