(;FF[4]BR[19k]CP[online-go.com]DT[2016-03-12]GM[1]KM[6.5]PB[GFOAT]
PC[OGS: http://online-go.com/game/4259791]PW[Le pumat]RE[W+R]RU[japanese]SZ[19]
WR[11k];B[qp];W[dd];B[qd];W[dq];B[oq];W[od];B[pe];W[qc];B[pk];W[qh];B[pi];W[og]
;B[ph];W[pg];B[qg];W[qf];B[rg];W[rf];B[sh];W[rh])
