(;FF[4]BR[6k]CP[online-go.com]DT[2016-05-11]GM[1]KM[6.5]PB[sneakypilot]
PC[OGS: http://online-go.com/game/5207694]PW[xfmvx]RE[B+R]RU[japanese]SZ[19]
WR[11k];B[dc];W[dp];B[qd];W[pp];B[cn];W[fq];B[dj];W[oc];B[mc];W[qc];B[rc];W[rd]
;B[re];W[pd];B[sd];W[pe];B[qb];W[pb];B[pc];W[nb];B[mb];W[me];B[jc];W[ce];B[cd];
W[de];B[fd];W[ci];B[di];W[ch];B[cj];W[dm];B[dn];W[em];B[en];W[cm];B[fm];W[ek];
B[fl];W[el];B[fk];W[ej];B[fo];W[ff];B[dh];W[cg];B[fh];W[fj];B[gj];W[bn];B[bo];
W[bl];B[cp];W[cq];B[bq];W[cr];B[gi];W[bj];B[gq];W[gn];B[go];W[gr];B[fr];W[er];
B[hr];W[fs];B[hq];W[hn];B[fn];W[ho];B[jp];W[gp];B[hp];W[fp];B[il];W[jn];B[mp];
W[lq];B[lp];W[kq];B[kp];W[nr];B[km];W[jm];B[jl];W[kn];B[ln];W[jq];B[io];W[iq];
B[ip];W[lm];B[kl];W[mn];B[lo];W[mm];B[no];W[pn];B[on];W[om];B[pm];W[nk];B[po];
W[qo];B[qn];W[pl];B[ql];W[ol];B[qp];W[qq];B[ro];W[pq];B[pj];W[ph];B[oi];W[qk];
B[qj];W[rl];B[qm];W[rj];B[pk];W[rk];B[qi];W[ri];B[qh];W[rh];B[qg];W[rg];B[qf];
W[rm];B[je];W[ni];B[nh];W[lj];B[lh];W[oh])
