(;FF[4]BR[6k]CP[online-go.com]DT[2016-04-26]GM[1]KM[6.5]PB[Copacetic]
PC[OGS: http://online-go.com/game/5032329]PW[Peyrauba]RE[W+R]RU[japanese]SZ[19]
WR[3k];B[pd];W[dc];B[dp];W[pp];B[de];W[ce];B[cf];W[cd];B[dg];W[fc];B[ck];W[fq];
B[cn];W[jp];B[qn];W[nq];B[pj];W[nc];B[qf];W[pb];B[le];W[qc];B[pc];W[ob];B[qd];
W[rc];B[lc];W[ne];B[nf];W[dr];B[rp];W[qq];B[ge];W[cq];B[dq];W[er];B[cp];W[bq];
B[ho];W[hq];B[jn];W[lo];B[lm];W[ej];B[gj];W[fo];B[fn];W[gk];B[fj];W[fk];B[ek];
W[el];B[dk];W[fm];B[gn];W[en];B[eo];W[ik];B[hk];W[hl];B[hj];W[gm];B[il];W[im];
B[jl];W[jm];B[km];W[in];B[io];W[jo];B[hm];W[kn];B[gl];W[qj];B[pk];W[pi];B[qh];
W[qi];B[ni];W[qk];B[pl];W[rm];B[ql];W[rl];B[on];W[oi];B[mh];W[pg];B[qg];W[og];
B[oe];W[kd];B[jd];W[ld];B[ke];W[md];B[ed];W[ec];B[jc];W[of];B[me];W[nd];B[rd];
W[re];B[sc];W[rh];B[qe];W[kc];B[jb];W[kb];B[gb];W[gc];B[hb];W[hd];B[he];W[an];
B[am];W[ao];B[ap];W[bp];B[bo];W[aq];B[bn];W[ap];B[bg];W[bm];B[al];W[bl];B[ak];
W[bk];B[aj];W[bi];B[ad];W[bc];B[da];W[db];B[ea];W[ca];B[cb];W[ep];B[dm];W[do];
B[em];W[cj];B[dj];W[di];B[ei];W[co];B[dn];W[eo];B[rn];W[oj];B[nk];W[nj];B[mj];
W[nh];B[mi];W[dh];B[ng];W[eh];B[fh];W[eg];B[ch];W[bh];B[ef];W[fg];B[gg];W[ff];
B[fe];W[gh];B[fi];W[gf];B[hg];W[hf];B[cg];W[ci];B[ie];W[ig];B[rg];W[ri];B[rb];
W[qb];B[sb];W[ra];B[oh];W[ph];B[sj];W[sk];B[pf];W[od])
