(;FF[4]BR[6k]CP[online-go.com]DT[2016-03-16]GM[1]KM[6.5]PB[redundant]
PC[OGS: http://online-go.com/game/4375371]PW[Senffarbe]RE[W+R]RU[japanese]
SZ[19]WR[4k];B[pd];W[dp];B[op];W[dc];B[cn];W[fq];B[de];W[cg];B[be];W[fd];B[ef];
W[ic];B[ci];W[mq];B[kq];W[qq];B[or];W[po];B[no];W[ql];B[lp];W[bp];B[ep];W[eq];
B[do];W[cp];B[qf];W[ck];B[dj];W[dk];B[fk];W[fl];B[gl];W[el];B[gk];W[fn];B[fo];
W[en];B[eo];W[go];B[gp];W[fp])
