(;FF[4]BR[2k]CP[online-go.com]DT[2016-01-21]GM[1]KM[6.5]PB[pstraus]
PC[OGS: http://online-go.com/game/3753519]PW[lxx]RE[W+R]RU[japanese]SZ[19]
WR[6k];B[pd];W[dp];B[pp];W[dc];B[pj];W[ci];B[jp];W[jd];B[de];W[ce];B[ed];W[ec];
B[gd];W[hc];B[cf];W[be];B[df];W[bf];B[dd];W[gc];B[cd];W[cc];B[bd];W[bg];B[hd];
W[fd];B[fe];W[fc];B[gf];W[jf];B[nd];W[lp];B[gq];W[eq];B[bo];W[cn];B[bn];W[cm];
B[cq];W[cp];B[bp];W[cr];B[br];W[dr];B[bs];W[hq];B[hp];W[iq];B[ip];W[jq];B[gp];
W[kp];B[nq];W[lm];B[lr];W[kr];B[lq];W[kq];B[im];W[jn];B[in];W[jo];B[gl];W[fm];
B[gm];W[bm];B[an];W[qn];B[qo];W[pn];B[qe];W[qq];B[ro];W[or];B[oq];W[pq];B[oo];
W[nr];B[mr];W[rr];B[on];W[om];B[nm];W[ok];B[ol];W[pl];B[pm];W[qm];B[pk];W[om];
B[nl];W[rk];B[ql];W[rl];B[pm];W[qi];B[qg];W[pi];B[oi];W[rh];B[ph];W[rg];B[rf];
W[qh];B[oh];W[lc];B[mb];W[lb];B[fl];W[dk];B[ll];W[kl];B[kk];W[mp];B[mq];W[np];
B[op];W[ml];B[lk];W[mm];B[mk];W[jl];B[dl];W[cl];B[el];W[fn];B[gn];W[ij];B[fj];
W[ih];B[fh];W[mf];B[lh];W[md];B[ne];W[nf];B[of];W[me];B[bb];W[bc];B[ac];W[nb];
B[ob];W[nc];B[oc];W[oa];B[pa];W[na];B[pb];W[ae];B[ad];W[cb];B[id];W[ic];B[jk];
W[ie];B[bk];W[ck];B[am];W[al];B[bl];W[bj];B[ak];W[aj];B[al];W[gr];B[fr];W[hs];
B[fq];W[hf];B[ge];W[gg];B[fg];W[gh];B[eo];W[en];B[fo];W[dn];B[gi];W[ei];B[fi];
W[hi];B[dh];W[di];B[ch];W[bh];B[lf];W[lg];B[kg];W[mg];B[kh];W[kf];B[ji];W[oe];
B[od];W[pg];B[qf];W[og];B[pf];W[ng];B[mh];W[nh];B[ni];W[rn];B[sn];W[sm];B[so];
W[sq];B[qj];W[rj];B[jm];W[km];B[mn];W[ln];B[mo];W[no];B[nn];W[lo];B[jg];W[ig];
B[eh];W[ba];B[ab];W[qk];B[pl];W[io];B[ho];W[jj];B[kj];W[hk];B[cg];W[sf];B[se];
W[sg];B[ej];W[dj];B[ns];W[ps];B[ks];W[js];B[ls];W[ep];B[fp])
