(;FF[4]BR[9k]CP[online-go.com]DT[2016-02-25]GM[1]KM[6.5]PB[V-Sapristi]
PC[OGS: http://online-go.com/game/4090760]PW[surema]RE[W+R]RU[japanese]SZ[19]
WR[8k];B[pd];W[dp];B[pq];W[dd];B[qk];W[jp];B[jc];W[qc];B[pc];W[qd];B[qe];W[re];
B[rf];W[qf];B[pe];W[rg];B[rd];W[sf];B[rc];W[qi];B[dj];W[qn];B[qo];W[po];B[qp];
W[pn];B[mp];W[cm];B[cf];W[be];B[fd];W[ee];B[bj];W[dg];B[el];W[ci];B[cj];W[cg];
B[eh];W[fj];B[dl];W[di];B[ej];W[ei];B[eo];W[ep];B[dn];W[fo];B[fn];W[go];B[fk];
W[fh];B[co];W[mn];B[gf];W[nb];B[ob];W[hd];B[gd];W[je];B[hc];W[ih];B[og];W[oi];
B[ok];W[pl];B[rm];W[rn];B[pk];W[lk];B[nj];W[mh];B[lj];W[mk];B[mj];W[jj];B[nh];
W[ni];B[lh];W[mi];B[li];W[lf];B[mg];W[lg];B[rj];W[ri];B[qm];W[pm];B[ji];W[kj];
B[jh];W[jg];B[ii];W[hk];B[hh];W[ig];B[gi];W[fi];B[hg];W[mf];B[oh];W[ng];B[of];
W[oj];B[nk];W[nm];B[kq];W[jq];B[kp];W[cp];B[bo];W[bp];B[do];W[jr];B[kr];W[eb];
B[fb];W[ec];B[md];W[kc];B[id];W[lc];B[nc];W[mb];B[gn];W[oq];B[op];W[pp];B[nq];
W[qq];B[pr];W[qr];B[or];W[hj];B[hi];W[ko];B[hn];W[ho];B[in];W[jl];B[ag];W[bg];
B[ah];W[bf];B[ff];W[ef];B[qs];W[rp];B[rr];W[rq];B[rs];W[jb];B[ib];W[jd];B[ic];
W[kb];B[ie];W[if];B[hf];W[kg];B[ne];W[fc];B[gb];W[rl];B[ql];W[sm];B[rk];W[sl];
B[gc];W[ed];B[ha];W[ph];B[lo];W[kn];B[ln];W[lm];B[io];W[ip];B[gl];W[ks];B[ls];
W[js];B[mr];W[mo];B[lp];W[ao];B[an];W[ap];B[bn])
