(;FF[4]BR[8k]CP[online-go.com]DT[2016-03-16]GM[1]KM[6.5]PB[Buridan]
PC[OGS: http://online-go.com/game/4372547]PW[komilatte]RE[W+R]RU[japanese]
SZ[19]WR[2k];B[pp];W[dd];B[pc];W[dq];B[qi];W[nq];B[qn];W[jp];B[co];W[cp];B[do];
W[ep];B[dk];W[pe];B[nd];W[qc];B[qb];W[qd];B[ob];W[ne];B[me];W[nf];B[jd];W[ch];
B[fc];W[hc];B[fe];W[he];B[db];W[cc];B[cf];W[df];B[de];W[ee];B[ef];W[ce];B[ed];
W[de];B[ff];W[lc];B[jb];W[le];B[md];W[kc];B[jc];W[ke];B[je];W[mf];B[rb];W[hg];
B[fh];W[ih];B[lq];W[no];B[lo];W[pr];B[qq];W[jq];B[lm];W[nm];B[jn];W[lr];B[mp];
W[np];B[pl];W[in];B[jm];W[im];B[io];W[jo];B[ho];W[il];B[fo];W[eo];B[dp];W[eq];
B[en];W[fn])
