(;FF[4]BR[23k]CP[online-go.com]DT[2016-03-26]GM[1]KM[6.5]PB[ajventi]
PC[OGS: http://online-go.com/game/4592011]PW[no good]RE[B+73.5]RU[japanese]
SZ[19]WR[23k];B[pd];W[qo];B[eq];W[dd];B[cf];W[oq];B[kp];W[mq];B[hp];W[gd];B[qg]
;W[be];B[bf];W[mn];B[dl];W[jn];B[gn];W[jq];B[ko];W[jl];B[kq];W[lm];B[jo];W[in];
B[ip];W[iq];B[gq];W[js];B[lr];W[lq];B[kr];W[mr];B[ls];W[ms];B[gr];W[lo];B[qn];
W[po];B[qk];W[gk];B[gl];W[pm];B[qm];W[ro];B[rl];W[op];B[kc];W[pq];B[hc];W[gb];
B[ic];W[gc];B[ci];W[ef];B[eh];W[fd];B[fk];W[dh];B[dg];W[df];B[ch];W[qp];B[ej];
W[gh];B[fm];W[gj];B[pl];W[eg];B[nf];W[fh];B[di];W[im];B[lg];W[ce];B[nk];W[hm];
B[ie];W[jp];B[io];W[af];B[bg];W[ho];B[go];W[pn];B[mi];W[ol];B[ok];W[rn];B[mk];
W[rm];B[ql];W[sm];B[lk];W[so];B[kk];W[jk];B[jj];W[jm];B[ii];W[sl];B[sk];W[rp];
B[hi];W[fi];B[hl];W[hd];B[id];W[rk];B[rj];W[pj];B[pk];W[si];B[sh];W[ri];B[oj];
W[oi];B[nh];W[rh];B[sg];W[rg];B[se];W[sf];B[qe];W[qf];B[oe];W[re];B[pf];W[sd];
B[rf];W[qd];B[qc];W[rd];B[qf];W[rc];B[qb];W[rb];B[ra];W[sb];B[oh];W[ph];B[qj];
W[sj];B[rk];W[qi];B[pg];W[sa];B[qa];W[pi];B[ni];W[jc];B[jd];W[jb];B[kb];W[kn];
B[ja];W[fj];B[ki];W[ek];B[fl];W[hh];B[hj];W[ih];B[jh];W[if];B[dk];W[ia];B[ib];
W[ha];B[kg];W[se];B[ik];W[ei];B[el];W[hq];B[fp];W[ml];B[jf];W[nc];B[pc];W[ob];
B[md];W[mc];B[lc];W[lb];B[mb];W[lp];B[ig];W[hg];B[hf];W[gf];B[cp];W[ks];B[nl];
W[nm];B[om];W[kl];B[on];W[no];B[hn];W[ec];B[mj];W[nn];B[qh];W[sg];B[gm];W[ll];
B[il];W[hk];B[hb];W[ma];B[la];W[na];B[ga];W[fa];B[ha];W[fb];B[ag];W[ae];B[he];
W[nb];B[lb];W[mp];B[ge];W[fe];B[nd];W[ff];B[dh];W[nq];B[];W[])
