(;FF[4]BR[7k]CP[online-go.com]DT[2016-03-14]GM[1]KM[6.5]PB[rpchuang]
PC[OGS: http://online-go.com/game/4321808]PW[kevinm92]RE[B+R]RU[japanese]SZ[19]
WR[6k];B[pd];W[dd];B[pp];W[cp];B[pj];W[nq];B[kp];W[qn];B[np];W[qq];B[qp];W[pq];
B[oq];W[or];B[op];W[mq];B[mp];W[qk];B[qj];W[rj];B[ri];W[rk];B[rp];W[lq];B[kq];
W[rq];B[lp];W[ns];B[eq];W[dn];B[fn];W[fo];B[eo];W[en];B[fp];W[fm];B[gn];W[dr];
B[gm];W[fl];B[gl];W[fk];B[dl];W[dj];B[do];W[co];B[dq];W[cq];B[cn];W[cm];B[bn];
W[bm];B[ol];W[on];B[pm];W[pn];B[mm];W[qm];B[pk];W[ro];B[sp];W[so];B[sm];W[om];
B[pl];W[mn];B[lm];W[ln];B[kn];W[nm];B[nl];W[ko];B[lo];W[km];B[jn];W[iq];B[go];
W[jo];B[io];W[jp];B[hq];W[ip];B[in];W[hr];B[jr];W[gq];B[hp];W[fr];B[ir];W[hj];
B[fc];W[fd];B[gd];W[fe];B[ec];W[dc];B[ge];W[kc];B[ed];W[ee];B[de];W[gf];B[ce];
W[bd];B[db];W[cb];B[eb];W[bb];B[dg];W[fg];B[ci];W[cj];B[bi];W[bf];B[be];W[ae];
B[bg];W[cf];B[df];W[cd];B[af];W[ag];B[cg];W[af];B[ah];W[ad];B[bj];W[bk];B[aj];
W[hc];B[gc];W[hb];B[id];W[ld];B[if];W[ji];B[hh];W[fi];B[ff];W[ef];B[eg];W[ff];
B[fh];W[gh];B[eh];W[hi];B[hf];W[gg];B[hg];W[gi];B[mc];W[lg];B[kh];W[jh];B[kg];
W[jg];B[kf];W[jf];B[je];W[ke];B[jb];W[jc];B[ic];W[ib];B[kb];W[lf];B[li];W[le];
B[lc];W[kd];B[gb];W[lh];B[ki];W[mi];B[mj];W[nd];B[nc];W[od];B[oc];W[pe];B[qc];
W[lj];B[kj];W[nj];B[mk];W[nh];B[of];W[ph];B[oi];W[oh];B[pf];W[rh];B[qh];W[si];
B[qi];W[qg];B[ha];W[rf];B[qe];W[pg];B[re];W[nf];B[qf];W[ng];B[md];W[ne];B[ni];
W[mh];B[sf];W[rg];B[sq];W[rr];B[sr];W[rs];B[ps];W[mr];B[ls];W[ms];B[pr];W[ks];
B[kr];W[lr];B[ss];W[os];B[hs])
