(;FF[4]BR[13k]CP[online-go.com]DT[2016-04-01]GM[1]KM[6.5]PB[kabakabon]
PC[OGS: http://online-go.com/game/4702460]PW[Sexy Toaster]RE[B+R]RU[japanese]
SZ[19]WR[13k];B[qd];W[dp];B[ce];W[pp];B[dc];W[od];B[oc];W[nc];B[pc];W[nd];B[qg]
;W[jc];B[nb];W[mb];B[je];W[gc];B[jq];W[ld];B[qn];W[nq];B[fq];W[ql];B[pj];W[pm];
B[po];W[oo];B[qp];W[cn];B[mp];W[pq];B[pn];W[qq];B[ol];W[rp];B[on];W[no];B[pl];
W[dj];B[fm];W[cg];B[dg];W[dh];B[ge];W[fd];B[ic];W[id];B[jd];W[kc];B[hd];W[ib];
B[fe];W[og];B[dm];W[cm];B[in];W[lg];B[hc];W[hb];B[fb];W[fc];B[ea];W[ec];B[eb];
W[gb];B[ee];W[ro];B[rn];W[eg];B[df];W[dl];B[em];W[fo];B[ep];W[eo];B[mo];W[kn];
B[nn];W[lm];B[ml];W[kp];B[ll];W[lq];B[np];W[mq];B[op];W[oq];B[ho];W[ip];B[jp];
W[jo];B[iq];W[hp];B[hq];W[gp];B[lo];W[ko];B[cq];W[dq];B[bo];W[cr];B[do];W[co];
B[fp];W[dn];B[er];W[gi];B[ch];W[ci];B[bh];W[eh];B[bi];W[bj];B[bf];W[jl];B[io];
W[go];B[il];W[jk];B[ik];W[ij];B[ek];W[gk];B[ck];W[dk];B[hj];W[hi];B[jj];W[ii];
B[jm];W[km])
