(;FF[4]BR[9k]CP[online-go.com]DT[2016-08-08]GM[1]KM[6.5]PB[Rataridicta]
PC[OGS: http://online-go.com/game/6035748]PW[jdc.amane]RE[B+R]RU[japanese]
SZ[19]WR[20k];B[pd];W[qp];B[dd];W[dq];B[do];W[jd];B[hd];W[mc];B[fp];W[cp];B[co]
;W[bo];B[bn];W[bp];B[ld];W[lc];B[md];W[kd];B[nc];W[nb];B[oc];W[ob];B[pb];W[oa];
B[pa];W[ma];B[eq];W[np];B[ci];W[ib];B[pj];W[kp];B[pm];W[hp];B[gn];W[kn];B[lj];
W[hi];B[gk];W[ji];B[lg];W[kg];B[lf];W[kf];B[kh];W[jh];B[ki];W[ij];B[nm];W[cc];
B[cd];W[dc];B[ec];W[bd];B[be];W[ad];B[ae];W[bb];B[db];W[cb];B[eb];W[da];B[ac];
W[bc];B[ab];W[aa];B[ca];W[ce];B[bf];W[cf];B[bg];W[ed];B[de];W[df];B[ee];W[fd];
B[fe];W[gc];B[fc];W[gd];B[gb];W[ge];B[eg];W[gf];B[fg];W[hb];B[ab])
