(;FF[4]BR[12k]CP[online-go.com]DT[2016-05-10]GM[1]KM[6.5]PB[DerScharlatan]
PC[OGS: http://online-go.com/game/5202703]PW[christopher.rehm.14]RE[B+R]
RU[japanese]SZ[19]WR[13k];B[pd];W[dd];B[pp];W[dq];B[do];W[cm];B[bo];W[nd];B[fp]
;W[bq];B[eq];W[er];B[fr];W[cr];B[dp];W[cp];B[co];W[pj];B[qf];W[pm];B[np];W[qq];
B[qp];W[pq];B[oq];W[rp];B[ro];W[rr];B[qo];W[or];B[nr];W[nn];B[sp];W[rq];B[pr];
W[sq];B[qr];W[qs];B[os];W[qh];B[oc];W[nc];B[es];W[dr];B[bp];W[ds];B[ar];W[aq];
B[bs];W[dj];B[fc];W[jc];B[fe];W[cg];B[cc];W[cd];B[dc];W[fg];B[le];W[ld];B[kd];
W[kc];B[ke];W[me];B[kg];W[mg];B[lg];W[hc];B[hd];W[id];B[he];W[ie];B[gc];W[ig];
B[mh];W[ng];B[nh];W[mj];B[og];W[mf];B[mn];W[mm];B[ln];W[en];B[lm];W[oh];B[li];
W[jj];B[oi];W[ph];B[lj];W[hn];B[hp];W[jp];B[fn];W[fm];B[em];W[el];B[gm];W[dm];
B[fl];W[em];B[gl];W[eo];B[fo];W[ep];B[fq];W[mq];B[mr];W[oo];B[no];W[po];B[on];
W[om];B[nm];W[pn];B[op];W[ml];B[ap];W[br];B[as];W[ir];B[kr];W[jm];B[ii];W[nl];
B[ll];W[lk];B[kk];W[mk];B[nn];W[ni];B[ji];W[ob];B[pb];W[od];B[pc];W[pf];B[pe];
W[of];B[lh];W[hj];B[ij];W[hk];B[gn];W[il];B[gi];W[gr];B[fs];W[hi];B[nj];W[oj];
B[mi];W[gj];B[im];W[hm];B[hl];W[ik];B[in];W[kl];B[ol];W[pl];B[nk];W[ok];B[gg];
W[gh];B[cq];W[gf];B[ef];W[ff];B[ed];W[de];B[bd];W[be];B[ee];W[eg];B[df];W[ce];
B[dg];W[bc];B[bb];W[ad];B[cf];W[bf];B[ch];W[ci];B[bg];W[af];B[bi];W[bj];B[di];
W[cj];B[ei];W[fi];B[jn];W[rm];B[rn];W[qm];B[ej];W[ek];B[fk];W[fj];B[cs];W[eh];
B[dh];W[ai];B[bh];W[jh];B[ki];W[ge];B[gd];W[rf];B[re];W[rg];B[al];W[am];B[bm];
W[bl];B[an];W[ak];B[ck];W[ah];B[ag];W[gb];B[hb];W[ic];B[ga])
