(;FF[4]BR[9k]CP[online-go.com]DT[2016-06-21]GM[1]KM[6.5]PB[hansdeutz]
PC[OGS: http://online-go.com/game/5617807]PW[bkhl]RE[W+30.5]RU[japanese]SZ[19]
WR[8k];B[cd];W[dp];B[pc];W[qp];B[cn];W[fp];B[bp];W[cq];B[dk];W[ed];B[ec];W[fc];
B[dc];W[df];B[fd];W[pe];B[nd];W[qh];B[gc];W[fe];B[gd];W[de];B[ge];W[ff];B[op];
W[oq];B[nq];W[pq];B[mp];W[pn];B[jq];W[kd];B[le];W[ie];B[ke];W[jd];B[ld];W[gf];
B[hf];W[if];B[he];W[hg];B[ig];W[jg];B[ih];W[jf];B[hh];W[lg];B[qe];W[pf];B[nf];
W[nh];B[og];W[ph];B[oh];W[oi];B[pg];W[qg];B[ni];W[ng];B[of];W[qf];B[qd];W[oj];
B[mi];W[kh];B[je];W[ic];B[gg];W[eh];B[gr];W[kj];B[mg];W[mf];B[mh];W[od];B[oc];
W[lf];B[mk];W[me];B[ne];W[md];B[lc];W[mc];B[mb];W[nb];B[lb];W[nc];B[ob];W[na];
B[lh];W[ji];B[kf];W[kg];B[id];W[hd];B[ib];W[jb];B[hc];W[hb];B[id];W[ia];B[kc];
W[hd];B[eq];W[dr];B[id];W[jc];B[gb];W[ha];B[ka];W[hd];B[dq];W[cp];B[id];W[ma];
B[ee];W[dd];B[ce];W[cf];B[fg];W[ef];B[eg];W[dg];B[dh];W[ch];B[di];W[ci];B[cj];
W[ep];B[er];W[cr];B[bo];W[rf];B[re];W[se];B[pd];W[sc];B[oe];W[rb];B[qb];W[hp];
B[gq];W[gp];B[hl];W[iq];B[ir];W[jp];B[hq];W[ip];B[kq];W[jm];B[jl];W[km];B[kl];
W[mm];B[ll];W[lm];B[im];W[kp];B[lp];W[lo];B[fn];W[nl];B[nk];W[ok];B[bj];W[bg];
B[bi];W[bh];B[ij];W[bq];B[ol];W[om];B[pl];W[qj];B[po];W[qo];B[on];W[nn];B[no];
W[oo];B[be];W[bf];B[bc];W[pp];B[rc];W[sd];B[ra];W[mo];B[np];W[nr];B[lq];W[mr];
B[lr];W[fq];B[fr];W[ls];B[ks];W[ms];B[ml];W[nm];B[jn];W[in];B[io];W[hn];B[go];
W[gn];B[fo];W[ho];B[fm];W[es];B[fs];W[ii];B[hi];W[jj];B[lj];W[ik];B[hj];W[il];
B[hm];W[jk];B[sb];W[hk];B[gk];W[eo];B[dn];W[en];B[em];W[ga];B[fa];W[kb];B[ds];
W[oa];B[pa];W[gm];B[gl];W[ap];B[ao];W[aq];B[kk];W[ki];B[nj];W[cs];B[js];W[co];
B[bn];W[ae];B[ad];W[af];B[ah];W[hd];B[rd];W[sf];B[id];W[ag];B[ai];W[hd];B[mq];
W[or];B[es];W[id];B[li];W[];B[])
