(;FF[4]BR[1d]CP[online-go.com]DT[2016-04-11]GM[1]KM[6.5]PB[Aloisius]
PC[OGS: http://online-go.com/game/4841470]PW[gor]RE[W+R]RU[japanese]SZ[19]
WR[1d];B[pd];W[dp];B[pp];W[dc];B[de];W[ce];B[cf];W[cd];B[dg];W[fc];B[dn];W[fp];
B[cp];W[cq];B[co];W[bq];B[fn];W[ch];B[bg];W[em];B[en];W[dj];B[fj];W[eh];B[ed];
W[fd];B[fe];W[ge];B[gf];W[ff];B[ee];W[ef];B[df];W[he];B[dh];W[ei];B[ec];W[eb];
B[fb];W[db];B[hf];W[ie];B[di];W[ej];B[eg];W[fg];B[fh];W[gg];B[fi];W[hh];B[fk];
W[el];B[gl];W[cm];B[be];W[bd];B[ad];W[ac];B[ae];W[bj];B[ci];W[cj];B[bi];W[bn];
B[if];W[jf];B[ig];W[ii];B[jg];W[ke];B[gb];W[hc];B[hb];W[ic];B[ib];W[bb];B[jc];
W[kb];B[gc];W[gd];B[id];W[je];B[hd];W[kc];B[jb];W[kh];B[kg];W[lg];B[lf];W[kf];
B[le];W[kd];B[lh];W[mg];B[mh];W[ng];B[nh];W[jh];B[og];W[nf];B[of];W[ne];B[dm];
W[dl];B[hn];W[go];B[gn];W[qn];B[bp];W[bl];B[hq];W[gq];B[hp];W[ho];B[io];W[gr];
B[eq];W[ep];B[dq];W[fq];B[qo];W[pn];B[np];W[qj];B[oe];W[nd];B[rn];W[rm];B[ro];
W[qg];B[ph];W[rf];B[re];W[qe];B[rd];W[in];B[im];W[jn];B[jo];W[ko];B[jq];W[kn];
B[lp];W[jl];B[il];W[jk];B[ik];W[hj];B[jj];W[kj];B[jm];W[km];B[kl];W[kk];B[ll];
W[mn];B[on];W[om];B[nn];W[nm];B[ki];W[li];B[lj];W[ji];B[lk];W[ki];B[mm];W[ml];
B[lm];W[mj];B[ln];W[mk];B[lo];W[qd];B[qc];W[pc];B[oc];W[pb];B[qb];W[ob];B[nc];
W[nb];B[mb];W[mc];B[od];W[lc];B[ok];W[rk];B[nl];W[ol];B[nk];W[ni];B[ql];W[qm];
B[rl];W[sl];B[ri];W[qi];B[qh];W[rh];B[sh];W[rg];B[qf];W[pf];B[pe];W[qf];B[sf];
W[rj];B[oh];W[mi])
