(;FF[4]BR[18k]CP[online-go.com]DT[2016-07-11]GM[1]KM[6.5]PB[eazzyg]
PC[OGS: http://online-go.com/game/5788734]PW[grummi]RE[B+7.5]RU[japanese]SZ[19]
WR[24k];B[pp];W[dp];B[pd];W[dd];B[fc];W[dc];B[ee];W[de];B[jd];W[qf];B[qd];W[qj]
;B[cn];W[co];B[dn];W[fq];B[dj];W[nq];B[qp];W[pq];B[ql];W[qq];B[df];W[cf];B[dg];
W[cg];B[ch];W[bh];B[bi];W[ag];B[di];W[jp];B[ph];W[qh];B[pi];W[qi];B[jn];W[nn];
B[nl];W[lm];B[kl];W[pk];B[qk];W[pj];B[pl];W[ol];B[om];W[ok];B[nj];W[mk];B[nk];
W[lj];B[ll];W[ml];B[mm];W[nm];B[mn];W[ln];B[mo];W[mp];B[no];W[on];B[pm];W[oo];
B[op];W[np];B[lo];W[ko];B[pn];W[lp];B[hl];W[ni];B[og];W[oj];B[po];W[pg];B[oh];
W[nh];B[oe];W[mf];B[pf];W[qg];B[mc];W[hn];B[fn];W[fo];B[go];W[gp];B[ho];W[gn];
B[io];W[fm];B[en];W[in];B[gm];W[ip];B[im];W[gl];B[hm];W[gk];B[el];W[hi];B[hg];
W[ji];B[kg];W[fh];B[gh];W[gi];B[fi];W[fj];B[ei];W[fl];B[ih];W[ii];B[lh];W[nf];
B[of];W[mh];B[le];W[lf];B[kf];W[jh];B[jg];W[kh];B[hh];W[lg];B[me];W[ne];B[nd];
W[ek];B[dk];W[em];B[dl];W[dm];B[cm];W[bo];B[bn];W[rk];B[rl];W[rj];B[ng];W[mg];
B[eo];W[ep];B[re];W[rf];B[db];W[cb];B[eb];W[bc];B[rq];W[rr];B[sp];W[ai];B[aj];
W[ah];B[bk];W[sl];B[bf];W[be];B[af];W[ae];B[bg];W[ce];B[hk];W[ik];B[ej];W[gj];
B[jl];W[km];B[sm];W[sk];B[rm];W[jm];B[il];W[jk];B[sf];W[sg];B[se];W[kk];B[ca];
W[ba];B[da];W[qe];B[rd];W[sr];B[sq];W[ro];B[rp];W[qn];B[rn];W[qo];B[ed];W[oq];
B[ao];W[ap];B[an];W[bp];B[hp];W[hq];B[fp];W[od];B[gq];W[gr];B[gp];W[er];B[oc];
W[pe];B[od];W[jo];B[in];W[hj];B[fk];W[bh];B[ah];W[ek];B[mi];W[oi];B[fk];W[ec];
B[fb];W[ek];B[hr];W[iq];B[fk];W[ef];B[fd];W[eg];B[dh];W[gg];B[eh];W[ek];B[fg];
W[fk];B[gf];W[lk];B[do];W[kn];B[so];W[];B[])
