(;FF[4]BR[11k]CP[online-go.com]DT[2016-07-04]GM[1]KM[6.5]PB[Krakatok]
PC[OGS: http://online-go.com/game/5726531]PW[Beaux]RE[W+R]RU[japanese]SZ[19]
WR[9k];B[dd];W[pp];B[dq];W[pd];B[ck];W[fc];B[df];W[db];B[cc];W[ic];B[nq];W[lq];
B[qq];W[pq];B[qp];W[po];B[pr];W[or];B[qr];W[oq];B[qn];W[fp];B[do];W[jp];B[qf];
W[qh];B[qc];W[pc];B[qd];W[pe];B[rf];W[og];B[qk];W[pm];B[qm];W[pl];B[ql];W[pk];
B[pn];W[on];B[pj];W[oj];B[pi];W[oi];B[ph];W[oh];B[pf];W[pg];B[qj];W[of];B[mo];
W[kn];B[fn];W[hn];B[go];W[ek];B[gl];W[di];B[dj];W[ej];B[nr];W[ns];B[ms];W[os];
B[oo];W[om];B[lr];W[mq];B[mr];W[np];B[kr];W[no];B[iq];W[ff];B[el];W[dk];B[dl];
W[il];B[gj];W[ij];B[hh];W[gi];B[hi];W[hj];B[fi];W[gh];B[fh];W[gg];B[cj];W[dg];
B[eg];W[ef];B[dh];W[cg];B[ci];W[gk];B[fj];W[fk];B[ei];W[hk];B[cf];W[cb];B[bb];
W[jq];B[jr];W[ip];B[hq];W[hp];B[gp];W[dc];B[bd];W[fg];B[eh];W[ed];B[jc];W[lc];
B[id];W[hc];B[ke];W[kc];B[kd];W[if];B[jh];W[kg];B[hf];W[ie];B[he];W[hd];B[je];
W[ig];B[jg];W[hg];B[ne];W[md];B[lh];W[lg];B[mg];W[mf];B[lf];W[kf];B[jf];W[le];
B[kh];W[lf];B[jb];W[kb];B[nf];W[nc];B[ld];W[me];B[nd];W[mc];B[jk];W[jj];B[kj];
W[mj];B[jl];W[lk];B[ik];W[hl];B[gm];W[gn];B[qg];W[qb];B[rb];W[pb];B[ho];W[io];
B[hm];W[in];B[im];W[jm];B[ji];W[kk];B[fl];W[kl];B[kq];W[kp];B[fq];W[qe];B[re];
W[de])
