(;FF[4]BR[14k]CP[online-go.com]DT[2016-05-12]GM[1]KM[6.5]PB[Paxequikz]
PC[OGS: http://online-go.com/game/5222248]PW[chriswks]RE[B+56.5]RU[japanese]
SZ[19]WR[13k];B[dd];W[pq];B[pd];W[dq];B[co];W[ci];B[cg];W[cl];B[eo];W[fq];B[po]
;W[qi];B[oq];W[qp];B[pp];W[rq];B[jd];W[md];B[nd];W[ne];B[od];W[qf];B[me];W[le];
B[mf];W[lc];B[iq];W[hr];B[ir];W[lf];B[lg];W[nf];B[mg];W[og];B[jf];W[kc];B[mc];
W[jc];B[ld];W[kd];B[ke];W[ic];B[kf];W[id];B[dj];W[cj];B[dk];W[ck];B[dl];W[cm];
B[dm];W[cn];B[di];W[bo];B[hq];W[gr];B[ep];W[cp];B[oi];W[pi];B[oh];W[ph];B[ng];
W[of];B[pj];W[oj];B[pk];W[nj];B[mi];W[nl];B[pl];W[om];B[np];W[pm];B[qm];W[qn];
B[qo];W[rm];B[ql];W[ro];B[pg];W[pf];B[pn];W[rn];B[pr];W[qq];B[gc];W[hb];B[gb];
W[mb];B[nb];W[lb];B[ia];W[ha];B[ka];W[ie];B[je];W[hf];B[ge];W[gg];B[ii];W[fh];
B[he];W[if];B[ef];W[dh];B[ch];W[ei];B[fj];W[gi];B[hh];W[gj];B[gh];W[hi];B[ih];
W[ff];B[eg];W[ej];B[fg];W[ek];B[gk];W[fk];B[hj];W[fi];B[gl];W[hk];B[ij];W[fl];
B[gm];W[fm];B[fn];W[en];B[dn];W[gn];B[hn];W[fo];B[qj];W[qg];B[ri];W[rh];B[hm];
W[fp];B[eh];W[do];B[mk];W[nk];B[cc];W[jb];B[ja];W[mn];B[nm];W[ol];B[lm];W[mj];
B[lj];W[ml];B[lk];W[mm];B[ll];W[mo];B[lp];W[mp];B[ga];W[rj];B[rk];W[si];B[mq];
W[rl];B[qd];W[re];B[rd];W[lo];B[kp];W[ko];B[jm];W[jo];B[jp];W[io];B[bi];W[bj];
B[bh];W[qr];B[ps];W[qs];B[or];W[on];B[no];W[oo];B[op];W[nn];B[ni];W[ho];B[hs];
W[lr];B[lq];W[mr];B[kr];W[ip];B[gp];W[go];B[gq];W[fr];B[se];W[sf];B[sd];W[gs];
B[is];W[hp];B[qe];W[rf];B[aj];W[ak];B[ai];W[im];B[in];W[jn];B[il];W[km];B[kl];
W[kn];B[dg];W[em];B[dh];W[nr];B[nq];W[sk];B[];W[])
