(;FF[4]BR[1k]CP[online-go.com]DT[2016-07-07]GM[1]KM[6.5]PB[せれな]
PC[OGS: http://online-go.com/game/5753281]PW[kbn]RE[B+R]RU[japanese]SZ[19]
WR[9k];B[pd];W[dp];B[pq];W[dc];B[pk];W[nc];B[pf];W[jd];B[jp];W[qo];B[qp];W[po];
B[np];W[rk];B[qk];W[rl];B[rj];W[ri];B[qj];W[sj];B[qh];W[ci];B[qm];W[ql];B[pl];
W[rm];B[pm];W[no];B[mp];W[mo];B[lo])
