(;FF[4]BR[13k]CP[online-go.com]DT[2016-04-24]GM[1]KM[6.5]PB[setenza]
PC[OGS: http://online-go.com/game/5013553]PW[beidao]RE[W+2.5]RU[japanese]SZ[19]
WR[12k];B[pd];W[pp];B[cd];W[cp];B[jc];W[ip];B[nq];W[lq];B[no];W[pn];B[pr];W[qq]
;B[lp];W[kq];B[kp];W[jp];B[ep];W[dn];B[cq];W[fq];B[dp];W[co];B[bq];W[dr];B[dq];
W[er];B[en];W[dl];B[go];W[bp];B[gl];W[di];B[dg];W[pk];B[qi];W[in];B[hn];W[jl];
B[km];W[jm];B[mq];W[kn];B[ln];W[ko];B[lo];W[qj];B[pi];W[gi];B[ek];W[dk];B[ei];
W[hk];B[oc];W[mk];B[nh];W[lm];B[mm];W[ll];B[lh];W[ki];B[kh];W[li];B[mi];W[mj];
B[lr];W[kr];B[ls];W[ks];B[nr];W[oq];B[op];W[oo];B[np];W[qr];B[pq];W[ps];B[or];
W[gg];B[gj];W[hj];B[gk];W[hi];B[fc];W[ge];B[eh];W[dj];B[ej];W[ig];B[le];W[je];
B[ch];W[ci];B[bh];W[bi];B[ri];W[rj];B[sj];W[sk];B[si];W[rk];B[em];W[dm];B[jd];
W[ah];B[ag];W[ai];B[bf];W[ef];B[ed];W[gc];B[gb];W[hc];B[hb];W[ee];B[de];W[fd];
B[ec];W[df];B[cf];W[nn];B[mn];W[nm];B[nj];W[nk];B[oj];W[ok];B[ke];W[jf];B[kf];
W[jh];B[kg];W[ic];B[id];W[he];B[ib];W[ie];B[hd];W[gd];B[cr];W[gp];B[fp];W[hp];
B[hl];W[il];B[hm];W[ho];B[fh];W[fi];B[fj];W[el];B[fl];W[dh];B[eg];W[fg];B[os];
W[qs];B[eq];W[fr];B[do];W[bn];B[gh];W[hh];B[ds];W[es];B[cs];W[pj];B[ml];W[nl];
B[ap];W[ao];B[aq];W[qc];B[qd];W[rd];B[re];W[sc];B[pb];W[qb];B[rb];W[ra];B[sb];
W[oi];B[ni];W[oh];B[og];W[ph];B[qh];W[qe];B[rf];W[pg];B[pf];W[pe];B[oe];W[pc];
B[qf];W[ob];B[nb];W[pa];B[nc];W[oa];B[na];W[qp];B[se];W[rc];B[im];W[jg];B[];W[]
)
