(;FF[4]BR[9k]CP[online-go.com]DT[2016-04-26]GM[1]KM[6.5]PB[yeejx]
PC[OGS: http://online-go.com/game/5040702]PW[lit]RE[W+23.5]RU[japanese]SZ[19]
WR[5k];B[dc];W[pp];B[ep];W[pc];B[pe];W[qe];B[qf];W[qd];B[pf];W[nc];B[qn];W[pk];
B[on];W[np];B[mn];W[qh];B[qj];W[pi];B[qk];W[nh];B[nf];W[mg];B[mf];W[ld];B[le];
W[kd];B[ke];W[jd];B[kg];W[pj];B[lj];W[kh];B[lh];W[lg];B[jg];W[li];B[ki];W[mh];
B[jh];W[mj];B[kj];W[lp];B[ql];W[ml];B[ll];W[lk];B[kk];W[mk];B[dj];W[cp];B[dn];
W[eq];B[fq];W[dq];B[fp];W[je];B[kf];W[de];B[gc];W[dh];B[bo];W[co];B[cn];W[bp];
B[jq];W[jp];B[kq];W[kp];B[iq];W[lq];B[rp];W[qq];B[fi];W[jm];B[ce];W[cf];B[cd];
W[bf];B[ef];W[df];B[bi];W[ec];B[eb];W[fb];B[fc];W[ed];B[db];W[ge];B[gb];W[fg];
B[ja];W[ho];B[hp];W[io];B[fn];W[fk];B[gj];W[gl];B[dl];W[ci];B[cj];W[bh];B[rf];
W[re];B[rq];W[rr];B[qp];W[pr];B[fr];W[er];B[la];W[mb];B[be];W[ik];B[ij];W[hk];
B[hj];W[lm];B[md];W[lb];B[kr];W[lr];B[gm];W[hm];B[gg];W[fh];B[gf];W[ff];B[fj];
W[gh];B[if];W[hh];B[he];W[ig];B[hf];W[ib];B[ia];W[ma];B[ri];W[jb];B[ha];W[bj];
B[bk];W[ai];B[bn];W[po];B[pn];W[qo];B[ro];W[sq];B[ap];W[aq];B[ao];W[br];B[oo];
W[op];B[rh];W[ak];B[bl];W[sp];B[sn];W[ek];B[di];W[fs];B[gs];W[es];B[kl];W[mm];
B[km];W[ln];B[kn];W[nn];B[no];W[mo];B[ol];W[om];B[pl];W[ok];B[so];W[sr];B[go];
W[fm];B[em];W[gn];B[jn];W[in];B[nl];W[nm];B[nk];W[nj];B[ka];W[ks];B[js];W[ls];
B[ir];W[fd];B[gd];W[fe];B[kb];W[kc];B[mc];W[nd];B[me];W[lc];B[pd];W[rc];B[od];
W[oc];B[ih];W[hg];B[qg];W[hb];B[ga];W[id];B[ph];W[hd];B[jf];W[hc];B[fa];W[qi];
B[oh];W[oi];B[ng];W[lh];B[jl];W[im];B[el];W[fl];B[dk];W[ae];B[ad];W[af];B[dd];
W[al];B[am];W[aj];B[ko];W[il];B[hi];W[jk];B[jj];W[pm];B[qm];W[do];B[eo];W[eh];
B[ne];W[sf];B[sg];W[se];B[];W[])
