(;FF[4]BR[9k]CP[online-go.com]DT[2016-07-11]GM[1]KM[6.5]PB[mikserc]
PC[OGS: http://online-go.com/game/5792504]PW[Play2Much]RE[B+20.5]RU[japanese]
SZ[19]WR[9k];B[pd];W[dp];B[pq];W[dd];B[qk];W[po];B[np];W[qq];B[qr];W[qp];B[rr];
W[qm];B[ok];W[om];B[jd];W[lq];B[mq];W[lp];B[nn];W[hq];B[nm];W[rl];B[rk];W[rq];
B[pp];W[ro];B[mr];W[dj];B[cf];W[ch];B[ef];W[fd];B[cd];W[de];B[ce];W[df];B[dc];
W[ec];B[db];W[eb];B[jj];W[qc];B[qd];W[pc];B[oc];W[ob];B[nc];W[nb];B[mc];W[rd];
B[re];W[rc];B[qf];W[jg];B[kf];W[kg];B[lg];W[jf];B[lf];W[ki];B[mi];W[kj];B[km];
W[jl];B[ip];W[iq];B[cq];W[cp];B[dq];W[eq];B[er];W[fq];B[fr];W[gr];B[bp];W[bo];
B[bq];W[co];B[in];W[gn];B[hm];W[gm];B[il];W[kk];B[ik];W[jm];B[jn];W[gk];B[hn];
W[kn];B[ko];W[ln];B[lo];W[jp];B[lm];W[hi];B[fe];W[dg];B[he];W[ie];B[id];W[hd];
B[gd];W[hc];B[gc];W[hb];B[gb];W[hf];B[ge];W[eg];B[ib];W[mb];B[lb];W[fs];B[ds];
W[bg];B[bf];W[af];B[ae];W[ag];B[bc];W[sk];B[sj];W[sl];B[rj];W[ap];B[aq];W[ao];
B[ql];W[rm];B[kr];W[lr];B[ls];W[jr];B[go];W[fo];B[gp];W[gq];B[hp];W[jo];B[mp];
W[kp];B[mn];W[js];B[ks];W[da];B[ca];W[ea];B[fa];W[cb];B[bd];W[cc];B[bb];W[ba];
B[io];W[jq];B[fp];W[ep];B[fn];W[eo];B[gl];W[fl];B[fm];W[el];B[ji];W[lh];B[mh];
W[ih];B[jh];W[kh];B[cg];W[bi];B[fg];W[fh];B[gg];W[gh];B[hk];W[hj];B[hg];W[ig];
B[em];W[dl];B[dm];W[cm];B[oo];W[pn];B[je];W[if];B[ol];W[mk];B[nk];W[mj];B[nj];
W[se];B[sf];W[sd];B[ma];W[pa];B[ld];W[na];B[la];W[sr];B[rs];W[dn];B[ml];W[ee];
B[ff];W[fc];B[ha];W[bs];B[cr];W[cs];B[br];W[as];B[ar];W[hh];B[ic];W[pl];B[pk];
W[pm];B[es];W[gs];B[im];W[ab];B[ac];W[ca];B[fb];W[aa];B[pr];W[sq];B[lj];W[lk];
B[li];W[kq];B[ms];W[jk];B[ij];W[];B[])
