(;FF[4]BR[6k]CP[online-go.com]DT[2016-05-02]GM[1]KM[6.5]PB[Arion]
PC[OGS: http://online-go.com/game/5113473]PW[nazar]RE[W+R]RU[japanese]SZ[19]
WR[5k];B[pp];W[dp];B[qd];W[dd];B[nc];W[qn];B[ql];W[nq];B[oq];W[np];B[pn];W[pm];
B[on];W[qm];B[no];W[qq];B[qo];W[pl];B[qk];W[pk];B[qj];W[ph];B[pi];W[rd];B[re];
W[lc];B[dj];W[cf];B[cn];W[fq];B[jp];W[mo];B[mn];W[lo];B[hq];W[oo];B[nn];W[ro];
B[qp];W[rp];B[op];W[ln];B[ml];W[oi];B[qh];W[jn];B[lq];W[cl];B[dl];W[dk];B[ck];
W[ek];B[bl];W[cj];B[bk];W[di];B[jc];W[hc];B[je];W[he];B[hg];W[ej];B[if];W[pd];
B[qc];W[pc];B[pe];W[nd];B[pb];W[od];B[ob];W[md];B[mf];W[jb];B[kb];W[kc];B[ib];
W[jd];B[ic];W[id];B[hb];W[gc];B[gb];W[fb];B[lb];W[gg];B[pj];W[or];B[pr];W[pq];
B[po];W[nr];B[mr];W[lm];B[nk];W[nf];B[ng];W[mg];B[ne];W[of];B[oe];W[me];B[lf];
W[nh];B[pf];W[og];B[pg];W[kh];B[oh];W[oj];B[ng];W[mi];B[nj];W[ni];B[kk];W[kq];
B[kp];W[lp];B[kr];W[nl];B[ol];W[nm];B[om];W[mm];B[ok];W[lk];B[mj];W[li];B[lj];
W[kj])
