(;FF[4]BR[24k]CP[online-go.com]DT[2016-03-26]GM[1]KM[6.5]PB[timothyd]
PC[OGS: http://online-go.com/game/4604851]PW[matslina]RE[W+R]RU[japanese]SZ[19]
WR[20k];B[pd];W[dp];B[dc];W[pp];B[jd];W[qf];B[nd];W[pi];B[di];W[qd];B[pc];W[qc]
;B[qb];W[rb];B[pb];W[jp];B[cn];W[fq];B[cp];W[cq];B[co];W[cg];B[dg];W[ch];B[dh];
W[cf];B[df];W[cd];B[cc];W[de];B[ee];W[pm];B[dd];W[ce];B[el];W[gn];B[gm];W[hm];
B[hl];W[im];B[il];W[jm];B[jl];W[mk];B[km];W[kn];B[ll];W[lm];B[kl];W[mm];B[ml];
W[nl];B[nk];W[ok];B[nj];W[om];B[mj];W[jb];B[ib];W[ic];B[jc];W[hb];B[kb];W[ia];
B[fb];W[gc];B[hd];W[id];B[ie];W[hc];B[gd];W[fc];B[ec];W[gb];B[ja];W[ka];B[la];
W[ja];B[lc];W[eb];B[db];W[fa];B[da];W[cj];B[ea];W[fd];B[fe];W[ed];B[bc];W[bd];
B[he];W[ad];B[ac];W[bb];B[ba];W[ab];B[fb];W[ga];B[cb];W[eb];B[aa];W[nh];B[mh];
W[mg];B[mi];W[ke];B[kf];W[je];B[jf];W[le];B[lg];W[mf];B[me];W[ld];B[kc];W[mc];
B[mb];W[kd])
