(;FF[4]BR[9k]CP[online-go.com]DT[2016-02-28]GM[1]KM[6.5]PB[aurelito]
PC[OGS: http://online-go.com/game/4119651]PW[bryan.cardwell]RE[W+R]RU[japanese]
SZ[19]WR[10k];B[qd];W[dp];B[pq];W[cd];B[ec];W[df];B[gd];W[jp];B[po];W[od];B[lc]
;W[dj];B[me];W[pj];B[pf];W[qm];B[qn];W[pm];B[qh];W[gq];B[cq];W[cp];B[bp];W[bo];
B[bq];W[cn];B[er];W[eq];B[dr];W[fq];B[lp];W[kn];B[ln];W[lm];B[mn];W[km];B[lj];
W[jj];B[jh];W[gf];B[ie];W[hi];B[ih];W[hh];B[kq];W[jq];B[kr];W[jr];B[cb];W[nl];
B[oi];W[ki];B[lh];W[li];B[mh];W[mi];B[nh];W[ri];B[rh];W[qi];B[pi];W[oj];B[bc];
W[bd];B[ee];W[ef];B[de];W[ce];B[rn];W[rm];B[oo];W[cc];B[bb];W[dc];B[eb];W[db];
B[da];W[fe];B[ed];W[fd];B[fc];W[kh];B[kg];W[ig];B[jg];W[if];B[je];W[ge];B[hd];
W[pn];B[qo];W[sh];B[rg];W[fr];B[cs];W[ni];B[oh];W[kp];B[lq];W[sg];B[sf];W[si];
B[re];W[cf];B[mm];W[ml];B[sm];W[sl];B[sn];W[rk];B[fs];W[es];B[ds];W[br];B[ar];
W[bs];B[ap];W[js];B[cj];W[ck];B[dk];W[cl];B[ej];W[di];B[ek];W[ei];B[hk];W[hj];
B[fm];W[gl];B[gk];W[hl];B[il];W[fl];B[dm];W[hn];B[io];W[in];B[im];W[hm];B[jo];
W[ko];B[jn];W[jm];B[jk];W[ij];B[kk];W[kj];B[ll];W[ik];B[hq];W[ho];B[ip];W[iq])
