(;FF[4]BR[5k]CP[online-go.com]DT[2016-03-04]GM[1]KM[6.5]PB[Ignil]
PC[OGS: http://online-go.com/game/4161485]PW[csaba]RE[B+R]RU[japanese]SZ[19]
WR[8k];B[pd];W[dp];B[qp];W[dc];B[oq];W[pj];B[qh];W[qm];B[de];W[ce];B[cf];W[cd];
B[dg];W[fc];B[dj];W[jq];B[jd];W[qc];B[pc];W[qd];B[qe];W[re];B[qf];W[rf];B[qb];
W[rb];B[pb];W[ra];B[oi];W[lc];B[ld];W[kc];B[kd];W[jc];B[mc];W[id];B[ie];W[ic];
B[oj];W[pk];B[ok];W[om];B[cn];W[fq];B[lq];W[bp];B[en];W[fj];B[hj];W[fg];B[hg];
W[jj];B[ik];W[kk];B[ll];W[kl];B[kn];W[jm];B[jn];W[im];B[in];W[hm];B[go];W[hi];
B[gj];W[gi];B[fi];W[fk];B[ii];W[gh];B[gl];W[hn];B[ho];W[lm];B[km];W[ij];B[gk];
W[mk];B[lk];W[lj];B[ml];W[nl];B[mm];W[mn];B[ln];W[nm];B[lm];W[ki];B[ih];W[nk];
B[mj];W[mi];B[nj];W[lg];B[kf];W[kg];B[jg];W[pg];B[ph];W[ng];B[of];W[qg];B[og];
W[me];B[lf];W[mf];B[md];W[nh];B[oh];W[fn];B[fm];W[gn];B[fo];W[ei];B[kh];W[em];
B[el];W[dm];B[dl];W[fl];B[gm];W[hk];B[hl];W[jl];B[cm];W[di];B[ci];W[fe];B[rl];
W[ch];B[rn];W[cj];B[bi];W[bh];B[bj];W[ck];B[bk];W[dk];B[ek];W[ej];B[cl];W[dh];
B[mo];W[rm];B[sm];W[rk];B[ql];W[pl];B[qn];W[pm];B[rg];W[lh];B[jh];W[eo];B[dn];
W[io];B[ip];W[jo];B[jp];W[ko];B[lo];W[kp];B[kq];W[hp];B[lp])
