(;FF[4]BR[19k]CP[online-go.com]DT[2016-06-16]GM[1]KM[6.5]PB[oldwizard1]
PC[OGS: http://online-go.com/game/5565716]PW[pfrobbins]RE[W+R]RU[japanese]
SZ[19]WR[16k];B[pd];W[qp];B[dd];W[cp];B[qn];W[op];B[pk];W[cf];B[fc];W[cd];B[cc]
;W[de];B[bd];W[ce];B[ed];W[be];B[ac];W[cj];B[jd];W[qf];B[qe];W[qi];B[pf];W[qg];
B[pg];W[ph];B[rf];W[rg];B[se];W[qk];B[ql];W[rk];B[eq];W[ep];B[fp];W[eo];B[po];
W[pp];B[no];W[mq];B[lp];W[lq];B[kq];W[el];B[oh];W[pj];B[ok];W[lf];B[md];W[ng];
B[oi];W[pi];B[oj];W[ri];B[pb];W[ld];B[lc];W[me];B[kd];W[le];B[nd];W[kh];B[jg];
W[jh];B[hq];W[ig];B[hg];W[jf];B[if];W[kg];B[ih];W[ii];B[jg];W[je];B[id];W[ie];
B[he];W[ig];B[hf];W[hh];B[fg];W[dh];B[fi];W[il];B[hk];W[ik];B[gh];W[hj];B[gj];
W[hi];B[gi];W[hl];B[gl];W[mi];B[lk];W[lj];B[mk];W[kk];B[kl];W[jk];B[mj];W[li];
B[og];W[dq];B[er];W[dr];B[fo];W[in];B[gn];W[ip];B[iq];W[km];B[lm];W[kn];B[ln];
W[ro];B[dk];W[ej];B[gk];W[ek];B[ee];W[dg];B[ko];W[jo];B[jp];W[hp];B[gp];W[oo];
B[np];W[nq];B[on];W[qo];B[pn];W[kr];B[ho];W[io];B[jm];W[hn];B[go];W[jn];B[jl];
W[jr];B[jq];W[fm];B[gm];W[ef];B[ff];W[ne];B[oe];W[es];B[ll];W[gs];B[ir];W[fr];
B[fq];W[is];B[gr];W[hs];B[rl];W[sl];B[sm];W[sk];B[rn];W[ei];B[hm];W[im];B[ja];
W[eg];B[nh];W[mh];B[hr];W[fs];B[mp];W[qr];B[en];W[dn];B[em];W[dm];B[fn];W[fl];
B[ae];W[af];B[ad];W[sg];B[sf];W[so];B[sn];W[eh];B[ke];W[kf];B[ni];W[nf];B[of];
W[dl];B[ck];W[cl];B[bk];W[bj];B[bl];W[bm];B[am];W[bn])
