(;FF[4]BR[21k]CP[online-go.com]DT[2016-03-31]GM[1]KM[6.5]PB[Sebbu]
PC[OGS: http://online-go.com/game/4673399]PW[sbrezee]RE[W+R]RU[japanese]SZ[19]
WR[20k];B[cd];W[pp];B[pc];W[dp];B[dn];W[jq];B[cl];W[pj];B[gq];W[fq];B[go];W[cn]
;B[cm];W[co];B[eo];W[ep];B[fp];W[do];B[en];W[er];B[gr];W[mp];B[jd];W[ec];B[dc];
W[gd];B[hc];W[gc];B[hb];W[hd];B[id];W[gb];B[jo];W[lc];B[mc];W[kb];B[jb];W[ee];
B[df];W[de];B[ce];W[ha];B[ja];W[db];B[cb];W[dd];B[cc];W[ea];B[di];W[qm];B[pg];
W[hf];B[if];W[ie];B[je];W[ig];B[he];W[ge];B[hg];W[ie];B[jf];W[gg];B[hh];W[gh];
B[he];W[gf];B[hi];W[mb];B[nc];W[ld];B[me];W[nb];B[ob];W[ka];B[kd];W[le];B[mf];
W[lf];B[lg];W[kg];B[lh];W[kc];B[jg];W[jc];B[ic];W[ib];B[kh];W[qe];B[qg];W[rf];
B[rg];W[qc];B[qb];W[qd];B[qf];W[rd];B[sf];W[se];B[re];W[md];B[nd];W[rf];B[ia];
W[ib];B[re];W[cf];B[sd];W[bf];B[be];W[ac];B[dg];W[bh];B[bi];W[ae];B[ba];W[ab];
B[aa];W[bb];B[ca];W[da];B[lo];W[mo];B[mn];W[ln];B[kn];W[lm];B[mm];W[ml];B[ll];
W[km];B[kl];W[jm];B[jn];W[im];B[in];W[nl];B[mk];W[nn];B[nk];W[ok];B[oi];W[hl];
B[hk];W[lk];B[kk];W[lj];B[mi];W[kj];B[jk];W[jj];B[ij];W[oj];B[nj];W[il];B[ik];
W[qq];B[lp];W[lq];B[gi];W[hn];B[ho];W[jp];B[ko];W[hp];B[gp];W[ip];B[io];W[gn];
B[fn];W[el];B[fl];W[kr];B[pi];W[qj];B[qi];W[fk];B[gl];W[nm];B[gk];W[cq];B[bn];
W[bo];B[bm];W[eh];B[dh];W[fi];B[fj];W[ej];B[ek];W[ei];B[dj];W[dk];B[eg];W[fk])
