(;FF[4]BR[21k]CP[online-go.com]DT[2016-05-11]GM[1]KM[6.5]PB[Jurupari]
PC[OGS: http://online-go.com/game/5213752]PW[john_nld]RE[W+R]RU[japanese]SZ[19]
WR[16k];B[dp];W[pd];B[dd];W[qp];B[op];W[qn];B[qq];W[fq];B[hq];W[fo];B[dn];W[hp]
;B[ip];W[ho];B[iq];W[fc];B[cf];W[ic];B[qj];W[pl];B[ok];W[ol];B[pk];W[ch];B[cj];
W[eh];B[ef];W[cd];B[dc];W[cc];B[ce];W[db];B[fd];W[ec];B[ed];W[fg];B[gc];W[gd];
B[ge];W[hd];B[he];W[ie];B[ff];W[dg];B[df];W[ee];B[gg];W[di];B[hf];W[hg];B[fh];
W[eg];B[hh];W[bi];B[ig];W[af];B[cg];W[bg];B[ei];W[dh];B[fi];W[dj];B[ck];W[bj];
B[bk];W[cm];B[dl];W[dm];B[em];W[en];B[eo];W[fn];B[cn];W[el];B[fm];W[bm];B[ek];
W[fl];B[ej];W[dk];B[gm];W[cl];B[gl];W[ep];B[do];W[bo];B[eq];W[dq];B[fp];W[er];
B[cq];W[ep];B[fk];W[gp];B[dr];W[cp];B[eq];W[fr];B[fp];W[bn];B[bp];W[ep];B[co];
W[dq];B[cr];W[cp])
