(;FF[4]BR[8k]CP[online-go.com]DT[2016-04-19]GM[1]KM[6.5]PB[NineTheCat]
PC[OGS: http://online-go.com/game/4950655]PW[Opera-]RE[B+R]RU[japanese]SZ[19]
WR[11k];B[pd];W[pp];B[cq];W[dd];B[cf];W[dj];B[fc];W[id];B[cc];W[cd];B[dc];W[ee]
;B[bd];W[be];B[bc];W[ce];B[nq];W[jp];B[qn];W[pj];B[qq];W[qp];B[pq];W[op];B[rp];
W[ro];B[rq];W[qo];B[io];W[ip];B[ho];W[hp];B[go];W[fp];B[eq];W[fq];B[en];W[dm];
B[dn];W[cm];B[em];W[el];B[fl];W[fk];B[ek];W[dl];B[gl];W[fj];B[qh];W[qi];B[ph];
W[nc];B[ld];W[ne];B[of];W[nf];B[lf];W[mh];B[je];W[ie];B[jf];W[qc];B[pc];W[qd];
B[qe];W[re];B[rf];W[qf];B[pe];W[rg];B[rd];W[sf];B[rc];W[rh];B[og];W[ng];B[if];
W[hf];B[he];W[gd];B[gf];W[hg];B[ge];W[fd];B[hd];W[hc];B[ic];W[jd];B[jc];W[fg];
B[gc];W[hb];B[ec];W[co];B[cn];W[bn];B[gg];W[ih];B[ff];W[ef];B[eg];W[dg];B[eh];
W[fh];B[gh];W[fi];B[dh];W[ch];B[cg];W[di];B[df];W[ei];B[dg];W[ci];B[bf];W[ae];
B[ed];W[af];B[fe];W[de];B[hi];W[kh];B[oj];W[ok];B[nj];W[lj];B[nk];W[ol];B[nl];
W[om];B[nm];W[jj];B[on];W[pn];B[pm];W[qm];B[po];W[pl];B[ql];W[pn];B[bg];W[bh];
B[pm];W[kc];B[kd];W[pn];B[ad];W[ag];B[pm];W[qb];B[pk];W[rb];B[pb];W[rk];B[kl];
W[lc];B[mc];W[md];B[mb];W[pi];B[oi];W[rj];B[hk];W[hj];B[ij];W[ii];B[ik];W[kj];
B[rm];W[lq];B[np];W[fr];B[do];W[cp];B[dp];W[lo];B[kn];W[ln];B[lm];W[cs];B[cr];
W[es];B[bo];W[bp];B[bm];W[dk];B[an];W[bl];B[gp];W[gq];B[qa];W[sc];B[ra];W[sd];
B[ko];W[kp];B[bs];W[ds];B[ar];W[sa];B[pa];W[sb];B[al];W[ak];B[am];W[bk];B[mr];
W[lr];B[ls];W[ks];B[ms];W[kr];B[mp];W[lp];B[mn];W[mq];B[nr];W[mo];B[no];W[jo];
B[jn];W[qk];B[fo];W[lk];B[mi];W[li];B[lg];W[lh];B[gj];W[gk];B[gi])
