(;FF[4]BR[6k]CP[online-go.com]DT[2016-04-23]GM[1]KM[6.5]PB[Dyonn]
PC[OGS: http://online-go.com/game/4997777]PW[thouis]RE[W+R]RU[japanese]SZ[19]
WR[6k];B[pd];W[pp];B[cd];W[cp];B[ec];W[fp];B[cj];W[pj];B[kq];W[iq];B[nq];W[pr];
B[mc];W[pg];B[qn];W[qo];B[pn];W[oo];B[qk];W[qj];B[nm];W[mo];B[ko];W[ln];B[kn];
W[ro];B[lm];W[on];B[om];W[km];B[in];W[mm];B[ll];W[ml];B[nn];W[no];B[jq];W[cl];
B[ek];W[kc];B[hc];W[hd];B[gd];W[he];B[ge];W[hf];B[gg];W[ic];B[hb];W[hh];B[mn];
W[lo];B[lk];W[mj];B[mk];W[pm];B[pl];W[nl];B[ol];W[nk];B[ok];W[nj];B[oj];W[oi];
B[qm];W[rl];B[ni];W[oh];B[nh];W[lj];B[jl];W[kj];B[jk];W[ng];B[me];W[mg];B[je];
W[ke];B[hg];W[ig];B[ih];W[jg];B[ii];W[gl];B[fm];W[hn];B[gm];W[hm];B[hl];W[il];
B[hk];W[jm];B[ip];W[im];B[ik];W[ho];B[hp];W[gp];B[hq];W[ir];B[hr];W[lr];B[lq];
W[nr];B[mr];W[ms];B[mq];W[oq];B[do];W[eo];B[dp];W[en];B[cq];W[fr];B[io];W[em];
B[fl];W[qc];B[qd];W[pc];B[oc];W[ob];B[nb];W[rd];B[re];W[rc];B[od];W[pa];B[lh];
W[lg];B[kh];W[jh];B[kf];W[lf];B[ji];W[ki];B[rk];W[rm];B[rn];W[sn];B[kg];W[if];
B[id];W[jd];B[mh];W[jf];B[ri];W[rj];B[sj];W[rf];B[pi];W[qi];B[qh];W[ph];B[rg];
W[qg];B[rh];W[qe];B[le];W[kd];B[of];W[lb];B[pe];W[qf];B[ne];W[bp];B[gf];W[ie];
B[bq];W[cn];B[dn];W[dm];B[co];W[bo];B[ep];W[dq];B[eq];W[dr];B[bn];W[fq];B[bk];
W[bm];B[bl];W[an];B[kr];W[ls];B[ks];W[ns];B[jb];W[jc];B[ib];W[mb];B[nc];W[na];
B[ck];W[gn];B[fn];W[fo];B[dl];W[el];B[cm];W[fk];B[bn];W[er];B[am];W[cn];B[ao];
W[fj];B[gi];W[ap];B[fi];W[ej];B[se];W[sg];B[jj];W[mi])
