(;FF[4]BR[18k]CP[online-go.com]DT[2016-08-11]GM[1]KM[6.5]PB[NoHabloGo]
PC[OGS: http://online-go.com/game/6056816]PW[Jungle1990]RE[B+R]RU[japanese]
SZ[19]WR[19k];B[pp];W[qd];B[cp];W[cd];B[iq];W[qn];B[nq];W[rp];B[qq];W[on];B[qf]
;W[od];B[qj];W[qk];B[df];W[ed];B[dj];W[dh];B[ff];W[fh];B[gd];W[cf];B[md];W[oj];
B[ph];W[gc];B[fd];W[fc];B[de];W[dd];B[ce];W[be];B[bf];W[cg];B[bd];W[hd];B[hf];
W[he];B[ge];W[lo];B[no];W[nn];B[mn];W[mm];B[ln];W[kn];B[lm];W[ml];B[ko];W[jn];
B[jo];W[in];B[ho];W[hn];B[fp];W[kl];B[km];W[jm];B[jl];W[mo];B[lp];W[ll];B[mp];
W[oo];B[op];W[np];B[lq];W[no];B[go];W[kd];B[mc];W[nc];B[fm];W[gn];B[fn];W[me];
B[nd];W[ne];B[kc];W[ld];B[nb];W[oc];B[lc];W[oe];B[ic];W[hc];B[id];W[ie];B[nh];
W[mh];B[mg];W[mi];B[le];W[ke];B[lf];W[kf];B[kg];W[mf];B[lg];W[ng];B[og];W[nf];
B[ni];W[nj];B[li];W[mj];B[pf];W[pe];B[pj];W[pk];B[oi];W[ej];B[dk];W[ek];B[el];
W[fl];B[cm];W[io];B[ip];W[ib];B[jb];W[ia];B[ja];W[hb];B[ob];W[pb];B[pa];W[pc];
B[qb];W[qc];B[rb];W[rc];B[re];W[jd];B[sc];W[mb];B[ma];W[oa];B[na];W[kb];B[lb];
W[qe];B[rd])
