(;FF[4]BR[6k]CP[online-go.com]DT[2016-07-29]GM[1]KM[6.5]PB[icky]
PC[OGS: http://online-go.com/game/5949341]PW[sai^^]RE[W+R]RU[japanese]SZ[19]
WR[3d];B[pp];W[pd];B[dp];W[cd];B[jp];W[qn];B[dj];W[nq];B[np];W[mp];B[no];W[pq];
B[oq];W[or];B[op];W[mr];B[qq];W[pr];B[mo];W[lp];B[lo];W[qj];B[df];W[ed];B[ff];
W[hd];B[dn];W[nc];B[ij];W[hf];B[rd];W[qd];B[re];W[rc];B[qg];W[og];B[ph];W[oj];
B[oh];W[nh];B[ni];W[oi];B[ng];W[mh];B[of];W[mg];B[nf];W[mf];B[ne];W[me];B[nd];
W[mc];B[rb];W[sc];B[qb];W[qc];B[pf];W[kp];B[jo];W[ko];B[kn];W[jn];B[km];W[jq];
B[iq];W[jk];B[jr];W[kq];B[mm];W[ip];B[io];W[hp];B[hq];W[gq];B[gr];W[gp];B[hn];
W[fr];B[hr];W[eq];B[kr];W[lr];B[is];W[gs];B[ks];W[cq];B[dq];W[dr];B[cp];W[bq];
B[bp];W[gn];B[jm];W[em];B[dm];W[bf];B[cg];W[bg];B[bh];W[el];B[fj];W[dl];B[cl];
W[ck];B[dk];W[cm];B[bl];W[cn];B[co];W[en];B[do];W[fs];B[hs];W[ih];B[ep];W[fp];
B[gm];W[gl];B[hl];W[fm];B[hm];W[ho];B[in];W[ap];B[bn];W[eo];B[bm];W[fe];B[mj];
W[lj];B[mk];W[mi];B[nj];W[lk];B[ll];W[nl];B[ml];W[ro];B[rp];W[qo];B[qp];W[pl];
B[ri];W[rj];B[rh];W[oc];B[db];W[dc];B[eb];W[cb];B[hb];W[ib];B[ic];W[jb];B[hc];
W[fc];B[jc];W[kb];B[fb];W[gc];B[jf];W[jg];B[ji];W[kg];B[if];W[hg];B[id];W[he];
B[kd];W[ke];B[md];W[ld];B[lc];W[le];B[kc];W[lb];B[rk];W[rl];B[qk];W[sk])
