(;FF[4]BR[23k]CP[online-go.com]DT[2016-06-29]GM[1]KM[6.5]PB[shallak]
PC[OGS: http://online-go.com/game/5690805]PW[Biff Jenkins]RE[B+R]RU[japanese]
SZ[19]WR[20k];B[pd];W[cp];B[dd];W[pp];B[pj];W[cf];B[cg];W[df];B[ce];W[fd];B[ef]
;W[ee];B[de];W[eg];B[ff];W[dg];B[ch];W[ei];B[bf];W[di];B[ci];W[ek];B[cj];W[ck];
B[dk];W[dj];B[dl];W[cl];B[cm];W[dm];B[el];W[fk];B[bl];W[bm];B[bk];W[cn];B[cl];
W[bn];B[dn];W[em];B[en];W[fm];B[co];W[do];B[eo];W[dp];B[ep];W[dr];B[jp];W[go];
B[dq];W[cq];B[eq];W[cs];B[er];W[nc];B[jd];W[qc];B[pc];W[qd];B[oc];W[ob];B[pb];
W[na];B[mc];W[nd];B[mb];W[nb];B[ne];W[pe];B[md];W[od];B[qa];W[qb];B[oe];W[ra];
B[fc];W[gd];B[gc];W[gf];B[fg];W[fh];B[gg];W[hd];B[hf];W[ge];B[hg];W[hi];B[np];
W[qn];B[pq];W[qq];B[op];W[qr];B[pr];W[qo];B[ql];W[rl];B[rk];W[rm];B[ri];W[qg];
B[rg];W[pf];B[qh];W[rf];B[pg];W[qf];B[lq];W[jo];B[hp];W[ho];B[io];W[in];B[ip];
W[lo];B[ko];W[og];B[ph];W[nf];B[me];W[ma];B[kb];W[jn];B[kn];W[ln];B[km];W[lm];
B[kl];W[jl];B[ll];W[no];B[mo];W[mn];B[mp];W[oo];B[nn];W[on];B[nm];W[om];B[mm];
W[nl];B[ml];W[ol];B[pl];W[pm];B[kh];W[kj];B[ng];W[nh];B[mg];W[nj];B[of];W[oh];
B[ni];W[oi];B[mi];W[mk];B[oj];W[nk];B[ok];W[lk];B[jk];W[jj])
