(;FF[4]BR[22k]CP[online-go.com]DT[2016-06-16]GM[1]KM[6.5]PB[rogerhurwitz]
PC[OGS: http://online-go.com/game/5568170]PW[PegaSharkus]RE[B+R]RU[japanese]
SZ[19]WR[20k];B[qe];W[dd];B[qo];W[cp];B[jq];W[pc];B[nd];W[nc];B[pd];W[kc];B[oc]
;W[ob];B[od];W[qc];B[nb];W[na];B[mc];W[mb];B[nc];W[lb];B[pb];W[oa];B[qb];W[rb];
B[rc];W[eq];B[pj];W[gc];B[pq];W[dj];B[ld];W[dg];B[je];W[id];B[jg];W[hp];B[hf];
W[mq];B[lp];W[lq];B[mp];W[nq];B[np];W[kq];B[kp];W[oq];B[or];W[nr];B[ps];W[jr];
B[iq];W[ir];B[jm];W[hq];B[io];W[op];B[oo];W[pp];B[qp];W[qq];B[rq];W[pr];B[qr];
W[os];B[pq];W[qs];B[qq];W[po];B[pn];W[ip];B[jp];W[qn];B[on];W[qm];B[pl];W[ql];
B[qk];W[rk];B[rn];W[rm];B[ro];W[rs];B[rj];W[sr];B[sk];W[so];B[sn];W[sp];B[rl];
W[sq];B[qd];W[rr];B[sm];W[gm];B[hl];W[jj];B[ij];W[li];B[kj];W[ji];B[ki];W[ii];
B[hi];W[kh];B[jh];W[kg];B[jk];W[ke];B[lh];W[lg];B[mh];W[kd];B[mg];W[le];B[me];
W[gj];B[lc];W[jb];B[mj];W[gg];B[hg];W[ie];B[if];W[ge];B[cc];W[cd];B[bd];W[be];
B[bc];W[dc];B[db];W[eb];B[da];W[ea];B[cb];W[ad];B[ac];W[ae];B[ba];W[gi];B[gh];
W[fh];B[hh];W[gf];B[gl];W[ik];B[ih];W[il];B[hk];W[im];B[hm];W[in];B[hn];W[jn];
B[kn];W[jo];B[ho];W[ko];B[lo];W[km];B[jl])
