(;FF[4]BR[19k]CP[online-go.com]DT[2016-07-13]GM[1]KM[6.5]PB[Jurupari]
PC[OGS: http://online-go.com/game/5814694]PW[Keith Ball]RE[B+R]RU[japanese]
SZ[19]WR[19k];B[pd];W[pp];B[cd];W[dp];B[ic];W[qf];B[nd];W[pj];B[cn];W[fq];B[dj]
;W[jp];B[bp];W[cq];B[rd];W[rf];B[ed];W[qn];B[nq];W[oq];B[kq];W[jq];B[jr];W[ir];
B[ks];W[nr];B[mr];W[pr];B[ns];W[or];B[np];W[no];B[mo];W[nn];B[kp];W[jo];B[ko];
W[mn];B[lo];W[ln];B[kn];W[jn];B[km];W[jm];B[kl];W[jl];B[kk];W[jk];B[dg];W[pf];
B[nf];W[jj];B[oh];W[ph];B[oj];W[oi];B[ni];W[pi];B[nh];W[ok];B[nj];W[nk];B[ml];
W[nl];B[mk];W[kj];B[lj];W[li];B[ql];W[qk];B[rn];W[ro];B[nm];W[om];B[mm];W[oo];
B[op];W[po];B[kd];W[ke];B[je];W[kf];B[jf];W[kg];B[jg];W[jh];B[ih];W[ji];B[ig];
W[ii];B[dl])
