(;FF[4]BR[2d]CP[online-go.com]DT[2016-07-15]GM[1]KM[6.5]PB[halifax]
PC[OGS: http://online-go.com/game/5826426]PW[Aloisius]RE[B+R]RU[japanese]SZ[19]
WR[1d];B[pd];W[pp];B[dd];W[dp];B[cn];W[cl];B[en];W[fp];B[dk];W[ck];B[dj];W[dl];
B[el];W[cj];B[di];W[ch];B[dh];W[cg];B[ef];W[cc];B[be];W[dc];B[ed];W[ec];B[fc];
W[cd];B[cf];W[fd];B[gc];W[de];B[ee];W[df];B[kd];W[em];B[fm];W[dm];B[fn];W[fl];
B[ek];W[gl];B[hn];W[il];B[cp];W[dn];B[do];W[eo];B[co];W[cq];B[dq];W[ep];B[cr];
W[bq];B[gp];W[dr];B[eq];W[fq];B[er];W[fr];B[ds];W[bp];B[bm];W[bo];B[ci];W[bn];
B[dg];W[ce];B[bf];W[bd];B[jn];W[kl];B[ln];W[br];B[ml];W[mk];B[jk];W[im];B[in];
W[km];B[mo];W[kk];B[nk];W[nl];B[mm];W[mj];B[ol];W[nj];B[nm];W[nq];B[oj];W[oi];
B[ni];W[pj];B[ok];W[oh];B[qq];W[qp];B[rp];W[ro];B[rq];W[pq];B[pr];W[or];B[qs];
W[qn];B[ji];W[lh];B[kg];W[lp];B[kn];W[qc];B[pc];W[qd];B[qe];W[re];B[qf];W[rf];
B[qg];W[of];B[ng];W[og];B[nh];W[mf];B[li];W[mi];B[mh];W[mg];B[lk];W[nf];B[lj];
W[pe];B[qj];W[pk];B[ql];W[qk];B[rk];W[rj];B[pl];W[qi];B[kq];W[lq];B[le];W[kh];
B[jh];W[ic];B[hd];W[kc];B[lc];W[jd];B[je];W[lb];B[mc];W[mb];B[nc];W[id];B[jb];
W[ib];B[ie];W[ja];B[eb];W[db];B[gb];W[bb];B[ka];W[kb];B[ia];W[ha];B[ja];W[sr];
B[rr];W[os];B[sq];W[ps];B[ss];W[qr];B[oe];W[pr];B[pf];W[qb];B[rm];W[sn];B[pb];
W[pa];B[oa];W[qa];B[nb];W[ea];B[fb];W[kp];B[jq];W[jp];B[gr];W[gq];B[hq];W[go];
B[gn];W[hp];B[ip];W[hr];B[iq];W[bj];B[bi];W[kr];B[rg];W[io];B[ho];W[ir];B[jo];
W[jr];B[gp];W[sk];B[fo];W[cm];B[rl];W[ae];B[bg];W[rh];B[sg];W[sb];B[rd];W[rc];
B[se];W[sd];B[sf];W[ne];B[nd];W[me];B[rd];W[md];B[sc];W[ld];B[ke];W[sd];B[sh];
W[re];B[si];W[sj];B[ph];W[qh];B[pg];W[pi];B[nh])
