(;FF[4]BR[12k]CP[online-go.com]DT[2016-03-03]GM[1]KM[6.5]PB[AlbertSN]
PC[OGS: http://online-go.com/game/4155183]PW[pfrobbins]RE[B+29.5]RU[japanese]
SZ[19]WR[14k];B[pd];W[qp];B[dp];W[cd];B[ec];W[gc];B[ee];W[df];B[hd];W[dc];B[db]
;W[cb];B[dd];W[cc];B[gd];W[eb];B[op];W[oq];B[nq];W[pq];B[mp];W[fq];B[hq];W[fo];
B[dn];W[dr];B[cq];W[cr];B[kq];W[qm];B[cj];W[qj];B[qg];W[ld];B[jc];W[oc];B[pc];
W[od];B[cg];W[cf];B[dg];W[ef];B[fg];W[ff];B[gg];W[gk];B[fm];W[gm];B[gn];W[fl];
B[hm];W[gl];B[hn];W[em];B[fn];W[en];B[dm];W[ek];B[dl];W[el];B[eo];W[ep];B[do];
W[di];B[ci];W[eh];B[eg];W[gi];B[lc];W[mc];B[kc];W[lf];B[om];W[mm];B[jl];W[lk];
B[jk];W[ii];B[ji];W[ij];B[jj];W[li];B[ln];W[ol];B[pn];W[qn];B[pf];W[of];B[og];
W[ng];B[oh];W[oi];B[nh];W[ni];B[nf];W[ne];B[oe];W[mf];B[mg];W[lg];B[gr];W[fr];
B[dq];W[bq];B[bp];W[aq];B[ap];W[bs];B[fc];W[fb];B[hc];W[gb];B[fe];W[ih];B[gf];
W[jg];B[bf];W[ce];B[gp];W[fp];B[ri];W[rj];B[ob];W[nb];B[nd];W[md];B[nc];W[lb];
B[or];W[pr];B[os];W[ps];B[nr];W[nm];B[nn];W[pm];B[on];W[mn];B[mo];W[gq];B[hr];
W[go];B[hp];W[lm];B[km];W[kl];B[kn];W[dk];B[ck];W[je];B[be];W[bd];B[dh];W[dj];
B[fh];W[fi];B[ei];W[ej];B[kk];W[ll];B[hk];W[hj];B[if];W[jf];B[ig];W[jh];B[mh];
W[lh];B[mi];W[mj];B[qi];W[pi];B[ph];W[ik];B[hl];W[il];B[im];W[hb];B[ib];W[kb];
B[na];W[mb];B[sj];W[sk];B[si];W[rk];B[ho];W[er];B[kd];W[ke];B[ie];W[jd];B[jb];
W[ma];B[oa];W[ja];B[ia];W[ka];B[hh];W[hi];B[me];W[le];B[ne];W[po];B[oo];W[pp];
B[ha];W[ga];B[ic];W[da];B[fs];W[es];B[gs];W[gh];B[hg];W[ki];B[jm];W[ae];B[ag];
W[de];B[ed];W[ad];B[af];W[kj];B[eh];W[];B[])
