(;FF[4]BR[9k]CP[online-go.com]DT[2016-03-11]GM[1]KM[6.5]PB[kraszer]
PC[OGS: http://online-go.com/game/4238794]PW[Misawa]RE[B+R]RU[japanese]SZ[19]
WR[10k];B[qd];W[dp];B[pp];W[de];B[oc];W[nq];B[no];W[pr];B[pj];W[ic];B[dc];W[cc]
;B[cb];W[cd];B[gc];W[lc];B[hb];W[ib];B[ed];W[ee];B[fe];W[ie];B[fg];W[dh];B[cn];
W[cl];B[fq];W[eq];B[fp];W[bq];B[er];W[dr];B[ep];W[dq];B[kq];W[qq];B[qp];W[mp];
B[ko];W[lq];B[mo];W[on];B[ol];W[oo];B[op];W[np];B[qn];W[nm];B[ml];W[qf];B[qh];
W[of];B[pe];W[pf];B[mf];W[ne];B[jd];W[me];B[le];W[lf];B[lg];W[kf];B[kg];W[ke];
B[ng];W[ph];B[qi];W[mh];B[nh];W[nf];B[mg];W[dn];B[dm];W[co];B[en];W[bn];B[do];
W[cm];B[dl];W[fi];B[eh];W[ei];B[dg];W[ch];B[cg];W[bh];B[bf];W[be];B[af];W[bb];
B[db];W[ba];B[ad];W[cf];B[bg];W[ae];B[ab];W[ac];B[bc];W[dd];B[fc];W[ef];B[eg];
W[ff];B[gg];W[ge];B[fd];W[gf];B[hg];W[if];B[hi];W[gk];B[gj];W[dk];B[fj];W[fk];
B[ej];W[dj];B[ek];W[rc];B[rd];W[re];B[sd];W[od];B[pc];W[qc];B[pd];W[nc];B[nb];
W[mb];B[oa];W[rp];B[ro];W[sp];B[lp];W[oq];B[lr];W[qm];B[pm];W[rr];B[pn];W[nl];
B[mk];W[ok];B[pk];W[so];B[sn];W[om];B[pl];W[ni];B[oi];W[ln];B[lo];W[lm];B[jm];
W[jl];B[hk];W[ij];B[hj];W[nj];B[nk];W[jg];B[jh];W[lh])
