(;FF[4]BR[4k]CP[online-go.com]DT[2016-04-06]GM[1]KM[6.5]PB[jetlag11235]
PC[OGS: http://online-go.com/game/4766509]PW[redundant]RE[B+R]RU[japanese]
SZ[19]WR[6k];B[qp];W[dd];B[dq];W[pe];B[pc];W[nd];B[qe];W[pf];B[qd];W[qf];B[pj];
W[ob];B[oc];W[nc];B[pb];W[do];B[cm];W[cq];B[gq];W[dp];B[dr];W[fo];B[ip];W[ck];
B[ci];W[dl];B[cf];W[ce];B[df];W[fd];B[dm];W[em];B[cl];W[dk];B[kc];W[ic];B[ke];
W[kg];B[lg];W[lf];B[kf];W[mf];B[hd];W[hc];B[gd];W[gc];B[id];W[fe];B[hf];W[fg];
B[gh];W[gg];B[hg];W[hh];B[ih];W[hi];B[ei];W[fj];B[gi];W[gj];B[hj];W[ii];B[eh];
W[jh];B[ig];W[ki];B[mh];W[ld];B[kd];W[ge];B[mb];W[nb];B[mc];W[md];B[jb];W[bh];
B[bj];W[bk];B[ak];W[bl];B[bf];W[be];B[af];W[eg];B[dg];W[dj];B[di];W[ch];B[ah];
W[ai];B[bi];W[ag];B[hk];W[hm];B[jl];W[mi];B[nh];W[kq];B[jn];W[io];B[jo];W[jp];
B[iq];W[mq];B[jj];W[ji];B[ni];W[lh];B[mg];W[lk];B[mj];W[kk];B[jk];W[lm];B[kj];
W[lj];B[li];W[fi];B[fh];W[mi];B[ej];W[gl];B[li];W[dh])
