(;FF[4]BR[8k]CP[online-go.com]DT[2016-04-22]GM[1]KM[6.5]PB[Polonian]
PC[OGS: http://online-go.com/game/4990125]PW[tel]RE[B+R]RU[japanese]SZ[19]
WR[14k];B[qd];W[dc];B[pq];W[cp];B[ep];W[eq];B[fq];W[dq];B[fp];W[cn];B[jp];W[de]
;B[oc];W[qo];B[po];W[pn];B[oo];W[qp];B[qq];W[on];B[no];W[ql];B[ic];W[gc];B[qj];
W[ch];B[ck];W[qh];B[oj];W[oh];B[qf];W[of];B[nn];W[ol];B[rh];W[kc];B[mc];W[ke];
B[ie];W[kg];B[ig];W[ek];B[di];W[fi];B[eh];W[fh];B[eg];W[cf];B[ff];W[hd];B[id];
W[he];B[hf];W[gf];B[gg];W[ge];B[fg];W[hh];B[hg];W[hj];B[jh];W[kh];B[ji];W[mi];
B[jk];W[lk];B[il];W[hk];B[hl];W[gl];B[dm];W[em];B[dn];W[do];B[en];W[gm];B[ho];
W[cl];B[dl];W[cj];B[dk];W[dj];B[ci];W[lm];B[ej];W[bj];B[ei];W[fj];B[fk];W[el];
B[gk];W[lo];B[lq];W[cm];B[fn];W[gn];B[go];W[im];B[hm];W[hn];B[in];W[jm];B[fm];
W[gj];B[fl];W[jl];B[ri];W[rk];B[bi])
