(;FF[4]BR[16k]CP[online-go.com]DT[2016-04-20]GM[1]KM[6.5]PB[Warix]
PC[OGS: http://online-go.com/game/4966549]PW[modgethanc]RE[B+16.5]RU[japanese]
SZ[19]WR[15k];B[cd];W[pd];B[dq];W[pp];B[ck];W[ec];B[dc];W[hc];B[dg];W[lq];B[iq]
;W[pk];B[qi];W[qf];B[oi];W[nk];B[mi];W[mc];B[kd];W[kc];B[kf];W[cp];B[cn];W[cq];
B[dp];W[co];B[do];W[bn];B[cm];W[bm];B[bl];W[eb];B[db];W[jr];B[hl];W[ln];B[pm];
W[qk];B[qo];W[qp];B[po];W[qm];B[qn];W[rm];B[nm];W[oo];B[on];W[no];B[rn];W[rp];
B[lm];W[km];B[ll];W[lk];B[kl];W[jm];B[jl];W[ri];B[rh];W[rj];B[qg];W[pg];B[rf];
W[qe];B[re];W[rd];B[ph];W[og];B[ki];W[im];B[kk];W[lj];B[li];W[pl];B[rl];W[sl];
B[rk];W[hq];B[ir];W[hr];B[is];W[fr];B[hp];W[dr];B[jp];W[jq];B[kq];W[kr];B[kp];
W[lp];B[lo];W[ko];B[hm];W[hn];B[gn];W[ho];B[gp];W[go];B[fo];W[fn];B[fp];W[gm];
B[en];W[em];B[ej];W[gk];B[ik];W[fk];B[gi];W[hj];B[jj];W[hi];B[gh];W[ek];B[fj];
W[ee];B[df];W[de];B[ce];W[kg];B[lg];W[jg];B[le];W[jf];B[je];W[hf];B[jc];W[kb];
B[jb];W[ni];B[nh];W[nj];B[oh];W[ol];B[nl];W[om];B[nn];W[pn];B[oj];W[sn];B[ok];
W[ro];B[id];W[hd];B[nc];W[md];B[nb];W[nd];B[qc];W[qd];B[rc];W[pc];B[pb];W[sc];
B[sb];W[rb];B[sd];W[qb];B[sc];W[ob];B[mb];W[lb];B[na];W[pa];B[hb];W[gb];B[gd];
W[ib];B[ic];W[ha];B[he];W[ge];B[ie];W[gg];B[fe];W[gf];B[ed];W[gc];B[fd];W[fc];
B[hh];W[ih];B[ii];W[eh];B[dj];W[mg];B[mh];W[mf];B[lf];W[ld];B[ja];W[fa];B[la];
W[oc];B[ka];W[lc];B[gr];W[er];B[gq];W[jo];B[ip];W[oa];B[ma];W[dl];B[cl];W[dm];
B[dn];W[gj];B[fi];W[ij];B[ji];W[gl];B[oe];W[nf];B[me];W[ne];B[ng];W[of];B[il];
W[ls];B[js];W[ks];B[io];W[in];B[mn];W[mo];B[am];W[ao];B[qj];W[sk];B[da];W[ia];
B[eq];W[cr];B[si];W[ql];B[pj];W[sj];B[sh];W[an];B[al];W[fs];B[gs];W[ra];B[se];
W[];B[])
