(;FF[4]BR[9k]CP[online-go.com]DT[2016-07-23]GM[1]KM[6.5]PB[wuigukin]
PC[OGS: http://online-go.com/game/5895521]PW[csaba]RE[B+R]RU[japanese]SZ[19]
WR[6k];B[qd];W[dp];B[pq];W[dd];B[fc];W[cf];B[lc];W[qo];B[pl];W[no];B[mq];W[pj];
B[nl];W[qg];B[od];W[og];B[rp];W[om];B[ol];W[qp];B[qq];W[ro];B[fq];W[cn];B[lo];
W[mn];B[ll];W[ln];B[ko];W[kn];B[jo];W[hq];B[fo];W[ho];B[fm];W[hm];B[jq];W[dr];
B[er];W[cq];B[jn];W[kl];B[mj];W[dk];B[fk];W[dh];B[jm];W[hk];B[km];W[qm];B[ql];
W[rm];B[rl];W[rq];B[rr];W[sp];B[fi];W[hi];B[fg];W[gp];B[fp];W[gn];B[fn];W[fe];
B[dj];W[ck];B[di];W[eh];B[fh];W[hc];B[cc];W[dc];B[db];W[eb];B[cb];W[fb];B[be];
W[bf];B[bd];W[if];B[hh];W[ih];B[hg];W[ig];B[ii];W[ij];B[ji];W[jj];B[ki];W[kj];
B[li];W[lj];B[ni];W[lk];B[ml];W[gj];B[fj];W[gl];B[fl];W[jl];B[ip];W[hp];B[in];
W[hn];B[ir];W[im];B[gr];W[hr];B[hs];W[iq];B[jr];W[mp];B[lq];W[lp];B[nq];W[op];
B[nf];W[mh];B[kg];W[mk];B[mi];W[nk];B[oj];W[ok];B[pk];W[pi];B[lm];W[rj];B[rf];
W[rg];B[re];W[lf];B[nh];W[ng];B[lg];W[mg];B[kf];W[le];B[ke];W[ld];B[kd];W[lh];
B[kh];W[mc];B[lb];W[mb];B[md];W[nd];B[mf];W[pc];B[oc];W[pd];B[pe];W[oe];B[ne];
W[ob];B[of];W[qc];B[rc];W[rb];B[sb];W[nc];B[qb];W[pb];B[ra];W[pf];B[qf];W[pg];
B[ri];W[oi];B[nj];W[rk];B[qi];W[qj];B[sl];W[sk];B[si];W[sh];B[oh])
