(;FF[4]BR[2d]CP[online-go.com]DT[2016-04-11]GM[1]KM[6.5]PB[gor]
PC[OGS: http://online-go.com/game/4846446]PW[joachim]RE[B+R]RU[japanese]SZ[19]
WR[3k];B[pd];W[dp];B[pq];W[dd];B[fq];W[dn];B[ip];W[qn];B[po];W[rp];B[pl];W[pn];
B[on];W[om];B[nn];W[pm];B[ql];W[ko];B[kp];W[lp];B[lo];W[mo];B[ln];W[jp];B[kq];
W[jq];B[jo];W[io];B[kn];W[jn];B[iq];W[ko];B[jr];W[jo];B[lq];W[mp];B[ho];W[jm];
B[mn];W[hn];B[go];W[gn];B[fo];W[fn];B[nk];W[qq];B[pr];W[qo];B[pp];W[rm];B[rl];
W[qr];B[jd];W[di];B[fc];W[qf];B[qh];W[qc];B[pc];W[qd];B[pe];W[rf];B[og];W[hc];
B[jc];W[fd];B[ec];W[dc];B[ed];W[ee];B[gd];W[fe];B[gc];W[ge];B[hd];W[eo];B[hr];
W[if];B[jj];W[hj];B[cg];W[ci];B[de];W[ce];B[df];W[db];B[hh];W[fg];B[gi];W[fj];
B[be];W[bd];B[gj];W[gk];B[fi];W[ei];B[hf];W[he];B[ie];W[hg];B[ig];W[gf];B[jf];
W[hf];B[ii];W[fh];B[cf];W[cd];B[cq];W[dq];B[dr];W[cp];B[bq];W[bp];B[qb];W[rb];
B[pb];W[ra];B[rh];W[er];B[cs];W[br];B[ar];W[eq];B[bs];W[ga];B[ea];W[eb];B[fb];
W[fa];B[ha];W[da];B[hb];W[jk];B[kk];W[ik];B[ap];W[bo];B[ao];W[an];B[aq];W[bn];
B[qs];W[rs];B[ps];W[rr];B[sg];W[sf];B[lk];W[ol];B[ok];W[sl];B[sk];W[sm];B[rk];
W[gq];B[fp];W[gr];B[fr];W[fs];B[hq];W[hs];B[is];W[gs];B[kr];W[ij];B[ji];W[pf];
B[of];W[ml];B[nl];W[nm];B[mm];W[ll];B[kl];W[km];B[lm];W[oo];B[mk];W[nr];B[mq];
W[nq];B[np])
