(;FF[4]BR[18k]CP[online-go.com]DT[2016-03-09]GM[1]KM[6.5]PB[eladden]
PC[OGS: http://online-go.com/game/4203050]PW[New Shampoo]RE[W+R]RU[japanese]
SZ[19]WR[13k];B[pp];W[dd];B[pd];W[dp];B[jj];W[gq];B[qj];W[nq];B[oq];W[nr];B[or]
;W[kq];B[jc];W[cf];B[dj];W[ck];B[dk];W[cl];B[dl];W[dm];B[em];W[dn];B[en];W[gc];
B[gd];W[fd];B[ge];W[qf];B[qe];W[oc];B[od];W[pc];B[nc];W[nb];B[mc];W[qc];B[pf];
W[rd];B[re];W[go];B[gn];W[eo];B[fn];W[fo];B[ho];W[qm];B[pm];W[qp];B[qo];W[qq];
B[oo];W[ro];B[qn];W[rn];B[ql];W[qr];B[kp];W[lp];B[lo];W[jp];B[jo];W[ko];B[kn];
W[kp];B[io];W[iq];B[mo];W[fh];B[eh];W[fg];B[eg];W[ff];B[fe];W[ef];B[ee];W[df];
B[de];W[ce];B[ed];W[dc];B[fc];W[ei];B[dh];W[di];B[ch];W[ci];B[cj];W[bi];B[bh];
W[bj];B[bf];W[be];B[cm];W[cn];B[bm];W[bk])
