(;FF[4]BR[10k]CP[online-go.com]DT[2016-08-17]GM[1]KM[6.5]PB[guided]
PC[OGS: http://online-go.com/game/6106301]PW[uzzu]RE[W+R]RU[japanese]SZ[19]
WR[8k];B[pd];W[pp];B[cd];W[dp];B[ic];W[qf];B[nd];W[qi];B[qe];W[pf];B[qk];W[qm];
B[ok];W[iq];B[cn];W[cl];B[cq];W[cp];B[dq];W[ep];B[bp];W[bo];B[bq];W[co];B[fq];
W[pj];B[pk];W[nm];B[mk];W[ll];B[ml];W[mm];B[lk];W[nq];B[qp];W[qq];B[qo];W[po];
B[rq];W[qr];B[rr];W[qn];B[ro];W[rn];B[sp];W[sn];B[so];W[cg];B[ed];W[go];B[ci];
W[eh];B[ei];W[gg];B[fh];W[eg];B[fi];W[fg];B[fl];W[em];B[el];W[dl];B[nf];W[oc];
B[od];W[qc];B[pc];W[re];B[qd];W[rd];B[rc];W[mc];B[md];W[nc];B[qb];W[kc];B[jd];
W[kd];B[je];W[le];B[mf];W[ld];B[lf];W[ob];B[jp];W[jq];B[kp];W[kq];B[lp];W[lq];
B[jm];W[kl];B[jl];W[kk];B[hl];W[bh];B[kj];W[jk];B[ik];W[jj];B[ki];W[lm];B[ge];
W[hi];B[hj];W[ih];B[jg];W[ig];B[if];W[hf];B[he];W[gk];B[gl];W[gi];B[gj];W[fk];
B[ek];W[dj];B[di];W[cj];B[oi];W[im];B[in];W[hm];B[hn];W[gm];B[gn];W[fm];B[il];
W[kn];B[jn];W[gp];B[fo];W[fp];B[en];W[dm];B[fn];W[dn];B[ph];W[qh];B[qj];W[pi];
B[oh];W[dc];B[dd];W[cc];B[ec];W[bd];B[be];W[bc];B[db];W[ce];B[cf];W[bf];B[de];
W[ae];B[jb];W[cb];B[ea];W[kb];B[pg];W[qg];B[ri];W[rh];B[sj];W[sg];B[rf];W[lb];
B[eq];W[gq];B[gr];W[hr];B[fs];W[hs];B[bi];W[bj];B[ai];W[df];B[ce];W[ko];B[jo];
W[ip];B[mp];W[np];B[mq];W[mr];B[ln];W[km];B[mn];W[nn];B[ej];W[jh])
