(;FF[4]BR[11k]CP[online-go.com]DT[2016-07-04]GM[1]KM[6.5]PB[Smoothtesuji]
PC[OGS: http://online-go.com/game/5730540]PW[grahambit]RE[B+R]RU[japanese]
SZ[19]WR[11k];B[pd];W[dp];B[pq];W[dd];B[fc];W[hc];B[fe];W[he];B[df];W[ec];B[gd]
;W[hd];B[eb];W[db];B[gb];W[gg];B[fp];W[dn];B[qk];W[de];B[ef];W[eh];B[cf];W[bd];
B[ci];W[qf];B[qe];W[pf];B[nc];W[ld];B[jq];W[jp];B[iq];W[kp];B[kq];W[fo];B[go];
W[gp];B[fq];W[hp];B[ip];W[ho];B[gn];W[io];B[qh];W[po];B[np];W[no];B[mp];W[qp];
B[qq];W[ql];B[cl];W[pk];B[pl];W[pj];B[ol];W[rk];B[oh];W[ng];B[ni];W[lj];B[qm];
W[rl];B[pn];W[on];B[nk];W[qn];B[mn];W[mo];B[lp];W[kn];B[ln];W[lo];B[nn];W[pm];
B[om];W[rm];B[ll];W[qc];B[rd];W[pc];B[oc];W[mk];B[mj];W[lk];B[ml];W[mi];B[nj];
W[km];B[kl];W[mh];B[jl];W[ij];B[im];W[in];B[hm];W[fm];B[gm];W[fl];B[jm];W[jn];
B[qi];W[qj];B[rf])
