(;FF[4]BR[3k]CP[online-go.com]DT[2016-06-03]GM[1]KM[6.5]PB[Treble Clef]
PC[OGS: http://online-go.com/game/5442989]PW[vlin]RE[W+R]RU[japanese]SZ[19]
WR[3d];B[pd];W[dp];B[pp];W[dc];B[de];W[ce];B[cf];W[cd];B[dg];W[fd];B[ck];W[cm];
B[ek];W[nq];B[qn];W[nc];B[qf];W[jd];B[jp];W[pr];B[lq];W[qq];B[np];W[oq];B[fq];
W[dq];B[co];W[dn];B[bq];W[fp];B[gp];W[gq];B[hq];W[gr];B[go];W[do];B[bn];W[bm];
B[lc];W[ld];B[kc];W[kd];B[jc];W[pc];B[qc];W[ic];B[ib];W[hc];B[hb];W[gb];B[mc];
W[md];B[oc];W[od];B[pb];W[nb];B[oe];W[nd];B[fr];W[er];B[hr];W[bp];B[cp];W[cq];
B[pj];W[jj];B[mj];W[dj];B[cj];W[li];B[lj];W[ki];B[gf];W[nh];B[he];W[ph];B[jk];
W[ik];B[ij];W[ii];B[hj];W[kk];B[jl];W[kj];B[hi];W[kl];B[ml];W[ro];B[qh];W[rn];
B[ql];W[aj];B[id];W[hd];B[ie];W[lg];B[ed];W[fc];B[ec];W[eb];B[fe];W[dd];B[ee];
W[gd];B[be];W[bd];B[jm];W[km];B[jn];W[fl];B[el];W[fm];B[rm];W[qo];B[po];W[pn];
B[qm];W[pi];B[qi];W[pg];B[ak];W[bk];B[bj];W[al];B[em];W[fn];B[mb];W[ha];B[kb])
