(;FF[4]BR[10k]CP[online-go.com]DT[2016-03-21]GM[1]KM[6.5]PB[alecsphys]
PC[OGS: http://online-go.com/game/4511258]PW[B.K.]RE[B+R]RU[japanese]SZ[19]
WR[21k];B[pq];W[dd];B[qc];W[dq];B[oc];W[qj];B[ql];W[qg];B[pf];W[ck];B[qo];W[oj]
;B[kd];W[gd];B[ci];W[cg];B[ce];W[cd];B[df];W[dh];B[dj];W[cf];B[de];W[fg];B[ed];
W[ec];B[ff];W[gf];B[eg];W[eh];B[gg];W[fh];B[ge];W[fd];B[hf];W[ic];B[cp];W[cn];
B[dk];W[dl];B[fj];W[re];B[eq];W[hq];B[dp];W[en];B[eo];W[er];B[cq];W[fq];B[dr];
W[gr];B[jq];W[fo];B[fn];W[el];B[gn];W[do];B[ep];W[fp];B[bo];W[ho];B[jo];W[in];
B[jn];W[im];B[fl];W[nm];B[no];W[lm];B[lo];W[oh];B[li];W[lj];B[nk];W[ok];B[nl];
W[ol];B[mj];W[jm];B[lk];W[kj];B[kk];W[ji];B[jj];W[jg];B[jf];W[ij];B[jk];W[ik];
B[ii];W[ki];B[mh];W[lh];B[mi];W[lg];B[mg];W[lf];B[mf];W[ke];B[je];W[me];B[ne];
W[ih];B[hi];W[md];B[kf];W[le];B[jc];W[jb];B[kb];W[ib];B[iq];W[ir];B[io];W[hn];
B[gp];W[hp];B[go];W[gq];B[om];W[on];B[pm];W[nn];B[jr];W[js];B[ks];W[is];B[kr];
W[es];B[gs];W[fs];B[ds];W[hs];B[hh];W[kg];B[jh];W[kh];B[ig];W[lb];B[lc];W[ka];
B[kc];W[mb];B[mc];W[nb];B[nc];W[nd];B[oe];W[od];B[pd])
