(;FF[4]BR[5k]CP[online-go.com]DT[2016-08-31]GM[1]KM[6.5]PB[Lomis]
PC[OGS: http://online-go.com/game/6222159]PW[asabear]RE[B+4.5]RU[japanese]
SZ[19]WR[2k];B[pd];W[qp];B[dc];W[dp];B[cn];W[fq];B[ci];W[qf];B[nc];W[pj];B[nq];
W[lq];B[pp];W[po];B[qq];W[rq];B[pq];W[ro];B[oo];W[pn];B[de];W[ic];B[kc];W[fc];
B[fe];W[eb];B[db];W[ie];B[hd];W[hc];B[rr];W[sr];B[ip];W[bp];B[en];W[cl];B[el];
W[cj];B[dj];W[dk];B[bj];W[ck];B[ej];W[bn];B[cm];W[bm];B[bk];W[bl];B[ek];W[or];
B[mq];W[lr];B[lo];W[lp];B[mo];W[on];B[ko];W[no];B[mp];W[op];B[oq];W[ir];B[gp];
W[iq];B[jb];W[jc];B[kd];W[he];B[gd];W[jf];B[jh];W[hg];B[jg];W[kf];B[nf];W[hi];
B[hk];W[ib];B[kb];W[rd];B[gh];W[ig];B[je];W[id];B[jj];W[lg];B[nh];W[li];B[lk];
W[mj];B[mk];W[nj];B[hh];W[gg];B[fh];W[qc];B[oi];W[oj];B[qh];W[qi];B[qg];W[pc];
B[pf];W[qe];B[oc];W[pe];B[oe];W[fg];B[eg];W[ih];B[ii];W[ef];B[dg];W[ff];B[ee];
W[df];B[cf];W[ak];B[ai];W[da];B[ca];W[ea];B[cb];W[fp];B[fo];W[gq];B[hp];W[qr];
B[pr];W[rs];B[ri];W[rj];B[rh];W[pg];B[of];W[pb];B[ob];W[le];B[md];W[pi];B[ph];
W[nm];B[sj];W[rk];B[mm];W[ni];B[oh];W[rf];B[ec];W[fb];B[nk];W[ok];B[nl];W[ol];
B[jq];W[jr];B[kq];W[kp];B[jp];W[kr];B[co];W[bo];B[fd];W[ld];B[lc];W[ki];B[ji];
W[kj];B[kk];W[eh];B[dh];W[me];B[ne];W[cp];B[gc];W[gb];B[hq];W[hr];B[ep];W[do];
B[eo];W[eq];B[nr];W[dm];B[dn];W[dl];B[em];W[sk];B[si];W[ke];B[jd];W[mh];B[mf];
W[ps];B[os];W[qs];B[ge];W[gf];B[pa];W[qa];B[oa];W[sg];B[ia];W[ha];B[ja];W[qd];
B[od];W[mg];B[ng];W[ms];B[ns];W[mn];B[ln];W[nn];B[mr];W[ls];B[kh];W[al];B[aj];
W[rg];B[np];W[oo];B[ik];W[];B[])
