(;FF[4]BR[12k]CP[online-go.com]DT[2016-01-30]GM[1]KM[6.5]PB[nugro]
PC[OGS: http://online-go.com/game/3840751]PW[Ben-j]RE[W+26.5]RU[japanese]SZ[19]
WR[6k];B[dd];W[pp];B[dp];W[pc];B[nq];W[lp];B[qq];W[pq];B[qp];W[po];B[qo];W[qn];
B[rn];W[qm];B[rm];W[rl];B[pr];W[or];B[qr];W[oq];B[jq];W[cf];B[gc];W[bd];B[cc];
W[ci];B[cm];W[dr];B[cq];W[gq];B[hp];W[gp];B[ho];W[go];B[hn];W[fm];B[qe];W[qg];
B[qc];W[qb];B[rc];W[pd];B[pf];W[pg];B[of];W[nh];B[oh];W[og];B[ng];W[mh];B[mg];
W[md];B[ne];W[oi];B[lh];W[li];B[kh];W[mj];B[ki];W[kj];B[lr];W[mq];B[mr];W[np];
B[nr];W[sm];B[so];W[jc];B[le];W[ld];B[ke];W[jj];B[gn];W[fn];B[lq];W[mp];B[kp];
W[ko];B[jo];W[kn];B[jn];W[km];B[jm];W[jl];B[gl];W[cr];B[bq];W[bc];B[bb];W[cd];
B[db];W[de];B[ed];W[ee];B[fe];W[ff];B[ge];W[gf];B[hf];W[hg];B[dk];W[dj];B[cj];
W[di];B[bj];W[ek];B[dl];W[el];B[em];W[en];B[dm];W[fl];B[ej];W[fj];B[ei];W[eh];
B[gg];W[gh];B[fg];W[ef];B[hh];W[ig];B[gi];W[fh];B[fi];W[gj];B[hi];W[hj];B[dh];
W[ch];B[eg];W[dg];B[ji];W[if];B[he];W[ie];B[id];W[jd];B[je];W[hd];B[ic];W[hc];
B[ib];W[hb];B[jb];W[kb];B[kd];W[kc];B[lc];W[lb];B[mc];W[nd];B[nc];W[od];B[gb];
W[ia];B[gd];W[ja];B[rb];W[pb];B[il];W[jk];B[hq];W[hr];B[ir];W[gr];B[ij];W[ik];
B[ii];W[hl];B[im];W[gm];B[hm];W[gk];B[do];W[bi];B[eq];W[er];B[br];W[fq];B[rf];
W[rg];B[sg];W[sh];B[sf];W[rh];B[jg];W[qf];B[re];W[qd];B[rd];W[me];B[mf];W[pe];
B[ra];W[oe];B[nf];W[kf];B[jf];W[lg];B[lf];W[ih];B[id];W[ic];B[jh];W[id];B[eh];
W[nb];B[qa];W[pa];B[sn];W[sl];B[ql];W[rk];B[qk];W[rj];B[pn];W[pm];B[on];W[om];
B[nn];W[mn];B[nm];W[pk];B[qj];W[pj];B[qi];W[ri];B[pl];W[ol];B[ok];W[nl];B[ml];
W[nk];B[ai];W[ah];B[aj];W[bg];B[os];W[op];B[dn];W[ab];B[ba];W[ga];B[fa];W[ha];
B[fb];W[bs];B[ar];W[is];B[js];W[hs];B[cs];W[ds];B[fs];W[ep];B[eo];W[dq];B[fo];
W[fp];B[as];W[cs];B[fr];W[ac];B[aa];W[];B[])
