(;FF[4]BR[18k]CP[online-go.com]DT[2016-03-15]GM[1]KM[6.5]PB[timuzhti]
PC[OGS: http://online-go.com/game/4352854]PW[TARAHUMARA]RE[W+R]RU[japanese]
SZ[19]WR[11k];B[pd];W[dp];B[pq];W[dd];B[ql];W[nc];B[qf];W[qb];B[lc];W[ne];B[id]
;W[cf];B[ck];W[ci];B[cn];W[fq];B[iq];W[co];B[fc];W[ec];B[ff];W[nq];B[op];W[kq];
B[hm];W[jm];B[jj];W[in];B[ng];W[pc];B[lf];W[od];B[pe];W[ol];B[mm];W[qn];B[pm];
W[rk];B[rl];W[qk];B[pk];W[pl];B[ok];W[qm];B[nk];W[rm];B[om];W[nl];B[ml];W[sl];
B[nm];W[ql];B[qo];W[qh];B[oi];W[ko];B[hn];W[io];B[ej];W[mf];B[mg];W[le];B[kf];
W[ei];B[fi];W[eh];B[fh];W[eg];B[fg];W[dn];B[cm];W[dm];B[dl];W[dj];B[dk];W[fo];
B[fm];W[fd];B[gd];W[fe];B[ge];W[ef];B[gb];W[ik];B[hj];W[ij];B[il];W[jl];B[ii];
W[jk];B[kj];W[hk];B[gk];W[gl];B[hl];W[gj];B[hi];W[fk];B[fl];W[ek];B[fj];W[gk];
B[el];W[gm];B[gn];W[fn];B[hp];W[ho];B[go];W[gp];B[en];W[eo])
