(;FF[4]BR[12k]CP[online-go.com]DT[2016-02-14]GM[1]KM[6.5]PB[brwnstn]
PC[OGS: http://online-go.com/game/4002220]PW[origamista]RE[B+R]RU[japanese]
SZ[19]WR[9k];B[pc];W[pp];B[cd];W[dp];B[qe];W[ec];B[hd];W[cb];B[ed];W[dc];B[fd];
W[dd];B[de];W[cc];B[ef];W[cj];B[jq];W[qi];B[fq];W[fp];B[gp];W[fo];B[eq];W[dq];
B[qn];W[rp];B[nq];W[oq];B[np];W[ql];B[on];W[or];B[ch];W[go];B[hp];W[ek];B[ep];
W[eo];B[kd];W[bd];B[oi];W[pj];B[ho];W[nh];B[oj];W[ol];B[mm];W[mk];B[hm];W[mg];
B[ph];W[qh];B[pg];W[ce];B[mj];W[kh];B[kj];W[ih];B[hj];W[jj];B[jk];W[nm];B[nn];
W[ml];B[lm];W[ki];B[fm];W[dm];B[ji];W[lj];B[kk];W[nj];B[li];W[mi];B[ok];W[pi];
B[oh];W[pk];B[nk];W[nl];B[jg];W[jh];B[ii];W[me];B[mc];W[jd];B[jc];W[kc];B[ic];
W[ld];B[ke];W[lc];B[nd];W[mr];B[nr];W[ns];B[lq];W[lb];B[el];W[dl];B[dk];W[dj];
B[fk];W[ck];B[ej];W[ei];B[fj];W[nb];B[mb];W[ma];B[di];W[hi];B[ij];W[qr];B[hh];
W[pf];B[qf];W[od];B[oc];W[qg];B[of];W[hg];B[gh];W[jb];B[ig];W[df];B[dg];W[ee];
B[fe];W[ci];B[dh];W[eg];B[de];W[cf];B[fg];W[bh];B[eh];W[em];B[lh];W[kg];B[lg];
W[cg];B[pe];W[fl];B[gl];W[ir];B[jr];W[dr];B[ne];W[gr];B[gq];W[fr];B[ni];W[ib];
B[hb];W[mj];B[lf];W[iq];B[ip];W[er];B[is];W[hr];B[mh])
