(;FF[4]BR[6k]CP[online-go.com]DT[2016-08-15]GM[1]KM[6.5]PB[icky]
PC[OGS: http://online-go.com/game/6090204]PW[Orbix19]RE[W+R]RU[japanese]SZ[19]
WR[5k];B[pp];W[dd];B[pc];W[dp];B[pi];W[nq];B[qn];W[fc];B[jd];W[pe];B[qe];W[pd];
B[qd];W[oc];B[qb];W[pb];B[qc];W[nd];B[pf];W[ld];B[cj];W[cl];B[bd];W[cd];B[be];
W[bc];B[df];W[ch];B[ej];W[eh];B[ff];W[fi];B[fk];W[hi];B[lq];W[pj];B[qj];W[qq];
B[pq];W[pr];B[or];W[qr];B[oq];W[ro];B[rn];W[qo];B[po];W[qp];B[cn];W[el];B[bl];
W[bk];B[ck];W[bm];B[dl];W[cm];B[dm];W[dn];B[bj];W[al];B[em];W[do];B[fq];W[dr];
B[iq];W[ge];B[gg];W[ji];B[ig];W[hf];B[hg];W[jf];B[ke];W[if];B[jg];W[kf];B[le];
W[me];B[lf];W[kg];B[mf];W[nf];B[ng];W[of];B[oe];W[od];B[og];W[ne];B[lc];W[mc];
B[lb];W[mb];B[nb];W[la];B[ob];W[kc];B[jc];W[jb];B[hc];W[pg];B[qf];W[mg];B[lg];
W[mh];B[lh];W[oh];B[kh];W[jh];B[mi];W[nh];B[gi];W[gj];B[gh];W[fj];B[hj];W[gk];
B[ii];W[ij];B[ih];W[jj];B[hk];W[fl];B[hl];W[fm];B[en];W[fp];B[gp];W[fn];B[ah];
W[bg];B[ag];W[bf];B[ce];W[af];B[nj];W[jl];B[gl];W[ek];B[im];W[jm];B[in];W[lk];
B[li];W[nl];B[ok];W[mn];B[kn];W[jn];B[ko];W[jo];B[kp];W[io];B[ho];W[ol];B[pk];
W[on];B[lm];W[ll];B[mm];W[nk];B[bb];W[ac];B[cb];W[cc];B[db];W[fd];B[fe];W[gc];
B[hd];W[gd];B[ee];W[ec];B[gb];W[eb];B[fb];W[fa];B[hb];W[pn];B[np];W[ql];B[pl];
W[qm];B[gf];W[he];B[ed];W[dc];B[ca];W[ea];B[ba];W[qg];B[rg];W[rh];B[rf];W[oi];
B[oj];W[qi];B[ri];W[qh];B[rj];W[sh];B[er];W[dq];B[ds];W[cs];B[es];W[br];B[dh];
W[di];B[dg];W[ci];B[ga];W[ib];B[je];W[ab];B[nm];W[om])
