(;FF[4]BR[1k]CP[online-go.com]DT[2016-03-29]GM[1]KM[6.5]PB[Zwergesel]
PC[OGS: http://online-go.com/game/4650008]PW[Senffarbe]RE[B+25.5]RU[japanese]
SZ[19]WR[4k];B[jj];W[pd];B[dp];W[pq];B[dc];W[cj];B[qj];W[cn];B[qf];W[nc];B[fq];
W[de];B[po];W[mq];B[ce];W[cf];B[cd];W[df];B[fc];W[en];B[qq];W[qr];B[qp];W[or];
B[oj];W[rd];B[re];W[cq];B[cp];W[dq];B[ep];W[bp];B[bo];W[bq];B[co];W[bn];B[an];
W[am];B[ao];W[er];B[bm];W[qe];B[cm];W[qh];B[pe];W[qd];B[pf];W[rg];B[rf];W[pi];
B[pj];W[nh];B[oh];W[oi];B[ph];W[ni];B[qi];W[ng];B[rh];W[ne];B[jd];W[nj];B[fr];
W[jc];B[ic];W[kc];B[kd];W[lc];B[jq];W[nl];B[pm];W[jg];B[hd];W[hg];B[el];W[gk];
B[dk];W[jl];B[ei];W[dh];B[gm];W[gi];B[im];W[il];B[hl];W[hk];B[kn];W[ll];B[bh];
W[di];B[bf];W[ej];B[dj];W[ek];B[dl];W[ci];B[ff];W[eg];B[fg];W[fh];B[sd];W[sc];
B[se];W[rr];B[rc];W[qc];B[rb];W[qb];B[fs];W[es];B[lr];W[so];B[ro];W[sp];B[sn];
W[rq];B[rn];W[mr];B[ap];W[bs];B[lq];W[gl];B[hm];W[jm];B[jn];W[ra];B[sb];W[bi];
B[kf];W[kg];B[if];W[ig];B[lf];W[ls];B[ks];W[ms];B[lp];W[ib];B[hb];W[jb];B[lg];
W[lh];B[hf];W[gg];B[fe];W[jf];B[je];W[ha];B[gb];W[mp];B[lo];W[ld];B[rp];W[sq];
B[ol];W[gf];B[ge];W[bk];B[al];W[og];B[pg];W[le];B[ke];W[mf];B[nm];W[ml];B[no];
W[op];B[fl];W[oo];B[on];W[ed];B[fk];W[fj];B[eq];W[cr];B[aq];W[ar];B[np];W[nq];
B[mo];W[pp];B[km];W[kl];B[ec];W[fd];B[gd];W[mm];B[mn];W[ok];B[pk];W[nk];B[oe];
W[od];B[cg];W[dg];B[dd];W[ch];B[bg];W[ee];B[ah];W[ga];B[fa];W[ia];B[bl];W[ck];
B[lm];W[mg];B[ie];W[of];B[aj];W[ak];B[ai];W[cl];B[dn];W[];B[ef];W[eh];B[];W[])
