(;FF[4]BR[14k]CP[online-go.com]DT[2016-05-10]GM[1]KM[6.5]PB[mananita]
PC[OGS: http://online-go.com/game/5204826]PW[rantash]RE[B+31.5]RU[japanese]
SZ[19]WR[12k];B[pd];W[dp];B[pp];W[dd];B[fc];W[cf];B[hd];W[db];B[fq];W[cn];B[ip]
;W[qf];B[md];W[rd];B[qc];W[qi];B[pg];W[qg];B[pk];W[qq];B[pq];W[qp];B[qo];W[ro];
B[qn];W[rn];B[dj];W[fo];B[dr];W[cq];B[dm];W[cm];B[dl];W[dh];B[lq];W[fm];B[qr];
W[rq];B[rl];W[rr];B[qs];W[rs];B[or];W[in];B[pi];W[ln];B[ml];W[fj];B[fh];W[ei];
B[ff];W[hi];B[jl];W[jj];B[jn];W[il];B[ik];W[jk];B[im];W[hl];B[io];W[hn];B[kl];
W[lk];B[ll];W[mk];B[kk];W[ig];B[lh];W[je];B[jd];W[ke];B[kd];W[mf];B[ng];W[li];
B[nf];W[mg];B[mh];W[kh];B[lj];W[mj];B[kj];W[ki];B[mi];W[gg];B[lf];W[le];B[me];
W[he];B[kg];W[jh];B[ch];W[ci];B[di];W[bh];B[dg];W[cg];B[fg];W[fd];B[gd];W[fe];
B[go];W[gn];B[ho];W[rc];B[qh];W[rh];B[ph];W[ri];B[qj];W[qb];B[pb];W[qd];B[pc];
W[qa];B[pa];W[rb];B[rj];W[ec];B[fb];W[cr];B[ds];W[cs];B[eq];W[ep];B[fp];W[eo];
B[if];W[jf];B[ie];W[hf];B[id];W[jg];B[fk];W[ek];B[gh];W[hg];B[fi];W[ej];B[dk];
W[gk];B[ij];W[ji];B[gj];W[hj];B[eh];W[fl];B[ch];W[cj];B[ck];W[bj];B[bk];W[bm];
B[df];W[dh];B[ee];W[ch];B[ge];W[gf];B[ed];W[de];B[eb];W[dc];B[da];W[ca];B[ea];
W[cb];B[pe];W[qe];B[si];W[rg];B[rm];W[sn];B[gi];W[hk];B[dq];W[sh];B[sj];W[hh];
B[ld];W[hm];B[jm];W[sm];B[sl];W[pf];B[of];W[kf];B[lg];W[];B[])
