(;FF[4]BR[9k]CP[online-go.com]DT[2016-04-12]GM[1]KM[6.5]PB[mlopezviedma]
PC[OGS: http://online-go.com/game/4854552]PW[Nutsy]RE[B+R]RU[japanese]SZ[19]
WR[8k];B[pd];W[qp];B[op];W[oq];B[nq];W[pq];B[cd];W[dq];B[np];W[qn];B[jq];W[co];
B[ec];W[cj];B[ch];W[kc];B[mc];W[hc];B[pj];W[qk];B[qj];W[pk];B[ok];W[oj];B[oi];
W[nj];B[ni];W[nk];B[ol];W[nl];B[om];W[rj];B[qi];W[ri];B[qh];W[mi];B[nm];W[mm];
B[mn];W[lm];B[mh];W[li];B[lh];W[ji];B[jd];W[jc];B[id];W[hd];B[jf];W[kh];B[kg];
W[qc];B[qd];W[rd];B[re];W[ob];B[pc];W[pb];B[qb];W[rc];B[rb];W[rh];B[qg];W[mb];
B[eq];W[ep];B[fq];W[fp];B[gp];W[go];B[hp];W[ho];B[dk];W[dj];B[cn];W[dn];B[dm];
W[cm];B[bn];W[bm];B[do];W[en];B[bo];W[cp];B[cl];W[bl];B[fk];W[ek];B[el];W[ej];
B[hl];W[ck];B[fl];W[dl];B[hi];W[ig];B[jh];W[ki];B[ih];W[cf];B[eh];W[bh];B[bg];
W[bi];B[cg];W[ag];B[af];W[ah];B[bf];W[md];B[lb];W[nc];B[ne];W[hf];B[ic];W[ib];
B[if];W[hg];B[he];W[ge];B[ie];W[gf];B[gd];W[fd];B[gc];W[hb];B[fc];W[jg];B[lf];
W[ii];B[hh];W[hj];B[fi];W[gh];B[gi];W[fh];B[ei];W[fg];B[fe];W[eg];B[dg];W[df];
B[ee];W[ko];B[lp];W[dr];B[gr];W[ip];B[iq];W[jp];B[kp];W[lo];B[mo];W[or];B[nr];
W[im];B[ln];W[kn];B[km];W[kl];B[jm];W[jl];B[jn];W[in];B[jo];W[io];B[nd];W[lc];
B[me];W[pm];B[pl];W[ql];B[ll];W[ml];B[lk];W[mj];B[il];W[jk];B[ik];W[ij];B[kk];
W[jj];B[em];W[gk];B[fj];W[gl];B[fn];W[gm];B[eo];W[bp];B[gb])
