(;FF[4]BR[13k]CP[online-go.com]DT[2016-08-13]GM[1]KM[6.5]PB[rantash]
PC[OGS: http://online-go.com/game/6076978]PW[Krakatok]RE[W+R]RU[japanese]SZ[19]
WR[9k];B[pd];W[dd];B[pp];W[dq];B[do];W[co];B[cn];W[cp];B[dm];W[fq];B[ci];W[cg];
B[ei];W[nc];B[qf];W[pb];B[qc];W[kc];B[qk];W[nq];B[lq];W[qq];B[qp];W[pq];B[op];
W[nr];B[mo];W[fc];B[ff];W[ne];B[nh];W[jq];B[jn];W[jg];B[ji];W[gn];B[hl];W[hh];
B[hj];W[fh];B[dg];W[eg];B[dh];W[ef];B[df];W[de];B[cf];W[lh];B[li];W[kp];B[lo];
W[rn];B[ro];W[ql];B[pl];W[rl];B[rk];W[qo];B[rp];W[pn];B[po];W[pm];B[ol];W[nn];
B[no];W[nm];B[om];W[on];B[lm];W[rq];B[cc];W[cd];B[bd];W[be];B[ad];W[dc];B[db];
W[bc];B[cb];W[bb];B[ba];W[ae];B[mg];W[lf];B[of];W[im];B[hm];W[in];B[hn];W[io];
B[go];W[ho];B[fo];W[kn];B[ln];W[gj];B[gk];W[fj];B[dk];W[km];B[kl];W[jl];B[jk];
W[bg];B[bh];W[bn];B[bm];W[bo];B[qb];W[oc];B[oe];W[lp];B[nl];W[jh];B[ii];W[hi];
B[fk];W[ej];B[dj];W[mi];B[mh];W[ki];B[lj];W[kk];B[ll];W[kj];B[ik];W[lk];B[mk];
W[mj];B[nj];W[ni];B[oi];W[jj];B[ij];W[gp];B[bf];W[af];B[ko];W[jm];B[jo];W[jp];
B[mf];W[me];B[ep];W[eq];B[fp];W[hq];B[fi];W[gi];B[eh];W[fg];B[ah];W[ag];B[ch];
W[ac])
