(;FF[4]BR[19k]CP[online-go.com]DT[2016-06-01]GM[1]KM[6.5]PB[Keith Ball]
PC[OGS: http://online-go.com/game/5423945]PW[mentikora]RE[B+26.5]RU[japanese]
SZ[19]WR[22k];B[pd];W[dd];B[pp];W[dp];B[pj];W[dj];B[gp];W[jp];B[mp];W[nc];B[oc]
;W[nd];B[ob];W[jd];B[pg];W[qn];B[qo];W[pn];B[ro];W[mn];B[ep];W[eq];B[fq];W[cq];
B[eo];W[do];B[en];W[dn];B[gn];W[dl];B[el];W[em];B[fm];W[dm];B[ek];W[jn];B[jj];
W[mj];B[ng];W[lh];B[jg];W[lf];B[ne];W[md];B[me];W[ld];B[ni];W[ml];B[jl];W[pk];
B[qk];W[pl];B[hl];W[dg];B[eg];W[gd];B[ge];W[fe];B[gf];W[ff];B[fg];W[ef];B[hd];
W[hc];B[gc];W[fd];B[ic];W[hb];B[ib];W[gb];B[id];W[jc];B[gg];W[lq];B[mq];W[lp];
B[iq];W[jq];B[je];W[fi];B[ej];W[ei];B[gi];W[kj];B[le];W[ke];B[kf];W[kd];B[lg];
W[mi];B[mh];W[nj];B[oi];W[oj];B[qj];W[ip];B[hq];W[mr];B[nr];W[lr];B[ns];W[kl];
B[kh];W[li];B[ki];W[jk];B[ik];W[kk];B[ij];W[fj];B[fl];W[ql];B[ie];W[dh];B[jb];
W[kb];B[ka];W[la];B[ja];W[lb];B[nb];W[mb];B[lc];W[od];B[pe];W[jm];B[il];W[im];
B[mo];W[lo];B[rl];W[rm];B[no];W[nn];B[po];W[oo];B[op];W[on];B[oq];W[rk];B[rj];
W[sl];B[jr];W[fc];B[er];W[dq];B[dr];W[cr];B[fr];W[gj];B[hj];W[gh];B[hi];W[fh];
B[hh];W[dk];B[hm];W[io];B[ho];W[oe];B[of];W[pc];B[pb];W[qc];B[qb];W[rb];B[rc];
W[qd];B[sb];W[qe];B[pf];W[qf];B[qg];W[rg];B[rh];W[rf];B[qh];W[sh];B[ri];W[si];
B[sj];W[sg];B[hn];W[rd];B[ra];W[se];B[sc];W[sd];B[kr];W[kq];B[ks];W[ls];B[ir];
W[gk];B[cc];W[cd];B[dc];W[bc];B[bb];W[cb];B[bd];W[db];B[ac];W[ec];B[be];W[bc];
B[ba];W[ca];B[cc];W[bf];B[ae];W[af];B[cf];W[bg];B[cg];W[bh];B[ce];W[df];B[bc];
W[ch];B[de];W[dc];B[gl];W[];B[])
