(;FF[4]BR[11k]CP[online-go.com]DT[2016-05-17]GM[1]KM[6.5]PB[mil0622]
PC[OGS: http://online-go.com/game/5275863]PW[任平生]RE[W+44.5]RU[japanese]
SZ[19]WR[2d];B[pp];W[cd];B[cp];W[pc];B[iq];W[qn];B[ql];W[qq];B[pq];W[qp];B[po];
W[rn];B[qi];W[pn];B[mp];W[qe];B[rg];W[rf];B[pg];W[ep];B[dn];W[cq];B[dp];W[dq];
B[fr];W[er];B[fq];W[bp];B[bo];W[bq];B[bn];W[eq];B[go];W[ci];B[cl];W[ec];B[kc];
W[hc];B[nc];W[ob];B[nb];W[jb];B[kb];W[jc];B[nf];W[kd];B[ld];W[le];B[md];W[ke];
B[lg];W[jg];B[fk];W[fi];B[ik];W[mn];B[ko];W[kn];B[jn];W[km];B[jm];W[lo];B[lp];
W[fp];B[gp];W[bk];B[nl];W[om];B[ol];W[oe];B[ne];W[of];B[og];W[lj];B[kl];W[ji];
B[mi];W[mj];B[nj];W[li];B[mh];W[ck];B[dk];W[dj];B[ek];W[hj];B[hk];W[fs];B[gr];
W[gs];B[hr];W[bl];B[bm];W[en];B[em];W[fn];B[ii];W[ij];B[jj];W[kj];B[gj];W[hi];
B[gi];W[hh];B[gh];W[ff];B[hg];W[ih];B[fg];W[eg];B[gf];W[fh];B[gg];W[fe];B[ge];
W[gd];B[lm];W[pr];B[or];W[qr];B[mm];W[nn];B[ln];W[os];B[nr];W[ns];B[ms];W[ps];
B[mr];W[rh];B[qh];W[sg];B[qg];W[rd];B[ri];W[gn];B[hn];W[ka];B[lb];W[jk];B[jl];
W[rl];B[rk];W[qm];B[pl];W[fm];B[dm];W[ie];B[ei];W[eh];B[ej];W[di];B[if];W[jf];
B[he];W[hd];B[sl];W[rm];B[kh];W[lh];B[kg];W[mg];B[mf];W[nk];B[oj];W[mk];B[ok];
W[sm];B[sk];W[mo];B[oo];W[on];B[od];W[pd];B[pf];W[pe];B[oc];W[pb];B[ig];W[jh];
B[hs];W[es];B[ap];W[aq];B[fl];W[hm];B[im];W[sh];B[si];W[sf];B[hl];W[gm];B[gl];
W[ao];B[do];W[na];B[ma];W[oa];B[la];W[ja];B[fo];W[eo];B[qo];W[ro];B[no];W[lf];
B[al];W[ak];B[am];W[kf];B[ng];W[ki];B[mg];W[kk];B[ll];W[bs];B[an];W[ap];B[];W[]
)
