(;FF[4]BR[6k]CP[online-go.com]DT[2016-04-12]GM[1]KM[6.5]PB[leopold]
PC[OGS: http://online-go.com/game/4857610]PW[GrimChase]RE[W+R]RU[japanese]
SZ[19]WR[6k];B[pd];W[qp];B[dc];W[dp];B[ce];W[nc];B[qf];W[jc];B[lc];W[lb];B[op];
W[jq];B[qq];W[rq];B[pq];W[qm];B[lq];W[jo];B[rr];W[qj];B[cn];W[en];B[cq];W[dq];
B[cp];W[do];B[co];W[el];B[lo];W[ld];B[pb];W[gc];B[dj];W[dg];B[ee];W[fg];B[ck];
W[ge];B[eh];W[eg];B[fj];W[bg];B[ch];W[cg];B[dm];W[em];B[ne];W[lf];B[md];W[me];
B[nd];W[mc];B[pi];W[pj];B[oi];W[nf];B[mg];W[mf];B[qi];W[ad];B[bd];W[bc];B[cd];
W[cb];B[db];W[ae];B[fb];W[ed];B[gb];W[hc];B[hb];W[ec];B[cc];W[bb];B[ib])
