(;FF[4]BR[15k]CP[online-go.com]DT[2016-02-04]GM[1]KM[6.5]PB[Odo]
PC[OGS: http://online-go.com/game/3905197]PW[Fumbar]RE[B+R]RU[japanese]SZ[19]
WR[20k];B[pd];W[dp];B[dc];W[qp];B[ce];W[oq];B[qj];W[ql];B[oj];W[qf];B[qd];W[qi]
;B[pi];W[nf];B[md];W[hc];B[jc];W[ec];B[id];W[ee];B[dh];W[ib];B[jb];W[ge];B[hd];
W[gd];B[eb];W[fb];B[fc];W[ed];B[gb];W[db];B[fa];W[cb];B[cc];W[ba];B[bc];W[gc];
B[hb];W[ic];B[ia];W[dj];B[qh];W[mh];B[ri];W[ih];B[hg];W[gf];B[gg];W[fg];B[fh];
W[df];B[cf];W[eg];B[ff];W[hf];B[if];W[ie];B[je];W[he];B[jd];W[gh];B[hh];W[ig];
B[gi];W[jf];B[ii];W[kf];B[jq];W[hp];B[mq];W[hr];B[mo];W[pn];B[cq];W[dq];B[cp];
W[co];B[bo];W[cn];B[bn];W[cm];B[dr];W[er];B[cr];W[eo];B[jo];W[mk];B[rk];W[rl];
B[sl];W[sm];B[sk];W[rm];B[eh];W[fj];B[ck];W[bl];B[cj];W[di];B[ci];W[dk];B[cl];
W[bm];B[dl];W[el];B[dm];W[em];B[bk];W[jk];B[hk];W[im];B[nr];W[or];B[gl];W[hn];
B[dn];W[do];B[en];W[fn];B[fm];W[fl];B[gm];W[gk];B[gj];W[ji];B[gn];W[fo];B[go];
W[gp];B[os];W[fk];B[hl];W[ol];B[pr];W[qr];B[pq];W[pp];B[op];W[qq];B[nq];W[jr];
B[kr];W[iq];B[js];W[kq];B[ir];W[jp];B[jr];W[kp];B[lq];W[kn];B[ko];W[ln];B[lo];
W[nn];B[io];W[ho];B[ij];W[jj];B[ip];W[hq];B[qs];W[rs];B[ps];W[rr];B[es];W[fs];
B[ds];W[fq];B[mn];W[mm];B[jn];W[jm];B[re];W[rf];B[lm];W[km];B[nm];W[ml];B[on];
W[om];B[no];W[nl];B[pg];W[pf];B[og];W[of];B[od];W[an];B[ap])
