(;FF[4]BR[8k]CP[online-go.com]DT[2016-06-23]GM[1]KM[6.5]PB[Copacetic]
PC[OGS: http://online-go.com/game/5629362]PW[bkhl]RE[W+R]RU[japanese]SZ[19]
WR[8k];B[pd];W[dd];B[pq];W[dp];B[fq];W[cn];B[qk];W[po];B[lp];W[qq];B[qr];W[qp];
B[pp];W[oo];B[qo];W[ro];B[qn];W[rr];B[rq];W[rp];B[rs];W[sq];B[or];W[rn];B[qm];
W[np];B[nq];W[mp];B[mq];W[lo];B[ko];W[ln];B[kn];W[lm];B[fo];W[km];B[ci];W[cf];
B[dq];W[cq];B[cr];W[cp];B[br];W[eq];B[er];W[dr];B[ep];W[fr];B[dq];W[kp];B[lq];
W[eq];B[es];W[ds];B[dq];W[jp];B[io];W[eq];B[do];W[fs];B[co];W[bo];B[bp];W[dn];
B[eo];W[bm];B[bq];W[dq];B[ao];W[bn];B[gq];W[hr];B[gr];W[gs];B[hq];W[ir];B[hs];
W[kr];B[cs];W[is];B[ks];W[lr];B[kq];W[mr];B[jq];W[jr];B[as];W[dj];B[dl];W[ck];
B[ej];W[di];B[ei];W[dh];B[im];W[jm];B[db];W[cc];B[ed];W[jd];B[hc];W[jo];B[op];
W[om];B[nr];W[nc];B[ne];W[md];B[lf];W[oj];B[ol];W[nl];B[nk];W[pl];B[ok];W[pm];
B[ql];W[pk];B[pj];W[ni];B[nm];W[no];B[ml];W[li];B[jk];W[lk];B[mj];W[lj];B[mi];
W[ji];B[ll];W[kl];B[kk];W[nh];B[mh];W[jf];B[jh];W[kh];B[jg];W[ii];B[ij];W[kg];
B[hh];W[kf];B[le];W[mm];B[on];W[pn];B[nn];W[mo];B[nj];W[ip];B[in];W[jn];B[iq];
W[il];B[ik];W[hl];B[gm];W[hi];B[gj];W[jl];B[gk];W[gl];B[fl];W[qj];B[pi];W[rj];
B[ld];W[kc];B[lc];W[rh];B[qg];W[rg];B[ie];W[je];B[jb];W[kb];B[jc];W[gh];B[hg];
W[gi];B[gg];W[fh];B[eh];W[fg];B[eg];W[fe];B[gf];W[ff];B[ee];W[ge];B[he];W[ig];
B[hd];W[ih];B[hf];W[kj];B[de];W[ce];B[dc];W[cd];B[dg];W[cg];B[cl];W[bl];B[sr];
W[ss];B[es];W[er];B[sr];W[mk];B[nl];W[ss];B[qi];W[ri];B[sr];W[pr];B[ps];W[qh];
B[oi];W[qf];B[rq];W[og];B[mg];W[rd];B[rm];W[sm];B[sn];W[rk])
