(;FF[4]BR[6k]CP[online-go.com]DT[2016-05-31]GM[1]KM[6.5]PB[thouis]
PC[OGS: http://online-go.com/game/5411134]PW[sigsfried]RE[B+R]RU[japanese]
SZ[19]WR[7k];B[pd];W[dp];B[pq];W[dd];B[qk];W[nc];B[pf];W[jd];B[cn];W[fq];B[dk];
W[cg];B[hq];W[bp];B[ho];W[ci];B[ei];W[po];B[pm];W[qq];B[qr];W[qp];B[rq];W[oq];
B[or];W[nq];B[nr];W[mq];B[mr];W[lq];B[pp];W[oo];B[qo];W[op];B[rp];W[fn];B[hm];
W[nk];B[nm];W[mm];B[mn];W[nn];B[ml];W[lm];B[nl];W[ln];B[ko];W[lo];B[mo];W[mp];
B[kq];W[kr];B[kp];W[lr];B[jr];W[qh];B[rf];W[oh];B[no];W[np];B[mo])
