(;FF[4]BR[16k]CP[online-go.com]DT[2016-03-06]GM[1]KM[6.5]PB[hpb0215]
PC[OGS: http://online-go.com/game/4177474]PW[Klimrod]RE[W+R]RU[japanese]SZ[19]
WR[12k];B[pd];W[dp];B[pq];W[dd];B[qk];W[cj];B[fc];W[ec];B[fd];W[cf];B[ef];W[nq]
;B[op];W[np];B[jc];W[eb];B[fq];W[eq];B[fp];W[cn];B[iq];W[kq];B[io];W[ko];B[dl];
W[en];B[fl];W[gn];B[fo];W[fn];B[ej];W[hp];B[ho];W[ip];B[jp];W[hq];B[im];W[jo];
B[go];W[hr];B[er];W[dr];B[ep];W[dq];B[gr];W[qg];B[qe];W[qm];B[qo];W[qj];B[pk];
W[om];B[nk];W[mm];B[mj];W[rj];B[kj];W[rk];B[of];W[lc];B[nc];W[hc];B[je];W[fb];
B[dh];W[ch];B[dg];W[cg];B[he];W[gl];B[hl];W[hm];B[hn];W[gm];B[ik];W[hk];B[il];
W[fk];B[ek];W[gi];B[gj];W[gk];B[hj];W[fj];B[fi];W[ei];B[fh];W[di];B[hh];W[hi];
B[ij];W[ii];B[ji];W[ih];B[gh];W[jg];B[ig];W[jh];B[kh];W[if];B[hf];W[kf];B[jf];
W[kg];B[le];W[lh])
