(;FF[4]BR[6k]CP[online-go.com]DT[2016-03-14]GM[1]KM[6.5]PB[thouis]
PC[OGS: http://online-go.com/game/4328180]PW[joerg]RE[B+R]RU[japanese]SZ[19]
WR[4k];B[pd];W[dp];B[pq];W[dd];B[qo];W[jq];B[nc];W[cj];B[fd];W[fc];B[gc];W[ec];
B[gd];W[cq];B[kp];W[jp];B[jo];W[io];B[jn];W[qi];B[qk];W[qf];B[of];W[rd];B[qc];
W[in];B[jm];W[kq];B[lp];W[oi];B[nh];W[pk];B[pl];W[ok];B[ol];W[qj];B[ql];W[mj];
B[ni];W[nj];B[kh];W[ig];B[fg];W[ii];B[fi];W[ie];B[jc];W[lh];B[lg];W[kg];B[li];
W[mh];B[mi];W[mg];B[lf];W[jh];B[ki];W[kf];B[ke];W[je];B[le];W[jd];B[kc];W[kd];
B[ld];W[gf];B[ff];W[ek];B[cf];W[ce];B[cc];W[df];B[cg];W[be];B[dg];W[db];B[fk];
W[fl];B[ej];W[dk];B[hm];W[im];B[il];W[gm];B[hl];W[hn];B[hh];W[hg];B[jf];W[jg];
B[he];W[ic];B[ib];W[ge];B[hd];W[fe];B[ee];W[ef];B[gg];W[hf];B[ed];W[de];B[id];
W[if];B[gk];W[jj];B[kk])
