(;FF[4]BR[8k]CP[online-go.com]DT[2016-05-15]GM[1]KM[6.5]PB[lampe12]
PC[OGS: http://online-go.com/game/5254326]PW[judoka_ser]RE[B+53.5]RU[japanese]
SZ[19]WR[14k];B[pd];W[dp];B[cd];W[pp];B[ic];W[jq];B[cn];W[oj];B[md];W[jj];B[dk]
;W[qf];B[rd];W[bc];B[cc];W[bd];B[be];W[qc];B[qd];W[pc];B[oc];W[ob];B[nc];W[nb];
B[mb];W[rc];B[qq];W[rp];B[pq];W[rq];B[op];W[po];B[oo];W[nq];B[oq];W[bo];B[nr];
W[mq];B[mr];W[lq];B[rr];W[sr];B[pr];W[qp];B[qk];W[pl];B[ql];W[pk];B[qi];W[qm];
B[na];W[pa];B[sc];W[sb];B[ra];W[qa];B[ma];W[rb];B[pb];W[gl];B[en];W[fo];B[oi];
W[ni];B[oh];W[nh];B[og];W[of];B[ng];W[nf];B[mf];W[jf];B[dh];W[bm];B[bn];W[co];
B[an];W[ao];B[kg];W[jg];B[fn];W[gn];B[gm];W[hm];B[fm];W[go];B[hl];W[im];B[gk];
W[il];B[kh];W[hk];B[jh];W[ce];B[bf];W[cb];B[de];W[db];B[dd];W[gj];B[fk];W[fc];
B[rm];W[qn];B[on];W[rn];B[nj];W[nk];B[mj];W[mk];B[pj];W[ok];B[lr];W[kr];B[hd];
W[gf];B[fd];W[gc];B[ec];W[eb];B[mn];W[kn];B[fj];W[gi];B[fi];W[gd];B[ge];W[fe];
B[he];W[ed];B[hf];W[gg];B[ig];W[mi];B[lj];W[lk];B[li];W[ii];B[rs];W[rl];B[rk];
W[sm];B[df];W[mm];B[hb];W[gb];B[nm];W[lm];B[dc];W[hc];B[ib];W[fa];B[sk];W[sl];
B[sd];W[mo];B[fl];W[dn];B[dm];W[do];B[cm];W[fh];B[eh];W[eg];B[eo];W[ep];B[ha];
W[ee];B[dg];W[ef];B[no];W[ln];B[mp];W[lp];B[lo];W[ko];B[mo];W[nl];B[om];W[pm];
B[ad];W[ab];B[kj];W[kk];B[hh];W[hg];B[ih];W[gh];B[if];W[ji];B[hi];W[ki];B[lh];
W[hj];B[ks];W[js];B[ls];W[jp];B[ss];W[sq];B[ae];W[ac];B[hl];W[jk];B[gl];W[];B[]
)
