(;FF[4]BR[19k]CP[online-go.com]DT[2016-02-08]GM[1]KM[6.5]PB[adam12]
PC[OGS: http://online-go.com/game/3943403]PW[pfrobbins]RE[W+R]RU[japanese]
SZ[19]WR[14k];B[pd];W[qp];B[dp];W[dd];B[oq];W[pn];B[qq];W[qk];B[pp];W[qo];B[rq]
;W[qf];B[nc];W[cn];B[fq];W[bp];B[cq];W[ck];B[fc];W[cf];B[db];W[rd];B[qc];W[qi];
B[cc];W[cd];B[ic];W[jq];B[lq];W[gq];B[bq];W[fp];B[eq];W[ch];B[gp];W[hp];B[go];
W[gr];B[fo];W[kr];B[dm];W[cm];B[dl];W[ec];B[ed];W[ee];B[fd];W[dc];B[eb];W[cb];
B[de];W[ce];B[fe];W[ef];B[fh];W[eh];B[ff];W[ld];B[me];W[jc];B[lc];W[je];B[kd];
W[ke];B[jd];W[id];B[kc];W[hc];B[jb];W[he];B[ig];W[if];B[kg];W[hg])
