(;FF[4]BR[6k]CP[online-go.com]DT[2016-05-01]GM[1]KM[6.5]PB[redundant]
PC[OGS: http://online-go.com/game/5096639]PW[S_Alexander]RE[B+R]RU[japanese]
SZ[19]WR[7k];B[pd];W[dc];B[do];W[pp];B[de];W[fd];B[cc];W[cb];B[cd];W[bb];B[ci];
W[jc];B[nc];W[qj];B[nq];W[lq];B[qq];W[pq];B[qp];W[po];B[pr];W[or];B[qr];W[oq];
B[qn];W[dq];B[fp];W[co];B[dn];W[gq];B[fq];W[er];B[fr];W[cp];B[cn];W[bn];B[bm];
W[bo];B[jq];W[hp];B[jo];W[hn];B[hl];W[im];B[kn];W[km];B[lm];W[kl];B[ln];W[jn];
B[io];W[ho];B[lp];W[gr];B[fs];W[mr];B[pn];W[jr];B[cr];W[dr];B[bq];W[cq];B[bs];
W[ar];B[aq];W[ap];B[an];W[ds];B[qh])
