(;FF[4]BR[14k]CP[online-go.com]DT[2016-04-28]GM[1]KM[6.5]PB[wuigukin]
PC[OGS: http://online-go.com/game/5065503]PW[Scheknitrch]RE[B+52.5]RU[japanese]
SZ[19]WR[16k];B[pp];W[dd];B[qd];W[dp];B[oc];W[nq];B[pn];W[pr];B[qq];W[kp];B[cn]
;W[co];B[dn];W[fp];B[dj];W[fc];B[mo];W[no];B[nn];W[np];B[mn];W[pi];B[qg];W[nj];
B[lj];W[mh];B[og];W[kh];B[hq];W[hp];B[iq];W[jp];B[ip];W[io];B[gp];W[ho];B[go];
W[fq];B[gq];W[en];B[em];W[fn];B[gn];W[fm];B[jo];W[jn];B[ko];W[im];B[lp];W[kn];
B[lo];W[lq];B[kq];W[lr];B[qr];W[pq];B[kr];W[ls];B[ns];W[nr];B[ps];W[ms];B[el];
W[fl];B[hm];W[in];B[hl];W[il];B[kc];W[jj];B[cf];W[ce];B[df];W[ee];B[ef];W[fh];
B[cq];W[dq];B[bo];W[cp];B[bp];W[cr];B[qk];W[dh];B[ch];W[di];B[ci];W[mf];B[hc];
W[ff];B[cc];W[bd];B[eb];W[dc];B[db];W[fb];B[bc];W[be];B[ba];W[md];B[mb];W[ml];
B[op];W[os];B[pj];W[oi];B[qi];W[ol];B[on];W[kd];B[jd];W[ke];B[je];W[lc];B[kb];
W[lb];B[la];W[nc];B[nb];W[jf];B[nd];W[ne];B[mc];W[ld];B[oe];W[ng];B[bq];W[hk];
B[bf];W[ej];B[ek];W[fk];B[br];W[ds];B[lm];W[mm];B[ln];W[ll];B[pl];W[dk];B[cl];
W[cj];B[bj];W[bk];B[ck];W[dj];B[bi];W[dl];B[dm];W[bl];B[cm];W[do];B[bn];W[ie];
B[id];W[he];B[de];W[fd];B[cd];W[gm];B[hn];W[gr];B[hr];W[fs];B[kl];W[kk];B[km];
W[jl];B[qs];W[hb];B[ib];W[gc];B[ha];W[gb];B[ph];W[oh];B[of];W[nf];B[oj];W[nk];
B[eg];W[fg];B[eh];W[ei];B[ec];W[ed];B[hd];W[gd];B[bs];W[cs];B[ks];W[om];B[pm];
W[gl];B[hs];W[gs];B[oq];W[or];B[mp];W[mq];B[fo];W[eo];B[cb];W[nm];B[ok];W[dg];
B[cg];W[ga];B[ia];W[ea];B[da];W[fa];B[oo];W[];B[])
