(;FF[4]BR[13k]CP[online-go.com]DT[2016-07-22]GM[1]KM[6.5]PB[gfj1979]
PC[OGS: http://online-go.com/game/5885966]PW[GoFogey]RE[W+R]RU[japanese]SZ[19]
WR[10k];B[pd];W[dp];B[pq];W[dc];B[de];W[fd];B[cc];W[dd];B[cd];W[ee];B[df];W[ef]
;B[jd];W[dg];B[cg];W[ch];B[cf];W[eh];B[db];W[fc];B[fb];W[eb];B[ea];W[ec];B[cb];
W[gb];B[fa];W[ga];B[da];W[hd];B[jf];W[qf];B[qh];W[rd];B[qc];W[rc];B[rb];W[qd];
B[pc];W[pe];B[oe];W[qj];B[oh];W[pg];B[ph];W[og];B[ng];W[qm];B[fq];W[ip];B[cn];
W[fp];B[gp];W[fo];B[cq];W[cp];B[dq];W[dn];B[bp];W[bo];B[bq];W[bn];B[cm];W[co];
B[ci];W[bh];B[di];W[dh];B[bm];W[ak];B[bj];W[aj];B[ai];W[bi];B[bk];W[al];B[am];
W[ah];B[bl];W[ai];B[dk];W[go];B[hp];W[ho];B[iq];W[ei];B[ej];W[fj];B[fk];W[gj];
B[em];W[en];B[fm];W[eq];B[er];W[gq];B[hq];W[fr];B[gr];W[dr];B[cr];W[es];B[jp];
W[qp];B[pp];W[qq];B[qo];W[ro];B[rp];W[rn];B[qr];W[rq];B[rr];W[sp];B[pn];W[pm];
B[on];W[nh];B[mh];W[ni];B[nf];W[ke];B[je];W[jb];B[lc];W[lb];B[mb];W[kc];B[la];
W[kb];B[ld];W[kd];B[lf];W[kf];B[kg];W[jg];B[jh];W[ig];B[ji];W[nk];B[io];W[fq];
B[gs];W[fs];B[ir];W[le];B[me];W[qg];B[ol];W[om];B[nl];W[nm];B[ml];W[mm];B[pj];
W[mi];B[li];W[qi];B[pi];W[ok];B[nj];W[mj];B[oj];W[pk];B[mk];W[rh];B[lj];W[oi];
B[lm];W[mo];B[mp];W[np];B[no];W[nn];B[oo];W[lp];B[mq];W[ln];B[km];W[lq];B[mr];
W[lr];B[ms];W[kn];B[jm];W[jn];B[in];W[ar];B[ap];W[ih])
