(;FF[4]BR[4k]CP[online-go.com]DT[2016-02-16]GM[1]KM[6.5]PB[placz0]
PC[OGS: http://online-go.com/game/4017692]PW[Peyrauba]RE[B+R]RU[japanese]SZ[19]
WR[2k];B[pd];W[dp];B[pp];W[dc];B[de];W[dh];B[gd];W[ee];B[ef];W[fe];B[dd];W[fc];
B[cc];W[db];B[cf];W[cb];B[bc];W[dg];B[df];W[bg];B[ff];W[ge];B[dj];W[fh];B[cn];
W[cl];B[en];W[fq];B[bi];W[bh];B[gf];W[he];B[gh];W[fi];B[ig];W[gi];B[hh];W[ek];
B[bp];W[cq];B[gn];W[hp];B[io];W[qn];B[ql];W[qq];B[qp];W[pq];B[op];W[rp];B[ro];
W[rq];B[qo];W[nq];B[mp];W[mq];B[lp];W[kq];B[ij];W[gk];B[hl];W[qg];B[qi];W[rd];
B[og];W[ph];B[oj];W[nc];B[qc];W[rc];B[rb];W[qd];B[pc];W[pe];B[oe];W[pf];B[nd];
W[md];B[me];W[ld];B[rh];W[rg];B[re];W[se];B[rf];W[sc];B[sg];W[pi];B[pj];W[nh];
B[of];W[ni];B[le];W[ke];B[kf];W[je];B[lg];W[li];B[lh];W[nj];B[lk];W[nl];B[pn];
W[ji];B[ii];W[jf];B[jh];W[kg];B[kh];W[lf];B[mg];W[mf];B[ng];W[ne];B[od];W[pm];
B[qm];W[ll];B[mk];W[nk];B[kk];W[no];B[np];W[on];B[rn];W[kn];B[kp];W[in];B[ho];
W[hm];B[jm];W[jn];B[gm];W[il];B[hk];W[jl];B[mn];W[ml];B[nn];W[jj];B[ki];W[jo];
B[jp];W[ip];B[gp];W[gq];B[jq];W[fp];B[go];W[pk];B[qk];W[om];B[bq];W[br];B[bl];
W[bk];B[bm];W[ck];B[oq];W[or];B[hq];W[dm];B[dn];W[hr];B[ir];W[gs];B[km];W[kl];
B[ob];W[nb];B[cp];W[cr];B[lr];W[lq];B[kr])
