(;FF[4]BR[8k]CP[online-go.com]DT[2016-03-04]GM[1]KM[6.5]PB[valker]
PC[OGS: http://online-go.com/game/4159972]PW[dcguy]RE[W+11.5]RU[japanese]SZ[19]
WR[7k];B[pd];W[dd];B[pq];W[dp];B[qo];W[nc];B[pf];W[pb];B[qc];W[kc];B[jq];W[qi];
B[qg];W[ql];B[cn];W[cl];B[en];W[fp];B[dk];W[ck];B[dj];W[dl];B[el];W[cj];B[di];
W[ch];B[ic];W[qb];B[cd];W[ce];B[cc];W[dc];B[be];W[cf];B[db];W[eb];B[cb];W[fc];
B[ad];W[hq];B[jo];W[je];B[ie];W[if];B[jd];W[kd];B[jf];W[ke];B[he];W[hf];B[gf];
W[jg];B[gc];W[gd];B[ge];W[fd];B[gg];W[eh];B[ci];W[bi];B[dh];W[dg];B[bh];W[cg];
B[bj];W[dm];B[em];W[dn];B[do];W[co];B[eo];W[cp];B[ep];W[eq];B[bn];W[bk];B[aj];
W[ak];B[ai];W[bm];B[al];W[an];B[am];W[bl];B[am];W[bo];B[ao];W[ap];B[an];W[fq];
B[eg];W[ef];B[fg];W[ih];B[gj];W[ij];B[hm];W[oo];B[pn];W[pp];B[qp];W[oq];B[pr];
W[nm];B[on];W[nn];B[no];W[mo];B[np];W[mp];B[nq];W[mq];B[nr];W[jm];B[mr];W[kp];
B[kq];W[gi];B[fi];W[hi];B[fj];W[qe];B[pc];W[re];B[rb];W[oc];B[pe];W[rg];B[rh];
W[qh];B[rf];W[qf];B[sg];W[pg];B[rg];W[ri];B[rd];W[og];B[pl];W[ok];B[ol];W[nl];
B[pk];W[pj];B[qk];W[nf];B[hc];W[gb];B[bg];W[ko];B[jp];W[jn];B[hb];W[fa];B[ne];
W[me];B[nd];W[md];B[il];W[jl];B[ik];W[jk];B[hj];W[si];B[se];W[rl];B[rm];W[qm];
B[rn];W[rk];B[jb];W[kb];B[ir];W[hr];B[ka];W[la];B[ja];W[mb];B[bf];W[ee];B[qa];
W[oa];B[of];W[ng];B[hs];W[gs];B[is];W[gr];B[ho];W[iq];B[jr];W[gn];B[go];W[hn];
B[in];W[im];B[io];W[hl];B[gm];W[gl];B[fm];W[hk];B[ha];W[lq];B[lr];W[fo];B[fn];
W[gh];B[fh];W[hg];B[ga];W[fb];B[gp];W[bq];B[fk];W[jc];B[qj];W[oj];B[rj];W[sj];
B[id];W[od];B[oe];W[pa];B[ra];W[da];B[ca];W[sm];B[qn];W[sn];B[so];W[sl];B[gq];
W[er];B[ea];W[ia];B[ib];W[da];B[de];W[df];B[ea];W[ah];B[ag];W[pm];B[om];W[sk];
B[da];W[];B[])
