(;FF[4]BR[15k]CP[online-go.com]DT[2016-06-15]GM[1]KM[6.5]PB[Midnight-Skunky]
PC[OGS: http://online-go.com/game/5558504]PW[Odo]RE[W+R]RU[japanese]SZ[19]
WR[13k];B[pd];W[dq];B[dd];W[pp];B[do];W[fp];B[cq];W[cr];B[br];W[bq];B[cp];W[ar]
;B[dr];W[bs];B[eq];W[er];B[ds];W[cs];B[dp];W[fr];B[fq];W[gq];B[gp];W[hp];B[go];
W[hq];B[fo];W[io];B[qn];W[qk];B[nq];W[pn];B[qq];W[qp];B[pq];W[rq];B[rr];W[qf];
B[ph];W[of];B[nd];W[rd];B[qc];W[oj];B[nh];W[mf];B[kc];W[dj];B[cg];W[cm];B[bp];
W[mj];B[lh];W[ld];B[lc];W[md];B[mc];W[ji];B[kg];W[je];B[ig];W[jd];B[gc];W[kq];
B[lp];W[kp];B[lo];W[mr];B[nr];W[mq];B[mp];W[np];B[il];W[gl];B[hm];W[gm];B[hn];
W[no];B[kn];W[jm];B[jn];W[kl];B[in];W[gg];B[hh];W[gh];B[hi];W[gi];B[hj];W[gj];
B[hl];W[hg];B[ih];W[if];B[jf];W[kf];B[jg];W[he];B[ke];W[lf];B[kd];W[ne];B[le];
W[cc];B[dc];W[cd];B[ce];W[be];B[bf];W[db];B[eb];W[ca];B[ae];W[bb];B[bd];W[bc];
B[dl];W[cl];B[dm];W[dk];B[fk];W[gk];B[ek];W[ej];B[rg];W[qg];B[qh];W[rf];B[rh];
W[od];B[me];W[oc];B[pe];W[oe];B[pf];W[pg];B[og];W[pc];B[qd];W[rc];B[qb];W[rb];
B[nb];W[pb];B[mm];W[nm];B[ml];W[lk];B[kj];W[fj];B[mk];W[lj];B[ki];W[mn];B[lm];
W[ln];B[km];W[ko];B[nj];W[ni];B[nk];W[ng];B[oh];W[mh];B[oi];W[mi];B[pj];W[pk];
B[ok];W[ol];B[op];W[oo];B[oq];W[bi];B[rp];W[ro];B[sq];W[ic];B[jc];W[hc];B[gd];
W[ib];B[rn];W[po];B[lg];W[mg];B[kk];W[la];B[id];W[ie];B[hd];W[gb];B[fb];W[jb];
B[kb];W[ka];B[ma];W[em];B[dn];W[el];B[en];W[bn];B[ge];W[hf];B[ff];W[eg];B[ef];
W[dg];B[ch];W[ci];B[dh])
