(;FF[4]BR[25k]CP[online-go.com]DT[2016-05-04]GM[1]KM[6.5]PB[KamYen]
PC[OGS: http://online-go.com/game/5133917]PW[Keith Ball]RE[B+R]RU[japanese]
SZ[19]WR[23k];B[dp];W[pp];B[cc];W[pd];B[oq];W[pq];B[mp];W[pm];B[qd];W[qc];B[pc]
;W[rd];B[qe];W[pe];B[rf];W[oc];B[pb];W[ob];B[qb];W[qf];B[re];W[pf];B[ne];W[nd];
B[qh];W[md];B[lc];W[ld];B[kb];W[lf];B[mf];W[lh];B[nh];W[nf];B[of];W[ng];B[og];
W[mg];B[mh];W[lg];B[oe];W[od];B[me];W[le];B[oh];W[jd];B[hc];W[hd];B[ie];W[id];
B[jf];W[ic];B[ib];W[jb];B[ja];W[hb];B[jc];W[gc];B[mc];W[mb];B[lb];W[nb];B[la];
W[ha];B[ia];W[kd];B[kc];W[he];B[fb];W[fc];B[ec];W[ed];B[dc];W[gb];B[ea];W[dd];
B[bf];W[cf];B[cg];W[df];B[dj];W[dg];B[ch];W[be];B[ag];W[cd];B[bc];W[dh];B[di];
W[qj];B[rj];W[rk];B[ri];W[pk];B[oj];W[ok];B[nk];W[nl];B[mk];W[lj];B[hf];W[gf];
B[hg];W[gh];B[gg];W[hh];B[ih];W[ii];B[fh];W[fg];B[hi];W[gi];B[fi];W[hj];B[ff];
W[eg];B[ge];W[fe];B[ji];W[jh];B[ig];W[jj];B[ki];W[kh];B[mj];W[li];B[mi];W[fj];
B[ej];W[ei];B[gk];W[gj];B[fk];W[hk];B[jq];W[jp];B[jo];W[ip];B[iq];W[io];B[gp];
W[jn];B[kp];W[ko];B[lp];W[ml];B[pj];W[qk];B[qi];W[qg];B[rg];W[lk];B[mn];W[nn];
B[on];W[no];B[mo];W[om];B[op];W[oo];B[hn];W[gm];B[hl];W[fm];B[el];W[em];B[dm];
W[hm];B[gl];W[im];B[ik];W[ij];B[il];W[jl];B[fl];W[go];B[fp];W[fo];B[eo];W[en];
B[dn];W[pn];B[jk];W[kk];B[kl];W[jm];B[lm];W[mm];B[ln];W[kn];B[np];W[or];B[nr];
W[os];B[ns];W[pr];B[hp];W[ho];B[oa];W[ae];B[ad];W[rc];B[rb];W[bd];B[ac];W[sj];
B[si];W[sk];B[pg];W[na];B[pa];W[ci];B[bi];W[ll];B[km];W[ga];B[fa];W[af];B[bg];
W[];B[eh];W[ei];B[cj];W[cq];B[cp];W[dq];B[eq];W[er];B[fr];W[dr];B[br];W[bq];
B[ar];W[bp];B[bo];W[ap];B[ao];W[es];B[cs])
