(;FF[4]BR[10k]CP[online-go.com]DT[2016-06-26]GM[1]KM[6.5]
PB[MylesAlexanderColbert]PC[OGS: http://online-go.com/game/5661111]PW[ysl1g15]
RE[B+R]RU[japanese]SZ[19]WR[10k];B[pd];W[dp];B[qp];W[cd];B[oq];W[qf];B[ec];
W[de];B[hd];W[nc];B[lc];W[oe];B[re];W[qe];B[qd];W[pb];B[qb];W[rf];B[se];W[sf];
B[rc];W[od];B[pc];W[qk];B[qm];W[cj];B[fq];W[iq];B[cq];W[dq];B[dr];W[er];B[cr];
W[eq];B[bo];W[fp];B[lq];W[ok];B[om];W[jc];B[jd];W[lb];B[ic];W[kc];B[kd];W[ld];
B[le];W[md];B[kf];W[fj];B[cm];W[fe];B[gf];W[ff];B[gg];W[fc];B[fb];W[gb];B[fd];
W[gc];B[ed];W[gd];B[ge];W[eb];B[db];W[fa];B[cc];W[bc];B[bb];W[bd];B[hb];W[ha];
B[ia];W[hc];B[ib];W[ee];B[ga];W[cp];B[bp];W[ha];B[dc];W[fg];B[nf];W[og];B[of];
W[pf];B[ng];W[oh];B[ob];W[gh];B[if];W[ig];B[pe];W[he];B[hf];W[id];B[ie];W[hd];
B[ga];W[br];B[bq];W[ha];B[dj];W[jb];B[ga];W[rp];B[fb];W[qq];B[qo];W[rr];B[dk];
W[di];B[ci];W[ch];B[bi];W[bh];B[bj];W[ei];B[fl];W[io];B[ko];W[mn];B[ml];W[lm];
B[km];W[ll];B[mk];W[lk];B[jk];W[mj];B[nm];W[lj];B[nj];W[ni];B[oj];W[pj];B[nk];
W[oi];B[no];W[mm];B[nl];W[mh];B[ne];W[ja];B[nb];W[mb];B[nd];W[mc];B[oc];W[en];
B[gn];W[go];B[hn];W[ho];B[in];W[jn];B[jm];W[kn];B[hk];W[kp];B[jo];W[ln];B[lp];
W[jp];B[lo];W[kq];B[hh];W[ih];B[hi];W[ii];B[ki];W[kh];B[li];W[lh];B[jj];W[mo];
B[mp];W[mi];B[ji];W[kg];B[ij];W[pr];B[or];W[fn];B[gl];W[im];B[il];W[gm];B[hm];
W[fm];B[ro];W[rm];B[rl];W[ql];B[pm];W[rk];B[rn];W[sl];B[sp];W[rq];B[qs];W[ps];
B[rs];W[ss];B[sr];W[sq];B[pq];W[so];B[os];W[sn];B[qr];W[ss];B[pg];W[qg];B[np];
W[nn];B[on];W[lr];B[mr];W[kr];B[sr];W[ck];B[bk];W[ss];B[jh];W[jg];B[es];W[fs];
B[ds];W[sp];B[gi];W[fh];B[me];W[dl];B[cl];W[dm];B[el];W[cn];B[bn];W[co];B[em];
W[dn];B[pl];W[pk];B[ah];W[ag];B[ai];W[bg];B[fi];W[ej];B[gj])
