(;FF[4]BR[16k]CP[online-go.com]DT[2016-09-04]GM[1]KM[6.5]PB[Andrey Tyalin]
PC[OGS: http://online-go.com/game/6260147]PW[AlexxHardt]RE[W+23.5]RU[japanese]
SZ[19]WR[21k];B[qp];W[dq];B[pc];W[dd];B[qf];W[oq];B[qn];W[lp];B[co];W[cm];B[cq]
;W[dp];B[cp];W[en];B[dr];W[er];B[ds];W[fc];B[pj];W[dh];B[kc];W[hp];B[jq];W[jp];
B[hr];W[kq];B[eq];W[fq];B[ep];W[fp];B[eo];W[fo];B[do];W[fr];B[jj];W[lh];B[kh];
W[kg];B[lg];W[lf];B[mg];W[jh];B[ki];W[jf];B[ch];W[cg];B[ci];W[di];B[ck];W[ek];
B[cl];W[dm];B[bm];W[bn];B[am];W[an];B[bk];W[al];B[bl];W[ak];B[aj];W[cj];B[dj];
W[bh];B[bi];W[bg];B[ej];W[fj];B[ei];W[eh];B[fi];W[gk];B[gj];W[hj];B[gi];W[hl];
B[md];W[ii];B[oo];W[gg];B[hc];W[cn];B[bo];W[jl];B[li];W[dk];B[fk];W[fl];B[fj];
W[ge];B[cc];W[cd];B[fb];W[eb];B[gb];W[dc];B[ml];W[lm];B[mm];W[mf];B[nf];W[ng];
B[mh];W[ne];B[of];W[me];B[nd];W[oe];B[pe];W[od];B[oc];W[pd];B[qd];W[qq];B[mo];
W[mp];B[rq];W[qr];B[rr];W[ld];B[lc];W[jd];B[ic];W[hd];B[id];W[ie];B[kd];W[ke];
B[le];W[kf];B[ln];W[kn];B[ll];W[km];B[kk];W[lo];B[mn];W[pp];B[po];W[ij];B[hh];
W[hg];B[ih];W[ji];B[ig];W[hi];B[op];W[np];B[pq];W[pr];B[or];W[nq];B[ps];W[pp];
B[gd];W[he];B[pq];W[og];B[pf];W[pp];B[el];W[dl];B[pq];W[ao];B[qs];W[aq];B[br];
W[nr];B[ar];W[gc];B[ns];W[ms];B[os];W[mr];B[jc];W[fa];B[ha];W[jk];B[kj];W[kl];
B[ni];W[je];B[ap];W[bp];B[bq];W[ap];B[dn];W[em];B[gm];W[gl];B[fn];W[gn];B[hm];
W[hn];B[im];W[fm];B[jo];W[ip];B[ko];W[kp];B[ga];W[ea];B[bc];W[bd];B[fd];W[ec];
B[fe];W[gh];B[ef];W[fh];B[dg];W[df];B[eg];W[ee];B[cf];W[de];B[bf];W[ff];B[ah];
W[fg];B[ag];W[dg];B[ad];W[ae];B[ac];W[be];B[cb];W[ca];B[ba];W[ab];B[da];W[db];
B[ld];W[es];B[];W[no];B[nn];W[];B[])
