(;FF[4]BR[17k]CP[online-go.com]DT[2016-05-06]GM[1]KM[6.5]PB[Toza]
PC[OGS: http://online-go.com/game/5161061]PW[iketeru]RE[W+50.5]RU[japanese]
SZ[19]WR[16k];B[pp];W[dp];B[pd];W[dd];B[fq];W[cn];B[iq];W[qj];B[qh];W[qm];B[qo]
;W[nq];B[lq];W[no];B[oq];W[np];B[op];W[on];B[lo];W[cj];B[fc];W[hd];B[lc];W[oi];
B[og];W[dg];B[hc];W[ic];B[gc];W[ec];B[lg];W[lm];B[jn];W[qc];B[qd];W[pc];B[oc];
W[ob];B[nc];W[nb];B[mb];W[rd];B[re];W[rc];B[fe];W[ie];B[fd];W[ig];B[ib];W[li];
B[jh];W[ih];B[jj];W[jl];B[hk];W[gj];B[gl];W[fk];B[hj];W[ji];B[ki];W[ii];B[ij];
W[kj];B[kh];W[kk];B[il];W[fn];B[gn];W[go];B[hn];W[le];B[ne];W[mf];B[mg];W[nf];
B[of];W[ng];B[oh];W[nh];B[kf];W[ke];B[jf];W[if];B[jc];W[id];B[kc];W[dr];B[eq];
W[dq];B[fg];W[hi];B[de];W[ce];B[df];W[cf];B[ed];W[cc];B[eb];W[dc];B[db];W[cb];
B[fi];W[ef];B[ee];W[ff];B[gf];W[eg];B[ge];W[gg];B[fh];W[ej];B[gi];W[hg];B[fl];
W[el];B[fm];W[em];B[fj];W[ek];B[je];W[jd];B[kd];W[md];B[mc];W[nd];B[od];W[me];
B[oe];W[mh];B[jg];W[gk];B[im];W[eo];B[jk];W[kl];B[ho];W[gp];B[gq];W[hp];B[ip];
W[nr];B[or];W[ks];B[is];W[ir];B[hr];W[jr];B[hq];W[ls];B[jq];W[gs];B[hs];W[fs];
B[ln];W[mn];B[pn];W[pm];B[qn];W[rn];B[ro];W[sn];B[so];W[rm];B[pi];W[pj];B[ni];
W[oj];B[mi];W[mj];B[ns];W[ms];B[os];W[mr];B[kr];W[js];B[lr];W[da];B[fb];W[ea];
B[fa];W[ca];B[cg];W[ch];B[bg];W[dh];B[bd];W[bf];B[cd];W[bh];B[bc];W[ri];B[rh];
W[se];B[rf];W[sh];B[sg];W[si];B[sf];W[sd];B[qi];W[pa];B[na];W[oa];B[ma];W[qb];
B[lh];W[lj];B[oo];W[rj];B[om];W[nn];B[kn];W[nj];B[mp];W[mq];B[mo];W[mm];B[jm];
W[km];B[bb];W[ep];B[er];W[es];B[be];W[ag];B[ae];W[af];B[fp];W[fo];B[gh];W[eh];
B[he];W[ei];B[ba];W[ds];B[];W[])
