(;FF[4]BR[10k]CP[online-go.com]DT[2016-04-19]GM[1]KM[6.5]PB[TARAHUMARA]
PC[OGS: http://online-go.com/game/4951546]PW[Toza]RE[B+55.5]RU[japanese]SZ[19]
WR[15k];B[pd];W[pp];B[cd];W[dp];B[id];W[iq];B[dj];W[pj];B[cn];W[bp];B[np];W[qf]
;B[nc];W[ec];B[dc];W[ed];B[cg];W[hc];B[ic];W[hd];B[he];W[ge];B[gf];W[hf];B[ie];
W[ff];B[gg];W[fe];B[gi];W[de];B[ce];W[df];B[qn];W[ro];B[rn];W[qo];B[pn];W[po];
B[on];W[oo];B[no];W[oq];B[mm];W[ql];B[kq];W[nq];B[lo];W[io];B[gn];W[go];B[fo];
W[gp];B[fp];W[fq];B[fn];W[eq];B[qe];W[pf];B[nj];W[oh];B[jn];W[jo];B[kn];W[kp];
B[lp];W[jq];B[ko];W[jp];B[mq];W[mr];B[lr];W[nr];B[mh];W[nf];B[lf];W[in];B[me];
W[mg];B[lg];W[nh];B[mi];W[oj];B[im];W[dn];B[co];W[do];B[cm];W[cp];B[dm];W[am];
B[bl];W[bo];B[jr];W[ir];B[ol];W[pl];B[rf];W[rg];B[re];W[qh];B[hm];W[hn];B[eb];
W[fb];B[db];W[dd];B[gb];W[gc];B[hb];W[fa];B[cf];W[dg];B[dh];W[fg];B[gh];W[fh];
B[fi];W[eh];B[ei];W[ne];B[nd];W[oe];B[od];W[bn];B[al];W[bm];B[cl];W[nk];B[mk];
W[ok];B[nl];W[ni];B[mj];W[mf];B[ld];W[qc];B[pc];W[pb];B[ob];W[qb];B[sc];W[rc];
B[sb];W[js];B[kr];W[ks];B[lq];W[ls];B[sk];W[si];B[rl];W[rj];B[so];W[sp];B[sn];
W[rq];B[rk];W[qk];B[rm];W[pm];B[om];W[rd];B[sd];W[pe];B[qd];W[rb];B[sj];W[ri];
B[ib];W[sf];B[se];W[sg];B[cc];W[ea];B[da];W[ga];B[ha];W[fc];B[em];W[ep];B[gm];
W[];B[])
