(;FF[4]BR[10k]CP[online-go.com]DT[2015-11-13]GM[1]KM[6.5]PB[Tarot]
PC[OGS: http://online-go.com/game/3247972]PW[Vologdin]RE[B+56.5]RU[japanese]
SZ[19]WR[8k];B[pd];W[dp];B[qp];W[dd];B[oq];W[qj];B[nd];W[qg];B[fc];W[df];B[jc];
W[cj];B[fq];W[dn];B[ip];W[pm];B[lq];W[ge];B[db];W[cc];B[hd];W[qc];B[qd];W[pc];
B[oc];W[ob];B[nb];W[rd];B[re];W[rc];B[qf];W[pg];B[pb];W[qb];B[oa];W[ra];B[sb];
W[nf];B[dr];W[cq];B[le];W[lg];B[el];W[fo];B[gl];W[hn];B[gp];W[go];B[il];W[jn];
B[if];W[hg];B[kg];W[ki];B[ji];W[jj];B[ii];W[ij];B[hj];W[hi];B[hh];W[gi];B[gj];
W[jh];B[ih];W[gh];B[ig];W[kh];B[gg];W[hf];B[fg];W[fi];B[ei];W[fj];B[ej];W[jl];
B[ik];W[jk];B[he];W[gf];B[fe];W[im];B[gk];W[ef];B[ff];W[dh];B[cl];W[cm];B[dl];
W[eh];B[fh];W[oo];B[mo];W[mn];B[ln];W[lm];B[bb];W[cb];B[ca];W[bc];B[br];W[cr];
B[cs];W[bq];B[rm];W[lo];B[lp];W[ko];B[qm];W[ql];B[nn];W[mm];B[pl];W[no];B[pn];
W[mp];B[mq];W[om];B[qk];W[pk];B[rl];W[ok];B[qi];W[rj];B[ri];W[pi];B[lf];W[mg];
B[bo];W[bm];B[bk];W[bj];B[rg];W[pf];B[pe];W[oe];B[ne];W[po];B[qo];W[on];B[jg];
W[ed];B[eb];W[eq];B[er];W[ar];B[bs];W[fp];B[gq];W[jp];B[jq];W[qn];B[rn];W[qh];
B[rh];W[rk];B[ql];W[pp];B[pq];W[hp];B[io];W[ho];B[hq];W[ab];B[ba];W[fd];B[gd];
W[fm];B[np];W[mo];B[dq];W[co];B[ep];W[eo];B[gm];W[gn];B[mf];W[ng];B[kp];W[jo];
B[dj];W[di];B[ck];W[fl];B[fk];W[ec];B[da];W[si];B[sk];W[sj];B[sh];W[pj];B[em];
W[fn];B[aj];W[bi];B[ai];W[ah];B[ak];W[bh];B[iq];W[sl];B[sm];W[sk];B[bn];W[am];
B[ol];W[nl];B[ro];W[op];B[nq];W[of];B[od];W[dc];B[hm];W[in];B[eq];W[pn];B[ds];
W[ac];B[fb];W[ee];B[eg];W[dg];B[as];W[aq];B[ap];W[cp];B[dm];W[cn];B[];W[])
