(;FF[4]BR[10k]CP[online-go.com]DT[2016-06-20]GM[1]KM[6.5]PB[Revar Isavé]
PC[OGS: http://online-go.com/game/5605073]PW[greeneggs]RE[B+R]RU[japanese]
SZ[19]WR[13k];B[pd];W[dp];B[pq];W[dd];B[fq];W[cn];B[jp];W[dq];B[qk];W[nc];B[nd]
;W[mc];B[oc];W[dj];B[fo];W[en];B[fc];W[dg];B[db];W[cc];B[ic];W[ld];B[po];W[gm];
B[fm];W[fn];B[gn];W[gl];B[hn];W[el];B[qg];W[jj];B[kk];W[jk];B[jl];W[kl];B[il];
W[ll];B[lj];W[im];B[jm];W[hm];B[in];W[nl];B[nj];W[mj];B[mi];W[mk];B[li];W[ni];
B[oj];W[nh];B[lg];W[mf];B[mg];W[ng];B[nf];W[lf];B[jg];W[kj];B[lk];W[mh];B[lh];
W[kg];B[kh];W[jh];B[kf];W[ki];B[kg];W[ie];B[ih];W[ii];B[if];W[hf];B[hi];W[hj];
B[hg];W[gi];B[he];W[hh];B[gf];W[ig];B[je];W[ke];B[ih];W[jn];B[kn];W[ig];B[jf];
W[ih];B[mn];W[id];B[jd];W[jc];B[hd];W[kd];B[me];W[le];B[jb];W[kc];B[nb])
