(;FF[4]BR[8k]CP[online-go.com]DT[2016-05-15]GM[1]KM[6.5]PB[Lomis]
PC[OGS: http://online-go.com/game/5252645]PW[andrewLsmith84]RE[B+R]RU[japanese]
SZ[19]WR[9k];B[pd];W[dq];B[pp];W[dd];B[pj];W[dk];B[fc];W[df];B[jd];W[nc];B[oc];
W[nd];B[pf];W[kc];B[jc];W[nf];B[me];W[ne];B[oh];W[mf];B[jq];W[mq];B[jo];W[mo];
B[pn];W[mm];B[gq];W[jm];B[do];W[ep];B[cq];W[eo];B[dn];W[go];B[in];W[ho];B[im];
W[kn];B[kr];W[ip];B[jp];W[iq];B[ir];W[en];B[dm];W[cl];B[em];W[gm];B[ik];W[gk];
B[lj];W[ke];B[je];W[kg];B[ig];W[gg];B[ii];W[or];B[pr];W[oq];B[pq];W[ol];B[ql];
W[he];B[hd];W[gd];B[gc];W[fd];B[dc];W[cc];B[db];W[cb];B[cr];W[er];B[fr];W[dr];
B[hq];W[bo];B[bn];W[cp];B[dp];W[bq];B[nn];W[ni];B[nk];W[ok];B[oj];W[nj];B[mk];
W[nm];B[no];W[jj];B[jk];W[lk];B[kk];W[ll];B[mj];W[ij];B[hj];W[ji];B[jh];W[ki];
B[kh];W[li];B[lh];W[mi];B[nh];W[hk];B[hi];W[il];B[mh];W[jl];B[kd];W[le];B[lc];
W[ld];B[jf];W[ob];B[pb];W[mb];B[kb];W[pa];B[qb];W[mc];B[na];W[oa];B[ma])
