(;FF[4]BR[24k]CP[online-go.com]DT[2016-03-15]GM[1]KM[6.5]PB[jmont]
PC[OGS: http://online-go.com/game/4348261]PW[ando.viispert]RE[B+22.5]
RU[japanese]SZ[19]WR[25k];B[dp];W[pp];B[dd];W[pd];B[jp];W[jd];B[dj];W[pj];B[fc]
;W[kp];B[kq];W[lq];B[jn];W[jq];B[iq];W[kr];B[jr];W[kq];B[js];W[ks];B[ir];W[jo];
B[ip];W[io];B[ho];W[in];B[hn];W[im];B[hm];W[il];B[ic];W[id];B[hc];W[hd];B[gd];
W[ge];B[fe];W[gf];B[ff];W[gg];B[gj];W[kn];B[ik];W[jm];B[hl];W[jk];B[ij];W[jj];
B[jh];W[ji];B[ih];W[ii];B[hi];W[hh];B[hg];W[gh];B[ig];W[kg];B[fh];W[gi];B[hj];
W[if];B[kh];W[lh];B[ki];W[lj];B[jc];W[kc];B[kb];W[hf];B[lc];W[kd];B[md];W[ld];
B[nd];W[me];B[mb];W[kj];B[qc];W[od];B[oc];W[ne];B[pc];W[ke];B[fi];W[rd];B[qd];
W[qe];B[fg];W[rc];B[rb];W[sb];B[ra];W[sc];B[qq];W[pq];B[pr];W[or];B[ps];W[os];
B[qr];W[qp];B[rp];W[ro];B[sp];W[so];B[rq];W[sa];B[qb];W[re];B[cq];W[eo];B[do];
W[ep];B[eq];W[fq];B[er];W[fr];B[fs];W[gs];B[es];W[hp];B[gp];W[hq];B[hr];W[gq];
B[fp];W[en];B[dn];W[em];B[dm];W[el];B[dl];W[go];B[gr];W[fj];B[fk];W[ej];B[ek];
W[ei];B[eh];W[gn];B[gm];W[gk];B[hk];W[fl];B[gl];W[fm];B[cc];W[li];B[qj];W[qi];
B[ri];W[rh];B[si];W[sh];B[rj];W[qk];B[];W[])
