(;FF[4]BR[13k]CP[online-go.com]DT[2016-04-17]GM[1]KM[6.5]PB[lys1030]
PC[OGS: http://online-go.com/game/4919416]PW[jhwanggolf]RE[B+38.5]RU[japanese]
SZ[19]WR[10k];B[pd];W[pp];B[dp];W[dd];B[cf];W[ce];B[df];W[fd];B[hc];W[ci];B[cc]
;W[dc];B[be];W[cd];B[ge];W[fe];B[ff];W[ef];B[eg];W[ee];B[gf];W[dg];B[dh];W[cg];
B[ch];W[bg];B[bh];W[eh];B[fg];W[bf];B[ei];W[fh];B[gi];W[cn];B[gq];W[ck];B[nq];
W[oq];B[np];W[qn];B[nm];W[di];B[fi];W[bi];B[ah];W[cq];B[cp];W[dq];B[ep];W[bp];
B[bo];W[bq];B[dl];W[cl];B[dm];W[cm];B[co];W[ip];B[go];W[lr];B[in];W[lp];B[pm];
W[on];B[nn];W[no];B[oo];W[mo];B[pn];W[op];B[po];W[qo];B[qm];W[qp];B[qg];W[jc];
B[lc];W[je];B[le];W[jg];B[lg];W[ld];B[kd];W[md];B[ke];W[jd];B[kc];W[hd];B[gd];
W[gc];B[fc];W[gb];B[hb];W[fb];B[jb];W[ji];B[li];W[kh];B[lh];W[jk];B[ij];W[jj];
B[hl];W[hk];B[ik];W[il];B[jl];W[kl];B[im];W[jm];B[il];W[lk];B[ln];W[kn];B[lo];
W[mn];B[mm];W[mp];B[lm];W[nk];B[km];W[ic];B[ib];W[he];B[hf];W[if];B[oj];W[nj];
B[oi];W[ni];B[oh];W[hg];B[gh];W[hh];B[al];W[dk];B[ek];W[am];B[bm];W[bn];B[an];
W[bl];B[am];W[ak];B[ao];W[ej];B[fj];W[dn];B[el];W[ho];B[en];W[fm];B[eq];W[gn];
B[gp];W[dj];B[kp];W[em];B[fk];W[bj];B[lq];W[er];B[fr];W[ds];B[fn];W[qc];B[pc];
W[qd];B[qe];W[pb];B[ob];W[qb];B[af];W[de];B[mr];W[re];B[pe];W[nh];B[rf];W[rd];
B[ng];W[rm];B[rl];W[rn];B[qk];W[oa];B[nb];W[na];B[ma];W[pa];B[or];W[mb];B[mc];
W[la];B[pr];W[qr];B[rr];W[qs];B[rq];W[qq];B[rp];W[so];B[sm];W[rs];B[ka];W[ag];
B[kf];W[jf];B[lb];W[ma];B[fs];W[ap];B[es];W[dr];B[br];W[ar];B[bs];W[cs];B[ll];
W[kk];B[mk];W[mj];B[lj];W[ml];B[se];W[sd];B[sf];W[eh];B[fh];W[ai];B[eh];W[hi];
B[ii];W[ih];B[hj];W[ol];B[om];W[pk];B[nl];W[ok];B[mk];W[nr];B[mq];W[ml];B[pj];
W[mk];B[ga];W[fa];B[ha];W[eo];B[fo];W[do];B[mh];W[sn];B[sl];W[gr];B[fq];W[pl];
B[gm];W[sr];B[ql];W[kg];B[ps];W[pq];B[ns];W[sp];B[rb];W[ra];B[sb];W[sc];B[ki];
W[jh];B[mf];W[];B[])
