(;FF[4]BR[1d]CP[online-go.com]DT[2016-05-06]GM[1]KM[6.5]PB[Aloisius]
PC[OGS: http://online-go.com/game/5153206]PW[nrx]RE[W+R]RU[japanese]SZ[19]
WR[3d];B[pp];W[dd];B[pd];W[dp];B[fc];W[cf];B[db];W[qf];B[of];W[qc];B[pc];W[qd];
B[pe];W[qe];B[gf];W[jd];B[kg];W[hc];B[ed];W[dc];B[eb];W[lc];B[jb];W[jc];B[gp];
W[dn];B[cl];W[ci];B[el];W[fn];B[ei];W[jp];B[gn];W[fm];B[cc];W[cd];B[bc];W[gd];
B[ef];W[dj];B[fk];W[bd];B[fq];W[eq];B[bn];W[hq];B[gr];W[bp];B[er];W[dr];B[ep];
W[dq];B[eo];W[dm];B[ck];W[do];B[bh];W[im];B[in];W[ej];B[bi];W[dl];B[dk];W[ek];
B[ch];W[jm];B[jn];W[kn];B[hm];W[hl];B[ko];W[jo];B[km];W[ln];B[il];W[jl];B[hp];
W[gm];B[iq];W[hn];B[fj];W[jq];B[jr];W[ir];B[ip];W[kr];B[hr];W[js];B[ds];W[cs];
B[es];W[qn];B[pj];W[rp];B[qq];W[rq];B[pn];W[pm];B[on];W[om];B[np];W[oq];B[nq];
W[or];B[nr];W[qr];B[op];W[qp];B[pq];W[pr];B[nm];W[nl];B[mm];W[ml];B[lm];W[io];
B[kk];W[kl];B[qm];W[ok];B[ll];W[lk];B[mo];W[ql];B[rm];W[rn];B[mk];W[lj];B[mj];
W[mi];B[nj];W[oj];B[kj];W[li];B[ni];W[oi];B[nh];W[ki];B[jj];W[ji];B[ij];W[ii];
B[hi];W[hh];B[gi];W[jf];B[rl];W[qk];B[rk];W[qj];B[oh];W[qh])
