(;FF[4]BR[7k]CP[online-go.com]DT[2016-01-17]GM[1]KM[6.5]PB[arczyx]
PC[OGS: http://online-go.com/game/3721708]PW[Florent]RE[B+R]RU[japanese]SZ[19]
WR[5k];B[pd];W[dd];B[pp];W[dp];B[pj];W[nc];B[qf];W[jd];B[jp];W[dj];B[fq];W[dn];
B[fo];W[nq];B[oq];W[np];B[pn];W[lp];B[kq];W[mm];B[ol];W[jo];B[io];W[jn];B[in];
W[im];B[jm];W[km];B[jl];W[kp];B[iq];W[kl];B[jk];W[fm];B[hm];W[fc];B[cq];W[dq];
B[dr];W[cp];B[br];W[bq];B[cr];W[pb];B[qc];W[ne];B[cf];W[ce];B[df];W[dh];B[bh];
W[bf];B[bg];W[be];B[ff];W[ge];B[fh];W[hg];B[fj];W[qh];B[ph];W[pi];B[qi];W[pg];
B[oi];W[qg];B[og];W[pf];B[qe];W[oe];B[qb];W[ob];B[cg];W[mg];B[dl];W[ek];B[el];
W[fl];B[fk];W[cl];B[dk];W[ej];B[ck];W[cj];B[bk];W[cm];B[bj];W[bl];B[jh];W[qq];
B[pq];W[rp];B[qp];W[rq];B[ro];W[pr];B[or];W[qs];B[kf];W[le];B[mr];W[nr];B[ns];
W[nh];B[mk];W[kk];B[jj];W[fn];B[ln];W[mn];B[ll];W[lm];B[lq];W[mq];B[lr];W[no];
B[lo];W[mo];B[gl];W[go];B[fp];W[gm];B[hl];W[rg];B[rf];W[sj];B[rj];W[si];B[sk];
W[ri];B[rk];W[qa];B[ra];W[pa];B[sb];W[so];B[rn];W[hp];B[hn];W[gn];B[ip];W[hq];
B[hr];W[bp];B[gq];W[eo];B[eq];W[oh];B[pi];W[hi];B[hf];W[gf];B[gg];W[if];B[hh];
W[ig];B[ih];W[kg];B[jg];W[jf];B[kh];W[lg];B[fe];W[gd];B[ps];W[os];B[em];W[ms];
B[en];W[nk];B[nl];W[nj];B[ni];W[mj];B[mh];W[ng];B[lj];W[om];B[pm])
