(;FF[4]BR[11k]CP[online-go.com]DT[2016-07-10]GM[1]KM[6.5]PB[Krakatok]
PC[OGS: http://online-go.com/game/5787948]PW[S_Alexander]RE[B+R]RU[japanese]
SZ[19]WR[8k];B[dd];W[pc];B[cp];W[pp];B[eq];W[cj];B[cg];W[cm];B[pe];W[qg];B[qc];
W[qb];B[qd];W[mc];B[og];W[pi];B[ob];W[pb];B[oc];W[pd];B[od];W[oe];B[ne];W[qe];
B[pf];W[re];B[jc];W[me];B[nf];W[lf];B[je];W[lh];B[ni];W[cc];B[dc];W[cd];B[de];
W[bf];B[cf];W[bg];B[be];W[ce];B[bc];W[cb];B[bd];W[bb];B[bh];W[ac];B[af];W[eb];
B[db];W[da];B[ca];W[ea];B[fc];W[fb];B[gb];W[ba];B[gc];W[df];B[dg];W[ef];B[fd];
W[eg];B[di];W[dh];B[ch];W[eh];B[dj];W[dk];B[mg];W[ci];B[fi];W[gg];B[aj];W[lg];
B[gj];W[ek];B[ei];W[hh];B[bk];W[ck];B[gl];W[bi];B[ag];W[ai];B[en];W[fj];B[hi];
W[ii];B[ij];W[fm];B[fl];W[em];B[hn];W[nh];B[mh];W[oh];B[oi];W[pg];B[ng];W[ph];
B[li];W[ji];B[jj];W[ki];B[lj];W[kj];B[kk];W[lk];B[mk];W[ll];B[kl];W[gm];B[hm];
W[kd];B[jd];W[ke];B[jg];W[jf];B[if];W[kf];B[ig])
