(;FF[4]BR[11k]CP[online-go.com]DT[2016-08-15]GM[1]KM[6.5]PB[zsporcic1]
PC[OGS: http://online-go.com/game/6093428]PW[azerwhites]RE[W+R]RU[japanese]
SZ[19]WR[12k];B[pd];W[dp];B[pq];W[de];B[cc];W[ec];B[dd];W[ed];B[ce];W[df];B[cf]
;W[dg];B[ch];W[jd];B[ee];W[oo];B[qo];W[fe];B[nc];W[nq];B[fq];W[cn];B[dr];W[cq];
B[iq];W[kq];B[pm];W[qh];B[qj];W[qe];B[qd];W[pe];B[oe];W[pg];B[nn];W[no];B[mn];
W[lo];B[kc];W[jc];B[ck];W[kd];B[lc];W[me];B[fd];W[gd];B[ef];W[ff];B[eg];W[ln];
B[lm];W[fo];B[ek];W[oj];B[ll];W[lj];B[nf];W[mf];B[fg];W[gg];B[gf];W[ge];B[gh];
W[hg];B[hh];W[ig];B[ih];W[jh];B[hl];W[jj];B[hj];W[ng];B[pk];W[pi];B[bm];W[bn];
B[cm];W[dm];B[dl];W[dj];B[ej];W[em];B[ld];W[le];B[dc];W[eb];B[db];W[fc];B[fm];
W[fl];B[el];W[gm];B[fk];W[gl];B[hk];W[nd];B[od];W[mc];B[md];W[ne];B[mb];W[of];
B[rd];W[re];B[ri];W[rh];B[eq];W[ok];B[ol];W[po];B[qp];W[hm];B[jn];W[jo];B[jp];
W[io];B[kp];W[lp];B[jl];W[ko];B[jb];W[ib];B[jq];W[kr];B[jr];W[ja];B[or];W[nr];
B[br];W[cr];B[cs];W[bq];B[kb];W[oq];B[pr];W[pn];B[qn];W[si];B[sj];W[qi];B[sh];
W[sg];B[si];W[pj];B[rk];W[ql];B[qk];W[om];B[nl];W[rm];B[pl];W[ar];B[bs];W[dq];
B[er];W[js];B[is];W[ks];B[hp];W[ip];B[hq];W[ho];B[an];W[ao];B[am];W[dn];B[mk];
W[mj];B[ii];W[ji];B[ka];W[ia];B[in];W[im];B[jm];W[gp];B[on];W[gq];B[gr];W[hr];
B[kk];W[kj])
