(;FF[4]BR[7k]CP[online-go.com]DT[2016-04-13]GM[1]KM[6.5]PB[Eleutherios]
PC[OGS: http://online-go.com/game/4871870]PW[StephenM]RE[W+R]RU[japanese]SZ[19]
WR[8k];B[qd];W[dd];B[pq];W[dp];B[oc];W[qj];B[qn];W[qg];B[jq];W[jc];B[cn];W[fq];
B[ck];W[ch];B[bp];W[co];B[bo];W[dn];B[cm];W[mc];B[dq];W[eq];B[cq];W[lq];B[ep];
W[eo];B[fp];W[gp];B[fo];W[gn];B[en];W[fn];B[do];W[ip];B[kp];W[eo];B[mo];W[go];
B[cc];W[dc];B[cd];W[ce];B[be];W[cf];B[bf];W[bg];B[db];W[eb];B[cb];W[ee];B[je];
W[hd];B[md];W[ld];B[nc];W[me];B[nd];W[lc];B[le];W[np];B[oo];W[op];B[pp];W[no];
B[nn];W[on];B[po];W[kq];B[mp];W[jp];B[mq];W[lp];B[ko];W[lo];B[ln];W[kn];B[lr];
W[kr];B[ks];W[jr];B[ir];W[jo];B[mr];W[ke];B[lf];W[kf];B[he];W[ig];B[jf];W[jg];
B[kg];W[kd];B[hg];W[hh];B[gg];W[ge];B[if];W[gh];B[fh];W[fg];B[ih];W[jh];B[ii];
W[gf];B[gi];W[hf];B[fi];W[dj];B[hk];W[ji];B[fk];W[mf];B[qh];W[mh];B[pg];W[nm];
B[mn];W[ph];B[qi];W[pf];B[og];W[of];B[ng];W[pi];B[nf];W[rg])
