(;FF[4]BR[4k]CP[online-go.com]DT[2016-04-06]GM[1]KM[6.5]PB[El.Loco]
PC[OGS: http://online-go.com/game/4770460]PW[placz0]RE[W+R]RU[japanese]SZ[19]
WR[4k];B[qd];W[dd];B[pq];W[dp];B[oc];W[po];B[qo];W[qn];B[qp];W[pm];B[nq];W[qe];
B[rd];W[oe];B[qi];W[ph];B[ql];W[rm];B[ok];W[mc];B[nd];W[mf];B[md];W[ld];B[lc];
W[kc];B[lb];W[kb];B[mb];W[le];B[nm];W[gq];B[cj];W[cg];B[cm];W[co];B[db];W[fb];
B[cc];W[cd];B[bb];W[ec];B[ei];W[lo];B[no];W[lq];B[dr];W[dq];B[hp];W[hn];B[kp];
W[lp];B[jn];W[io];B[jo];W[ip];B[kq];W[jq];B[kr];W[li];B[lk];W[ol];B[nk];W[pk];
B[qk];W[pj];B[qj];W[pl];B[pi];W[oj];B[oh];W[ni];B[nf];W[ng];B[og];W[ne];B[of];
W[me];B[pe];W[km];B[il];W[ml];B[ll];W[mm];B[nl];W[mk];B[mn];W[lm];B[ln];W[lj];
B[hi];W[ek];B[em];W[hk];B[fl];W[gj];B[fk];W[eh];B[fi];W[gi];B[fh];W[gh];B[fg];
W[gf];B[gg];W[hg];B[hl];W[ik];B[cq];W[br];B[bq];W[cr];B[ar];W[er];B[bo];W[bn];
B[oi];W[nj];B[od];W[ff];B[fo];W[hq];B[fp];W[jr];B[kn];W[ks];B[ls];W[js];B[lr];
W[eg];B[ef];W[ch];B[jk];W[jl];B[fq];W[fr];B[ka];W[ja];B[la];W[ib];B[rl];W[cn];
B[bm];W[an];B[bi];W[bh];B[cf];W[bf];B[hf];W[bd];B[bc];W[ca])
