(;FF[4]BR[3d]CP[online-go.com]DT[2016-03-21]GM[1]KM[6.5]PB[一只安东尼]
PC[OGS: http://online-go.com/game/4507687]PW[Peyrauba]RE[B+79.5]RU[japanese]
SZ[19]WR[2k];B[pd];W[dp];B[pq];W[dc];B[fq];W[cn];B[jp];W[qn];B[po];W[rp];B[pn];
W[qm];B[pk];W[qq];B[qr];W[rr];B[qp];W[rq];B[qo];W[ro];B[ol];W[nc];B[kd];W[ne];
B[pf];W[pb];B[qc];W[kb];B[de];W[dh];B[cc];W[cb];B[cd];W[eb];B[fe];W[gd];B[ge];
W[hd];B[dk];W[fh];B[he];W[id];B[hh];W[fk];B[ei];W[di];B[ej];W[eh];B[gi];W[ck];
B[cl];W[cj];B[dl];W[cf];B[eo];W[dr];B[ie];W[jd];B[je];W[ke];B[kf];W[le];B[lf];
W[mf];B[md];W[me];B[nd];W[ld];B[mc];W[nb];B[oe];W[mb];B[lc];W[kc];B[hk];W[jq];
B[iq];W[kq];B[kp];W[ir];B[hq];W[lq];B[lp];W[mp];B[nr];W[nq];B[mr];W[mq];B[mn];
W[or];B[pr];W[oq];B[os];W[lr];B[ns];W[nn];B[no];W[mo];B[ln];W[op];B[pp];W[oo];
B[on];W[nm];B[ml];W[nl];B[nk];W[hr];B[gr];W[lo];B[kn];W[ko];B[jo];W[jn];B[in];
W[ll];B[mm];W[ph];B[oh];W[og];B[pg];W[qh];B[rk];W[qb];B[mg];W[nh];B[ng];W[oi];
B[nf];W[qj];B[qk];W[rf];B[re];W[qf];B[qe];W[rj];B[qg];W[rg];B[pj];W[ri];B[pi];
W[mi];B[mj];W[lj];B[li];W[lh];B[ki];W[kh];B[mh];W[nj];B[mk];W[kd];B[of];W[ji];
B[kj];W[hg];B[ih];W[ig];B[jg];W[fi];B[fj];W[gh];B[hi];W[ef];B[ee];W[dn];B[en];
W[rl];B[sk];W[lb];B[od];W[rc];B[rd];W[pc];B[qd];W[sb];B[df];W[dg];B[bf];W[bg];
B[ce];W[cg];B[ae];W[ff];B[bm];W[bn];B[do];W[cp];B[co];W[bo];B[ep];W[bc];B[bd];
W[ab];B[bk];W[bj];B[er];W[cr];B[om];W[ak];B[bl];W[ag];B[jh];W[sl];B[ql];W[rm];
B[pm];W[dm];B[em];W[af];B[be];W[fd];B[ed];W[ec];B[oc];W[ob];B[rs];W[sr];B[gf];
W[gg];B[dj];W[ss];B[qs];W[sd];B[se];W[sc];B[oj];W[dq];B[eq];W[ac];B[ds];W[cs];
B[es];W[aj];B[an];W[bq];B[ao];W[ap];B[am];W[bp];B[ni];W[if];B[jf];W[];B[])
