(;FF[4]BR[6k]CP[online-go.com]DT[2016-04-05]GM[1]KM[6.5]PB[Gwendal]
PC[OGS: http://online-go.com/game/4762245]PW[csaba]RE[W+R]RU[japanese]SZ[19]
WR[7k];B[pc];W[dp];B[cd];W[pp];B[qe];W[id];B[kd];W[ed];B[dc];W[ec];B[cf];W[oc];
B[gc];W[gd];B[fc];W[eb];B[fd];W[ee];B[fe];W[ef];B[hd];W[pd];B[od];W[qc];B[nc];
W[pb];B[nd];W[pe];B[qf];W[qj];B[nq];W[qn];B[pr];W[cj];B[ci];W[dj];B[di];W[ei];
B[eh];W[fh];B[fi];W[ej];B[eg];W[ff];B[fg];W[gf];B[gh];W[he];B[hc];W[ic];B[ge];
W[hb];B[ie];W[hf];B[dm];W[fm];B[qh])
