(;FF[4]BR[16k]CP[online-go.com]DT[2016-06-03]GM[1]KM[6.5]PB[pfrobbins]
PC[OGS: http://online-go.com/game/5445597]PW[Stepanuchi]RE[B+6.5]RU[japanese]
SZ[19]WR[13k];B[qp];W[cd];B[dq];W[pc];B[qe];W[nd];B[qh];W[id];B[co];W[fd];B[cj]
;W[cg];B[dl];W[le];B[oq];W[jq];B[lq];W[gq];B[ql];W[qj];B[ok];W[pi];B[oi];W[ph];
B[pg];W[oh];B[ni];W[ng];B[ln];W[jo];B[lk];W[lh];B[ih];W[hg];B[kh];W[kg];B[ji];
W[ig];B[li];W[mh];B[mi];W[fh];B[lc];W[jb];B[qc];W[qb];B[pd];W[rc];B[qd];W[oc];
B[go];W[hp];B[gl];W[il];B[ei];W[gj];B[fj];W[gk];B[fk];W[ik];B[gm];W[hn];B[gn];
W[km];B[lm];W[kl];B[bh];W[bg];B[fq];W[fr];B[gp];W[hq];B[er];W[fs];B[es];W[hr];
B[kr];W[lp];B[mp];W[lo];B[mo];W[kq];B[eh];W[eg];B[lr];W[ll];B[ml];W[ch];B[bi];
W[rj];B[rk];W[sg];B[rg];W[si];B[sf];W[sh];B[qf];W[rh];B[rd];W[se];B[rb];W[ra];
B[sc];W[pa];B[rf];W[of];B[sb];W[qk];B[rl];W[kj];B[ki];W[lj];B[mj];W[hm];B[fi];
W[gh];B[kk];W[jj];B[jk];W[ij];B[kn];W[jl];B[mk];W[jn];B[jr];W[ir];B[ag];W[af];
B[ah];W[be];B[dh];W[dg];B[ci];W[pk];B[pl];W[gi];B[nh];W[pf];B[qg];W[og];B[oe];
W[ne];B[pe];W[jg];B[oj];W[ho];B[qi];W[pj];B[ri];W[sj];B[sk];W[mf];B[sa];W[qa];
B[hl];W[js];B[ks];W[is];B[ii];W[ko];B[mn];W[nm];B[mm];W[qq];B[rq];W[pr];B[pq];
W[nr];B[or];W[os];B[qr];W[mq];B[mr];W[qn];B[pn];W[hk];B[hi];W[od];B[nq];W[];B[]
)
