(;FF[4]BR[5k]CP[online-go.com]DT[2016-07-15]GM[1]KM[6.5]PB[jhuang]
PC[OGS: http://online-go.com/game/5825805]PW[Toza]RE[B+71.5]RU[japanese]SZ[19]
WR[17k];B[qd];W[pp];B[cp];W[ep];B[eq];W[fq];B[dq];W[fo];B[cn];W[dd];B[nq];W[pm]
;B[hr];W[kp];B[hp];W[ho];B[ip];W[kn];B[pr];W[qq];B[kr];W[np];B[mq];W[mp];B[io];
W[hn];B[in];W[fm];B[cf];W[ce];B[df];W[gd];B[dj];W[od];B[oc];W[nc];B[pc];W[qf];
B[nb];W[ne];B[mc];W[nd];B[hc];W[gc];B[hd];W[he];B[jd];W[ld];B[lc];W[md];B[kd];
W[pi];B[qh];W[ph];B[qg];W[pg];B[rf];W[re];B[qe];W[pf];B[rg];W[im];B[jm];W[il];
B[jn];W[km];B[jl];W[kl];B[jk];W[kk];B[ik];W[hl];B[qj];W[qi];B[ri];W[rd];B[rc];
W[pd];B[kf];W[mg];B[pj];W[mi];B[nj];W[ni];B[ol];W[pl];B[rl];W[rn];B[ge];W[fe];
B[gf];W[ff];B[hf];W[ie];B[gh];W[fg];B[hi];W[ki];B[jh];W[lf];B[kg];W[fj];B[ei];
W[fi];B[fh];W[eh];B[dh];W[eg];B[dl];W[dm];B[cm];W[dn];B[qr];W[rq];B[fr];W[gq];
B[gr];W[hq];B[iq];W[gp];B[ok];W[om];B[nm];W[nn];B[mm];W[mn];B[hb];W[gb];B[ga];
W[fa];B[ha];W[eb];B[bf];W[be];B[ae];W[ad];B[af];W[bc];B[hk];W[gl];B[gk];W[fk];
B[el];W[em];B[fl];W[gm];B[rr];W[mj];B[mk];W[qk];B[rk];W[ql];B[dg];W[ee];B[rm];
W[qm];B[sq];W[sp];B[sr];W[ro];B[sn];W[so];B[sm];W[lk];B[ml];W[lm];B[kq];W[oq];
B[or];W[ji];B[ii];W[kh];B[ke];W[le];B[gg];W[gi];B[if];W[pe];B[qc];W[oi];B[oj];
W[jj];B[do];W[eo];B[lp];W[lo];B[lq];W[jp];B[jq];W[mb];B[lb];W[ob];B[ma];W[pb];
B[sd];W[qb];B[rb];W[sc];B[sb];W[pq];B[ko];W[ij];B[hj];W[dp];B[co];W[de];B[lg];
W[lh];B[];W[])
