(;FF[4]BR[15k]CP[online-go.com]DT[2016-04-30]GM[1]KM[6.5]PB[nauer]
PC[OGS: http://online-go.com/game/5081724]PW[mcchouffe]RE[B+R]RU[japanese]
SZ[19]WR[15k];B[pd];W[pp];B[dc];W[cp];B[qn];W[eq];B[jp];W[dj];B[dg];W[qj];B[np]
;W[pq];B[rp];W[rq];B[qp];W[qq];B[po];W[oo];B[on];W[no];B[mp];W[mn];B[op];W[nn];
B[om];W[ok];B[or];W[pr];B[ps];W[oq];B[nr];W[nq];B[mq];W[qs];B[rr];W[sr];B[rs];
W[sp];B[qr];W[ro];B[qo];W[qe];B[qd];W[ip];B[gd];W[of];B[md];W[hf];B[jd];W[eg];
B[df];W[ef];B[ee];W[jo];B[kp];W[ko];B[nl];W[nk];B[lo];W[ln];B[kn];W[km];B[jn];
W[io];B[jm];W[kl];B[hm];W[jl];B[il];W[ik];B[hk];W[in];B[im];W[gl];B[lm];W[hl];
B[gm];W[fm];B[fl];W[gk];B[fn];W[em];B[gn];W[en];B[jk];W[ij];B[kk];W[ll];B[lk];
W[ml];B[mk];W[mm];B[mo])
