(;FF[4]BR[5k]CP[online-go.com]DT[2016-08-21]GM[1]KM[6.5]PB[charsiubau]
PC[OGS: http://online-go.com/game/6142881]PW[patches]RE[W+R]RU[japanese]SZ[19]
WR[4k];B[pd];W[dp];B[pq];W[dd];B[po];W[nc];B[nd];W[qc];B[pc];W[pb];B[ob];W[qd];
B[qb];W[rb];B[pa];W[qe];B[jq];W[ph];B[jc];W[qm];B[cn];W[fq];B[bp];W[cq];B[ck];
W[ci];B[cf];W[ce];B[df];W[fc];B[di];W[dh];B[ch];W[dj];B[ei];W[cj];B[eh];W[dk];
B[cl];W[dl];B[dm];W[fl];B[em];W[gk];B[bq];W[iq];B[jp];W[ip];B[io];W[jr];B[kr];
W[ir];B[ko];W[ro];B[qp];W[rq];B[rp];W[sp];B[cc];W[cd];B[bc];W[bd];B[eb];W[dc];
B[db];W[fb];B[ec];W[ed];B[fd];W[ea])
