(;FF[4]BR[15k]CP[online-go.com]DT[2016-03-21]GM[1]KM[6.5]PB[Lomis]
PC[OGS: http://online-go.com/game/4502945]PW[Determination]RE[B+169.5]
RU[japanese]SZ[19]WR[18k];B[pd];W[dp];B[pq];W[dd];B[qk];W[ci];B[fq];W[nc];B[kd]
;W[ic];B[nd];W[mc];B[md];W[kc];B[lc];W[lb];B[ld];W[jc];B[cn];W[dn];B[dm];W[co];
B[en];W[do];B[em];W[bn];B[cm];W[eq];B[fp];W[fr];B[gr];W[es];B[hq];W[bk];B[jj];
W[fi];B[gk];W[fe];B[cc];W[cd];B[dc];W[gc];B[fc];W[gd];B[ed];W[ee];B[bd];W[be];
B[bc];W[cf];B[gb];W[hb];B[fb];W[gf];B[oc];W[ob];B[pb];W[na];B[jg];W[ie];B[je];
W[jd];B[jf];W[if];B[ig];W[hg];B[hh];W[gh];B[hi];W[dj];B[ek];W[ej];B[fj];W[gj];
B[fk];W[gi];B[hj];W[ck];B[ep];W[eo];B[dq];W[er];B[dr];W[cq];B[ds];W[cr];B[fs];
W[bm];B[fo];W[bo];B[cs];W[br];B[pa];W[dl];B[oa];W[nb];B[ma];W[mb];B[kb];W[jb];
B[la];W[ja];B[cl];W[dk];B[bl];W[al];B[el];W[bs];B[fd];W[ga];B[fa];W[ha];B[ae];
W[af];B[ad];W[ka];B[lb];W[];B[])
