(;FF[4]BR[10k]CP[online-go.com]DT[2016-04-01]GM[1]KM[6.5]PB[bear29]
PC[OGS: http://online-go.com/game/4699084]PW[RDiaz]RE[B+R]RU[japanese]SZ[19]
WR[7k];B[qd];W[pq];B[dc];W[cp];B[qo];W[qk];B[ce];W[jc];B[oc];W[qh];B[hc];W[mc];
B[jd];W[kd];B[id];W[cj];B[ep];W[jq];B[qq];W[qr];B[pp];W[oq];B[op];W[nq];B[co];
W[bo];B[do];W[cq];B[bn];W[bp];B[cm];W[er];B[ch];W[ej];B[eh];W[gj];B[gh];W[fl];
B[dk];W[dj];B[fn];W[ke];B[rq];W[gq];B[ek];W[fk];B[fi];W[fj];B[em];W[if];B[hf];
W[ii];B[pj];W[qj];B[pi];W[qi];B[hj];W[hi];B[gi];W[il];B[dr];W[dq];B[fr];W[eq];
B[fq];W[gr];B[fs];W[es];B[mo];W[ol];B[jj];W[ij];B[mj];W[ml];B[pk];W[pl];B[qm];
W[ql];B[og];W[ph];B[mh];W[oh];B[ng];W[pe];B[od];W[oe];B[ne];W[nd];B[qe];W[pg];
B[kg];W[ig];B[ll];W[mk];B[lk];W[lm];B[jl];W[jm];B[li];W[ji];B[nj];W[ni];B[mm];
W[nm];B[km];W[ln];B[kn];W[lo];B[jn];W[im];B[in];W[hn];B[kp];W[ho];B[lp];W[mn];
B[jp];W[mp];B[mq];W[np];B[iq];W[jr];B[ir];W[mr];B[gp];W[ip];B[hp];W[io];B[kr])
