(;FF[4]BR[9k]CP[online-go.com]DT[2016-08-31]GM[1]KM[6.5]PB[hdci]
PC[OGS: http://online-go.com/game/6223368]PW[mtgo2]RE[W+83.5]RU[japanese]SZ[19]
WR[10k];B[pc];W[dd];B[qp];W[dp];B[fq];W[dn];B[ip];W[pe];B[rd];W[oc];B[pd];W[od]
;B[qe];W[pf];B[fc];W[ec];B[fd];W[ic];B[ed];W[dc];B[hb];W[ib];B[hc];W[op];B[pq];
W[oq];B[pr];W[kq];B[iq];W[dj];B[dl];W[cg];B[fl];W[cl];B[dk];W[ck];B[dm];W[cm];
B[en];W[eo];B[fn];W[qo];B[rp];W[in];B[lc];W[ie];B[le];W[qf];B[rf];W[rg];B[qg];
W[qh];B[oe];W[ne];B[of];W[pg];B[nf];W[pb];B[qb];W[se];B[sf];W[sg];B[re];W[qc];
B[rc];W[qd];B[ra];W[nh];B[nd];W[gf];B[id];W[ef];B[jd];W[ro];B[pp];W[po];B[nr];
W[nn];B[je];W[fj];B[jg];W[kh];B[kg];W[lh];B[hf];W[dr];B[eq];W[dq];B[er];W[ko];
B[jh];W[ji];B[ih];W[ii];B[hh];W[hj];B[hl];W[il];B[hn];W[io];B[ho];W[im];B[kp];
W[jp];B[lp];W[lq];B[jq];W[jo];B[mq];W[mp];B[lo];W[mr];B[nq];W[ln];B[mo];W[no];
B[np];W[mn];B[or];W[mp];B[oo];W[on];B[lr];W[kr];B[ls];W[ks];B[ms];W[hs];B[hr];
W[is];B[ir];W[gs];B[fr];W[nc];B[md];W[mb];B[lb];W[de];B[ff];W[fg];B[ee];W[eg];
B[gg];W[cj];B[ge];W[hm];B[gm];W[hk];B[gl];W[ek];B[el];W[lg];B[lf];W[ng];B[mg];
W[og];B[mf];W[mh];B[mc];W[nb];B[gj];W[fi];B[fk];W[sp];B[sq];W[so];B[rq];W[ej];
B[gi];W[fb];B[gb];W[ea];B[jr];W[js];B[gr];W[fo];B[go];W[fp];B[gp];W[ds];B[ep];
W[do];B[ma];W[na];B[la];W[ga];B[ha];W[fa];B[fh];W[eh];B[gh];W[pa];B[qa];W[op];
B[oq];W[oo];B[fs];W[lp];B[hi];W[ki];B[];W[])
