(;FF[4]BR[11k]CP[online-go.com]DT[2016-04-12]GM[1]KM[6.5]PB[superponible]
PC[OGS: http://online-go.com/game/4862839]PW[Stepanuchi]RE[W+39.5]RU[japanese]
SZ[19]WR[12k];B[pd];W[dp];B[qp];W[dd];B[oq];W[fq];B[cj];W[cf];B[cm];W[cn];B[dm]
;W[dn];B[en];W[gc];B[qj];W[nc];B[lc];W[ne];B[qf];W[jc];B[le];W[og];B[lg];W[qh];
B[rh];W[rg];B[qg];W[ri];B[ph];W[qi];B[pi];W[rj];B[qk];W[rk];B[ql];W[rf];B[qe];
W[pb];B[nd];W[md];B[od];W[ld];B[me];W[kd];B[jp];W[iq];B[ip];W[jq];B[kq];W[hp];
B[in];W[lo];B[lq];W[gn];B[hl];W[fm];B[em];W[eo];B[ke];W[je];B[jf];W[ie];B[if];
W[hf];B[ih];W[qn];B[rl];W[no];B[km];W[ro];B[rp];W[mm];B[ll];W[mq];B[mr];W[nr];
B[nq];W[mp];B[or];W[lr];B[ns];W[kr];B[kp];W[om];B[ok];W[sp];B[sq];W[nk];B[ml];
W[nl];B[ol];W[ni];B[li];W[oj];B[pj];W[po];B[pm];W[on];B[op];W[pp];B[pq];W[qo];
B[rr];W[mn];B[np];W[lp];B[ln];W[mk];B[lk];W[mi];B[oi];W[ng];B[pg];W[mh];B[nf];
W[lh];B[mg];W[lj];B[ki];W[kj];B[ji];W[jj];B[ij];W[jl];B[jm];W[lm];B[kl];W[kn];
B[jk];W[rm];B[hg];W[gf];B[gg];W[ef];B[cc];W[dc];B[cd];W[cb];B[bb];W[da];B[ba];
W[bd];B[be];W[bf];B[ad];W[ce];B[bc];W[di];B[dj];W[fi];B[ei];W[ci];B[bi];W[bh];
B[bj];W[fk];B[eh];W[dg];B[fj];W[ek];B[gj];W[gl];B[hm];W[hn];B[fn];W[gm];B[fo];
W[fp];B[go];W[ho];B[io];W[gp];B[bn];W[cp];B[qc];W[qb];B[oc];W[nb];B[rb];W[ra];
B[sb];W[rd];B[rc];W[of];B[oe];W[kh];B[jh];W[kg];B[kf];W[fg];B[fh];W[bo];B[bl];
W[an];B[bm];W[dh];B[ob];W[oa];B[qa];W[pa];B[sa];W[re];B[pf];W[sl];B[nh];W[nm];
B[pc];W[lb];B[ls];W[js];B[kk];W[mj];B[am];W[ao];B[dk];W[el];B[gk];W[eg];B[af];
W[ag];B[ae];W[ks];B[ms];W[so];B[is];W[ir];B[jr];W[hs];B[hr];W[js];B[hq];W[kr];
B[gs];W[gr];B[is];W[ac];B[ab];W[hs];B[ks];W[gq];B[pn];W[qm];B[pl];W[oo];B[ko];
W[jn];B[jo];W[ln];B[qa];W[na];B[ra];W[qd];B[nj];W[oh];B[nh];W[sd];B[jg];W[ej];
B[gi];W[dl];B[cl];W[fl];B[ai];W[ah];B[oj];W[jr];B[ca];W[db];B[lr];W[];B[])
