(;FF[4]BR[2d]CP[online-go.com]DT[2015-08-30]GM[1]KM[6.5]PB[herminator]
PC[OGS: http://online-go.com/game/2730482]PW[Sadaharu]RE[W+R]RU[japanese]SZ[19]
WR[4d];B[pd];W[dd];B[pq];W[dp];B[fq];W[cn];B[ip];W[kq];B[mq];W[ko];B[jq];W[lq];
B[mp];W[io];B[jo];W[jn];B[jp];W[ln];B[in];W[ho];B[jm];W[kn];B[fo];W[go];B[hm];
W[fn];B[gp];W[eo];B[fp];W[gn];B[kl];W[hp];B[hq];W[jr];B[ir];W[kp];B[iq];W[nn];
B[ml];W[po];B[qq];W[dr];B[gr];W[ol];B[nj];W[pj];B[oh];W[qh];B[fc];W[df];B[jd];
W[og];B[ng];W[of];B[ph];W[qg];B[pg];W[pf];B[qf];W[qe];B[rf];W[pi];B[qi];W[ri];
B[rh];W[qj];B[rg];W[qi];B[nf];W[od];B[oc];W[qd];B[pe];W[oe];B[pc];W[me];B[nh];
W[qc];B[qb];W[rb];B[pb];W[mc];B[re];W[kc];B[jc];W[kd];B[ke];W[jb];B[ib];W[lb];
B[ja];W[kb];B[nb];W[je];B[ie];W[jf];B[kf];W[ic];B[id];W[hc];B[hb];W[hd];B[he];
W[gd];B[gc];W[jg];B[fe];W[lg];B[ch];W[cj];B[eh];W[cg];B[bh];W[ff];B[gf];W[fg];
B[fh];W[gg];B[cl];W[dk];B[bn];W[co];B[em];W[en];B[cm];W[di];B[dh];W[fl];B[el];
W[ek];B[fk];W[fm];B[bk];W[bj];B[ak];W[aj];B[bo];W[bp];B[am];W[fj];B[gk];W[gj];
B[gh];W[hg];B[cq];W[bq];B[ce];W[ee];B[ed];W[ec];B[fd];W[de];B[cc];W[dc];B[cd];
W[bg];B[bf];W[ag];B[hj];W[hi];B[ij];W[ii];B[jj];W[li];B[mj];W[gl];B[hk];W[rp];
B[rq];W[lm];B[lj];W[cb];B[bb];W[ba];B[db];W[da];B[ca];W[ki];B[ll];W[cb];B[eb];
W[fb];B[ca];W[nk];B[mk];W[cb];B[gi];W[ej];B[ca];W[kk];B[kj];W[cb];B[cf];W[dg];
B[ca];W[hl];B[il];W[cb];B[dq];W[cr];B[ca];W[jk])
