(;FF[4]BR[11k]CP[online-go.com]DT[2016-06-05]GM[1]KM[6.5]PB[moocowpong1]
PC[OGS: http://online-go.com/game/5463707]PW[S_Alexander]RE[B+4.5]RU[japanese]
SZ[19]WR[8k];B[pd];W[dc];B[pq];W[dp];B[qk];W[mp];B[po];W[jp];B[cn];W[cl];B[fq];
W[dn];B[cq];W[cp];B[dq];W[ep];B[iq];W[eq];B[er];W[fp];B[gr];W[gq];B[fr];W[hq];
B[hr];W[nc];B[qg];W[kc];B[ce];W[cg];B[ee];W[fd];B[dh];W[ci];B[cc];W[cb];B[bc];
W[dd];B[de];W[gf];B[eg];W[fh];B[bg];W[ch];B[cf];W[qc];B[pc];W[pb];B[ob];W[qb];
B[oc];W[re];B[qd];W[rd];B[qe];W[rf];B[qf];W[ne];B[ng];W[ok];B[nn];W[ql];B[qi];
W[rk];B[qj];W[rn];B[ro];W[qn];B[qo];W[rj];B[pl];W[rh];B[ri];W[si];B[rl];W[sl];
B[qm];W[rm];B[ql];W[rg];B[ln];W[sm];B[ip];W[jn];B[jo];W[ko];B[io];W[kn];B[kp];
W[lo];B[lq];W[qh];B[ph];W[pi];B[oh];W[pj];B[pn];W[sh];B[nj];W[of];B[pg];W[nl];
B[lm];W[mm];B[ml];W[mk];B[ll];W[mj];B[ni];W[nk];B[nm];W[mi];B[mf];W[me];B[kg];
W[lf];B[mh];W[ki];B[kh];W[kf];B[ji];W[kj];B[jj];W[kk];B[jm];W[km];B[kl];W[jk];
B[jl];W[il];B[in];W[ij];B[jf];W[jh];B[jg];W[ih];B[ke];W[le];B[jd];W[jc];B[nf];
W[od];B[lg];W[id];B[mb];W[nb];B[na];W[mc];B[lb];W[lc];B[ie];W[he];B[hd];W[ic];
B[hf];W[ge];B[ig];W[hh];B[hg];W[bb];B[gn];W[dg];B[ae];W[cd];B[bd];W[bf];B[ac];
W[bh];B[ag];W[go];B[ho];W[fn];B[gp];W[gm];B[fo];W[eo];B[go];W[bq];B[br];W[cr];
B[dr];W[ar];B[cs];W[bp];B[eh];W[ef];B[ff];W[fg];B[df];W[ei];B[di];W[dj];B[ef];
W[ej];B[gg];W[ed];B[gh];W[fi];B[hi];W[ii];B[gi];W[gj];B[fm];W[en];B[gl];W[hm];
B[hl];W[im];B[hj];W[hk];B[gk];W[ik];B[fj];W[fk];B[gj];W[fl];B[ah];W[ai];B[af];
W[cj];B[kb];W[ma];B[la];W[jb];B[oa];W[kd];B[je];W[ol];B[om];W[lk];B[mn];W[li];
B[lh];W[ab];B[pa];W[qa];B[so];W[sk];B[sn];W[sj];B[og];W[oi];B[nh];W[ja];B[be];
W[fe];B[ma];W[pk];B[pm];W[aq];B[bs];W[];B[])
