(;FF[4]BR[3k]CP[online-go.com]DT[2016-06-15]GM[1]KM[6.5]PB[tyrone]
PC[OGS: http://online-go.com/game/5560424]PW[Landroval]RE[B+41.5]RU[japanese]
SZ[19]WR[17k];B[pd];W[dp];B[pq];W[dd];B[fq];W[po];B[qo];W[pp];B[qp];W[oq];B[pr]
;W[pn];B[or];W[nq];B[qn];W[pm];B[cn];W[hq];B[fo];W[ho];B[jq];W[jn];B[nr];W[mq];
B[mr];W[lq];B[lr];W[kp];B[kq];W[jp];B[cq];W[qm];B[pi];W[pg];B[ni];W[ng];B[qg];
W[qf];B[qh];W[pf];B[li];W[lg];B[qk];W[nd];B[nc];W[mc];B[oc];W[od];B[mb];W[lb];
B[lc];W[md];B[kb];W[nb];B[la];W[pc];B[ob];W[pb];B[na];W[qd];B[fc];W[ec];B[fd];
W[cf];B[dj];W[jh];B[nl];W[ol];B[nk];W[nm];B[gm];W[ci];B[cj];W[di];B[ei];W[eh];
B[fh];W[eg];B[fj];W[hc];B[id];W[hd];B[he];W[ge];B[gd];W[fb];B[gb];W[eb];B[hb];
W[ic];B[jd];W[jc];B[kc];W[ie];B[hf];W[je];B[kd];W[fe];B[ib];W[ed];B[gc];W[ke];
B[lm];W[ln];B[mm];W[mn];B[pa];W[qb];B[qa];W[ra];B[oa];W[rb];B[cp];W[lk];B[km];
W[kn];B[kk];W[hh];B[ig];W[hg];B[if];W[gf];B[le];W[jg];B[ld];W[me];B[lf];W[kf];
B[mf];W[nf];B[mg];W[kj];B[lj];W[jk];B[kl];W[ih];B[jb];W[ki];B[gg];W[fg];B[gh];
W[gi];B[fi];W[gj];B[gk];W[hk];B[gl];W[jm];B[bi];W[bh];B[bj];W[rk];B[rl];W[ql];
B[rm];W[qj];B[pk];W[sh];B[rg];W[rf];B[sg];W[pj];B[ok];W[jl];B[mk];W[iq];B[hl];
W[ik];B[ir];W[jr];B[kr];W[hr];B[js];W[fr];B[eq];W[er];B[dr];W[gn];B[fn];W[gp];
B[bg];W[cg];B[ah];W[ch];B[sf];W[se];B[oi];W[oh];B[nh];W[bf];B[ag];W[af];B[ai];
W[fp];B[ep];W[ds];B[cs];W[go];B[ph];W[og];B[ek];W[gq];B[es];W[fs];B[hs];W[hm];
B[gr];W[il];B[lh];W[kg];B[gs];W[ga];B[ha];W[fa];B[pl];W[om];B[hd];W[kh];B[jf];
W[];B[])
