(;FF[4]BR[8k]CP[online-go.com]DT[2016-05-30]GM[1]KM[6.5]PB[direwolf]
PC[OGS: http://online-go.com/game/5406059]PW[lucius286]RE[W+R]RU[japanese]
SZ[19]WR[9k];B[pd];W[dp];B[pq];W[dd];B[qk];W[dj];B[fc];W[po];B[qo];W[qn];B[qp];
W[on];B[nq];W[pm];B[qh];W[df];B[ic];W[jq];B[bp];W[cq];B[bm];W[dm];B[bj];W[cl];
B[bl];W[jn];B[hm];W[ho];B[gn];W[jl];B[hk];W[jj];B[ik];W[jk];B[hi];W[pj];B[qj];
W[pk];B[pi];W[gf];B[ih];W[kh];B[jg];W[fo];B[go];W[gp];B[fp];W[hp];B[fn];W[eo];
B[fl];W[ch];B[bq];W[br];B[cp];W[dq];B[cm];W[dl];B[bh];W[bg];B[bi];W[ci];B[ck];
W[dk];B[cj];W[cf];B[db];W[oi];B[oh];W[ni];B[oc];W[kg];B[jf];W[le];B[ie];W[mp];
B[mq];W[lq];B[np];W[no];B[lp];W[mo];B[kq];W[lr];B[kr];W[kp];B[ls];W[lo];B[mr];
W[jr];B[lp];W[lq];B[mc];W[nh];B[og];W[lc];B[mb];W[fi];B[gh];W[fh];B[gg];W[fg];
B[cc];W[ql];B[nf];W[lf];B[gd];W[kb];B[cd];W[rl];B[rk];W[be];B[bd];W[ha];B[hb];
W[ia];B[ga];W[jb];B[gb];W[co];B[bo];W[cn];B[bn];W[en];B[ar];W[bs];B[js];W[is];
B[ir];W[ks];B[ji];W[lr];B[ki];W[mg];B[lj];W[lk];B[mj];W[mk];B[nj];W[oj];B[nk];
W[nl];B[kk];W[kj];B[ol];W[ok];B[ml];W[li];B[ll];W[nm];B[jm];W[im];B[in];W[km];
B[hn];W[io];B[il];W[jm];B[hf];W[fe];B[ed];W[ee];B[ge];W[ff];B[lb];W[kc];B[ro];
W[ec];B[fd];W[dc];B[eb];W[de];B[md];W[ke];B[rn];W[op];B[oq];W[ms];B[ns];W[me];
B[ne];W[gj];B[gk];W[ij];B[hj];W[ii];B[jh];W[fk];B[gi];W[fj];B[ad];W[el];B[fm];
W[jd];B[ib];W[ja];B[kf];W[lh];B[mi];W[ng];B[mh];W[lg];B[ld];W[kd];B[la];W[id];
B[hd];W[rm];B[sn];W[sk];B[ri];W[sj];B[si];W[sl];B[rj];W[ae];B[ag];W[af];B[ah];
W[ce];B[ls];W[pp];B[qq];W[ms];B[dg];W[ls];B[cg];W[di];B[bf];W[cb];B[bb];W[bg];
B[cr];W[dr];B[bf];W[bc];B[ac];W[bg];B[cs];W[ds];B[bf];W[ab];B[ca];W[bg];B[do];
W[dn];B[bf];W[of];B[bg];W[qg];B[pf];W[pg];B[oe];W[ph];B[rg];W[qf])
