(;FF[4]BR[12k]CP[online-go.com]DT[2016-07-31]GM[1]KM[6.5]PB[ush.maksim]
PC[OGS: http://online-go.com/game/5962337]PW[mcmillen]RE[W+R]RU[japanese]SZ[19]
WR[12k];B[pd];W[ep];B[dc];W[pp];B[ce];W[jc];B[gc];W[nc];B[pf];W[pb];B[qc];W[ld]
;B[dj];W[co];B[qn];W[pk];B[nq];W[pn];B[qq];W[pq];B[qp];W[qo];B[ro];W[po];B[pr];
W[or];B[qr];W[oq];B[qi];W[rn];B[rp];W[qm];B[sr];W[jq];B[he];W[cl];B[cj];W[ek];
B[ej];W[fk];B[gj];W[gk];B[dq];W[bq];B[eq];W[gq];B[fq];W[fp];B[gr];W[hq];B[hr];
W[hj];B[gi];W[hi];B[gh];W[hh];B[li];W[lk];B[ni];W[nk];B[ne];W[fj];B[ei];W[mh];
B[nh];W[mi];B[mg];W[lh];B[le];W[ke];B[lf];W[kf];B[ib];W[jb];B[qb];W[cr];B[dr];
W[ir];B[cq];W[br];B[hs];W[fs];B[hg];W[ig];B[hf];W[hb];B[gb];W[rj];B[ri];W[bk];
B[bj];W[lg];B[me];W[oc];B[pc];W[ob];B[qj];W[qk];B[oj];W[ok];B[pj];W[id];B[hc];
W[ic];B[ia];W[ja];B[ha];W[hd];B[gd];W[fi];B[fh];W[aj];B[bh];W[ai];B[bi];W[ah];
B[ag];W[ak];B[bg];W[qa];B[ra];W[pa];B[rb];W[od];B[oe];W[rk];B[os];W[nr];B[ns];
W[ms];B[ps];W[mr];B[ck];W[bl];B[if];W[jg];B[md];W[mc];B[sn];W[sm];B[so];W[si];
B[sh];W[sj];B[rg];W[ie];B[fe];W[dk];B[nj];W[mj];B[jf];W[je])
