(;FF[4]BR[2d]CP[online-go.com]DT[2016-07-11]GM[1]KM[6.5]PB[suneagle]
PC[OGS: http://online-go.com/game/5795692]PW[yumm]RE[B+3.5]RU[japanese]SZ[19]
WR[2k];B[pp];W[dd];B[dp];W[pd];B[jp];W[cn];B[cl];W[dl];B[dk];W[el];B[cj];W[fq];
B[fp];W[cq];B[cp];W[dq];B[eq];W[er];B[ep];W[gq];B[cm];W[gp];B[go];W[ho];B[gn];
W[ip];B[iq];W[jo];B[kp];W[hq];B[ir];W[bp];B[fr];W[gr];B[dr];W[fs];B[bq];W[cr];
B[br];W[ds];B[bo];W[qn];B[ko];W[jn];B[kn];W[jm];B[pn];W[qq];B[pq];W[qp];B[qo];
W[ro];B[po];W[qm];B[pm];W[ql];B[pl];W[qk];B[fc];W[cf];B[nc];W[jd];B[ne];W[pf];
B[qc];W[pc];B[pb];W[qd];B[rb];W[rc];B[qb];W[pi];B[db];W[cc];B[cb];W[bb];B[dc];
W[cd];B[ba];W[ab];B[ed];W[ee];B[fe];W[ef];B[jf];W[md];B[ld];W[mc];B[lc];W[nd];
B[le];W[hf];B[ie];W[gd];B[fd];W[lb];B[kb];W[mb];B[rd];W[re];B[sc];W[jb];B[jc];
W[ka];B[kc];W[ib];B[hc];W[gc];B[gb];W[hb];B[ge];W[hd];B[he];W[id];B[ic];W[fb];
B[je];W[ga];B[fh];W[ch];B[hl];W[ei];B[fj];W[fi];B[gi];W[gj];B[ej];W[eh];B[hi];
W[qr];B[pr];W[ps];B[os];W[qs];B[nr];W[hm];B[gm];W[il];B[hk];W[mm];B[ll];W[ml];
B[mk];W[nk];B[lm];W[mj];B[lk];W[nl];B[mn];W[nn];B[no];W[pk];B[se];W[rf];B[sf];
W[sg];B[sd];W[qg];B[li];W[jj];B[ij];W[bi];B[bj];W[mi];B[lh];W[gg];B[fg];W[ff];
B[gh];W[gf];B[eg];W[dg];B[mh];W[nh];B[ng];W[oh];B[jk];W[ig];B[jg];W[ih];B[jh];
W[kj];B[lj];W[kk];B[ik];W[kl];B[jl];W[km];B[hn];W[im];B[ji];W[hp];B[og];W[pg];
B[oe];W[hs];B[is];W[ob];B[od];W[oc];B[ci];W[bh];B[kd];W[gb];B[me];W[of];B[nf];
W[eb];B[ec];W[mo];B[ln];W[oo];B[np];W[on];B[op];W[ol];B[om];W[aj];B[ak];W[ai];
B[nm];W[nj];B[bk];W[bs];B[di];W[dh];B[ii];W[ar];B[ap];W[pa];B[qa];W[oa];B[pe];
W[qe];B[ki];W[io];B[aq];W[hr];B[jq];W[cs];B[as];W[ea];B[ar];W[da];B[ca];W[];
B[aa];W[bc];B[];W[])
