(;FF[4]BR[17k]CP[online-go.com]DT[2016-06-17]GM[1]KM[6.5]PB[proximus63]
PC[OGS: http://online-go.com/game/5572703]PW[lovejing]RE[W+82.5]RU[japanese]
SZ[19]WR[19k];B[dp];W[pd];B[dd];W[pp];B[nq];W[qn];B[nc];W[lc];B[jc];W[nd];B[pc]
;W[oc];B[ob];W[od];B[qc];W[nb];B[pa];W[fq];B[eq];W[er];B[dr];W[fr];B[fp];W[hq];
B[jq];W[gp];B[fo];W[go];B[fm];W[cf];B[ch];W[cc];B[dc];W[qi];B[mc];W[md];B[mb];
W[lb];B[na];W[kd];B[jd];W[cd];B[de];W[df];B[ge];W[kf];B[jf];W[bg];B[bh];W[hj];
B[fj];W[re];B[rd];W[qd];B[sc];W[gn];B[jn];W[fn];B[en];W[em];B[fl];W[dn];B[eo];
W[do];B[ep];W[cp];B[dq];W[cq];B[dm];W[el];B[dl];W[ek];B[dj];W[oq];B[or];W[pr];
B[ns];W[np];B[mq];W[fk];B[gl];W[gk];B[hl];W[dk];B[ck];W[cn];B[cm];W[ej];B[bn];
W[co];B[bl];W[di];B[cj];W[dh];B[ci];W[cg];B[ef];W[eg];B[ff];W[fg];B[gg];W[ia];
B[gb];W[mn];B[lo];W[mk];B[ll];W[ml];B[lk];W[mi];B[li];W[mh];B[lh];W[mg];B[ij];
W[gh];B[hg];W[je];B[ie];W[ke];B[jg];W[mp];B[lp];W[kg];B[kh];W[hk];B[ik];W[hi];
B[ii];W[hh];B[ih];W[ln];B[kn];W[ib];B[ic];W[cb];B[db];W[lj];B[kj];W[mj];B[lm];
W[mo];B[hn];W[ce];B[lg];W[lf];B[hb];W[ho];B[io];W[hm];B[il];W[in];B[im];W[hn];
B[ip];W[ir];B[jr];W[js];B[ks];W[is];B[iq];W[kr];B[kq];W[lr];B[mr];W[hr];B[lq];
W[ls];B[ms];W[ks];B[ps];W[qr];B[qs];W[rs];B[os];W[rq];B[mm];W[nm];B[ca];W[ba];
B[da];W[bb];B[qk];W[pm];B[pi];W[pj];B[ph];W[qj];B[qf];W[qe];B[pf];W[nf];B[og];
W[rf];B[qh];W[rg];B[rh];W[qg];B[oj];W[pk];B[ni];W[nh];B[kb];W[la];B[ma];W[bo];
B[am];W[ao];B[an];W[ka];B[jb];W[ja];B[ha];W[ah];B[ai];W[ag];B[bj];W[kc];B[hd];
W[se];B[sd];W[of];B[aq];W[cr];B[hp];W[gq];B[];W[])
