(;FF[4]BR[7k]CP[online-go.com]DT[2016-08-04]GM[1]KM[6.5]PB[S_Alexander]
PC[OGS: http://online-go.com/game/5994653]PW[rafar]RE[B+R]RU[japanese]SZ[19]
WR[8k];B[qd];W[dd];B[pq];W[od];B[pf];W[qc];B[rc];W[pc];B[rb];W[kc];B[qk];W[dp];
B[cf];W[ci];B[fc];W[ee];B[ic];W[dc];B[ie];W[ke];B[fq];W[ip];B[cn];W[eo];B[ck];
W[ei];B[bp];W[cq];B[kq];W[iq];B[ko];W[bq];B[cp];W[dn];B[dm];W[em];B[dl];W[po];
B[qp];W[ok];B[pi];W[qj];B[pj];W[ql];B[pk];W[pl];B[ol];W[rl];B[om];W[rj];B[rk];
W[sk];B[ri];W[qo];B[qi];W[oq];B[or];W[rp];B[rq];W[pp];B[qq];W[nq];B[nr];W[mq];
B[rn];W[ro];B[no];W[nn];B[on];W[mo];B[oo];W[op];B[mp];W[kr];B[lq];W[lr];B[mr];
W[lp];B[lo];W[np];B[kp];W[mp];B[mn];W[nm];B[mm];W[nl];B[nk];W[ml];B[oj];W[ln];
B[lm];W[kn];B[jr];W[jo];B[ks];W[lk];B[ll];W[mk];B[jn];W[km];B[kl];W[jm];B[jl];
W[im];B[kj];W[sp];B[rm];W[sn];B[qm])
