(;FF[4]BR[3d]CP[online-go.com]DT[2016-07-28]GM[1]KM[6.5]PB[Miller Heavy]
PC[OGS: http://online-go.com/game/5940343]PW[kruczy87]RE[B+R]RU[japanese]SZ[19]
WR[5k];B[pd];W[dq];B[de];W[pp];B[do];W[co];B[cn];W[cp];B[qn];W[dn];B[nq];W[dc];
B[oo];W[jp];B[fd];W[ce];B[cf];W[cd];B[dm];W[en];B[em];W[cm];B[bn];W[bm];B[fn];
W[eo];B[ep];W[dp];B[fo];W[do];B[gl];W[qf];B[qh];W[nc];B[pf];W[pg];B[qg];W[pe];
B[of];W[oe];B[qe];W[rf];B[qd];W[jl];B[nf];W[ne];B[mf];W[df];B[jn];W[fm];B[gm];
W[fl];B[fk];W[el];B[dl];W[ek];B[bl];W[dj];B[cl];W[bo];B[ci];W[gn];B[gp];W[go];
B[fp];W[hp];B[hq];W[ip];B[im];W[ho];B[ej];W[dk];B[ei];W[ef];B[cj];W[qo];B[pn];
W[oq];B[op];W[qq];B[or];W[pq];B[ld];W[lb];B[jc];W[pb];B[oc];W[ob];B[nd];W[mc];
B[md];W[kn];B[ko];W[jo];B[km];W[jm];B[ln];W[in];B[hm];W[kn];B[ro];W[rp];B[jn];
W[rc];B[kn];W[gf];B[kq];W[ir];B[di];W[gq];B[fq];W[gr];B[fr];W[hr];B[hd];W[jf];
B[jh];W[kg];B[li];W[hi];B[hh];W[gh];B[hg];W[hf];B[gg];W[kh];B[ki];W[mg];B[nh];
W[mh];B[mi];W[kd];B[kc];W[jd];B[lc];W[ic];B[ib];W[hc];B[fg];W[ff];B[hb];W[gc];
B[gb];W[fc];B[fb];W[eb];B[rn];W[ph];B[qi];W[ng];B[og])
