(;FF[4]BR[4k]CP[online-go.com]DT[2016-04-07]GM[1]KM[6.5]PB[mmmd]
PC[OGS: http://online-go.com/game/4785338]PW[mgsakata]RE[B+R]RU[japanese]SZ[19]
WR[10k];B[qd];W[dp];B[pq];W[dc];B[oc];W[qo];B[ql];W[oo];B[np];W[op];B[oq];W[qq]
;B[qr];W[rq];B[qi];W[qg];B[ph];W[of];B[re];W[lc];B[pg];W[ce];B[fq];W[hq];B[cq];
W[dq];B[cp];W[co];B[cr];W[dr];B[do];W[eo];B[dn];W[fp];B[cn];W[hc];B[ds];W[es];
B[cs];W[fr];B[ci];W[lq];B[no];W[rm];B[qm];W[qn];B[rl];W[sn];B[lp];W[mq];B[nq];
W[kp];B[ko];W[jp];B[on];W[rr];B[le];W[md];B[ne];W[me];B[mf];W[pn];B[om];W[lf];
B[mg];W[ke];B[lg];W[kf];B[nd];W[mb];B[kg];W[jk];B[lk];W[kl];B[ll];W[jn];B[ec];
W[ed];B[fd];W[fc];B[gc];W[fb];B[gd];W[gb];B[ee];W[dd];B[fg];W[hd];B[cg];W[ef];
B[ff];W[df];B[eh];W[lo];B[ln];W[mp];B[kn];W[jo];B[en];W[fn];B[fm];W[gm];B[gl];
W[fl];B[em];W[gk];B[gn];W[hl];B[fo];W[ep];B[gp];W[gq];B[ek];W[el];B[dl];W[dk];
B[ej];W[bo];B[bn];W[bf];B[bg];W[ge];B[fe];W[hf];B[cf];W[be];B[nb];W[pr];B[or];
W[qs];B[mr];W[lr];B[ls];W[ks];B[ms];W[mn];B[mm];W[mo];B[nn];W[jg];B[kr];W[js];
B[jr];W[is];B[hr])
