(;FF[4]BR[7k]CP[online-go.com]DT[2016-06-17]GM[1]KM[6.5]PB[Copacetic]
PC[OGS: http://online-go.com/game/5575583]PW[komilatte]RE[W+R]RU[japanese]
SZ[19]WR[2k];B[pd];W[dp];B[pq];W[dd];B[fq];W[cn];B[qk];W[nc];B[pf];W[qc];B[pc];
W[pb];B[ob];W[qb];B[oc];W[re];B[rf];W[qe];B[qf];W[pe];B[oe];W[nb];B[qd];W[rd];
B[pa];W[qa];B[oa];W[na];B[od];W[rb];B[md];W[kb];B[lp];W[of];B[nd];W[og];B[mc];
W[qh];B[pg];W[ph];B[oh];W[mg];B[ni];W[mf];B[pi];W[rg];B[qi];W[ri];B[fo];W[po];
B[pm];W[oq];B[pp];W[op];B[qo];W[pr];B[qr];W[lr];B[mr];W[mq];B[lq];W[nr];B[kr];
W[ms];B[dr];W[ck];B[ic];W[kd];B[le];W[je];B[kf];W[jf];B[kg];W[jg];B[jh];W[ih];
B[fj];W[kh];B[lh];W[ji];B[lg];W[li];B[mh];W[dg];B[db];W[cc];B[ed];W[gc];B[gd];
W[hd];B[de];W[ce];B[dc];W[cd];B[fc];W[ge];B[fe];W[fd];B[df];W[cf];B[gd];W[qn];
B[pn];W[oo];B[ro];W[fd];B[cg];W[gd];B[eg];W[dh];B[ff];W[ee];B[ef];W[fi];B[bg];
W[bi];B[gi];W[fh];B[bf];W[be];B[cb];W[bb];B[bc];W[ac];B[ae];W[bd];B[af];W[ad];
B[ba];W[bh];B[ab];W[aa];B[sf];W[ca];B[nf];W[se];B[ng];W[ej];B[gf];W[gh];B[gb];
W[hb];B[eb];W[hc];B[da];W[ga];B[ba];W[ch];B[ab];W[ag];B[bc];W[fb];B[ec];W[bb];
B[sc];W[bc];B[rc];W[jq];B[jr];W[gp];B[fp];W[io];B[kj];W[ir];B[hr];W[iq];B[kq];
W[is];B[hq];W[jn];B[ln];W[nm];B[ll];W[mk];B[ki];W[lk];B[kk];W[kl];B[ml];W[nl];
B[km];W[jl];B[nk];W[mn];B[lm];W[jk];B[jh];W[jj];B[kh];W[mo];B[lo];W[fm];B[jm];
W[im];B[il];W[hl];B[hn];W[in];B[gm];W[fl];B[gl];W[gk];B[fn];W[go];B[em];W[fk];
B[dn];W[co];B[bq];W[bp];B[ii];W[ij])
