(;FF[4]BR[10k]CP[online-go.com]DT[2016-08-17]GM[1]KM[6.5]PB[Krakatok]
PC[OGS: http://online-go.com/game/6111120]PW[ardeleanul]RE[W+R]RU[japanese]
SZ[19]WR[11k];B[cd];W[pp];B[pc];W[cp];B[qf];W[ep];B[ec];W[kc];B[mc];W[hc];B[dj]
;W[qk];B[nq];W[kq];B[qq];W[pq];B[pr];W[or];B[qr];W[oq];B[ro];W[qp];B[rp];W[pn];
B[qm];W[qn];B[rn];W[pm];B[qi];W[ql];B[cm];W[cg];B[eh];W[bj];B[ck];W[bk];B[ci];
W[bh];B[bi];W[ai];B[ch];W[bg];B[dg];W[qd];B[qc];W[pd];B[ne];W[od];B[nd];W[oc];
B[ob];W[nb];B[pa];W[nc];B[lc];W[rc];B[rd];W[qb];B[re];W[pb];B[le];W[fb];B[eb];
W[fc];B[fd];W[gd];B[fe];W[df];B[ef];W[de];B[be];W[ce];B[dd];W[cj];B[dk];W[bl];
B[bm];W[cl];B[dl];W[dm];B[al];W[aj];B[dn];W[em];B[bo];W[co];B[cn];W[en];B[bp];
W[bq];B[bf];W[an];B[cf];W[do];B[am];W[ap];B[ah];W[ag];B[af];W[ao];B[ah];W[hq];
B[jl];W[pf];B[pg];W[of];B[mg];W[og];B[ph];W[hf];B[jd];W[kd];B[ke];W[ld];B[md];
W[jc];B[id];W[hd];B[gf];W[ie];B[je];W[ic];B[if];W[he];B[hg];W[ig];B[jf];W[hh];
B[gg];W[ii];B[gk];W[jg];B[ki];W[kh];B[lh];W[ji];B[kj];W[ik];B[il];W[hk];B[hl];
W[gj];B[gi];W[jk];B[kk];W[fk];B[gl];W[fi];B[gh];W[fl];B[hj];W[fj];B[hi];W[lg];
B[lf];W[lb];B[mb];W[kg];B[ng];W[oh];B[mh];W[nf];B[mf];W[ma];B[oi];W[ni];B[oj];
W[nj];B[nk];W[ok];B[mk];W[pj];B[pi];W[nh];B[no];W[kl];B[km];W[ll];B[mj];W[mi];
B[li];W[oe];B[me];W[lk];B[lm];W[ml];B[nl];W[mm];B[nm];W[mn];B[jj];W[lj];B[ij];
W[jm];B[lo];W[ln];B[kn];W[ko];B[jn];W[jo];B[in];W[mo];B[ol];W[pk];B[rm];W[nn];
B[io];W[ip];B[nr];W[os];B[gp];W[hp];B[fo];W[ho];B[hn];W[gn])
