(;FF[4]BR[15k]CP[online-go.com]DT[2016-04-12]GM[1]KM[6.5]PB[Toza]
PC[OGS: http://online-go.com/game/4861329]PW[New Shampoo]RE[W+70.5]RU[japanese]
SZ[19]WR[14k];B[pp];W[pd];B[dp];W[dd];B[qf];W[qe];B[pf];W[qj];B[ql];W[oj];B[qi]
;W[pi];B[qh];W[ph];B[pg];W[pl];B[qm];W[qk];B[pm];W[ol];B[om];W[nq];B[oq];W[jq];
B[hq];W[ip];B[hp];W[cn];B[cp];W[dk];B[fc];W[cf];B[ic];W[mc];B[kc];W[fp];B[eq];
W[fq];B[fr];W[gr];B[er];W[gq];B[ho];W[hr];B[iq];W[jp];B[ir];W[jr];B[is];W[fo];
B[hm];W[nr];B[or];W[np];B[op];W[re];B[rf];W[gn];B[hn];W[en];B[jn];W[ko];B[kn];
W[ln];B[kl];W[lm];B[km];W[nm];B[nn];W[mm];B[no];W[mo];B[mp];W[lp];B[mq];W[mr];
B[jo];W[kp];B[ch];W[dh];B[ci];W[di];B[gk];W[cj];B[bf];W[cg];B[bg];W[bj];B[bi];
W[ai];B[bh];W[be];B[bd];W[ae];B[ce];W[cd];B[de];W[df];B[ee];W[bc];B[ed];W[dc];
B[ef];W[dg];B[ec];W[db];B[eb];W[fi];B[hf];W[le];B[ke];W[lf];B[kf];W[rk];B[ri];
W[pb];B[lb];W[mb];B[lc];W[md];B[ld];W[oe];B[ng];W[lg];B[kg];W[lh];B[nh];W[og];
B[of];W[oh];B[nf];W[ni];B[ne];W[nd];B[pe];W[od];B[qd];W[rd];B[qc];W[rc];B[rj];
W[sj];B[si];W[sk];B[rl];W[rg];B[sg];W[se];B[rh];W[sf];B[qg];W[bo];B[bp];W[hi];
B[hh];W[gh];B[hg];W[ii];B[ih];W[ik];B[il];W[jk];B[jl];W[im];B[hl];W[io];B[in];
W[hk];B[gl];W[gi];B[fm];W[fn];B[ek];W[el];B[dl];W[em];B[ej];W[dj];B[ei];W[eh];
B[fj];W[gj];B[fk];W[lj];B[kh];W[ki];B[ji];W[jj];B[jh];W[fg];B[ff];W[gg];B[gf];
W[mi];B[co];W[dn];B[bn];W[bm];B[ao];W[am];B[an];W[cm];B[cl];W[bl];B[gs];W[hs];
B[fs];W[js];B[ep];W[sl];B[sm];W[pj];B[on];W[mn];B[ns];W[ms];B[os];W[la];B[ka];
W[ma];B[pc];W[qb];B[oc];W[ob];B[da];W[ca];B[ea];W[cb];B[eg];W[kk];B[hc];W[mh];
B[];W[])
