(;FF[4]BR[2k]CP[online-go.com]DT[2016-03-31]GM[1]KM[6.5]PB[yumm]
PC[OGS: http://online-go.com/game/4673255]PW[Alexstrasza]RE[W+R]RU[japanese]
SZ[19]WR[1d];B[dd];W[pd];B[dp];W[qp];B[kq];W[nq];B[qj];W[ql];B[qf];W[fc];B[ph];
W[nd];B[df];W[jd];B[hp];W[cn];B[cl];W[cq];B[cp];W[dq];B[ep];W[bp];B[bo];W[bq];
B[co];W[fq];B[fp];W[gq];B[gp];W[fe];B[fg];W[dk];B[ck];W[dh];B[dg];W[cj];B[ci];
W[ch];B[dj];W[eh];B[ff];W[bj];B[ek];W[ej];B[dl];W[fj];B[gl];W[ce];B[de];W[bf];
B[ge];W[gd];B[he];W[hd];B[hg];W[hj];B[jf];W[ol];B[ld];W[ke];B[me];W[eg];B[ef];
W[lg];B[nf];W[cc];B[dc];W[cb];B[jh];W[ki];B[ij];W[ik];B[jj];W[hi];B[ih];W[hl];
B[lh];W[kh];B[kg];W[kf];B[jg];W[mf];B[mg];W[lf];B[ne];W[mh];B[ie];W[ng];B[og];
W[rd];B[re];W[qe];B[rf];W[md];B[le];W[lc];B[kc];W[oc];B[kd];W[lb];B[id];W[ic];
B[jc];W[ib];B[pk];W[ni];B[db];W[kb];B[pl];W[qm];B[pm];W[pn];B[op];W[oq];B[gm];
W[bk];B[bl];W[di];B[cd];W[bd];B[rk];W[rl];B[sd];W[rc];B[hq];W[hr];B[eq];W[er];
B[ir];W[gs];B[im];W[om];B[qk];W[lp];B[ln];W[kp];B[jq];W[kn];B[km];W[lm];B[jn];
W[ko];B[mm];W[ll];B[ml];W[lk];B[ok];W[nk];B[on];W[nn];B[qn];W[po];B[rn];W[li];
B[jb];W[ja];B[je];W[ro];B[ca];W[qo];B[sl];W[lr];B[lq];W[mq];B[sc];W[sb];B[se];
W[rb];B[ak];W[dk];B[cf];W[be];B[dj];W[bi];B[pe];W[qd];B[kr];W[ms];B[ga];W[gb];
B[fa];W[ha];B[ea];W[sn];B[rm];W[ao];B[ap];W[aq];B[an];W[oe];B[pf];W[fk];B[el];
W[bb];B[gk];W[hk];B[gj];W[gi];B[fh])
