(;FF[4]BR[1k]CP[online-go.com]DT[2016-06-28]GM[1]KM[6.5]PB[YiZheng]
PC[OGS: http://online-go.com/game/5675163]PW[Animiral]RE[W+R]RU[japanese]SZ[19]
WR[2d];B[qd];W[dc];B[oc];W[qo];B[pq];W[op];B[cp];W[oq];B[eq];W[ci];B[qj];W[jd];
B[df];W[fd];B[cl];W[ei];B[ff];W[el];B[hf];W[hd];B[gi];W[ck];B[jf];W[jq];B[gl];
W[ql];B[oj];W[mc];B[ol];W[rd];B[re];W[qe];B[pe];W[qf];B[rf];W[qg];B[rg];W[qh];
B[qc];W[ng];B[ne];W[me];B[mf];W[nf];B[le];W[md];B[of];W[ni];B[mg];W[og];B[oi];
W[mh];B[oh];W[nh];B[mk];W[kg];B[kf];W[lj];B[kl];W[jj];B[il];W[nj];B[ok];W[hj];
B[fi];W[mj];B[ih];W[jg];B[ig];W[ll];B[ml];W[lk];B[lm];W[rh];B[mp];W[gq];B[mr];
W[nr];B[kr];W[jr];B[fr];W[gr];B[oo];W[pp];B[rj];W[li];B[bk];W[bl];B[bm];W[dl];
B[al];W[cm];B[cj];W[bl];B[lf];W[km];B[jl];W[ji];B[cl];W[ln];B[mm];W[bl];B[lg];
W[lh];B[cl];W[ko];B[dk];W[mo];B[no];W[np];B[mn];W[lo];B[pn];W[rm];B[pl];W[ek];
B[ej];W[fj];B[dj];W[gk];B[gj];W[hk];B[fk];W[fl];B[gm];W[cd];B[be];W[fj];B[ic];
W[id];B[fk];W[nb];B[fj];W[ep];B[fp];W[fq];B[eo];W[er];B[dp];W[cf];B[ce];W[de];
B[ee];W[dd];B[cg];W[bd];B[bf];W[rb];B[rc];W[oa];B[qn];W[rn];B[qb];W[dr];B[pb];
W[in];B[jm];W[bq];B[kn];W[jo];B[kc];W[kd];B[ld];W[lc];B[gc];W[gd];B[kb];W[jc];
B[jb];W[hb];B[lb];W[mb];B[nd];W[ib];B[bp];W[ho];B[br];W[cq];B[aq];W[gn];B[fn];
W[hl];B[hm];W[im];B[fm];W[qk];B[qm];W[cr];B[hi];W[ij];B[pk];W[sk];B[sj];W[rk];
B[ph];W[pg];B[sh];W[ae];B[go];W[hn];B[gp];W[hp];B[af];W[ad];B[jh];W[kh];B[kk];
W[kj];B[ob];W[ja];B[qi];W[cs];B[ap];W[nk];B[nl];W[po];B[on];W[ri];B[si];W[pf];
B[nc];W[ka];B[oe];W[na];B[ed];W[ec];B[fe];W[ge];B[gf];W[dq];B[ep];W[pa];B[qa];
W[la];B[ie];W[je];B[if];W[jn];B[km];W[bs])
