(;FF[4]BR[13k]CP[online-go.com]DT[2016-04-11]GM[1]KM[6.5]PB[azerwhites]
PC[OGS: http://online-go.com/game/4844921]PW[Arekkusu12]RE[B+R]RU[japanese]
SZ[19]WR[15k];B[pd];W[pq];B[dd];W[cp];B[po];W[jp];B[qk];W[cj];B[jc];W[cf];B[ep]
;W[gq];B[dn];W[np];B[ce];W[df];B[gd];W[gn];B[cl];W[fj];B[ji];W[kl];B[lj];W[nm];
B[ol];W[nl];B[ok];W[qf];B[qe];W[re];B[rd];W[se];B[rg];W[rf];B[qh];W[qg];B[rh];
W[pg];B[ne];W[ph];B[ng];W[oi];B[nk];W[sd];B[rc];W[qj];B[rj];W[qi];B[ri];W[mh];
B[ni];W[nh];B[mk];W[gf];B[jf];W[nf];B[mf];W[of];B[mg];W[lh];B[jh];W[oe];B[od];
W[me];B[nd];W[le];B[og];W[pf];B[lf];W[ke];B[kf];W[je];B[ie];W[id];B[hd];W[ic];
B[kc];W[lc];B[lb];W[mc];B[mb];W[nc];B[nb];W[oc];B[pc];W[ob];B[jd];W[ib];B[gb];
W[oa];B[pb];W[pa];B[qb];W[na];B[ka];W[ma];B[ld];W[md];B[qa];W[jb];B[la];W[kd];
B[ld])
