(;FF[4]BR[7k]CP[online-go.com]DT[2016-07-10]GM[1]KM[6.5]PB[jhwanggolf]
PC[OGS: http://online-go.com/game/5781377]PW[icky]RE[B+R]RU[japanese]SZ[19]
WR[5k];B[pd];W[dp];B[dd];W[qp];B[jd];W[pf];B[nd];W[qd];B[qc];W[qe];B[qh];W[qj];
B[oh];W[nf];B[mh];W[lf];B[me];W[mf];B[ql];W[oj];B[po];W[oq];B[mk];W[nk];B[pk];
W[pj];B[kh];W[jf];B[ml];W[om];B[nl];W[ol];B[ok];W[nj];B[qn];W[oo];B[pp];W[pq];
B[op];W[np];B[qo];W[rp];B[no];W[mo];B[nn];W[nm];B[mm];W[jp];B[mj];W[df];B[fd];
W[cd];B[cc];W[ce];B[ci];W[ck];B[ei];W[bc];B[cb];W[bb];B[dc];W[rc];B[pc];W[ff];
B[he];W[rb];B[mp];W[nq];B[lo];W[mq];B[lp];W[lq];B[cq];W[dq];B[cp];W[co];B[bo];
W[cn];B[dr];W[er];B[cr];W[fq];B[in];W[jn];B[kp];W[kq];B[jo];W[io];B[ko];W[ho];
B[hn];W[go];B[gl];W[fk];B[gj];W[bn];B[ap];W[fl];B[gk];W[gn];B[gm];W[fm];B[og];
W[of];B[rf];W[re];B[qg];W[oa];B[ob];W[pa];B[qa];W[qb];B[na];W[pb];B[nb];W[an];
B[aq];W[ds];B[br];W[od];B[oc];W[oe];B[ke];W[kf];B[bg];W[bf];B[bk];W[bj];B[cj];
W[bl];B[dk];W[cl];B[bi];W[ak];B[ih];W[le];B[ld];W[rm];B[rl];W[rn];B[qm];W[ro];
B[on];W[sl];B[rk];W[sk];B[sj];W[sm];B[rj];W[fj];B[fi];W[ao];B[bp];W[ca];B[da];
W[ba];B[je];W[ge];B[gd];W[hf];B[ie];W[cg];B[gg];W[gf];B[ch];W[ag];B[bh];W[hg];
B[hh];W[dl];B[ek];W[ej];B[dj];W[dh];B[eh];W[dg];B[di];W[qf];B[rg];W[pg];B[ph];
W[ng];B[nh];W[jg];B[jh];W[cs];B[bs];W[es];B[ah])
