(;FF[4]BR[3k]CP[online-go.com]DT[2016-04-09]GM[1]KM[6.5]PB[IGO_Life]
PC[OGS: http://online-go.com/game/4819682]PW[Tribyn]RE[B+R]RU[japanese]SZ[19]
WR[11k];B[pd];W[dp];B[pq];W[cd];B[qk];W[ec];B[jp];W[cj];B[jc];W[ej];B[po];W[qc]
;B[qd];W[pc];B[od];W[oc];B[nd];W[pg];B[nc];W[rc];B[rd];W[ng];B[nb];W[ob];B[oh];
W[og];B[lg];W[qi];B[pj];W[mh];B[mj];W[rh];B[ki];W[oi];B[rj];W[fg];B[gq];W[lq];
B[jr];W[jq];B[kq];W[kp];B[kr];W[jo];B[ip];W[lo];B[kn];W[ko];B[mp];W[lp];B[go];
W[in];B[hm];W[mn];B[nm];W[km];B[lm];W[mm];B[ll];W[ln];B[jm];W[jn];B[jl];W[hn];
B[gn];W[im];B[il];W[kl];B[kk];W[ml];B[lk];W[nk];B[nj];W[ol];B[oj];W[ni];B[pm];
W[no];B[nr];W[op];B[pp];W[mq];B[nq];W[np];B[om];W[iq];B[hp];W[ir];B[hr])
