(;FF[4]BR[21k]CP[online-go.com]DT[2016-08-17]GM[1]KM[6.5]PB[grigorescucv]
PC[OGS: http://online-go.com/game/6110680]PW[nota999]RE[B+R]RU[japanese]SZ[19]
WR[20k];B[qd];W[dd];B[pq];W[dp];B[oc];W[po];B[qo];W[qn];B[qp];W[pm];B[nq];W[qi]
;B[qg];W[jc];B[ql];W[pl];B[rn];W[qk];B[qm];W[pn];B[fq];W[cn];B[jp];W[dj];B[id];
W[ic];B[hd];W[gc];B[cc];W[cd];B[dc];W[ec];B[eb];W[fb];B[ed];W[fc];B[bd];W[be];
B[bc];W[cf];B[db];W[ee];B[ig];W[fe];B[fo];W[lc];B[md];W[ld];B[me];W[le];B[lf];
W[kf];B[kg];W[lg];B[mf];W[jg];B[kh];W[jh];B[jf];W[ke];B[ki];W[mh];B[if];W[ih];
B[hh];W[ii];B[gi];W[gg];B[ij];W[hg];B[ji];W[gh];B[hi];W[oi];B[og];W[nk];B[dr];
W[cq];B[dm];W[cm];B[dl];W[cl];B[fk];W[fi];B[fj];W[ei];B[dk];W[ck];B[ej];W[di];
B[mn];W[lk];B[ml];W[mk];B[kl];W[nl];B[mm];W[nm];B[kk];W[mo];B[no];W[np];B[op];
W[oo];B[mp];W[nn];B[lo];W[rk];B[rm];W[en];B[gm];W[fn];B[gn];W[fp];B[gp];W[ep];
B[gq];W[nb];B[ob];W[nc];B[nd];W[li];B[na];W[ma];B[oa];W[mc];B[cr])
