(;FF[4]BR[10k]CP[online-go.com]DT[2016-04-24]GM[1]KM[6.5]PB[the13ghost]
PC[OGS: http://online-go.com/game/5016902]PW[mingwei]RE[W+R]RU[japanese]SZ[19]
WR[10k];B[pd];W[dp];B[pq];W[po];B[pl];W[qq];B[qr];W[qp];B[or];W[cd];B[ec];W[gc]
;B[de];W[ce];B[df];W[dc];B[eb];W[jc];B[fq];W[hp];B[cq];W[mq];B[np];W[dq];B[cp];
W[do];B[dr];W[er];B[cr];W[eq];B[cn];W[co];B[bo];W[em];B[cm];W[ln];B[pi];W[nc];
B[qf];W[pb];B[qc];W[cj];B[lc];W[ld];B[md];W[mc];B[kd];W[kc];B[le];W[lb];B[nd];
W[ki];B[dd];W[cc];B[fd];W[fh];B[cf];W[bf];B[bg];W[ae];B[ch];W[di];B[dh];W[gf];
B[gd];W[qm];B[ql];W[nn];B[hc];W[ib];B[hb];W[rr];B[ps];W[nq];B[nr];W[mr];B[oq];
W[ns];B[mp];W[kq];B[ba];W[bb];B[ca];W[bd];B[lp];W[op];B[os];W[kp];B[qn];W[pn];
B[rm];W[mk];B[ms];W[lr];B[ek];W[dl];B[dk];W[ck];B[cl];W[ei];B[gk];W[gm];B[ik];
W[kk];B[hm];W[gn];B[im];W[ih];B[gl];W[jn];B[jj];W[ji];B[kj];W[lj];B[ii];W[hi];
B[hj];W[hh])
