(;FF[4]BR[21k]CP[online-go.com]DT[2016-04-12]GM[1]KM[6.5]PB[pawell]
PC[OGS: http://online-go.com/game/4859256]PW[goniki]RE[W+R]RU[japanese]SZ[19]
WR[19k];B[pd];W[pp];B[dd];W[dp];B[cn];W[pj];B[cq];W[dr];B[bp];W[jd];B[pn];W[qn]
;B[po];W[qo];B[qm];W[rm];B[ql];W[rl];B[rk];W[qk];B[pk];W[qj];B[rj];W[ri];B[qi];
W[sj];B[rh];W[sk];B[pi];W[ok];B[pl];W[ol];B[pm];W[on];B[oo];W[om];B[no];W[lo];
B[np];W[nr];B[lq];W[mq];B[mp];W[lp];B[nq];W[mr];B[mn];W[ln];B[mm];W[oq];B[lm];
W[kq];B[km];W[nj];B[kn];W[im];B[ko];W[in];B[kp];W[lr];B[jq];W[iq];B[kr];W[lq];
B[jr];W[ip];B[jp];W[hr];B[io];W[ho];B[jo];W[gn];B[ir];W[hq];B[jj];W[jk];B[jl];
W[il];B[kk];W[ik];B[lj];W[mk];B[mj];W[ll];B[kl];W[nn];B[mo];W[ml];B[oi];W[oj];
B[ni];W[ki];B[kj];W[ii];B[mh];W[li];B[mi];W[ji];B[kg];W[qg];B[qh];W[rg];B[sh];
W[pg];B[si];W[rj];B[sm];W[sn];B[ro];W[rp];B[sp];W[nf];B[rq];W[qp];B[qq];W[or];
B[pq];W[op];B[pr];W[ps];B[qs];W[os];B[rr];W[so];B[rn];W[so];B[sn];W[sl];B[sq];
W[so];B[sn];W[ro];B[ls];W[ms];B[ks];W[is];B[js];W[hs];B[lk];W[le];B[nl];W[nk];
B[nm];W[jg];B[rn];W[sm];B[rn];W[lg];B[sg];W[rf];B[sf];W[re];B[se];W[rd];B[sd];
W[rc];B[sc];W[oh];B[rb];W[qb];B[qa];W[pa];B[ra];W[sb];B[sa];W[pc];B[sb];W[lh];
B[qd];W[mg];B[qc];W[ob];B[pb];W[oc];B[oa];W[na];B[pa];W[mb];B[od];W[nc];B[nd];
W[md];B[ne];W[of];B[me];W[ld];B[mf];W[nh];B[lf];W[kf];B[ke];W[jf];B[lc];W[mc];
B[la];W[lb];B[kc];W[ma];B[kb];W[kd];B[je];W[ie];B[ka];W[jc];B[ja];W[jb];B[ia];
W[ib];B[ha];W[hb];B[ga];W[gb];B[fa];W[fb];B[ea];W[eb])
