(;FF[4]BR[5k]CP[online-go.com]DT[2016-08-26]GM[1]KM[6.5]PB[serieux]
PC[OGS: http://online-go.com/game/6181799]PW[Beaux]RE[B+R]RU[japanese]SZ[19]
WR[8k];B[pd];W[dd];B[pp];W[dp];B[fq];W[cn];B[dr];W[nc];B[pf];W[kc];B[ob];W[dj];
B[fo];W[lq];B[nq];W[iq];B[qm];W[io];B[cq];W[cf];B[jp];W[jq];B[kp];W[kq];B[lp];
W[ip];B[ln];W[qi];B[qg];W[qk];B[rj];W[qj];B[ri];W[rk];B[qh];W[oj];B[ol];W[oh];
B[ni];W[oi];B[ng];W[nj];B[mi];W[og];B[nf];W[nl];B[nm];W[ml];B[lm];W[pl];B[pm];
W[ok];B[om];W[ql];B[ke];W[fd];B[id];W[ib];B[hb];W[hc];B[jb];W[ic];B[jc];W[jd];
B[kd];W[je];B[kb];W[lc];B[jf];W[ie];B[hd];W[gc];B[fi];W[he];B[cj];W[ck];B[ci];
W[dk];B[di];W[fk];B[gh];W[hg];B[hj];W[nb];B[oc];W[en];B[gm];W[im];B[hn];W[in];
B[hr];W[ir];B[mr];W[lr];B[jl])
