(;FF[4]BR[8k]CP[online-go.com]DT[2016-05-14]GM[1]KM[6.5]PB[gopaddy]
PC[OGS: http://online-go.com/game/5246829]PW[Orbix19]RE[B+5.5]RU[japanese]
SZ[19]WR[5k];B[cc];W[pp];B[dp];W[pc];B[nq];W[lq];B[lp];W[kp];B[mp];W[jq];B[pr];
W[pn];B[mm];W[pk];B[qq];W[qp];B[dj];W[fd];B[fq];W[cp];B[co];W[bo];B[cq];W[bp];
B[cn];W[cr];B[dq];W[bq];B[dr];W[bs];B[ds];W[ar];B[bn];W[hp];B[de];W[jd];B[lr];
W[kr];B[mr];W[km];B[fn];W[hn];B[fb];W[qe];B[hc];W[hd];B[ic];W[gc];B[id];W[gb];
B[ie];W[gf];B[ec];W[gh];B[gj];W[ig];B[kc];W[mc];B[ke];W[ld];B[kd];W[jf];B[kf];
W[je];B[jh];W[ih];B[ji];W[hj];B[gk];W[ij];B[eh];W[mf];B[jj];W[il];B[mj];W[qh];
B[hl];W[ik];B[im];W[hm];B[jg];W[if];B[jc];W[og];B[qj];W[qk];B[me];W[ne];B[kl];
W[jm];B[kk];W[fo];B[eo];W[fm];B[em];W[fl];B[ek];W[lg];B[kg];W[df];B[ef];W[ee];
B[eg];W[ce];B[dd];W[bd];B[bc];W[bh];B[cg];W[bg];B[cf];W[bf];B[bi];W[ch];B[dg];
W[ci];B[bj];W[ac];B[cd];W[cj];B[ck];W[be];B[lh];W[mh];B[mi];W[nh];B[mb];W[nb];
B[lb];W[gr];B[gq];W[hq];B[pm];W[qm];B[pl];W[ql];B[ok];W[oj];B[on];W[oo];B[ol];
W[pj];B[nn];W[rp];B[rq];W[sq];B[sr];W[sp];B[rr];W[ja];B[jb];W[ia];B[ha];W[hb];
B[ka];W[ga];B[fc];W[gd];B[nc];W[nd];B[ob];W[oc];B[na];W[pb];B[nc];W[bk];B[bl];
W[nb];B[fr];W[hr];B[nc];W[ak];B[al];W[nb];B[cs];W[br];B[nc];W[ai];B[aj];W[nb];
B[ao];W[ap];B[nc];W[bb];B[cb];W[nb];B[he];W[ge];B[nc];W[nk];B[nj];W[nb];B[hf];
W[gg];B[nc];W[nl];B[om];W[nb];B[hg];W[hh];B[nc];W[oq];B[or];W[nb];B[lm];W[oa];
B[kn];W[jn];B[ko];W[jo];B[no];W[qn];B[go];W[ho];B[gn];W[gm];B[lf];W[mg];B[le];
W[md];B[ma];W[ei];B[di];W[fi];B[ej];W[ea];B[fa];W[db];B[ca];W[dh];B[ab];W[ed];
B[dc];W[el];B[dl];W[an];B[am];W[ks];B[gi];W[fh];B[ib];W[ha];B[ni];W[oi];B[ff];
W[ls];B[mq];W[kq];B[ms];W[gp];B[fp];W[fs];B[es];W[gs];B[jl];W[in];B[df];W[op];
B[ao];W[dn];B[en];W[an];B[pa];W[qa];B[ao];W[li];B[kh];W[an];B[ii];W[hi];B[dk];
W[ao];B[hk];W[im];B[];W[])
