(;FF[4]BR[6k]CP[online-go.com]DT[2016-03-23]GM[1]KM[6.5]PB[charsiubau]
PC[OGS: http://online-go.com/game/4548136]PW[csaba]RE[W+R]RU[japanese]SZ[19]
WR[7k];B[pd];W[dp];B[pq];W[dd];B[po];W[dj];B[jp];W[jc];B[cf];W[ce];B[df];W[fc];
B[dm];W[co];B[cj];W[ci];B[ck];W[di];B[eg];W[fi];B[gg];W[fk];B[dk];W[fq];B[el];
W[qi];B[qf];W[qm];B[qn];W[pm];B[mc];W[mq];B[mp];W[np];B[mo];W[qp];B[pp];W[qq];
B[qr];W[rn];B[rr];W[kq];B[jq];W[kp];B[jo];W[ko];B[nq];W[jr];B[ir];W[lr];B[hq];
W[jn];B[in];W[im];B[kn];W[jm];B[ln];W[nr];B[oq];W[or];B[qo];W[ro];B[rp];W[pb];
B[qc];W[nb];B[oc];W[lb];B[hn];W[fm];B[fl];W[gl];B[gm];W[hm];B[gn];W[en];B[dn];
W[eo];B[gk];W[hl];B[fj];W[gj];B[ek];W[hj];B[ej];W[ei];B[gi];W[gh];B[hi];W[hh];
B[ii];W[fg];B[ff];W[fh];B[ij];W[kk];B[gr];W[fr];B[hf];W[ig];B[ie];W[jf];B[jk];
W[jl];B[kl];W[km];B[ll];W[lm];B[mm];W[je];B[hc];W[id];B[oi];W[ph];B[oh];W[pg];
B[pk];W[qk];B[ol];W[oj];B[pj];W[og];B[qj];W[rj];B[rk];W[rl];B[sk];W[nn];B[hk];
W[mn];B[il];W[nc];B[nd];W[ob];B[cc];W[dc];B[be];W[bd];B[cd];W[bc];B[bg];W[cb];
B[bi];W[ae];B[hd];W[if];B[he];W[qb];B[cq];W[dq];B[ic];W[pc];B[od];W[qd];B[qe];
W[rc];B[jd];W[kd];B[of];W[nf];B[pf];W[nh];B[ni];W[mh];B[rh];W[ri];B[qh];W[qg];
B[rg];W[pi];B[ql];W[re];B[rf];W[sh];B[mf];W[ne];B[me];W[ld];B[mi];W[lh];B[bn];
W[bo];B[fs];W[es];B[gs];W[dr];B[li];W[kh];B[ki];W[hg];B[gb];W[jb];B[js];W[kr];
B[fb];W[eb];B[ee];W[bf];B[ch];W[gf];B[ge];W[fd];B[fe];W[cn];B[bm];W[cm];B[cl];
W[an];B[bl];W[lp];B[lo];W[gp];B[hp];W[fo];B[jh];W[jg];B[do];W[em];B[dl];W[cp];
B[ib];W[sj];B[ja];W[ka];B[ia];W[pl])
