(;FF[4]BR[10k]CP[online-go.com]DT[2016-07-05]GM[1]KM[6.5]PB[ardeleanul]
PC[OGS: http://online-go.com/game/5741468]PW[charsiubau]RE[W+R]RU[japanese]
SZ[19]WR[6k];B[pd];W[pp];B[dq];W[cc];B[do];W[jq];B[dd];W[cd];B[dc];W[db];B[eb];
W[cb];B[fc];W[de];B[ee];W[df];B[ef];W[nc];B[lc];W[qc];B[pc];W[pb];B[ob];W[qb];
B[oc];W[re];B[qd];W[rd];B[qk];W[qh];B[qn];W[rp];B[ri];W[qi];B[qj];W[rh];B[rj];
W[cj];B[cl];W[ej];B[dg];W[eg];B[eh];W[fg];B[fh];W[gg];B[cf];W[ce];B[di];W[cg];
B[dh];W[dj];B[gh];W[ed];B[ec];W[fd];B[fe];W[gd];B[ge];W[hd];B[he];W[gb];B[hg];
W[ch];B[ci];W[bi];B[bh];W[bg];B[bj];W[ah];B[bk];W[gk];B[id];W[ic];B[hc];W[gc];
B[jc];W[ib];B[jd];W[gm];B[fl];W[gl];B[fk];W[fj];B[gj];W[gi];B[hj];W[hi];B[hh];
W[ij];B[mq];W[mp];B[oq];W[op];B[lp];W[nq];B[mo];W[np];B[hk];W[ik];B[kq];W[mr];
B[jp];W[fm];B[el];W[em];B[dm];W[ih];B[iq];W[fq];B[fo];W[go];B[gp];W[fp];B[ep];
W[hp];B[gq];W[hq];B[gr];W[hr];B[fr];W[jr];B[kr];W[ir];B[ho];W[io];B[hn];W[jo];
B[ko];W[gn];B[in];W[jn];B[kn];W[jm];B[lr];W[nr];B[jb];W[nm];B[nn];W[on];B[mm];
W[pm];B[nl];W[ol];B[ok];W[ql];B[om];W[pl];B[pn];W[nm];B[oo];W[pk];B[pj];W[nk];
B[om];W[oj];B[pi];W[mk];B[kl];W[km];B[ll];W[lm];B[ml];W[ln];B[lo];W[mn];B[no];
W[rl];B[ph];W[kj];B[jl];W[il];B[qq];W[qp];B[rq];W[pq];B[pr];W[or];B[qr];W[sn];
B[sm];W[rm];B[so];W[rn];B[ro];W[qo];B[sq];W[sp];B[rs];W[pf];B[qg];W[rg];B[pg];
W[qf];B[of];W[og];B[ng];W[oh];B[oi];W[nh];B[nj];W[mj];B[ni];W[mh];B[mi];W[lh];
B[li];W[kh];B[lj];W[lk];B[ki];W[ji];B[kk];W[ok];B[jj];W[oe];B[nb];W[nd];B[nf];
W[mf];B[me];W[le];B[md];W[ne];B[lf];W[mg];B[mc];W[ke];B[kf];W[jf];B[jg];W[kg];
B[if];W[je];B[kd];W[lg];B[ig];W[ps];B[sr];W[en];B[eq];W[dn];B[cn];W[jh];B[ie];
W[hm];B[sk];W[rk])
