(;FF[4]BR[25k]CP[online-go.com]DT[2016-03-29]GM[1]KM[6.5]PB[FlyMolo]
PC[OGS: http://online-go.com/game/4649606]PW[nicholas.a.villarreal]RE[B+R]
RU[japanese]SZ[19]WR[25k];B[pd];W[gm];B[dp];W[cj];B[pp];W[kq];B[dd];W[gd];B[fc]
;W[kc];B[ld];W[md];B[lc];W[le];B[mc];W[me];B[kb];W[kd];B[jc];W[jd];B[pj];W[ph];
B[qf];W[qk];B[pl];W[pk];B[ok];W[qj];B[qi];W[oj];B[pi];W[ol];B[nk];W[ql];B[pm];
W[pn];B[qm];W[mk];B[nl];W[om];B[on];W[nm];B[mm];W[nn];B[no];W[oo];B[nj];W[qn];
B[rm];W[oi];B[rj];W[ri];B[qh];W[rk];B[qg];W[sj];B[rh];W[sm];B[sn];W[sl];B[rn];
W[ro];B[oh];W[so];B[ni];W[rl];B[rp];W[si];B[sh];W[sk];B[qp];W[po];B[op];W[pm];
B[lp];W[mq];B[nq];W[mp];B[mo];W[or];B[nr];W[ns];B[np];W[ps];B[sp];W[pr];B[ms];
W[mn];B[os];W[lq];B[ns];W[kp];B[lo];W[ln];B[ko];W[lm];B[ml];W[jo];B[jp];W[ip];
B[lk];W[jq];B[gq];W[hq];B[hr];W[hp];B[gp];W[ir];B[gs];W[is];B[dn];W[fn];B[cl];
W[dk];B[dl];W[em];B[hd];W[ic];B[jb];W[hc];B[gc];W[id];B[he];W[ge];B[hf];W[gf];
B[cg];W[hg];B[ig];W[ih];B[hh];W[gg];B[gh];W[if];B[bj];W[je];B[of];W[lb];B[mb];
W[ib];B[ng];W[ka];B[la];W[ia];B[ja];W[mj];B[ne];W[lj];B[ll];W[kj];B[jg];W[kg];
B[jh];W[ji];B[ii];W[hi];B[jf];W[ie];B[jj];W[ki];B[kh];W[kf];B[lh];W[kk];B[jk];
W[kl];B[ij];W[km];B[fi])
