(;FF[4]BR[12k]CP[online-go.com]DT[2016-06-15]GM[1]KM[6.5]PB[pfraces]
PC[OGS: http://online-go.com/game/5558914]PW[lukbe]RE[W+1.5]RU[japanese]SZ[19]
WR[15k];B[pd];W[pp];B[dc];W[dp];B[ce];W[jc];B[hc];W[mc];B[qg];W[pb];B[cn];W[fp]
;B[dj];W[jp];B[qn];W[np];B[rp];W[qq];B[qk];W[qd];B[pe];W[qe];B[pf];W[qc];B[me];
W[eh];B[ch];W[fj];B[bp];W[cq];B[dl];W[fd];B[he];W[gf];B[ge];W[ff];B[fe];W[ig];
B[hf];W[hg];B[ef];W[fg];B[eg];W[gh];B[dh];W[ei];B[mg];W[lh];B[mh];W[li];B[mi];
W[lj];B[nk];W[ml];B[nl];W[mm];B[fl];W[gl];B[gm];W[fm];B[fn];W[hm];B[gn];W[fk];
B[em];W[hn];B[ho];W[go];B[gp];W[fo];B[gq];W[fq];B[jr];W[iq];B[lq];W[mr];B[lo];
W[io];B[mq];W[nq];B[mk];W[lk];B[nm];W[mn];B[nn];W[mo];B[en];W[pn];B[pm];W[qo];
B[ro];W[qm];B[rn];W[om];B[pl];W[on];B[rq];W[qr];B[rr];W[no];B[lg];W[kg];B[kf];
W[jf];B[ke];W[kc];B[oc];W[nb];B[bq];W[br];B[cp];W[dq];B[rf];W[re];B[ib];W[jb];
B[qs];W[ps];B[rs];W[or];B[ic];W[ol];B[ok];W[nd];B[ob];W[nc];B[pc];W[qb];B[ne];
W[oa];B[ar];W[bs];B[qp];W[po];B[do];W[ld];B[je];W[if];B[ie];W[le];B[lf];W[ek];
B[dk];W[di];B[ci];W[mj];B[nj];W[qf];B[rg];W[ia];B[ha];W[ja];B[gr];W[ir];B[fr];
W[er];B[ep];W[hp];B[eo];W[eq];B[jd];W[sf];B[sg];W[se];B[el];W[od];B[oe];W[cr];
B[ej];W[fi];B[aq];W[md];B[];W[])
