(;FF[4]BR[11k]CP[online-go.com]DT[2016-03-24]GM[1]KM[6.5]PB[hasselbach]
PC[OGS: http://online-go.com/game/4552935]PW[Lomis]RE[W+20.5]RU[japanese]SZ[19]
WR[14k];B[pd];W[dd];B[dp];W[pp];B[pj];W[cn];B[cq];W[en];B[ch];W[dj];B[ce];W[cd]
;B[de];W[ee];B[cj];W[ck];B[bj];W[di];B[dh];W[eh];B[pg];W[eq];B[ep];W[fp];B[dn];
W[dm];B[eo];W[do];B[fo];W[fn];B[gp];W[jq];B[gq];W[qm];B[lq];W[nq];B[lo];W[jo];
B[lm];W[jm];B[bk];W[cl];B[nc];W[jd];B[kc];W[jc];B[kd];W[ke];B[le];W[kf];B[lf];
W[kg];B[lg];W[nk];B[lk];W[ni];B[li];W[qi];B[pi];W[qj];B[pl];W[pm];B[ol];W[qk];
B[ql];W[rl];B[qh];W[jj];B[gn];W[gm];B[hn];W[hm];B[ji];W[kj];B[ki];W[lj];B[mj];
W[mk];B[ml];W[kk];B[mi];W[ll];B[nl];W[pk];B[ok];W[nj];B[oj];W[oh];B[og];W[ng];
B[ph];W[nf];B[ne];W[nn];B[mm];W[km];B[hi];W[ih];B[ii];W[hh];B[bd];W[bc];B[ae];
W[ac];B[in];W[jn];B[im];W[hk];B[ik];W[il];B[ij];W[jk];B[ri];W[rj];B[sh];W[ef];
B[df];W[qq];B[bo];W[co];B[cp];W[fj];B[fi];W[fh];B[gj];W[gk];B[of];W[kb];B[lb];
W[jb];B[la];W[bn];B[ap];W[ho];B[go];W[io];B[iq];W[ir];B[hr];W[ip];B[hq];W[jr];
B[kp];W[jp];B[mh];W[nh];B[jh];W[jg];B[ej];W[fk];B[ei];W[ek];B[gi];W[gh];B[mp];
W[np];B[no];W[oo];B[mo];W[mr];B[ci];W[dk];B[lr];W[bl];B[sj];W[rk];B[om];W[on];
B[mq];W[nr];B[an];W[am];B[ao];W[ls];B[qc];W[kr];B[sk];W[sm];B[is];W[js];B[hs];
W[sl];B[si];W[dg];B[cg];W[eg];B[mf];W[kh];B[ad];W[cb];B[ka];W[ja];B[ld];W[lh];
B[mg];W[ak];B[aj];W[al];B[bf];W[ko];B[kq];W[lk];B[];W[])
