(;FF[4]BR[20k]CP[online-go.com]DT[2016-04-20]GM[1]KM[6.5]PB[pawell]
PC[OGS: http://online-go.com/game/4959524]PW[matslina]RE[W+96.5]RU[japanese]
SZ[19]WR[17k];B[pd];W[dq];B[pp];W[cc];B[dd];W[cd];B[dc];W[cj];B[jd];W[jq];B[pj]
;W[nq];B[qn];W[pr];B[qq];W[op];B[po];W[qr];B[rr];W[pq];B[rp];W[jj];B[do];W[cp];
B[co];W[cm];B[dm];W[dl];B[em];W[fo];B[eo];W[fn];B[fm];W[en];B[dn];W[fp];B[gm];
W[im];B[gk];W[gi];B[hi];W[hj];B[gj];W[fi];B[ij];W[hk];B[hl];W[ik];B[il];W[jk];
B[jl];W[jm];B[kl];W[ii];B[hh];W[nm];B[nl];W[ml];B[ll];W[nk];B[ol];W[lk];B[mm];
W[mn];B[mk];W[mj];B[ml];W[ni];B[nn];W[no];B[om];W[ln];B[oo];W[mo];B[kk];W[kj];
B[lj];W[li];B[lk];W[md];B[me];W[le];B[ld];W[mf];B[mc];W[ne];B[nd];W[me];B[od];
W[kd];B[lc];W[kc];B[kb];W[jc];B[jb];W[ic];B[ib];W[hb];B[hc];W[hd];B[gc];W[gd];
B[gb];W[gh];B[hg];W[gg];B[gf];W[ff];B[ge];W[fe];B[ie];W[hf];B[he];W[id];B[je];
W[ig];B[if];W[ih];B[hf];W[jf];B[fd];W[ke];B[ha];W[de];B[ee];W[ef];B[ed];W[cf];
B[cb];W[bb];B[ca];W[pf];B[qf];W[qg];B[rf];W[rg];B[sg];W[fk];B[fj];W[ej];B[gl];
W[el];B[fl];W[sh];B[sf];W[ri];B[qi];W[qe];B[re];W[rd];B[qd];W[pe];B[rc];W[sd];
B[sc];W[se];B[qb];W[rk];B[ql];W[rl];B[ok];W[nj];B[oi];W[oh];B[ph];W[oj];B[pi];
W[qk];B[pk];W[ng];B[og];W[nh];B[of];W[oe];B[pg];W[rm];B[qm];W[rn];B[ro];W[rj];
B[ek];W[dk];B[fk];W[gn];B[dp];W[bp];B[bo];W[ap];B[ao];W[eq];B[bm];W[bl];B[cn];
W[cl];B[ei];W[dj];B[dh];W[di];B[eh];W[ch];B[dg];W[cg];B[df];W[ce];B[ba];W[db];
B[eb];W[aa];B[ab];W[bc];B[da];W[ac];B[aa];W[km];B[cr];W[cq];B[iq];W[ip];B[hq];
W[gq];B[gr];W[fr];B[gp];W[fq];B[hs];W[jr];B[ir];W[hn];B[al];W[ak];B[am];W[bk];
B[sn];W[sm];B[so];W[qs];B[rs];W[qh];B[];W[])
