(;FF[4]BR[11k]CP[online-go.com]DT[2016-06-10]GM[1]KM[6.5]PB[acotis]
PC[OGS: http://online-go.com/game/5509723]PW[Samurai T]RE[B+83.5]RU[japanese]
SZ[19]WR[18k];B[pd];W[pp];B[dc];W[cp];B[ce];W[iq];B[jd];W[qf];B[qi];W[of];B[nd]
;W[qk];B[oi];W[mf];B[ld];W[qc];B[qd];W[pc];B[oc];W[ob];B[nb];W[pb];B[rc];W[rb];
B[sd];W[qa];B[mi];W[ph];B[pi];W[qh];B[qm];W[ok];B[pk];W[pl];B[pj];W[ql];B[ol];
W[nk];B[om];W[lk];B[pm];W[ri];B[rj];W[rh];B[rl];W[ch];B[ep];W[eq];B[fq];W[dq];
B[gp];W[io];B[ck];W[cm];B[di];W[bj];B[dh];W[ci];B[cg];W[bg];B[bf];W[bh];B[bk];
W[dj];B[cj];W[dg];B[cf];W[ej];B[eg];W[df];B[ef];W[de];B[dd];W[ee];B[fe];W[ln];
B[fn];W[do];B[hq];W[im];B[gr];W[em];B[pr];W[qq];B[oq];W[qr];B[nr];W[op];B[np];
W[no];B[mp];W[mo];B[oo];W[po];B[on];W[qn];B[rn];W[ro];B[qs];W[rs];B[ps];W[rr];
B[sq];W[sn];B[rm];W[pn];B[ir];W[ip];B[kf];W[nh];B[mh];W[ni];B[nj];W[mj];B[sm];
W[so];B[oj];W[oh];B[qj];W[sj];B[rk];W[sk];B[ql];W[jj];B[mg];W[ng];B[lf];W[me];
B[rf];W[rg];B[sf];W[sg];B[si];W[re];B[se];W[qe];B[rd];W[pe];B[od];W[pg];B[jr];
W[ih];B[if];W[lp];B[lq];W[kq];B[kp];W[lo];B[lr];W[kr];B[jq];W[jp];B[ks];W[ko];
B[er];W[dr];B[ds];W[cs];B[es];W[eo];B[cr];W[br];B[bs];W[cq];B[cs];W[aq];B[gm];
W[en];B[gk];W[eh];B[ed];W[ei];B[dg];W[ai];B[ag];W[bl];B[ak];W[gj];B[hj];W[li];
B[dk];W[ek];B[gi];W[fj];B[fh];W[hl];B[gl];W[dl];B[af];W[lg];B[kh];W[lh];B[jh];
W[ki];B[ii];W[hk];B[ji];W[ij];B[hi];W[go];B[fo];W[gn];B[hm];W[hn];B[fm];W[fl];
B[ml];W[mk];B[mm];W[ll];B[lm];W[km];B[sl];W[sh];B[sj];W[nm];B[nl];W[nn];B[pq];
W[qp];B[al];W[am];B[ah];W[kq];B[md];W[oe];B[oa];W[pa];B[sb];W[na];B[mb];W[dp];
B[fp];W[hp];B[ne];W[nf];B[fk];W[el];B[kg];W[ar];B[kr];W[kp];B[le];W[kc];B[bi];
W[cl];B[ic];W[jb];B[];W[])
