(;FF[4]BR[7k]CP[online-go.com]DT[2016-06-23]GM[1]KM[6.5]PB[Lao Tzu]
PC[OGS: http://online-go.com/game/5635688]PW[meteor]RE[W+R]RU[japanese]SZ[19]
WR[3k];B[qp];W[cf];B[pc];W[dp];B[cd];W[ec];B[dc];W[ed];B[eb];W[fb];B[db];W[gc];
B[bc];W[op];B[pn];W[qq];B[rq];W[pq];B[lq];W[qo];B[ro];W[qn];B[po];W[pp];B[rp];
W[rn];B[qr];W[pm];B[no];W[pr];B[rs];W[sr];B[sq];W[so];B[np];W[ps];B[sn];W[sm];
B[oo];W[sn])
