(;FF[4]BR[8k]CP[online-go.com]DT[2016-07-14]GM[1]KM[6.5]PB[lucius286]
PC[OGS: http://online-go.com/game/5821007]PW[jhwanggolf]RE[W+R]RU[japanese]
SZ[19]WR[7k];B[pp];W[dd];B[qc];W[dp];B[nd];W[dj];B[jc];W[pj];B[jq];W[qn];B[qh];
W[nq];B[oo];W[pq];B[qq];W[op];B[np];W[oq];B[qo];W[pn];B[po];W[qr];B[mp];W[rq];
B[rp];W[qp];B[rn];W[rm];B[qm];W[jd];B[fc];W[on];B[rl];W[no];B[ro];W[ql];B[sm];
W[qk];B[nn];W[pm];B[mo];W[ph];B[pg];W[qi];B[oh];W[rh];B[pi];W[qg];B[ph];W[rg];
B[ri];W[qj];B[fe];W[df];B[rm];W[nm];B[pl];W[om];B[ok];W[ml];B[oj];W[rj];B[re];
W[qe];B[rf];W[qf];B[rd];W[of];B[oe];W[pf];B[nf];W[ng];B[nh];W[mf];B[ne];W[og];
B[mg];W[mh];B[lg];W[ni];B[oi];W[mj];B[mm];W[nl];B[db];W[cc];B[gq];W[fg];B[jf];
W[cm];B[eq];W[dq];B[fo];W[lm];B[lh];W[mi];B[hf];W[mn];B[no];W[kp];B[lq];W[go];
B[fn];W[kq];B[kr];W[jr];B[ir];W[lr];B[js];W[mr];B[lo];W[jp];B[jn];W[iq];B[jr];
W[io];B[in];W[jo];B[hn];W[ep];B[fp];W[er];B[fq];W[gm];B[gn];W[el];B[hh];W[ig];
B[hg];W[jh];B[li];W[jj];B[lj];W[lk];B[ii];W[ji];B[eh];W[ff];B[ee];W[dg];B[di];
W[fh];B[fi];W[gi];B[fj];W[ej];B[ei];W[hk];B[gk];W[gl];B[gj];W[hj];B[fl];W[fm];
B[hl];W[fk];B[hi];W[gh];B[ik];W[ij];B[jk];W[ci];B[hm];W[em];B[de];W[ce];B[cb];
W[ge];B[gf];W[if];B[he];W[ie];B[jg];W[hd];B[gd];W[ih];B[ic];W[kd])
