(;FF[4]BR[12k]CP[online-go.com]DT[2016-05-03]GM[1]KM[6.5]PB[maciej.rozalski.7]
PC[OGS: http://online-go.com/game/5126346]PW[BeefStroganoff]RE[W+84.5]
RU[japanese]SZ[19]WR[13k];B[pc];W[pp];B[ce];W[dq];B[jd];W[dc];B[fc];W[ed];B[fd]
;W[cd];B[de];W[be];B[bf];W[bd];B[cg];W[pe];B[co];W[dl];B[bl];W[dn];B[cn];W[cm];
B[bm];W[do];B[cq];W[cp];B[bp];W[dp];B[br];W[jq];B[nd];W[qc];B[qb];W[qd];B[rb];
W[qi];B[mp];W[nq];B[mq];W[jo];B[np];W[oq];B[hp];W[hn];B[fq];W[er];B[fr];W[hr];
B[hq];W[iq];B[gr];W[ir];B[ho];W[gn];B[go];W[fn];B[io];W[jn];B[jj];W[on];B[mn];
W[nl];B[ml];W[jl];B[lk];W[hj];B[dj];W[dk];B[ck];W[ej];B[di];W[lo];B[nn];W[om];
B[lm];W[od];B[oc];W[ne];B[md];W[me];B[le];W[lf];B[ke];W[mj];B[lj];W[mi];B[li];
W[lh];B[kh];W[kg];B[jg];W[mh];B[kf];W[lg];B[ih];W[gh];B[gi];W[hi];B[gj];W[gk];
B[fi];W[ei];B[fh];W[eh];B[fg];W[hh];B[gg];W[ik];B[kl];W[hg];B[hf];W[eg];B[ef];
W[ch];B[dh];W[dg];B[ci];W[fj];B[df];W[fk];B[ig];W[eb];B[fb];W[rc];B[pd];W[qe];
B[oe];W[of];B[od];W[nf];B[ec];W[dd];B[ee];W[da];B[cb];W[db];B[bc];W[ba];B[bb];
W[ab];B[ac];W[ad];B[aa];W[ca];B[ae];W[af];B[ag];W[cc];B[mk];W[nk];B[nm];W[ol];
B[kn];W[ko];B[jm];W[in];B[jk];W[il];B[ii];W[ij];B[oo];W[mo];B[no];W[po];B[kq];
W[jp];B[lr];W[cr];B[bq];W[sb];B[im];W[hm];B[km];W[nr];B[lp];W[mr];B[ks];W[js];
B[kp];W[op];B[ms];W[ns];B[ls];W[cl];B[cs];W[dr];B[ds];W[es];B[bs];W[bk];B[cj];
W[bh];B[bi];W[ai];B[bg];W[bj];B[ff];W[al];B[bn];W[sc];B[ra];W[sa];B[pb];W[jr];
B[kr];W[am];B[an];W[ak];B[fa];W[ab];B[qq];W[qp];B[rp];W[ro];B[rr];W[sp];B[pr];
W[sq];B[sr];W[rq];B[pq];W[qs];B[qn];W[pn];B[oj];W[nj];B[qj];W[pi];B[ri];W[rh];
B[rj];W[ql];B[rl];W[rm];B[sl];W[qk];B[qg];W[qh];B[pf];W[pg];B[];W[])
