(;FF[4]BR[15k]CP[online-go.com]DT[2016-07-23]GM[1]KM[6.5]PB[Algis9]
PC[OGS: http://online-go.com/game/5897592]PW[rogerhurwitz]RE[W+R]RU[japanese]
SZ[19]WR[20k];B[jj];W[dq];B[ep];W[co];B[dn];W[pq];B[op];W[qo];B[pn];W[pd];B[oe]
;W[pe];B[of];W[pg];B[og];W[nc];B[md];W[mc];B[ld];W[kc];B[kd];W[dd];B[ee];W[cf];
B[dg];W[jp];B[jn];W[dj];B[fj];W[ec];B[fd];W[qk];B[ok];W[hd];B[lc];W[lb];B[jd];
W[jc];B[id];W[hc];B[he];W[oi];B[ni];W[el];B[fm];W[em];B[en];W[cn];B[do];W[dp];
B[eq];W[dr];B[oh];W[pi];B[oj];W[pl];B[ol];W[pm];B[om];W[fl];B[gm];W[fn];B[fo];
W[gn];B[hn];W[go];B[gp];W[ho];B[io];W[hp];B[ip];W[hq];B[hm];W[dm];B[eo];W[gq];
B[iq];W[fq];B[ir];W[qn];B[po];W[pp];B[oq];W[or];B[nr];W[pr];B[pj];W[nq];B[mq];
W[np];B[oo];W[mr];B[ns];W[no];B[on];W[lr];B[lq];W[kq];B[lp];W[lo];B[ko];W[kp];
B[ln];W[mo];B[mn];W[gk])
