(;FF[4]BR[4k]CP[online-go.com]DT[2016-07-04]GM[1]KM[6.5]PB[patches]
PC[OGS: http://online-go.com/game/5733862]PW[yuri]RE[W+16.5]RU[japanese]SZ[19]
WR[5k];B[pd];W[dd];B[qp];W[dp];B[oq];W[nd];B[pf];W[pc];B[qc];W[oc];B[qb];W[kd];
B[fq];W[ip];B[fo];W[dn];B[dr];W[cq];B[ir];W[lp];B[iq];W[jp];B[ci];W[dj];B[cj];
W[cg];B[dk];W[ej];B[cm];W[cr];B[cn];W[co];B[eq];W[ek];B[dl];W[el];B[em];W[en];
B[fm];W[fn];B[dm];W[gn];B[fc];W[hc];B[cc];W[dc];B[db];W[eb];B[cb];W[ec];B[be];
W[ce];B[bf];W[qh];B[qf];W[ql];B[eh];W[hj];B[gh];W[gk];B[fb];W[ea];B[fe];W[dh];
B[di];W[ei];B[eg];W[cf];B[bg];W[fd];B[gd];W[ee];B[gc];W[ge];B[hd];W[ff];B[jc];
W[kc];B[jb];W[jd];B[hb];W[he];B[ic];W[ng];B[nf];W[og];B[of];W[mg];B[mf];W[lg];
B[ol];W[pn];B[pj];W[qj];B[pk];W[qk];B[nn];W[no];B[mo];W[oo];B[mp];W[mn];B[lo];
W[nm];B[if];W[ie];B[kh];W[lj];B[hm];W[gm];B[hl];W[in];B[hn];W[ho];B[im];W[jn];
B[ln];W[mm];B[jm];W[km];B[kn];W[go];B[gl];W[fl];B[kl];W[lm];B[jj];W[jk];B[ik];
W[ij];B[kj];W[hh];B[hg];W[ih];B[jh];W[ig];B[jl];W[nq];B[lq];W[mq];B[kp];W[np];
B[jq];W[qr];B[qq];W[or];B[pr];W[ps];B[pq];W[nr];B[rr];W[rs];B[qs];W[lk];B[kk];
W[qr];B[jf];W[qs];B[gg];W[hf];B[jg];W[gi];B[fj];W[fi];B[ii];W[fg];B[hi];W[fh];
B[li];W[mi];B[mj];W[mk];B[mh];W[ni];B[lh];W[bo];B[eo];W[do];B[nh];W[oh];B[ri];
W[qi];B[rh];W[rj];B[qg];W[oi];B[bn];W[jo];B[hp];W[gp];B[hq];W[dq];B[ao];W[ap];
B[an];W[bq];B[ch];W[dg];B[ll];W[ml];B[hk];W[gj];B[od];W[nc];B[lb];W[kb];B[mc];
W[md];B[ka];W[lc];B[pb];W[mb];B[er];W[gq];B[gr];W[la];B[cd];W[ja];B[ia];W[fa];
B[lr];W[ga];B[ha];W[si];B[sg];W[cs];B[ko];W[io];B[ob];W[da];B[ca];W[ds];B[es];
W[lf];B[ne];W[ms];B[ls];W[me];B[ke];W[kf];B[je];W[id];B[gb];W[le];B[qn];W[ro];
B[qo];W[rq];B[rp];W[sr];B[rn];W[rm];B[qm];W[rl];B[pm];W[om];B[po];W[op];B[so];
W[os];B[sh];W[sj];B[nb];W[mr];B[na];W[pg];B[ka];W[ma];B[ja];W[ep];B[fp];W[gf];
B[];W[])
