(;FF[4]BR[11k]CP[online-go.com]DT[2016-03-03]GM[1]KM[6.5]PB[redrose]
PC[OGS: http://online-go.com/game/4152516]PW[Shweetz]RE[W+26.5]RU[japanese]
SZ[19]WR[15k];B[dp];W[pp];B[dd];W[pd];B[nc];W[qf];B[pb];W[qc];B[kc];W[qi];B[nq]
;W[cn];B[fq];W[cf];B[cl];W[cq];B[cp];W[bp];B[dq];W[cr];B[dr];W[cj];B[bo];W[fc];
B[ee];W[ic];B[ce];W[be];B[bd];W[bf];B[df];W[dg];B[ec];W[ef];B[fe];W[ff];B[ge];
W[jb];B[ke];W[ne];B[kb];W[jd];B[kd];W[if];B[bn];W[ek];B[jp];W[pm];B[jj];W[hi];
B[hk];W[em];B[dn];W[dm];B[cm];W[en];B[do];W[no];B[mp];W[ln];B[jn];W[lj];B[qq];
W[qp];B[pq];W[rq];B[rr];W[ro];B[gc];W[mg];B[gf];W[gg];B[ae];W[de];B[cd];W[df];
B[ll];W[mk];B[mm];W[nm];B[qb];W[rb];B[pc];W[rd];B[bq];W[lm];B[ml];W[mn];B[nl];
W[kl];B[nk];W[mj];B[om];W[nn];B[pl];W[on];B[qm];W[ol];B[ok];W[ql];B[om];W[pn];
B[qk];W[rl];B[rk];W[rm];B[pi];W[pj];B[oj];W[oi];B[jl];W[kk];B[jk];W[gn];B[go];
W[bk];B[lo];W[mc];B[md];W[nd];B[nb];W[ld];B[mb];W[lc];B[le];W[me];B[lb];W[md];
B[ni];W[ph];B[oh];W[pi];B[nj];W[mh];B[nh];W[og];B[mi];W[li];B[km];W[lh];B[kj];
W[lk];B[kg];W[gj];B[gk];W[hn];B[kh];W[gb];B[fb];W[hc];B[fd];W[ho];B[gp];W[hp];
B[hb];W[ib];B[ga];W[hf];B[ki];W[pk];B[hq];W[oq];B[or];W[op];B[pr];W[np];B[mr];
W[fk];B[sq];W[rp];B[lg];W[ng];B[ip];W[ih];B[ie];W[he];B[je];W[hd];B[jc];W[id];
B[dk];W[dj];B[bl];W[dl];B[ck];W[al];B[bm];W[bj];B[hj];W[gi];B[af];W[ag];B[ad];
W[gl];B[hl];W[hm];B[im];W[fo];B[am];W[fp];B[gq];W[ak];B[bg];W[ah];B[ai];W[bh];
B[bi];W[ch];B[eo];W[kn];B[ko];W[jm];B[ep];W[fn];B[km];W[jg];B[jh];W[jf];B[ii];
W[hh];B[ra];W[sb];B[in];W[oc];B[ob];W[od];B[sp];W[so];B[sr];W[io];B[jo];W[ka];
B[la];W[ja];B[ha];W[sa];B[qa];W[jm];B[ia];W[km];B[mo];W[lf];B[kf];W[mf];B[ri];
W[rh];B[];W[])
