(;FF[4]BR[12k]CP[online-go.com]DT[2016-04-13]GM[1]KM[6.5]PB[Beaux]
PC[OGS: http://online-go.com/game/4875027]PW[goniki]RE[B+R]RU[japanese]SZ[19]
WR[19k];B[pp];W[pd];B[dp];W[dd];B[qf];W[dj];B[nc];W[oe];B[kc];W[jd];B[jp];W[qh]
;B[pj];W[ph];B[rj];W[pm];B[ql];W[pl];B[qm];W[pk];B[qk];W[qi];B[qj];W[oj];B[qc];
W[qd];B[pc];W[nd];B[rd];W[re];B[rc];W[rf];B[mc];W[oc];B[ob];W[lc];B[lb];W[ld];
B[md];W[ne];B[me];W[le];B[mf];W[mb];B[nb];W[kb];B[ma];W[jc];B[lf];W[dm];B[ck];
W[cl];B[dk];W[ek];B[cj];W[ei];B[di];W[ej];B[ch];W[dh];B[cg];W[ci];B[bi];W[bj];
B[bk];W[bh];B[di];W[bg];B[bf];W[ci];B[aj];W[cf];B[dg];W[eg];B[di];W[eh];B[ag];
W[ci];B[df];W[ce];B[dc];W[be];B[ah];W[ee];B[bc];W[cc];B[cb];W[db];B[ec];W[eb];
B[fc];W[cd];B[bb];W[fb];B[gc];W[gb];B[ge];W[ca];B[ba];W[ab];B[hb];W[ac];B[ad];
W[bd];B[aa];W[ae];B[da];W[ac];B[hd];W[ea];B[ga];W[ca];B[ke];W[kd];B[da])
