(;FF[4]BR[4k]CP[online-go.com]DT[2016-07-19]GM[1]KM[6.5]PB[moyoaji]
PC[OGS: http://online-go.com/game/5860596]PW[opex]RE[B+R]RU[japanese]SZ[19]
WR[8k];B[pd];W[dp];B[qp];W[dd];B[oq];W[qj];B[fc];W[cf];B[qg];W[qm];B[jd];W[dj];
B[fq];W[fp];B[gp];W[fo];B[eq];W[dq];B[jp];W[dn];B[cl];W[ck];B[dl];W[fj];B[fl];
W[fe];B[hd];W[ob];B[pb];W[oc];B[pc];W[lc];B[kc];W[le];B[lb];W[mc];B[hl];W[go];
B[hp];W[in];B[jl];W[kn];B[hn];W[ho];B[im];W[jo];B[kp];W[ph];B[pg];W[nf];B[oh];
W[pi];B[og];W[kg];B[ig];W[mb];B[bn];W[bp];B[ii];W[oe];B[db];W[cc];B[fh];W[dh];
B[ci];W[bk];B[ei];W[di];B[ej];W[po];B[op];W[qo];B[rp];W[ro];B[ri];W[rj];B[qi];
W[oi];B[dk];W[cj];B[cb];W[bb];B[dc];W[cd];B[ed];W[ee];B[kh];W[lh];B[ki];W[mg];
B[ll];W[kb];B[jb];W[la];B[dr];W[cr];B[es];W[cs];B[oo];W[pp];B[pq];W[sp];B[rr];
W[sr];B[rq];W[sq];B[pn];W[pm];B[om];W[ol];B[ba];W[ab];B[co];W[do];B[cn];W[ar];
B[cp];W[cq];B[ap];W[ao];B[qh];W[pa];B[qa];W[oa];B[rb];W[nm];B[on];W[ds];B[er];
W[gq];B[ip];W[gr];B[io];W[ml];B[lm];W[mn];B[ln];W[mo];B[mp];W[ja];B[ib];W[bl];
B[cm];W[ir];B[jr];W[hr];B[sj];W[sk];B[si];W[qk];B[rl];W[rk];B[qn];W[rn];B[rm];
W[so];B[rs])
