(;FF[4]BR[4k]CP[online-go.com]DT[2016-06-06]GM[1]KM[6.5]PB[jetlag11235]
PC[OGS: http://online-go.com/game/5467746]PW[yuri]RE[B+R]RU[japanese]SZ[19]
WR[5k];B[pp];W[pd];B[cp];W[dd];B[qf];W[pi];B[qc];W[pc];B[qd];W[pe];B[qe];W[og];
B[pf];W[of];B[ld];W[jd];B[oe];W[nd];B[ne];W[me];B[nf];W[mf];B[ng];W[md];B[oh];
W[mg];B[mh];W[pl];B[qh];W[pq];B[qq];W[oq];B[op];W[np];B[nq];W[nr];B[mq];W[qp];
B[qr];W[po];B[oo];W[on];B[no];W[mo];B[nn];W[lq];B[mr];W[lr];B[mp];W[lp];B[lo];
W[ms];B[mn];W[qo];B[jp];W[or];B[pr];W[ns];B[rp];W[ro];B[sq];W[rr];B[rs];W[sr];
B[ps])
