(;FF[4]BR[11k]CP[online-go.com]DT[2016-04-15]GM[1]KM[6.5]PB[hasselbach]
PC[OGS: http://online-go.com/game/4896595]PW[Revum]RE[W+R]RU[japanese]SZ[19]
WR[6k];B[pd];W[dd];B[dp];W[pp];B[fq];W[cj];B[qf];W[jc];B[qq];W[pq];B[qp];W[po];
B[qo];W[jp];B[pn];W[on];B[pm];W[fj];B[pj];W[jf];B[cc];W[dc];B[cd];W[ce];B[be];
W[cf];B[bf];W[bg];B[ad];W[cb];B[bb];W[db];B[bc];W[ii];B[iq];W[jq];B[jr];W[kr];
B[hr];W[cn];B[co];W[dn];B[bn];W[bm];B[bo];W[fn];B[md];W[om];B[ol];W[nl];B[ok];
W[nk];B[nj];W[mj];B[pr];W[or];B[nm];W[nn];B[mm];W[ni];B[mk];W[oj];B[ml];W[nj];
B[oo];W[no];B[kq];W[lq];B[lj];W[li];B[kj];W[ki];B[kl];W[jj];B[jk];W[kn];B[km];
W[jn];B[mn];W[mo];B[hk];W[il];B[jl];W[lk];B[kk];W[ik];B[hl];W[im];B[hm];W[hn];
B[ph];W[pi];B[qj];W[qi];B[oh];W[rj];B[qk];W[pl];B[ql];W[pk];B[rl];W[oi];B[nh];
W[lf];B[mf];W[le];B[me];W[lc];B[ld];W[kd];B[mc];W[lb];B[ip];W[jo];B[fo];W[gn];
B[go];W[do];B[ep];W[an])
