(;FF[4]BR[23k]CP[online-go.com]DT[2016-07-07]GM[1]KM[6.5]PB[Akaba]
PC[OGS: http://online-go.com/game/5758300]PW[fooschem]RE[B+R]RU[japanese]SZ[19]
WR[17k];B[pd];W[eq];B[cd];W[pp];B[dj];W[cp];B[cn];W[do];B[dn];W[qj];B[qi];W[pi]
;B[qh];W[ph];B[pg];W[ng];B[eo];W[ep];B[fo];W[ip];B[hp];W[hq];B[gp];W[gq];B[co];
W[dp];B[io];W[lp];B[jp];W[iq];B[jo];W[jq];B[lo];W[no];B[nn];W[pn];B[mo];W[mp];
B[kq];W[kp];B[oo];W[po];B[np];W[nq];B[op];W[oq];B[ko];W[om];B[nm];W[ok];B[nk];
W[nj];B[mk];W[mj];B[lj];W[li];B[oh];W[og];B[pf];W[kd];B[ki];W[kg];B[lh];W[mi];
B[lg];W[lf];B[kh];W[ig];B[jg];W[kf];B[jf];W[je];B[if];W[hf];B[ih];W[hg];B[ie];
W[id];B[he];W[hh];B[hi];W[ff];B[gf];W[ge];B[gg];W[fh];B[gh];W[fg];B[fe];W[gd];
B[hd];W[hc];B[ic];W[gc];B[jd];W[ke];B[kc];W[md];B[mf];W[mg];B[ld];W[me];B[le];
W[ne];B[nf];W[of];B[lf];W[oe];B[pe];W[mh];B[mc];W[nc];B[mb];W[nb];B[oc];W[nd];
B[mq];W[lr];B[lq];W[kr];B[mr];W[nr];B[pq];W[pr];B[qq];W[qr];B[rp];W[rq];B[qp];
W[rr];B[rn];W[qo];B[ro];W[rm];B[qm];W[ql];B[pm];W[ol];B[on];W[pl];B[qn];W[rl];
B[ns];W[or];B[os];W[rj];B[ri];W[fj];B[fi];W[ee];B[fd];W[ec];B[sq];W[dd];B[ce];
W[cc];B[de];W[ef];B[df];W[dg];B[cg];W[dh];B[di];W[fc];B[hb];W[gb];B[ha];W[ga];
B[ib];W[ma];B[la];W[na];B[lb];W[bd];B[be];W[ad];B[ae];W[ei];B[ch];W[ej];B[bc];
W[cb];B[bb];W[ed];B[sr];W[ls];B[ms];W[js];B[pb];W[hj];B[gj];W[gi];B[gk];W[fi];
B[fk];W[ek];B[el];W[dk];B[ck];W[dl];B[em];W[cl];B[bk];W[bl];B[ak];W[al];B[cj];
W[bo];B[bn];W[ao];B[an];W[lk];B[kj];W[kk];B[fp];W[fq];B[ca];W[da];B[ba];W[si];
B[rg];W[sh];B[sg];W[sj];B[db];W[dc];B[ea];W[eb];B[da];W[fa];B[nl];W[pa];B[qa];
W[oa];B[qb])
