(;FF[4]BR[10k]CP[online-go.com]DT[2016-05-03]GM[1]KM[6.5]PB[ardeleanul]
PC[OGS: http://online-go.com/game/5128745]PW[jubba]RE[B+R]RU[japanese]SZ[19]
WR[13k];B[pd];W[pp];B[dp];W[dd];B[jj];W[fq];B[dn];W[ip];B[jc];W[qf];B[qh];W[of]
;B[pk];W[qc];B[pc];W[qd];B[mc];W[dj];B[cg];W[gc];B[lq];W[nq];B[ir];W[hq];B[jq];
W[kp];B[jp];W[jo];B[lp];W[lo];B[mp];W[mo];B[np];W[oo];B[oq];W[pq];B[no];W[nn];
B[mn];W[on];B[ln];W[ko];B[io];W[in];B[ho];W[hn];B[hp];W[gq];B[iq];W[jn];B[fo];
W[kq];B[kr];W[op];B[ep];W[fp];B[gp];W[lr];B[bj];W[cl];B[fl];W[fj];B[pe];W[pf];
B[qe];W[re];B[rf];W[rd];B[rg];W[nd];B[nc];W[md];B[ek];W[ej];B[ck];W[ll];B[km];
W[jl];B[dk];W[hk];B[bd];W[cc];B[kl];W[kk];B[jm];W[im];B[jk];W[il];B[lk];W[kj];
B[ml];W[ki];B[ji];W[jh];B[ii];W[lj];B[mk];W[lh];B[ih];W[mj];B[nm];W[nj];B[ol];
W[qm];B[ql];W[pi];B[qi];W[ph];B[pj];W[oj];B[fc];W[fd];B[gd];W[ec];B[hc];W[gb];
B[fe];W[fb];B[he];W[lc];B[qb];W[rb];B[ob];W[qa];B[pb];W[pa];B[ra];W[sa];B[oa];
W[ra];B[sc])
