(;FF[4]BR[25k]CP[online-go.com]DT[2016-04-12]GM[1]KM[6.5]
PB[nicholas.a.villarreal]PC[OGS: http://online-go.com/game/4860381]
PW[harrypotter192]RE[W+R]RU[japanese]SZ[19]WR[21k];B[pp];W[dc];B[pc];W[dp];
B[jq];W[dj];B[oj];W[fc];B[jc];W[mp];B[lq];W[nq];B[kp];W[pq];B[rp];W[mm];B[om];
W[oo];B[po];W[gq];B[jm];W[pn];B[qm];W[on];B[qn];W[dg];B[pm];W[pf];B[lk];W[pi];
B[pj];W[qi];B[qj];W[qq];B[qp];W[op];B[rq];W[rr];B[sr];W[rs];B[sq];W[mr];B[lr];
W[qd];B[qc];W[rc];B[qb];W[rb];B[qa];W[dm];B[lg];W[mc];B[nc];W[md];B[nb];W[nd];
B[oc];W[oe];B[lb];W[hd];B[kc];W[de];B[hg];W[nj];B[nk];W[ni];B[hr];W[gr];B[hq];
W[mg];B[le];W[cq];B[hb];W[fb];B[hk];W[li];B[jk];W[gn];B[hm];W[gm];B[gl];W[fl];
B[gk];W[fi];B[gi];W[fg];B[gg];W[ge];B[fk];W[ek];B[fj];W[ej];B[ri];W[rh];B[si];
W[sh];B[ji];W[kj];B[kk];W[io];B[ho];W[hn];B[hp];W[ko];B[fp];W[gp];B[ip];W[jo];
B[go];W[fo];B[fq];W[fr];B[er];W[eq];B[in];W[fm];B[il];W[jn];B[im];W[kh];B[jg];
W[je];B[kd];W[kf];B[kg];W[lf];B[lh];W[ki];B[mi];W[mj];B[mh];W[lj];B[jh];W[nh];
B[jj];W[ic];B[ib];W[lc];B[kb];W[mb];B[ma];W[hs];B[ir];W[gs];B[is];W[ep];B[lo];
W[ln];B[mo];W[lp];B[no];W[nn];B[ms];W[ns];B[ls];W[mq];B[mf];W[ng];B[ke];W[jf];
B[me];W[mk];B[nl];W[ml];B[nm];W[gh];B[hi];W[hh];B[ih];W[fh];B[id];W[hc];B[ie];
W[if];B[hf];W[gf];B[ig];W[he];B[jd];W[gb];B[ha];W[km];B[oi];W[oh];B[cd];W[ce];
B[ga];W[fa];B[ja];W[qh];B[ra];W[sb];B[rd];W[re];B[sd];W[se];B[qe];W[pd];B[od];
W[ne];B[pe];W[rf];B[qd];W[qf];B[ch];W[cg];B[bi];W[bk];B[bg];W[bf];B[ag];W[af];
B[ah];W[dh];B[ci];W[ck];B[be];W[bd];B[aj];W[bj];B[ak];W[al];B[bl];W[ai];B[aj];
W[ak];B[ae];W[ad];B[bc];W[cc];B[cj];W[di];B[dl];W[dk];B[cl];W[cm];B[nf];W[of];
B[];W[kn];B[jp];W[rj];B[rk];W[sj];B[sk];W[qk];B[rl];W[ok])
