(;FF[4]BR[11k]CP[online-go.com]DT[2016-06-07]GM[1]KM[6.5]PB[pfraces]
PC[OGS: http://online-go.com/game/5485731]PW[Krakatok]RE[W+2.5]RU[japanese]
SZ[19]WR[12k];B[pd];W[dp];B[dc];W[pp];B[ce];W[nc];B[pf];W[pb];B[qc];W[kc];B[qi]
;W[cn];B[jq];W[mq];B[fq];W[eq];B[fp];W[cf];B[df];W[cg];B[de];W[dj];B[jd];W[jc];
B[id];W[ql];B[ic];W[kd];B[dg];W[dh];B[ke];W[le];B[ne];W[kf];B[md];W[mc];B[je];
W[me];B[nf];W[lo];B[jo];W[kp];B[dl];W[cl];B[ck];W[cj];B[dm];W[dk];B[cm];W[bk];
B[dn];W[co];B[fm];W[jp];B[iq];W[io];B[ip];W[jn];B[ho];W[in];B[hn];W[mg];B[ng];
W[mi];B[jf];W[kg];B[jg];W[gg];B[ge];W[pj];B[pi];W[oj];B[eh];W[ei];B[fh];W[ch];
B[kh];W[lg];B[ii];W[gh];B[gi];W[fi];B[ff];W[ji];B[jj];W[ki];B[kj];W[jh];B[ih];
W[li];B[kl];W[ij];B[il];W[hi];B[gj];W[ig];B[hj];W[hh];B[ik];W[ml];B[mm];W[lm];
B[km];W[kn];B[ll];W[ln];B[mk];W[nl];B[nk];W[ol];B[qq];W[qp];B[pq];W[oq];B[rp];
W[ro];B[rq];W[pr];B[op];W[oo];B[or];W[np];B[ps];W[nr];B[qr];W[fk];B[gl];W[oh];
B[be];W[bf];B[bm];W[bn];B[ep];W[dq];B[fr];W[kr];B[kq];W[lq];B[rk];W[qj];B[rj];
W[rl];B[oi];W[nh];B[qb];W[oc];B[nd];W[ld];B[ib];W[jb];B[cs];W[br];B[jr];W[es];
B[er];W[dr];B[ds];W[cr];B[fs];W[ae];B[ad];W[af];B[bc];W[ia];B[ha];W[ja];B[gb];
W[he];B[hf];W[gf];B[fe];W[if];B[hd];W[pg];B[qg];W[qa];B[ra];W[pa];B[pc];W[ob];
B[rb];W[pe];B[oe];W[qf];B[qe];W[qh];B[rf];W[rh];B[ph];W[ri];B[og];W[ni];B[pg];
W[qk];B[lr];W[mr];B[ks];W[fg];B[eg];W[gk];B[ii];W[fl];B[ij];W[ih];B[so];W[rn];
B[hm];W[bs];B[fj];W[ej];B[el];W[ek];B[ie];W[lj];B[lk];W[bl];B[do];W[am];B[es];
W[sn];B[sp];W[hk];B[rg];W[sj];B[sh];W[sk];B[jm];W[hl];B[gm];W[im];B[jk];W[mf];
B[ok];W[pk];B[os];W[si];B[sg];W[ms];B[ls];W[hg];B[he];W[];B[])
