(;FF[4]BR[9k]CP[online-go.com]DT[2016-05-08]GM[1]KM[6.5]PB[origamista]
PC[OGS: http://online-go.com/game/5177683]PW[Iangenius]RE[W+R]RU[japanese]
SZ[19]WR[3d];B[pd];W[dq];B[pp];W[dd];B[nq];W[dk];B[gp];W[do];B[cf];W[ch];B[fc];
W[df];B[cc];W[dc];B[cd];W[de];B[cg];W[ce];B[be];W[bd];B[bc];W[bf];B[ad];W[bg];
B[dg];W[db];B[dh];W[ci];B[di];W[dj];B[fh];W[ge];B[fe];W[ff];B[gd];W[he];B[id];
W[jf];B[gf];W[ee];B[fd];W[gg];B[hf];W[fg];B[if];W[ig];B[hg];W[hh];B[ie];W[jh];
B[gh];W[gi];B[hi];W[ih];B[eh];W[ef];B[gj];W[bb];B[cb];W[ca];B[ba];W[aa];B[ij];
W[nc];B[ld];W[pf];B[nd];W[oc];B[od];W[qb];B[ng];W[jj];B[jk];W[kk];B[kj];W[ji];
B[jl];W[mh];B[lj];W[nh];B[nj];W[og];B[pj];W[rp];B[qp];W[qo];B[rq];W[ql])
