(;FF[4]BR[13k]CP[online-go.com]DT[2016-06-24]GM[1]KM[6.5]PB[qianyilong]
PC[OGS: http://online-go.com/game/5644625]PW[matslina]RE[W+R]RU[japanese]SZ[19]
WR[14k];B[pd];W[dp];B[pq];W[dd];B[qk];W[jc];B[cn];W[fq];B[bp];W[cq];B[ck];W[jq]
;B[mp];W[nc];B[pg];W[qc];B[qd];W[pc];B[od];W[nd];B[oc];W[ob];B[nb];W[pa];B[mb];
W[lc];B[oa];W[na];B[ma];W[mc];B[oa];W[pb];B[rc];W[rb];B[qa];W[qb];B[sb];W[ra];
B[sc];W[rd];B[re];W[lb];B[cf];W[bd];B[nl];W[ef];B[dh];W[mg];B[fd];W[ge];B[hc];
W[gd];B[ke];W[id];B[me];W[ne];B[mf];W[nf];B[ng];W[pe];B[qe];W[oe];B[pf];W[lg];
B[jf];W[je];B[ie];W[hd];B[kg];W[gh];B[kh];W[gj];B[mh];W[la];B[nh];W[ko];B[ln];
W[kn];B[lm];W[kl];B[ll];W[kk];B[fm];W[hm];B[go];W[en];B[fo];W[eo];B[em];W[fn];
B[gm];W[gn];B[hl];W[im];B[fi];W[gi];B[ek];W[hk];B[gl];W[fj];B[ej];W[ei];B[di];
W[eh];B[ih];W[if];B[jd];W[kd];B[je];W[hf];B[ld];W[kc];B[qo];W[mj];B[lj];W[lk];
B[mk];W[li];B[kj];W[ki];B[jj];W[ji];B[ii];W[ij];B[lh];W[nj];B[ok];W[nk];B[jh];
W[ml];B[mm];W[mk];B[mi];W[mq];B[ik];W[hj];B[km];W[il];B[jk];W[jl];B[oj];W[mo];
B[mn];W[np];B[no];W[lp];B[oo];W[oq];B[op];W[or];B[pr];W[jm];B[ol];W[bf];B[ce];
W[be];B[cd];W[cc];B[bc];W[dc];B[bb];W[cg];B[dg];W[df];B[bg];W[de];B[ch])
