(;FF[4]BR[6k]CP[online-go.com]DT[2016-04-23]GM[1]KM[6.5]PB[ekabiljo]
PC[OGS: http://online-go.com/game/5002784]PW[GrimChase]RE[W+R]RU[japanese]
SZ[19]WR[6k];B[pd];W[qp];B[dd];W[cp];B[jd];W[qf];B[qh];W[nd];B[pf];W[pg];B[qg];
W[pc];B[qc];W[pe];B[od];W[of];B[oc];W[qj];B[pi];W[pj];B[oi];W[pm];B[ne];W[mg];
B[mi];W[le];B[md];W[ld];B[lc];W[kg];B[kj];W[kc];B[mc];W[kd];B[jc];W[jb];B[ib];
W[lb];B[jf];W[jg];B[if];W[cf];B[eq];W[hp];B[cq];W[bq];B[dp];W[co];B[cr];W[cl];
B[br];W[nq];B[ch];W[bd];B[cc];W[de];B[ee];W[df];B[cj];W[ef];B[fe];W[eh];B[ei];
W[gf];B[fi];W[ge];B[gd];W[hd];B[hc];W[fd];B[gc];W[ed];B[ec];W[ff];B[fc];W[ig];
B[he];W[hf];B[id];W[hi];B[fl];W[en];B[ik];W[li];B[lj];W[mj];B[nj];W[mk];B[ki];
W[lh];B[nk];W[ml];B[nl];W[mm];B[nm];W[mn];B[on];W[qn];B[po];W[qo];B[oq];W[np];
B[op];W[no];B[pn];W[qr];B[or];W[pl];B[mr];W[nr];B[ns];W[lr])
