(;FF[4]BR[13k]CP[online-go.com]DT[2016-04-26]GM[1]KM[6.5]PB[Krakatok]
PC[OGS: http://online-go.com/game/5037690]PW[jubba]RE[B+R]RU[japanese]SZ[19]
WR[13k];B[dd];W[pd];B[cp];W[pp];B[eq];W[fc];B[cf];W[hd];B[nq];W[lq];B[qq];W[pq]
;B[qp];W[po];B[pr];W[or];B[qr];W[oq];B[qn];W[pj];B[dj];W[dm];B[cl];W[cm];B[bn];
W[hp];B[nc];W[lc];B[qf];W[nd];B[qc];W[qd];B[pc];W[od];B[nb];W[qh];B[of];W[nh];
B[fo];W[fl];B[el];W[gm];B[fm];W[gl];B[ih];W[ej];B[ek];W[gj];B[ei];W[fj];B[gh];
W[cc];B[dc];W[cd];B[ce];W[db];B[eb];W[cb];B[ec];W[ba];B[ie];W[fg];B[fh];W[de];
B[ee];W[df];B[dg];W[ef];B[ff];W[fe];B[eg];W[gf];B[gg];W[ge];B[gn];W[hn];B[jc];
W[ib];B[jb];W[hc];B[ic];W[hb];B[fb];W[mp];B[mf];W[jk];B[pm];W[on];B[ol];W[mm];
B[mh];W[nf];B[ng];W[og];B[ne];W[pf];B[pg];W[pe];B[oh];W[qg];B[rf];W[rd];B[qi])
