(;FF[4]BR[9k]CP[online-go.com]DT[2016-05-26]GM[1]KM[6.5]PB[ardeleanul]
PC[OGS: http://online-go.com/game/5361670]PW[judoka_ser]RE[B+89.5]RU[japanese]
SZ[19]WR[15k];B[pd];W[dp];B[pp];W[dd];B[qj];W[cj];B[jj];W[kd];B[jp];W[mk];B[mi]
;W[mm];B[jm];W[ql];B[ol];W[om];B[nl];W[ml];B[nm];W[on];B[nn];W[hq];B[cg];W[bf];
B[cf];W[ce];B[bg];W[be];B[ci];W[hg];B[bj];W[ck];B[qn];W[oo];B[op];W[no];B[mn];
W[mo];B[ln];W[hm];B[mq];W[pm];B[qo];W[nc];B[qc];W[bk];B[aj];W[ak];B[bh];W[qk];
B[oj];W[qi];B[pj];W[ph];B[ri];W[rh];B[pi];W[qh];B[rk];W[rl];B[lq];W[ip];B[jo];
W[io];B[cq];W[cp];B[dq];W[eq];B[er];W[fq];B[fr];W[gr];B[bp];W[bo];B[br];W[ap];
B[bq];W[pb];B[oh];W[og];B[pl];W[lh];B[li];W[ii];B[gc];W[ge];B[db];W[hb];B[hd];
W[id];B[he];W[gb];B[fc];W[fb];B[ec];W[cc];B[fe];W[gf];B[bb];W[cb];B[ca];W[eb];
B[dc];W[bc];B[aa];W[ab];B[ac];W[ad];B[ba];W[ab];B[da];W[ac];B[af];W[df];B[ff];
W[fg];B[ef];W[dg];B[ed];W[eg];B[de];W[ee];B[hc];W[ic];B[de];W[fs];B[cd];W[gd];
B[co];W[bn];B[dr];W[fd];B[ee];W[hf];B[ie];W[je];B[if];W[ig];B[jf];W[kf];B[jg];
W[jh];B[kg];W[lf];B[kh];W[nh];B[ji];W[ih];B[hk];W[gh];B[hj];W[ij];B[ik];W[hi];
B[fi];W[fh];B[ei];W[ai];B[bi];W[di];B[dh];W[dj];B[eh];W[gi];B[gj];W[fj];B[ej];
W[fk];B[ek];W[fl];B[dl];W[cl];B[dm];W[cm];B[dn];W[el];B[dk];W[am];B[ep];W[fp];
B[eo];W[fo];B[fn];W[gn];B[fm];W[gm];B[gl];W[lg];B[ki];W[ni];B[nj];W[oi];B[mh];
W[mg];B[qb];W[rd];B[pc];W[ob];B[qf];W[rf];B[qe];W[re];B[rc];W[sd];B[sc];W[qa];
B[ra];W[sb];B[nf];W[ng];B[of];W[od];B[oe];W[pf];B[qg];W[pg];B[rg];W[sg];B[sf];
W[pe];B[sh];W[ea];B[jk];W[hl];B[em];W[pa];B[oc];W[nb];B[nd];W[md];B[me];W[mf];
B[le];W[ld];B[od];W[ke];B[qd];W[ne];B[me];W[le];B[se];W[jq];B[kq];W[jr];B[kr];
W[im];B[jl];W[jn];B[kn];W[in];B[mj];W[ks];B[ls];W[js];B[qq];W[es];B[ds];W[gs];
B[aq];W[ao];B[ko];W[cn];B[do];W[];B[gk];W[];B[])
