(;FF[4]BR[6d]CP[online-go.com]DT[2016-04-23]GM[1]KM[6.5]PB[BenKyoTutoring]
PC[OGS: http://online-go.com/game/5002828]PW[Buridan]RE[B+R]RU[japanese]SZ[19]
WR[7k];B[qd];W[dp];B[dc];W[qp];B[cf];W[kq];B[qj];W[lc];B[jc];W[oc];B[pc];W[od];
B[pf];W[le];B[je];W[cl];B[qm];W[pn];B[pm];W[on];B[om];W[nn];B[qq];W[pq];B[jp];
W[kp];B[jn];W[lm];B[cq];W[cp];B[dq];W[fq];B[eq];W[ep];B[fr];W[gq];B[gr];W[hq];
B[jl];W[dg];B[cg];W[dh];B[ch];W[di];B[kk];W[hm];B[df];W[gg];B[ge];W[ko];B[ml];
W[lg];B[mf];W[lf];B[hk];W[fl];B[mh];W[kb];B[jb];W[ob];B[rq];W[pr];B[rp];W[qb];
B[bj];W[bl];B[mg];W[jo];B[rc];W[bq];B[br];W[in];B[hr];W[ir];B[bp];W[bo];B[aq];
W[gj];B[qo];W[pp];B[hj];W[gi];B[qr];W[qn];B[rn];W[rb];B[is];W[jr];B[ps];W[os];
B[qs];W[nr];B[gf];W[fg];B[pe];W[js];B[ao];W[bn];B[ki];W[ig];B[kc];W[lb];B[qc];
W[ef];B[ee];W[ie];B[id];W[if];B[pb];W[pa];B[sb];W[me];B[ci];W[cj];B[ck];W[dj];
B[bk];W[dk];B[ra];W[ja];B[ia];W[ka];B[hb];W[jm];B[mm];W[mn];B[km];W[kn];B[ll];
W[nm];B[nl];W[ak];B[ai];W[ln];B[il];W[gk];B[ii];W[lh];B[li])
