(;FF[4]BR[15k]CP[online-go.com]DT[2016-07-01]GM[1]KM[6.5]PB[matslina]
PC[OGS: http://online-go.com/game/5700920]PW[rantash]RE[B+R]RU[japanese]SZ[19]
WR[13k];B[pd];W[dp];B[pp];W[dc];B[pj];W[ce];B[fq];W[hq];B[cn];W[fp];B[cq];W[dq]
;B[cp];W[dn];B[dr];W[er];B[cr];W[eq];B[co];W[dm];B[kq];W[qq];B[qp];W[pq];B[oq];
W[or];B[nq];W[nr];B[mq];W[rp];B[ro];W[rq];B[qo];W[nc];B[ne];W[ld];B[ic];W[pc];
B[qc];W[qb];B[pb];W[oc];B[rb];W[gc];B[ie];W[qd];B[rc];W[kf];B[ig];W[jd];B[id];
W[mg];B[og];W[gf];B[cj];W[ej];B[cg];W[bl];B[bk];W[cl];B[bf];W[be];B[mi];W[kh];
B[ii];W[kj];B[gh];W[eg];B[mk];W[ik];B[gj];W[gl];B[fk];W[ek];B[fl];W[gk];B[fj];
W[di];B[ci];W[fm];B[el];W[dl];B[dk];W[dj];B[ck];W[fh];B[gg];W[km];B[mm];W[dh];
B[ch];W[kb];B[jc];W[kc];B[je];W[ke];B[ge];W[fe];B[ff];W[gd];B[he];W[ef];B[fg];
W[fi];B[ee];W[fd];B[df];W[dg];B[de];W[cf];B[eh];W[ko];B[mo];W[jq];B[jr];W[ir];
B[kr];W[jp];B[al];W[am];B[ak];W[bn];B[bo];W[bg];B[bh];W[af];B[jk];W[jj];B[kk];
W[ij];B[hj];W[hk];B[jm];W[im];B[jn];W[io];B[in];W[hn];B[il];W[hm];B[kn];W[ln];
B[lo];W[jo];B[jl];W[lk];B[ll];W[lj];B[nh];W[mj];B[nj];W[me];B[oe];W[ib];B[hb];
W[jb];B[hc];W[gb];B[ha];W[dd];B[ei];W[pe];B[od];W[nd];B[jg];W[qe];B[qg])
