(;FF[4]BR[5k]CP[online-go.com]DT[2016-06-09]GM[1]KM[6.5]PB[nazar]
PC[OGS: http://online-go.com/game/5501066]PW[xgp328]RE[W+R]RU[japanese]SZ[19]
WR[1d];B[pd];W[dc];B[dp];W[qp];B[ce];W[fd];B[oq];W[ci];B[cc];W[cb];B[bc];W[dd];
B[cg];W[eh];B[bb];W[db];B[ef];W[ff];B[fe];W[ee];B[fg];W[eg];B[gf];W[df];B[ff];
W[de];B[cf];W[bh];B[ba];W[hd];B[dh];W[di];B[ei];W[fh];B[if];W[jd];B[dg];W[gh];
B[ej];W[dk];B[ek];W[el];B[fl];W[hg];B[je];W[ie];B[hf];W[jf];B[ih];W[gj];B[gk];
W[ii];B[jh];W[dl];B[co];W[ke];B[ig];W[ji];B[kh];W[ki];B[lh];W[mj];B[li];W[lj];
B[ik];W[jk];B[ng];W[fm];B[hl];W[ni];B[nc];W[mg];B[mh];W[nh];B[mf];W[og];B[nf];
W[kp];B[ph];W[im];B[hm];W[hn];B[jl];W[kk];B[in];W[jm];B[gn];W[ho];B[go];W[hp];
B[en];W[em];B[gm];W[dn];B[bm];W[ep];B[eo];W[bl];B[cm];W[bg];B[bf];W[cl];B[bj];
W[bk];B[cj];W[dj];B[bi];W[ch];B[ag];W[ah];B[af];W[op];B[np];W[oo];B[al];W[aj];
B[pq];W[qq];B[mq];W[mo];B[pk];W[kr];B[nr];W[pr];B[no];W[nn];B[pp];W[po];B[qo];
W[qn];B[on];W[ro];B[mn];W[nm];B[or];W[qr];B[lo];W[lp];B[mp];W[lr];B[km];W[jn];
B[ml];W[mm];B[kl];W[kn];B[nl];W[lm];B[ll];W[om];B[oj];W[pi];B[oi];W[oh];B[qi];
W[pg];B[qh];W[qg];B[qe];W[ij];B[hh];W[il];B[hk];W[ol];B[nk];W[rg];B[rl];W[re];
B[rd];W[se];B[sg];W[rh])
