(;FF[4]BR[7k]CP[online-go.com]DT[2016-01-16]GM[1]KM[6.5]PB[TheDidymen]
PC[OGS: http://online-go.com/game/3713889]PW[murakoshi]RE[B+R]RU[japanese]
SZ[19]WR[9k];B[pd];W[dp];B[pq];W[dd];B[fc];W[df];B[jd];W[qo];B[pl];W[no];B[nq];
W[pj];B[ph];W[nj];B[po];W[pn];B[on];W[oo];B[pp];W[om];B[qn];W[pm];B[qm];W[ol];
B[ql];W[pf];B[nd];W[nf];B[fq];W[hp];B[fo];W[dn];B[cl];W[cm];B[dl];W[dr];B[ch];
W[cg];B[dh];W[fm];B[em];W[en];B[fn];W[gm];B[ho];W[io];B[hn];W[jo];B[lo];W[mp];
B[lp];W[mq];B[lq];W[mr];B[lr];W[hq];B[nn];W[mn];B[fe];W[eg];B[ce];W[cd];B[bg];
W[cf];B[bf];W[de];B[ln];W[jm];B[hm];W[ll];B[mo];W[nm];B[np];W[lm];B[hk];W[ld];
B[nc];W[lf];B[lc];W[kc];B[kd];W[md];B[mc];W[fk];B[gi];W[el];B[dm];W[dk];B[cn];
W[bm];B[do];W[co];B[eo];W[bn];B[cp];W[bo];B[dq];W[bp];B[cq];W[bq];B[cr];W[br];
B[bs];W[ar];B[bl];W[am];B[jf];W[eh];B[ei];W[eq];B[ep];W[gg];B[db];W[cb];B[dc];
W[cc];B[be];W[bd];B[ab];W[ig];B[jg];W[hi];B[gj];W[ii];B[jk];W[ki];B[jh];W[ji];
B[hh];W[gh];B[ih];W[hg];B[he];W[ie];B[id];W[je];B[ke];W[if];B[kf];W[mf];B[ad])
