(;FF[4]BR[9k]CP[online-go.com]DT[2016-06-01]GM[1]KM[6.5]PB[ives]
PC[OGS: http://online-go.com/game/5426004]PW[tg]RE[W+57.5]RU[japanese]SZ[19]
WR[2k];B[pd];W[dc];B[dp];W[pp];B[de];W[ce];B[cf];W[cd];B[dg];W[fc];B[ck];W[fq];
B[ip];W[cq];B[cp];W[dq];B[ep];W[fp];B[eq];W[er];B[dr];W[cr];B[fr];W[ds];B[fo];
W[gr];B[gq];W[gp];B[go];W[hq];B[hp];W[fs];B[fj];W[ei];B[ej];W[ch];B[dh];W[bf];
B[ci];W[cg];B[df];W[bi];B[bh];W[bg];B[bj];W[nc];B[qf];W[jd];B[pj];W[qn];B[ge];
W[hd];B[lc];W[ld];B[kd];W[ke];B[md];W[kc];B[mc];W[qc];B[pc];W[rd];B[qd];W[qh];
B[rc];W[oh];B[if];W[me];B[nd];W[nj];B[pl];W[nl];B[ik];W[gg];B[hf];W[ih];B[kg];
W[kh];B[jh];W[ji];B[jg];W[ii];B[ki];W[kj];B[lh];W[jk];B[lj];W[lk];B[oi];W[pi];
B[lp];W[om];B[ni];W[oj];B[nq];W[fe];B[nh];W[di];B[ai];W[fh];B[lf];W[il];B[gl];
W[pr];B[iq];W[ir];B[jr];W[qj];B[og];W[ph];B[le];W[bp];B[bo];W[bq];B[co];W[gf];
B[he];W[gd];B[pg];W[rg];B[rf];W[lb];B[mb];W[kb];B[nr];W[ma];B[na];W[la];B[nb];
W[js];B[kr];W[sf];B[se];W[sg];B[re];W[in];B[ho];W[hk];B[hl];W[hm];B[gm];W[ln];
B[no];W[oo];B[kn];W[km];B[lm];W[ko];B[mn];W[jn];B[nm];W[ol];B[kp];W[ll];B[mm];
W[mj];B[li];W[gk];B[fk];W[dj];B[dk];W[gi];B[cj];W[mi];B[mh];W[ao];B[an];W[ap];
B[bn];W[kd];B[qg];W[ri];B[ag];W[ae];B[ks];W[is];B[lo];W[kn];B[hn];W[im];B[oq];
W[pq];B[op];W[on];B[ml];W[mk];B[nn];W[os];B[ns];W[or];B[gj];W[hj];B[id];W[ic];
B[ie];W[jp];B[jq];W[jo];B[hg];W[hh];B[kf];W[ig];B[jf];W[fi];B[ah];W[af];B[];W[]
)
