(;FF[4]BR[13k]CP[online-go.com]DT[2016-04-28]GM[1]KM[6.5]PB[Redriek]
PC[OGS: http://online-go.com/game/5061661]PW[zefciu]RE[W+R]RU[japanese]SZ[19]
WR[9k];B[pd];W[dc];B[pq];W[po];B[qo];W[pp];B[qp];W[oq];B[qq];W[pn];B[cp];W[ep];
B[eq];W[fq];B[dq];W[fp];B[cm];W[ce];B[qg];W[jd];B[dg];W[qn];B[cf];W[de];B[dj];
W[nc];B[pc];W[qj];B[hq];W[jq];B[ho];W[fn];B[hl];W[fl];B[gj];W[fj];B[gi];W[dn];
B[cn];W[do];B[gm];W[co];B[bo];W[fi];B[fh];W[dk];B[ck];W[dl];B[em];W[dm];B[cl];
W[gk];B[hk];W[fm];B[eo];W[en];B[ko];W[lp];B[mn];W[hj];B[ij];W[hi];B[gh];W[ii];
B[ei];W[ej];B[di];W[jj];B[ik];W[ji];B[kk];W[jk];B[jl];W[lj];B[lk];W[lh];B[np];
W[nq];B[mo];W[ne];B[ge];W[gc];B[ig];W[mk];B[ml];W[nk];B[kq];W[kp];B[mq];W[mp];
B[jp];W[lq];B[kr];W[lr];B[jr];W[jo];B[iq];W[lo];B[kn];W[ln];B[lm];W[no];B[mr];
W[ls];B[ms];W[op];B[or];W[nr];B[ps];W[rn];B[ro];W[rh];B[rg];W[qh];B[ob];W[nb];
B[oa];W[fr];B[er];W[be];B[bf];W[af];B[ag];W[ae];B[bg];W[sg];B[sf];W[sh];B[re];
W[pg];B[pf];W[og];B[kg];W[lg];B[na];W[lb];B[la];W[ka];B[ma];W[kb];B[mb];W[mc];
B[om];W[pl];B[ol];W[ok];B[pm];W[ql];B[qm];W[rm];B[of];W[nf];B[kf];W[le];B[ke];
W[kd];B[lf];W[mf];B[ie];W[is];B[jn];W[oc];B[pb];W[id];B[hd];W[hc];B[gd];W[fd];
B[ef];W[fe];B[ff];W[oe];B[pe];W[je];B[jf];W[so];B[sp];W[sn];B[gn];W[go])
