(;FF[4]BR[6k]CP[online-go.com]DT[2016-06-22]GM[1]KM[6.5]PB[LaViNa66]
PC[OGS: http://online-go.com/game/5621285]PW[boredom]RE[B+R]RU[japanese]SZ[19]
WR[5k];B[pc];W[dp];B[dd];W[qp];B[pj];W[df];B[fd];W[cd];B[cc];W[ce];B[ec];W[ci];
B[qe];W[kd];B[jc];W[mc];B[jd];W[kc];B[jb];W[oe];B[pe];W[of];B[qh];W[jp];B[oq];
W[pq];B[op];W[qn];B[on];W[cn];B[hq];W[fq];B[ho];W[mq];B[fp];W[eq];B[eo];W[do];
B[en];W[jn];B[ke];W[le];B[cm];W[ck];B[lo];W[kq];B[km];W[im];B[hm];W[il];B[hl];
W[ik];B[hk];W[ql];B[mi];W[kk];B[ml];W[mk];B[nk];W[ll];B[mm];W[iq];B[gq];W[ji];
B[ej];W[rj];B[rh];W[ob];B[pb];W[oc];B[bm];W[bn];B[bj];W[cj];B[bk];W[bi];B[bc];
W[bd];B[mj];W[hj];B[gj];W[hi];B[gi];W[kf];B[je];W[mf];B[or];W[pr];B[ir];W[jr];
B[ip];W[ko];B[lp];W[jq];B[dn];W[bp];B[in];W[kn];B[lm];W[jm];B[dh];W[ch];B[dg];
W[cg];B[ef];W[de];B[ee];W[hg];B[jf];W[gh];B[fh];W[ek];B[fk];W[dl];B[dm];W[fl];
B[fm];W[el];B[gl];W[he];B[hd];W[fg];B[ei];W[mr];B[ps];W[qs];B[os];W[qr];B[gr];
W[fr];B[lk];W[kl];B[kj];W[jj];B[ih];W[hh];B[kg];W[lf];B[ii];W[ig];B[jh];W[jg];
B[kh];W[ki];B[lh];W[ij];B[gf];W[hf];B[ge];W[gg];B[js];W[ks];B[is];W[ms];B[nd];
W[od];B[lb];W[lc];B[kb];W[mb];B[md];W[pa];B[rb];W[pg];B[ph];W[oh];B[ng];W[og];
B[mh];W[pd];B[qd];W[nf];B[na];W[ma];B[oa];W[nb];B[oa])
