(;FF[4]BR[13k]CP[online-go.com]DT[2016-02-21]GM[1]KM[6.5]PB[Lopez de la Osa]
PC[OGS: http://online-go.com/game/4062678]PW[Play2Much]RE[W+47.5]RU[japanese]
SZ[19]WR[9k];B[pd];W[dp];B[qq];W[dd];B[nc];W[pp];B[qo];W[qp];B[rp];W[pq];B[qr];
W[pr];B[rs];W[po];B[rn];W[jq];B[qj];W[dj];B[jc];W[oj];B[ph];W[ql];B[rl];W[qm];
B[gc];W[jj];B[cm];W[co];B[cj];W[ci];B[bj];W[dh];B[dk];W[bi];B[ai];W[ah];B[aj];
W[bh];B[bn];W[bo];B[em];W[gq];B[jh];W[li];B[lh];W[mh];B[lg];W[mg];B[mf];W[nf];
B[ng];W[og];B[nh];W[oh];B[mi];W[ni];B[of];W[pg];B[pf];W[qg];B[qh];W[mj];B[mh];
W[lj];B[pi];W[oi];B[rf];W[qf];B[qe];W[rg];B[re];W[rk];B[rm];W[qk];B[sk];W[sj];
B[sl];W[rj];B[eb];W[dc];B[cb];W[db];B[da];W[fb];B[fc];W[ec];B[ea];W[cc];B[bb];
W[bc];B[ac];W[ad];B[gb];W[fd];B[hd];W[gn];B[gm];W[hn];B[hm];W[im];B[hk];W[ik];
B[hj];W[gf];B[hf];W[gg];B[ej];W[di];B[fi];W[fh];B[eo];W[ep];B[fo];W[fp];B[go];
W[ho];B[gp];W[hp];B[fn];W[hg];B[if];W[qn];B[ro];W[ps];B[qs];W[ck];B[bk];W[ek];
B[dl];W[fj];B[fk];W[ei];B[gj];W[gi];B[el];W[sf];B[se];W[sg];B[ge];W[fe];B[ig];
W[an];B[am];W[ao];B[cn];W[ab];B[ca];W[gd];B[he];W[hl];B[gl];W[il];B[ki];W[kj];
B[ji];W[ej];B[do];W[cp];B[hi];W[hh];B[ii];W[ac];B[];W[])
