(;FF[4]BR[9k]CP[online-go.com]DT[2016-04-17]GM[1]KM[6.5]PB[Blindshot42]
PC[OGS: http://online-go.com/game/4926043]PW[Real Clock]RE[W+R]RU[japanese]
SZ[19]WR[9k];B[dd];W[qp];B[pd];W[dp];B[cn];W[fq];B[bp];W[iq];B[dk];W[cl];B[dl];
W[ck];B[cq];W[dm];B[cm];W[dn];B[dj];W[cj];B[ci];W[bi];B[bh];W[ch];B[di];W[aj];
B[cg];W[gd];B[jd];W[dh];B[dg];W[eh];B[bg];W[fj];B[bl];W[bo];B[ak];W[co];B[er];
W[bm];B[fl];W[ik])
