(;FF[4]BR[2k]CP[online-go.com]DT[2015-12-17]GM[1]KM[6.5]PB[Svejk]
PC[OGS: http://online-go.com/game/3500867]PW[irving.lai.3]RE[W+1.5]RU[japanese]
SZ[19]WR[2k];B[qe];W[dp];B[oq];W[qp];B[qn];W[op];B[np];W[nq];B[pp];W[oo];B[pq];
W[mp];B[nr];W[no];B[mr];W[dc];B[de];W[cg];B[ef];W[cj];B[fc];W[ce];B[pc];W[hc];
B[dd];W[cd];B[ec];W[kc];B[mc];W[qj];B[ql];W[qg];B[fq];W[dn];B[cq];W[dq];B[dr];
W[cp];B[br];W[bq];B[cr];W[rm];B[qm];W[qo];B[po];W[rn];B[qq];W[rl];B[qk];W[rk];
B[kq];W[pn];B[on];W[pm];B[nn];W[pk];B[mo];W[hp];B[fo];W[kp];B[jp];W[jq];B[ko];
W[ip];B[lp];W[hn];B[fm];W[hl];B[fk];W[hj];B[cl];W[dl];B[dk];W[ck];B[dm];W[bl];
B[cm];W[bm];B[cn];W[bn];B[co];W[bo];B[el];W[kk];B[ol];W[pl];B[jd];W[jc];B[hd];
W[id];B[ie];W[ic];B[gd];W[je];B[ke];W[kd];B[if];W[jf];B[ig];W[jg];B[ii];W[ij];
B[ji];W[mk];B[me];W[le];B[mf];W[lf];B[aq];W[bp];B[im];W[hm];B[km];W[rf];B[re];
W[se];B[sd];W[sf];B[rd];W[mg];B[ng];W[nf];B[md];W[of];B[mh];W[lg];B[qf];W[rg];
B[og];W[pg];B[pf];W[lb];B[mb];W[ma];B[na];W[la];B[nb];W[oh];B[nh];W[oi];B[jj];
W[jk];B[il];W[ik];B[li];W[db];B[gk];W[hk];B[io];W[ho];B[ll];W[lk];B[nj];W[nk];
B[ok];W[oj];B[om];W[mj];B[ir];W[iq];B[jr];W[en];B[fn];W[ep];B[fp];W[rq];B[rr];
W[rp];B[eh];W[dh];B[di];W[ci];B[dg];W[ch];B[gi];W[sr];B[rs];W[in];B[jn];W[hi];
B[hh];W[mm];B[eb];W[da];B[gb];W[dj];B[ej];W[ei];B[fi];W[gj];B[fj];W[hr];B[gr];
W[is];B[ks];W[hb];B[ea];W[cf];B[kh];W[lh];B[mi];W[ni];B[gq];W[hq];B[lm];W[mn];
B[np];W[ml];B[ln];W[kg];B[ih];W[df];B[eg];W[ap];B[ar];W[ga];B[fa];W[ha];B[lc];
W[kb];B[gc];W[gs];B[fs];W[hs];B[jo];W[eq];B[er];W[js];B[kr];W[em];B[gl];W[jh];
B[ki];W[do];B[dl];W[di];B[qr];W[sq];B[];W[])
