(;FF[4]BR[2d]CP[online-go.com]DT[2016-05-31]GM[1]KM[6.5]PB[halifax]
PC[OGS: http://online-go.com/game/5409588]PW[MagariSimoku]RE[W+R]RU[japanese]
SZ[19]WR[4d];B[pd];W[dp];B[pp];W[dc];B[fq];W[cn];B[jp];W[qn];B[nq];W[qk];B[de];
W[ce];B[cf];W[cd];B[dg];W[fc];B[ck];W[dr];B[ek];W[rp];B[qq];W[qf];B[nc];W[hq];
B[jr];W[rd];B[qc];W[ph];B[er];W[eq];B[gq];W[lc];B[rc];W[nb];B[mb];W[mc];B[lb];
W[nd];B[oc];W[kb];B[ob];W[jc];B[gf];W[on];B[kd];W[jd];B[pf];W[pg];B[of];W[la];
B[na];W[ke];B[fr];W[bl];B[bk];W[fo];B[cr];W[ds];B[bo];W[cq];B[ep];W[dq];B[bn];
W[cm];B[bm];W[cl];B[al];W[ho];B[hr];W[fl];B[fk];W[gk];B[gj];W[hj];B[gl];W[hk];
B[fm];W[hl];B[el];W[jn];B[pk];W[pl];B[qj];W[pj];B[ok];W[oj];B[ql];W[rk];B[nk];
W[rl];B[ni];W[gi];B[fj];W[li];B[pi];W[oi];B[oh];W[qi];B[nj];W[rj];B[mf];W[og];
B[ng];W[nh];B[mh];W[mi];B[oh];W[lk];B[nm];W[iq];B[jq];W[fp];B[co];W[do];B[dn];
W[en];B[dm];W[hh];B[fh];W[ln];B[hm];W[im];B[rq];W[lp];B[lq];W[np];B[mq];W[nh];
B[nn];W[oo];B[oh];W[bf];B[bg];W[nh];B[pm];W[qm];B[oh];W[op];B[oq];W[nh];B[mp];
W[mo];B[oh];W[em];B[nh];W[dl];B[bq];W[br];B[ar];W[dk];B[dj];W[cj];B[di];W[bj];
B[cp];W[am];B[bs];W[be];B[fi];W[gd];B[bi];W[qe];B[ro];W[qo];B[qp];W[rn];B[sp];
W[ml];B[om];W[ne];B[nf];W[le];B[pe];W[hf];B[gg];W[lh])
