(;FF[4]BR[16k]CP[online-go.com]DT[2016-05-21]GM[1]KM[6.5]PB[luckyredz]
PC[OGS: http://online-go.com/game/5310256]PW[yonkeltron]RE[B+35.5]RU[japanese]
SZ[19]WR[18k];B[dc];W[qp];B[dp];W[pd];B[cf];W[oq];B[jq];W[jd];B[qj];W[pi];B[qn]
;W[po];B[ck];W[jj];B[hc];W[pj];B[ql];W[pl];B[lo];W[cq];B[dq];W[dr];B[cp];W[bq];
B[bp];W[er];B[br];W[cr];B[aq];W[gr];B[gp];W[hr];B[ir];W[eq];B[ep];W[fq];B[hq];
W[fp];B[fo];W[gq];B[hp];W[fs];B[ie];W[id];B[hd];W[kg];B[hg];W[je];B[hi];W[hk];
B[fk];W[gm];B[fm];W[gj];B[fi];W[gi];B[fh];W[gh];B[gg];W[hh];B[he];W[fj];B[ej];
W[gn];B[go];W[fn];B[en];W[gl];B[fl];W[pk];B[qi];W[qk];B[pn];W[rl];B[nn];W[ll];
B[jo];W[mq];B[nl];W[nk];B[qg];W[qf];B[rg];W[rj];B[ri];W[pg];B[rf];W[qe];B[re];
W[rd];B[se];W[sd];B[si];W[qh];B[sg];W[rh];B[qc];W[qd];B[pc];W[oc];B[ob];W[rc];
B[nc];W[od];B[mc];W[ld];B[lc];W[jb];B[kb];W[kc];B[lb];W[ig];B[if];W[jf];B[md];
W[me];B[lm];W[qm];B[jm];W[jl];B[ml];W[mk];B[kl];W[lk];B[jk];W[ik];B[il];W[kk];
B[gk];W[mp];B[hl];W[ol];B[ih];W[jg];B[hj];W[ji];B[ij];W[ib];B[hb];W[ic];B[qb];
W[rb];B[ra];W[jh];B[pm];W[rm];B[oo];W[op];B[no];W[mo];B[qo];W[pp];B[mn];W[ro];
B[rn];W[so];B[sn];W[rq];B[om];W[is];B[js];W[hs];B[lq];W[lr];B[lp];W[ks];B[jr];
W[kr];B[nb];W[kq];B[kp];W[mr];B[nd];W[ne];B[np];W[nq];B[qa];W[sb];B[ka];W[ha];
B[gb];W[ga];B[fa];W[ia];B[fb];W[bs];B[ar];W[cs];B[ap];W[sm];B[ii];W[sa];B[pa];
W[ja];B[];W[])
