(;FF[4]BR[9k]CP[online-go.com]DT[2016-06-11]GM[1]KM[6.5]PB[moocowpong1]
PC[OGS: http://online-go.com/game/5515924]PW[rubaschet]RE[B+R]RU[japanese]
SZ[19]WR[10k];B[pd];W[pq];B[dd];W[dp];B[po];W[np];B[qq];W[oq];B[qp];W[cf];B[fc]
;W[bd];B[cc];W[di];B[fq];W[jq];B[iq];W[eq];B[jp];W[kq];B[hp];W[qj];B[ql];W[qg];
B[nd];W[rd];B[qc];W[rc];B[qf];W[qb];B[pb];W[rf];B[qe];W[re];B[jf];W[le];B[kd];
W[ld];B[lc];W[mc];B[kc];W[md];B[nf];W[lg];B[nh];W[li];B[cn];W[co];B[ck];W[dn];
B[cm];W[ci];B[ek];W[ef];B[ge];W[bc];B[bb];W[jh];B[ok];W[pg];B[pi];W[qi];B[gi];
W[fj];B[fk];W[gj];B[hi];W[ji];B[ij];W[gk];B[fm];W[gl];B[en];W[do];B[ej];W[fi];
B[fh];W[ei];B[gg];W[dm];B[kk];W[lk];B[ll];W[kl];B[kj];W[lj];B[ml];W[jg];B[if];
W[jj];B[jk];W[ik];B[jl];W[ng];B[og];W[mg];B[of];W[oh];B[oi];W[ph];B[ni];W[km];
B[il];W[hk];B[in];W[gn];B[dl];W[jn];B[jm];W[kn];B[gm];W[hl];B[hm];W[ki];B[im];
W[ii];B[hj];W[kf];B[mf];W[hh];B[gh];W[hg];B[ig];W[hf];B[he])
