(;FF[4]BR[6k]CP[online-go.com]DT[2016-03-10]GM[1]KM[6.5]PB[jpro]
PC[OGS: http://online-go.com/game/4228689]PW[MysticXG]RE[W+33.5]RU[japanese]
SZ[19]WR[7k];B[pd];W[cp];B[pq];W[dc];B[qk];W[nc];B[qf];W[pb];B[qc];W[kc];B[ce];
W[fd];B[ch];W[cj];B[bc];W[ei];B[eq];W[hp];B[cq];W[dp];B[dq];W[ep];B[fp];W[fo];
B[fq];W[nq];B[po];W[hr];B[gr];W[kp];B[ne];W[ok];B[pi];W[qm];B[qn];W[pm];B[no];
W[kn];B[ni];W[mj];B[id];W[ke];B[ff];W[he];B[gd];W[ge];B[fe];W[fc];B[hg];W[if];
B[ig];W[hi];B[jf];W[hd];B[ie];W[hf];B[jg];W[je];B[jj];W[ml];B[lm];W[ln];B[mm];
W[mn];B[nk];W[nm];B[nj];W[nl];B[mk];W[kl];B[lk];W[ll];B[hj];W[gk];B[gi];W[gj];
B[ii];W[hk];B[hh];W[bp];B[bq];W[bi];B[ir];W[iq];B[hs];W[jr];B[hq];W[ip];B[lf];
W[or];B[pr];W[rm];B[rn];W[sj];B[rj];W[sk];B[si];W[sl];B[ri];W[sn];B[rp];W[ps];
B[qs];W[os];B[rr];W[qb];B[rb];W[bg];B[cg];W[bf];B[be];W[de];B[cf];W[bh];B[df];
W[ee];B[cb];W[db];B[oq];W[mr];B[ik];W[il];B[ef];W[kk];B[kj];W[pc];B[rc];W[md];
B[le];W[ld];B[eo];W[go];B[bo];W[ao];B[an];W[ap];B[aq];W[do];B[en];W[dn];B[em];
W[dm];B[el];W[dl];B[fj];W[fi];B[hl];W[fk];B[di];W[dj];B[jl];W[im];B[jk];W[jm];
B[js];W[kr];B[da];W[ea];B[ca];W[fb];B[fh];W[eh];B[pk];W[ol];B[np];W[mp];B[so];
W[od];B[oe];W[me];B[mf];W[kf];B[kg];W[ra];B[qe];W[cc];B[bb];W[cd];B[bd];W[oj];
B[oi];W[fg];B[gh];W[eg];B[gg];W[hc];B[ae];W[af];B[gp];W[ks];B[is];W[pj];B[qj];
W[on];B[nd];W[oc];B[mo];W[lo];B[rl];W[sm];B[pn];W[oo];B[op];W[nn];B[pl];W[ci];
B[dh];W[qa];B[sb];W[ql];B[rk];W[om];B[dg];W[ej];B[];W[])
