(;FF[4]BR[11k]CP[online-go.com]DT[2016-05-22]GM[1]KM[6.5]PB[pfraces]
PC[OGS: http://online-go.com/game/5324050]PW[Wop]RE[W+R]RU[japanese]SZ[19]
WR[11k];B[pd];W[dq];B[dd];W[qp];B[do];W[fp];B[cq];W[dp];B[cp];W[eo];B[dn];W[en]
;B[lq];W[jq];B[oq];W[pn];B[ql];W[qj];B[ol];W[qf];B[nd];W[nn];B[oj];W[pi];B[oi];
W[ph];B[ng];W[qd];B[qc];W[rc];B[pc];W[rd];B[jd];W[fc];B[ec];W[fd];B[cf];W[ic];
B[jc];W[dm];B[cn];W[cm];B[bn];W[oh];B[lo];W[mm];B[mk];W[nh];B[mg];W[og];B[kl];
W[pq];B[or];W[pr];B[jo];W[ip];B[cr];W[dr];B[cj];W[lf];B[jf];W[lg];B[me];W[mh];
B[lh];W[kh];B[li];W[jg];B[ki];W[ji];B[id];W[hc];B[ff];W[gf];B[fg];W[gg];B[fh];
W[le];B[ld];W[ke];B[if];W[ig];B[rn];W[ro];B[qn];W[qo];B[rk];W[rj];B[pm];W[on];
B[op];W[pp];B[oo];W[po];B[ps];W[qs];B[os];W[rr];B[ho];W[hp];B[go];W[io];B[jn];
W[in];B[gm];W[fm];B[el];W[em];B[hm];W[im];B[gk];W[fl];B[ek];W[fk];B[ej];W[ik];
B[hk];W[fj];B[fi];W[gi];B[hi];W[gh];B[ij];W[jk];B[jj];W[kk];B[kj];W[lk];B[mj];
W[gj];B[hj];W[pk];B[ml];W[ll];B[rm];W[pl];B[om];W[ok];B[nl];W[sl])
