(;FF[4]
GM[1]
DT[2014-12-27]
PC[OGS: http://online-go.com/game/1285989]
PB[Aiooo]
PW[mlopezviedma]
BR[15k]
WR[14k]
CP[online-go.com]
RE[B+10.5]
SZ[19]
KM[6.5]
RU[japanese]
C[mlopezviedma: Hi, good game
Aiooo: hi have a good game 
]
;B[pd]
;W[dc]
;B[pq]
;W[dp]
;B[ce]
;W[de]
;B[df]
;W[ee]
;B[cd]
;W[cc]
;B[ch]
;W[gc]
;B[qo]
;W[jq]
;B[ql]
;W[nc]
;B[lc]
;W[qc]
;B[pc]
;W[qd]
;B[qe]
;W[re]
;B[rf]
;W[qf]
;B[pe]
;W[rg]
;B[rd]
;W[sf]
;B[rc]
;W[pb]
;B[qb]
;W[ob]
;B[md]
;W[nd]
;B[ne]
;W[lb]
;B[kb]
;W[mc]
;B[ld]
;W[ma]
;B[na]
;W[oe]
;B[od]
;W[of]
;B[nf]
;W[og]
;B[ng]
;W[jb]
;B[ka]
;W[jc]
;B[kc]
;W[je]
;B[ke]
;W[kf]
;B[jf]
;W[ie]
;B[jg]
;W[lf]
;B[lg]
;W[mg]
;B[kg]
;W[nh]
;B[me]
;W[mh]
;B[oh]
;W[ph]
;B[oi]
;W[pi]
;B[oj]
;W[mj]
;B[pj]
;W[ri]
;B[qi]
;W[qh]
;B[qj]
;W[mf]
;B[nb]
;W[mb]
;B[oc]
;W[oa]
;B[qa]
;W[le]
;B[jd]
;W[id]
;B[ja]
;W[ib]
;B[na]
;W[ia]
;B[pa]
;W[kd]
;B[nb]
;W[la]
;B[ck]
;W[cn]
;B[mq]
;W[jo]
;B[mn]
;W[gp]
;B[fk]
;W[gg]
;B[ji]
;W[gj]
;B[gk]
;W[hj]
;B[jk]
;W[hk]
;B[hl]
;W[il]
;B[ik]
;W[im]
;B[gl]
;W[nk]
;B[gf]
;W[hf]
;B[hg]
;W[ef]
;B[fg]
;W[dg]
;B[cf]
;W[gh]
;B[eg]
;W[dh]
;B[di]
;W[ig]
;B[hh]
;W[ih]
;B[eh]
;W[ff]
;B[ge]
;W[he]
;B[bc]
;W[bb]
;B[dd]
;W[ed]
;B[ec]
;W[fc]
;B[eb]
;W[fb]
;B[fd]
;W[gd]
;B[fe]
;W[ea]
;B[cb]
;W[ca]
;B[db]
;W[da]
;B[kl]
;W[nl]
;B[lm]
;W[om]
;B[on]
;W[cq]
;B[fp]
;W[fq]
;B[gq]
;W[hp]
;B[gr]
;W[fo]
;B[ep]
;W[eq]
;B[jr]
;W[ir]
;B[iq]
;W[ip]
;B[hn]
;W[kr]
;B[in]
;W[kn]
;B[jn]
;W[ln]
;B[mm]
;W[mo]
;B[lo]
;W[lp]
;B[no]
;W[mp]
;B[np]
;W[lq]
;B[mr]
;W[lr]
;B[rj]
;W[si]
;B[bm]
;W[bn]
;B[cm]
;W[dm]
;B[dn]
;W[en]
;B[em]
;W[do]
;B[dl]
;W[nr]
;B[nq]
;W[ms]
;B[or]
;W[qm]
;B[pm]
;W[pl]
;B[pn]
;W[rl]
;B[qk]
;W[sk]
;B[sj]
;W[rn]
;B[qn]
;W[rm]
;B[ro]
;W[pk]
;B[sn]
;W[nj]
;B[rk]
;W[ni]
;B[sl]
;W[ok]
;B[sm]
;W[ns]
;B[os]
;W[ls]
;B[fn]
;W[fm]
;B[dn]
;W[gn]
;B[bo]
;W[bp]
;B[co]
;W[cp]
;B[an]
;W[jh]
;B[li]
;W[lh]
;B[kh]
;W[kj]
;B[ki]
;W[ii]
;B[lj]
;W[lk]
;B[kk]
;W[ij]
;B[jj]
;W[ap]
;B[fj]
;W[fi]
;B[ei]
;W[gi]
;B[km]
;W[ko]
;B[nm]
;W[sd]
;B[sc]
;W[se]
;B[ab]
;W[ba]
;B[gm]
;W[el]
;B[fl]
;W[dm]
;B[sg]
;W[sh]
;B[em]
;W[fn]
;B[ek]
;W[ho]
;B[jm]
;W[ol]
;B[pf]
;W[pg]
;B[ml]
;W[mk]
;B[if]
;W[hi]
;B[ac]
;W[fa]
;B[ao]
;W[]
;B[]
C[mlopezviedma: thanks for the game
Aiooo: thx gg 
]
)