(;FF[4]
GM[1]
DT[2016-06-25]
PC[OGS: http://online-go.com/game/5651329]
PB[eikons]
PW[mlopezviedma]
BR[5k]
WR[6k]
TM[259200]OT[86400 fischer]
CP[online-go.com]
RE[B+R]
SZ[19]
KM[6.5]
RU[japanese]
C[mlopezviedma: Hi, have fun!
eikons: hey, you too
]
;B[pd]
;W[dc]
;B[de]
;W[qp]
;B[dp]
;W[ce]
;B[cf]
;W[cd]
;B[df]
;W[fc]
;B[ck]
;W[oq]
;B[qj]
;W[nc]
;B[pf]
;W[jp]
;B[lc]
;W[qc]
;B[pc]
;W[pb]
;B[ob]
;W[qb]
;B[oc]
;W[re]
;B[hq]
;W[cq]
;B[cp]
;W[dq]
;B[eq]
;W[er]
;B[fq]
;W[fr]
;B[gr]
;W[bq]
;B[bp]
;W[ds]
;B[gk]
;W[eo]
;B[ep]
;W[gp]
;B[hp]
;W[gn]
;B[in]
;W[fl]
;B[fk]
;W[hm]
;B[jk]
;W[im]
;B[hd]
;W[fe]
;B[hf]
;W[ne]
;B[ng]
;W[jc]
;B[hc]
;W[hb]
;B[ib]
;W[ic]
;B[gb]
;W[jb]
;B[ha]
;W[lb]
;B[nb]
;W[mc]
;B[ld]
;W[mb]
;B[lf]
;W[jn]
;B[qm]
;W[on]
;B[ol]
;W[qg]
;B[pg]
;W[qh]
;B[ph]
;W[pe]
;B[oe]
;W[qe]
;B[nf]
;W[cm]
;B[el]
;W[em]
;B[ed]
;W[ec]
;B[fd]
;W[dl]
;B[ek]
;W[dk]
;B[dj]
;W[ik]
;B[hk]
;W[jl]
;B[ij]
;W[il]
;B[dn]
;W[dm]
;B[en]
;W[fo]
;B[fm]
;W[fn]
;B[gl]
;W[do]
;B[jr]
;W[cn]
;B[lq]
;W[gq]
;B[am]
;W[bl]
;B[bk]
;W[al]
;B[kk]
;W[lm]
;B[ml]
;W[mm]
;B[nr]
;W[ak]
;B[bi]
;W[ci]
;B[ch]
;W[bf]
;B[bg]
;W[ll]
;B[lk]
;W[nl]
;B[nk]
;W[mk]
;B[mj]
;W[ok]
;B[ml]
;W[nm]
;B[pl]
;W[pi]
;B[qi]
;W[mk]
;B[nj]
;W[kr]
;B[jq]
;W[kq]
;B[kp]
;W[lr]
;B[lp]
;W[mr]
;B[nq]
;W[mq]
;B[mp]
;W[or]
;B[np]
;W[ns]
;B[jo]
;W[ip]
;B[io]
;W[hr]
;B[kn]
;W[lo]
;B[op]
;W[pp]
;B[oo]
;W[po]
;B[ko]
C[mlopezviedma: Thanks for the game :)
eikons: Thank you
eikons: Nearly killed the bottom to
mlopezviedma: Yeah, that was pretty close
mlopezviedma: but it was my only chance to get enough points :)
]
)