(;FF[4]
GM[1]
DT[2014-12-18]
PC[OGS: http://online-go.com/game/1247127]
PB[mlopezviedma]
PW[Françisa]
BR[14k]
WR[6k]
CP[online-go.com]
RE[W+R]
SZ[19]
KM[6.5]
RU[japanese]
C[mlopezviedma: good game!
]
;B[pd]
C[mlopezviedma: good game!
]
;W[dp]
C[Françisa: Same!
]
;B[cd]
;W[pq]
;B[po]
;W[np]
;B[qm]
;W[ec]
;B[cg]
;W[ck]
;B[hd]
;W[ee]
;B[dc]
;W[gf]
;B[eg]
;W[nc]
;B[qf]
;W[kc]
;B[oc]
;W[nd]
;B[ic]
;W[ke]
;B[if]
;W[gh]
;B[fq]
;W[hq]
;B[cq]
;W[dq]
;B[cp]
;W[co]
;B[dr]
;W[er]
;B[bo]
;W[bn]
;B[cr]
;W[eq]
;B[cn]
;W[do]
;B[bm]
;W[bp]
;B[an]
;W[fn]
;B[em]
;W[ig]
;B[jf]
;W[jg]
;B[kf]
;W[kg]
;B[lf]
;W[lg]
;B[ld]
;W[le]
;B[me]
;W[kd]
;B[mf]
;W[md]
;B[of]
;W[on]
;B[qp]
;W[fl]
;B[el]
;W[fk]
;B[ek]
;W[pl]
;B[pm]
;W[om]
;B[ol]
;W[ok]
;B[nl]
;W[pk]
;B[jp]
;W[jq]
;B[kq]
;W[jr]
;B[mq]
;W[kp]
;B[ko]
;W[lp]
;B[jm]
;W[jo]
;B[kn]
;W[no]
;B[nk]
;W[oi]
;B[qi]
;W[nh]
;B[mg]
;W[mh]
;B[li]
;W[mj]
;B[mi]
;W[nj]
;B[ll]
;W[lj]
;B[kk]
;W[kj]
;B[mn]
;W[jl]
;B[io]
;W[ip]
;B[kl]
;W[ml]
;B[mk]
;W[nm]
;B[mm]
;W[lk]
;B[ml]
;W[lm]
;B[mp]
;W[mo]
;B[lo]
;W[nq]
;B[lq]
;W[jp]
;B[il]
;W[jk]
;B[ik]
;W[jj]
;B[ho]
;W[hn]
;B[in]
;W[hm]
;B[fr]
;W[es]
;B[gp]
;W[fo]
;B[hr]
;W[gq]
;B[gr]
;W[mr]
;B[fp]
;W[fm]
;B[hp]
;W[iq]
;B[im]
;W[gj]
;B[ir]
;W[is]
;B[hs]
;W[fs]
;B[js]
;W[kr]
C[mlopezviedma: gg :)
Françisa: Thanks for the game :)
Françisa: Well played!
mlopezviedma: thanks! :D
]
)