(;FF[4]
GM[1]
DT[2016-07-28]
PC[OGS: http://online-go.com/game/5933459]
PB[hansdeutz]
PW[mlopezviedma]
BR[12k]
WR[7k]
TM[259200]OT[86400 fischer]
CP[online-go.com]
RE[W+R]
SZ[19]
KM[6.5]
RU[japanese]
C[mlopezviedma: Hi! Have fun
hansdeutz: thanks, you too!
]
;B[cp]
;W[pd]
;B[dc]
;W[pq]
;B[nc]
;W[qf]
;B[pb]
;W[de]
;B[ce]
;W[cf]
;B[cd]
;W[df]
;B[fq]
;W[dj]
;B[qo]
;W[op]
;B[rq]
;W[kq]
;B[iq]
;W[co]
;B[do]
;W[cn]
;B[dn]
;W[dm]
;B[kp]
;W[lp]
;B[jp]
;W[qm]
;B[oo]
;W[no]
;B[pp]
;W[on]
;B[po]
;W[oq]
;B[pn]
;W[pm]
;B[om]
;W[nn]
;B[qq]
;W[ol]
;B[kc]
;W[qc]
;B[hc]
;W[md]
;B[mc]
;W[kd]
;B[ld]
;W[le]
;B[lc]
;W[me]
;B[ke]
;W[kf]
;B[je]
;W[jf]
;B[ie]
;W[fm]
;B[if]
;W[jh]
;B[lo]
;W[mp]
;B[lm]
;W[ml]
;B[ll]
;W[mk]
;B[ih]
;W[ji]
;B[hg]
;W[lk]
;B[mm]
;W[nm]
;B[jg]
;W[kg]
;B[fn]
;W[en]
;B[eo]
;W[em]
;B[eh]
;W[dh]
;B[ei]
;W[di]
;B[qi]
;W[qk]
;B[pg]
;W[pf]
;B[of]
;W[oe]
;B[oh]
;W[ng]
;B[oj]
;W[og]
;B[qg]
;W[pj]
;B[pi]
;W[ni]
;B[nh]
;W[mg]
;B[mi]
;W[nj]
;B[qj]
;W[pk]
;B[rf]
;W[rh]
;B[ri]
;W[rg]
;B[qe]
;W[pe]
;B[re]
;W[oi]
;B[rk]
;W[rl]
;B[sj]
;W[ec]
;B[ed]
;W[dd]
;B[db]
;W[fo]
;B[gn]
;W[dp]
;B[ep]
;W[dq]
;B[cq]
;W[cr]
;B[dr]
;W[bp]
;B[bq]
;W[aq]
;B[br]
;W[ar]
;B[bs]
;W[bo]
;B[gm]
;W[kl]
;B[mj]
;W[nk]
;B[mh]
;W[ii]
;B[hi]
;W[hj]
;B[jr]
;W[kr]
;B[fl]
;W[cl]
;B[qb]
;W[jq]
;B[ir]
;W[ip]
;B[jn]
;W[hp]
;B[gq]
;W[in]
;B[im]
;W[jm]
;B[km]
;W[jl]
;B[io]
;W[kn]
;B[hn]
;W[ln]
;B[ko]
;W[mn]
;B[ks]
;W[lr]
;B[pr]
;W[or]
;B[ps]
;W[os]
;B[rr]
;W[fc]
;B[fd]
;W[gd]
;B[ef]
;W[eg]
;B[fg]
;W[fe]
;B[dg]
;W[ee]
;B[cg]
;W[bg]
;B[ch]
;W[be]
;B[bd]
;W[af]
;B[bb]
;W[gb]
;B[hb]
;W[hd]
;B[id]
;W[oc]
;B[ob]
;W[gl]
;B[bi]
;W[bj]
;B[eb]
;W[gk]
;B[ej]
;W[ek]
;B[pc]
;W[qd]
;B[rd]
;W[rc]
;B[sg]
;W[sd]
;B[sf]
;W[sh]
C[hansdeutz: thank you, well done!
mlopezviedma: Thank you for the game!
]
)