(;FF[4]
GM[1]
DT[2014-02-06]
PC[OGS: http://online-go.com/game/495228]
PB[mlopezviedma]
PW[seigler]
BR[15k]
WR[12k]
CP[online-go.com]
RE[W+R]
SZ[19]
KM[6.5]
RU[japanese]
C[mlopezviedma: Hi! Good game! :)
]
;B[pd]
;W[dp]
;B[pq]
;W[dd]
;B[qk]
;W[mp]
;B[oo]
;W[mn]
;B[cf]
;W[ch]
;B[ef]
;W[fd]
;B[di]
;W[ci]
;B[dj]
;W[cj]
;B[fq]
;W[dk]
;B[fi]
;W[ek]
;B[dr]
;W[cq]
;B[iq]
;W[kc]
;B[cc]
;W[cd]
;B[bd]
;W[be]
;B[bc]
;W[bf]
;B[eb]
;W[fb]
;B[ec]
;W[ed]
;B[dc]
;W[fc]
;B[nc]
;W[kq]
;B[cr]
C[seigler: ha sorry for the delayed response, good game to you too :)  
]
;W[fo]
C[mlopezviedma: No problem :)
]
;B[io]
;W[jr]
;B[ir]
;W[gf]
;B[cg]
;W[qf]
;B[qe]
;W[pf]
;B[qi]
;W[nf]
;B[om]
;W[ml]
;B[nr]
;W[fj]
;B[eh]
;W[gi]
;B[gh]
;W[fg]
;B[fh]
;W[eg]
;B[hi]
;W[gj]
;B[hh]
;W[dh]
;B[ji]
;W[qc]
;B[pc]
;W[re]
;B[rd]
;W[qd]
;B[rc]
;W[pe]
;B[qb]
;W[mr]
;B[jf]
;W[lf]
;B[li]
;W[ie]
;B[if]
;W[je]
;B[nk]
;W[nq]
;B[oq]
;W[gp]
;B[gq]
;W[hp]
;B[ip]
;W[hn]
;B[hl]
;W[in]
;B[ik]
;W[kf]
;B[fl]
;W[em]
;B[fk]
;W[ko]
;B[og]
;W[of]
;B[mg]
;W[ng]
;B[nh]
;W[oh]
C[mlopezviedma: Thanks for the game :)
rthspaz07: ok are you here?
]
)