(;FF[4]
GM[1]
DT[2016-01-27]
PC[OGS: http://online-go.com/game/3792397]
PB[mlopezviedma]
PW[Go2master]
BR[11k]
WR[5k]
CP[online-go.com]
RE[B+20.5]
SZ[19]
KM[6.5]
RU[japanese]
C[mlopezviedma: Hi, good game :)
]
;B[pd]
;W[dp]
;B[qp]
;W[dc]
;B[de]
;W[ce]
;B[cf]
;W[cd]
;B[df]
;W[fc]
;B[cj]
;W[cn]
;B[oq]
;W[qj]
;B[ql]
;W[qf]
;B[nc]
;W[rd]
;B[qc]
;W[ph]
;B[jp]
;W[oo]
;B[ol]
;W[qo]
;B[rp]
;W[pp]
;B[pq]
;W[lp]
;B[op]
;W[po]
;B[no]
;W[pm]
;B[pl]
;W[nn]
;B[mn]
;W[nm]
;B[nl]
;W[mm]
;B[ln]
;W[ko]
;B[jo]
;W[kn]
;B[lm]
;W[ml]
;B[ro]
;W[rn]
;B[qn]
;W[pn]
;B[qm]
;W[mo]
;B[np]
;W[om]
;B[km]
;W[jn]
;B[jm]
;W[in]
;B[mk]
;W[lc]
;B[rc]
;W[qe]
;B[jc]
;W[md]
;B[nd]
;W[lf]
;B[je]
;W[hc]
;B[gd]
;W[hd]
;B[he]
;W[gc]
;B[ge]
;W[id]
;B[jd]
;W[ie]
;B[jf]
;W[if]
;B[jg]
;W[lh]
;B[kj]
;W[ne]
;B[oe]
;W[nf]
;B[kh]
;W[hg]
;B[fg]
;W[li]
;B[ki]
;W[hp]
;B[lr]
;W[kq]
;B[kr]
;W[jq]
;B[cq]
;W[dq]
;B[dr]
;W[er]
;B[cr]
;W[cp]
;B[bp]
;W[bo]
;B[aq]
;W[br]
;B[bs]
;W[ar]
;B[ds]
;W[ci]
;B[di]
;W[bj]
;B[ch]
;W[bi]
;B[dj]
;W[ck]
;B[dk]
;W[cl]
;B[em]
;W[fh]
;B[gg]
;W[hh]
;B[gh]
;W[hi]
;B[gi]
;W[gj]
;B[fj]
;W[hj]
;B[oi]
;W[oh]
;B[pi]
;W[qi]
;B[gn]
;W[fq]
;B[ho]
;W[io]
;B[jr]
;W[ir]
;B[gk]
;W[go]
;B[hn]
;W[fo]
;B[bf]
;W[be]
;B[rk]
;W[rj]
;B[ib]
;W[hb]
;B[mc]
;W[ld]
;B[hf]
;W[ig]
;B[mq]
;W[lb]
;B[mb]
;W[sc]
;B[sb]
;W[sd]
;B[ra]
;W[ni]
;B[oj]
;W[nj]
;B[nk]
;W[qk]
;B[sl]
;W[im]
;B[hl]
;W[il]
;B[jk]
;W[fm]
;B[fn]
;W[el]
;B[fl]
;W[dm]
;B[gm]
;W[en]
;B[fm]
;W[dl]
;B[ek]
;W[jl]
;B[kl]
;W[ik]
;B[qd]
;W[rf]
;B[of]
;W[og]
;B[ed]
;W[fd]
;B[fe]
;W[bh]
;B[eo]
;W[dn]
;B[gp]
;W[fp]
;B[hq]
;W[ip]
;B[hr]
;W[iq]
;B[is]
;W[js]
;B[ks]
;W[gr]
;B[hs]
;W[gs]
;B[cg]
;W[jj]
;B[kk]
;W[ji]
;B[ec]
;W[eb]
;B[dd]
;W[cc]
;B[lj]
;W[pk]
;B[ok]
;W[gq]
;B[js]
;W[lq]
;B[mr]
;W[ao]
;B[mi]
;W[mh]
;B[mj]
;W[nh]
;B[kb]
;W[ma]
;B[na]
;W[la]
;B[ha]
;W[ga]
;B[ia]
;W[ka]
;B[jb]
;W[sj]
;B[sk]
;W[sm]
;B[rl]
;W[jh]
;B[kg]
;W[lg]
;B[ke]
;W[le]
;B[ae]
;W[ad]
;B[af]
;W[lo]
;B[es]
;W[ap]
;B[bq]
;W[fs]
;B[as]
;W[ag]
;B[bg]
;W[ah]
;B[pf]
;W[pg]
;B[pe]
;W[hk]
;B[hm]
;W[]
;B[]
C[mlopezviedma: thank you for the game
]
)