(;FF[4]
GM[1]
DT[2016-12-30]
PC[OGS: http://online-go.com/game/7309685]
PB[DDrop]
PW[mlopezviedma]
BR[2k]
WR[6k]
TM[259200]OT[86400 fischer]
CP[online-go.com]
RE[B+T]
SZ[19]
KM[6.5]
RU[japanese]
C[mlopezviedma: Hi, have fun :)
mlopezviedma: Hi, have fun :)
mlopezviedma: Hi, have fun :)
DDrop: Hi! Hve a nice game
DDrop: Hi! Hve a nice game
DDrop: Hi! Hve a nice game
]
;B[pd]
;W[dp]
;B[pq]
;W[dc]
;B[fq]
;W[cn]
;B[qo]
;W[ce]
;B[nc]
;W[ip]
;B[kp]
;W[eq]
;B[fp]
;W[in]
;B[do]
;W[co]
;B[cq]
;W[cp]
;B[er]
;W[pj]
;B[ql]
;W[qf]
;B[rd]
;W[np]
;B[lq]
;W[nn]
;B[kn]
;W[nl]
;B[jl]
;W[gn]
;B[ho]
;W[io]
;B[hn]
;W[hm]
;B[go]
;W[im]
;B[ll]
;W[mk]
;B[ic]
;W[dj]
;B[bq]
;W[hk]
;B[kj]
;W[ii]
;B[cf]
;W[df]
;B[cg]
;W[be]
;B[eh]
;W[dg]
;B[dh]
;W[ch]
;B[ci]
;W[bh]
;B[bi]
;W[bg]
;B[di]
)