(;FF[4]
GM[1]
DT[2017-01-12]
PC[OGS: http://online-go.com/game/7456538]
PB[thouis]
PW[mlopezviedma]
BR[6k]
WR[6k]
TM[259200]OT[86400 fischer]
CP[online-go.com]
RE[B+T]
SZ[19]
KM[6.5]
RU[japanese]
C[thouis: well hello.
thouis: have fun :)
mlopezviedma: hey! :) have fun
]
;B[pd]
C[mlopezviedma: hey! :) have fun
]
;W[dp]
;B[pq]
;W[dd]
;B[qk]
;W[nc]
;B[pf]
;W[jd]
;B[cn]
;W[fq]
;B[dk]
;W[jp]
;B[cf]
;W[pn]
;B[qo]
;W[ql]
;B[pk]
;W[qc]
;B[qd]
;W[pc]
;B[nd]
;W[mc]
;B[md]
;W[rd]
;B[re]
;W[rc]
;B[rl]
;W[pm]
;B[rm]
;W[mq]
;B[np]
;W[nn]
;B[mp]
;W[lq]
;B[mn]
;W[mm]
;B[ln]
;W[nk]
;B[ol]
;W[nm]
;B[nl]
;W[ml]
;B[lk]
;W[mk]
;B[lj]
;W[ok]
;B[pl]
;W[nh]
;B[ni]
C[mlopezviedma: Very bad choice on my part, to play like this :p
]
;W[mi]
;B[mj]
;W[oi]
;B[nj]
C[thouis: We'll see if I can profit from it
]
;W[oj]
;B[oh]
C[thouis: :(
]
)