(;FF[4]
GM[1]
DT[2013-06-16]
PC[OGS: http://online-go.com/game/1853]
PB[mlopezviedma]
PW[gyc]
BR[18k]
WR[11k]
CP[online-go.com]
RE[B+T]
SZ[19]
KM[6.5]
RU[japanese]
C[mlopezviedma: Hi, have fun!
]
;B[dd]
;W[pq]
C[gyc: enjoy
]
;B[pd]
;W[cp]
;B[qo]
;W[po]
;B[pn]
;W[oo]
;B[qp]
;W[qq]
;B[qk]
;W[mq]
;B[ep]
;W[eo]
;B[fo]
)