(;FF[4]
GM[1]
DT[2014-07-04]
PC[OGS: http://online-go.com/game/696576]
PB[nomadfarmer]
PW[mlopezviedma]
BR[15k]
WR[16k]
CP[online-go.com]
RE[B+R]
SZ[9]
KM[6.5]
RU[japanese]
C[mlopezviedma: Onegaishimasu
]
;B[ee]
;W[eg]
;B[ec]
;W[eb]
;B[db]
;W[cf]
;B[gg]
;W[gc]
;B[fb]
;W[gb]
;B[hd]
;W[fc]
;B[ea]
;W[fe]
;B[ff]
;W[de]
;B[dd]
;W[ef]
;B[ed]
;W[gf]
;B[fg]
;W[ge]
;B[hg]
;W[hf]
;B[eh]
;W[dh]
;B[fh]
;W[cd]
;B[cc]
;W[bd]
;B[bc]
;W[if]
;B[ch]
;W[dg]
;B[di]
;W[ei]
;B[fi]
;W[cg]
;B[bh]
C[mlopezviedma: Thanks for teh game
mlopezviedma: :)
nomadfarmer: thanks
]
)