(;FF[4]
GM[1]
DT[2017-02-15]
PC[OGS: http://online-go.com/game/7800900]
PB[TAB2]
PW[mlopezviedma]
BR[17k]
WR[5k]
TM[0]OT[86400 simple]
CP[online-go.com]
RE[W+T]
SZ[19]
KM[6.5]
RU[japanese]
C[mlopezviedma: Buen juego! :)
TAB2: Gracias, buen juego para ti
TAB2: Por lo general me asusta jugar en 4-4
TAB2: me han dicho que no me asuste, pero igual no resisto que me ataquen en 3-3 y me quiten la esquina
mlopezviedma: es que el problema es "apegarte" a la esquina
mlopezviedma: 4-4 es flexible, puede ganar la esquina o no
]
;B[pc]
C[TAB2: Por lo general me asusta jugar en 4-4
TAB2: me han dicho que no me asuste, pero igual no resisto que me ataquen en 3-3 y me quiten la esquina
mlopezviedma: es que el problema es "apegarte" a la esquina
mlopezviedma: 4-4 es flexible, puede ganar la esquina o no
]
;W[dp]
;B[pp]
C[TAB2: intentaré
]
;W[dd]
;B[fq]
;W[cn]
C[TAB2: El otro día me quitaron las dos esquinas y me tocó jugar a cerrar el centro, fue bastante estresante
]
;B[jp]
C[mlopezviedma: Mm, sí, lo es
]
;W[pe]
;B[nc]
;W[qc]
;B[qd]
;W[pd]
C[TAB2: En el "modo zen" se pueden leer los comentarios del chat o permanece oculto?
TAB2: Es como aislarse en profunda concentración?
]
;B[qe]
C[mlopezviedma: exacto :) muchos usuarios pedían un modo así
]
;W[qb]
C[TAB2: Esa situación parece como salvar Q17 o salvar las otras dos
TAB2: Qué haré...
TAB2: (pensando en voz alta)
mlopezviedma: :)
mlopezviedma: R16 fue agresiva, creo que nos obliga a los dos a pelear
TAB2: Sí, eso veo. He leído la recomendación de no llegar dandole puños a tu maestro, pero me es irresistible
TAB2: jeje
]
;B[pf]
C[mlopezviedma: mala recomendación, en mi opinión :)
mlopezviedma: yo diría más bien al contrario
]
;W[oc]
C[TAB2: De hecho creo que es una de las máximas de un profesional japonés: ante un jugador más fuerte, defiendete
TAB2: (pero creo que aplica para partidas en las que quieres ganar)
TAB2: Esta es para aprender
]
;B[nd]
C[mlopezviedma: exacto!
]
;W[nb]
C[TAB2: Te molestaría irme diciendo las debilidades de mis jugadas? o prefieres dejar todo eso para una revisión al final?
]
;B[kd]
C[TAB2: (extendí dos puntos porque me asusta que la piedra de O18 pueda cortar una extensión más larga; aunque sinceramente no imagino ninguna de esas secuencias, jajaja, solo intuición)
mlopezviedma: revisemos al final mejor. Pero si tenés preguntas, hacelas
TAB2: Vale, pero igual seguiré pensando en voz alta porque la idea es que conozcas mi juego con toda la transparencia posible
]
;W[qf]
C[mlopezviedma: perfecto
]
;B[qg]
;W[rf]
C[TAB2: DIablos! hago un triángulo vacío y muero
]
;B[of]
C[TAB2: Finalmente perdí ambos grupos, caramba
mlopezviedma: tranquilo, ganaste influencia
TAB2: Ahí preferí evitar tu salida al centro y proteger el corte en q13 con una escalera, pero a cambio de una segura invasión al costado derecho
TAB2: Según creo
mlopezviedma: sí, es cierto
mlopezviedma: de todas formas la invasión a la derecha no puede evitarse con una sola jugada
]
;W[qn]
C[TAB2: Decisión difícil
TAB2: Pero no veo que puedas hacer base en el sur, así que:
]
;B[rg]
;W[re]
C[TAB2: No entendí esa jugada, me la puedes explicar?
TAB2: En verdad era necesaria?
mlopezviedma: S15 ?
TAB2: Sí
TAB2: No logro verla necesaria
TAB2: Ah
TAB2: protege del atari a primera línea
TAB2: Ya lo vi
TAB2: ;)
mlopezviedma: esta jugada mata mi grupo. From move 25: S15 
mlopezviedma: ;)
]
;B[ql]
C[TAB2: O sea que hice una buena jugada en sente sin darme cuenta, jajajaja
]
;W[qq]
C[mlopezviedma: así es :D
]
;B[qp]
C[TAB2: Es el lado correcto, verdad?
TAB2: Del joseki
TAB2: Para que no te puedas apoyar en R6
TAB2: (confieso que es el único joseki que me he aprendido)
TAB2: Porque lo he padecido muchas veces, por eso detesto 4-4
]
;W[pq]
C[mlopezviedma: sí, para separar R6 ese es el lado correcto
mlopezviedma: bueno, es uno de los pocos que necesitás aprender a tu nivel. en la revisión si querés vemos los más básicos
]
;B[oq]
C[TAB2: Vale, gracias por eso. Igual creo que en el libro también debés explicar algunos, no?
mlopezviedma: joseki no, casi ninguno
mlopezviedma: creo que 3,
TAB2: Ok, entonces me encanta la propuesta de mirar algunos en la revisión
mlopezviedma: pero bueno, al principio no hace falta más en mi opinión
mlopezviedma: ok :)
]
;W[rp]
C[TAB2: Eso era lo que estaba pensando, no sé si el joseki funcione porque si cierro en S5 me cortas en R5
TAB2: veamos...
]
;B[ro]
;W[rq]
;B[qo]
C[mlopezviedma: este es otro joseki. From move 33: R5 S3 
]
;W[or]
;B[nq]
;W[nr]
;B[mq]
;W[fc]
C[TAB2: Mark5000 me enseñó que debo invadir mientras todavía no es tarde, así que:
]
;B[cg]
C[mlopezviedma: perfecto :)
]
;W[ce]
;B[ck]
;W[oo]
;B[op]
;W[ol]
;B[pj]
;W[rn]
;B[sn]
;W[pm]
;B[rm]
C[TAB2: Esa jugada fue demasiado defensiva y lenta?
TAB2: Digo, no hay muchos puntos ahí que digamos, mientras que te dejo a tus anchas para ocupar buenas posiciones centrales
mlopezviedma: Bueno, mi jugada Q7 también fue lenta y defensiva, así que es una buena reacción, creo yo
monisan: \[object Object\]
]
;W[lm]
;B[mb]
;W[ob]
;B[hc]
;W[hq]
C[TAB2: Una pinza complicada
]
;B[fp]
;W[ho]
C[TAB2: Ahora no tengo idea de cómo reaccionar ante eso. No puedo abandonar la piedra de K5 porque es la guardiana de ese territorio. Pero por otro lado: Cuál territorio?, jajaja, es triste admitir que me tienes rodeado
TAB2: Debería más bien pensar en armar dos ojos ahí, pero hay tanto en disputa en otras zonas que no me atrevo a ser tan defensivo
mlopezviedma: tranquilo. es una pelea, todavía estamos decidiendo quién rodea a quién
TAB2: Supongamos que puedo hacerte jugar ahí dentro y luego escapar
]
;B[mr]
;W[ps]
C[TAB2: una reforzadita adicional antes del intento de escape
]
;B[lo]
;W[fn]
C[TAB2: Una esquina no me caería nada mal, pensandolo bien
]
;B[dr]
C[TAB2: esa última fue una tontada, cierto?
TAB2: Aún me apego mucho a las piedras
mlopezviedma: Es un error común al principio. Vamos a ver si es un error en este caso :)
]
;W[cq]
;B[cr]
;W[br]
;B[bs]
C[TAB2: Tengo que irme. Luego continuamos. Gracias por las lecciones. Hasta la próxima!
]
;W[ar]
C[mlopezviedma: hasta luego!
]
;B[dq]
;W[bp]
;B[gr]
C[TAB2: esa jugada estuvo de más, ahí no tengo ya espacio para dos ojos, ya me di cuenta
TAB2: Habría sido de mucha utilidad en otro sector
TAB2: Por ejemplo en la vecindad: K3 o K6, digo yo
TAB2: Jugué sin antes haber leído bien
]
;W[hr]
;B[nk]
;W[ok]
C[TAB2: Me gustaría que me ayudaras con esos "golpes al hombro", supuestamente son para arrebatar territorio potencial del adversario, pero al parecer los sigo usando incorrectamente.
]
;B[nj]
C[mlopezviedma: bien, cuando termine la partida los vemos bien
]
;W[nl]
;B[dk]
;W[jn]
;B[eo]
;W[do]
;B[en]
;W[em]
;B[fo]
;W[gn]
;B[dn]
;W[dm]
;B[ep]
;W[cm]
;B[er]
;W[fk]
;B[bf]
;W[be]
;B[ae]
;W[ad]
;B[af]
;W[bc]
;B[bl]
;W[bm]
;B[am]
;W[an]
;B[ei]
;W[cf]
;B[bh]
;W[dg]
;B[dh]
;W[gi]
;B[eg]
;W[oj]
C[TAB2: Supongo que debo elegir lo más grande y a la vez lo más viable de consolidar, el territorio central o el lateral por el que tanto he peleado
TAB2: No, mejor decide tú, jeje
]
;B[oi]
;W[ni]
;B[mi]
;W[nh]
;B[mh]
;W[ng]
;B[mg]
;W[nf]
;B[gb]
;W[fb]
;B[fa]
;W[ne]
;B[me]
;W[oe]
;B[pg]
;W[ea]
;B[ga]
;W[db]
C[TAB2: Diablos. No me percaté del tiempo.
TAB2: Lo siento
TAB2: Hay forma de seguirla jugando? como en "bifurcar partida" o algo asì?
mlopezviedma: Continúa en #7843283
]
)