(;FF[4]
GM[1]
DT[2017-05-28]
PC[OGS: http://online-go.com/game/8879965]
PB[BeccaJane]
PW[mlopezviedma]
BR[?]
WR[6k]
TM[259200]OT[86400 fischer]
CP[online-go.com]
RE[W+T]
SZ[19]
KM[6.5]
RU[japanese]
;B[po]
;W[dp]
;B[op]
;W[qd]
C[mlopezviedma: Hey, forgot to salute you here. Good game!
mlopezviedma: Interesting opening choice
]
;B[jp]
C[BeccaJane: thanks
]
;W[dc]
;B[pj]
;W[di]
;B[jj]
;W[nd]
;B[gp]
;W[cn]
;B[jd]
;W[gd]
;B[gm]
;W[lq]
;B[lp]
;W[mp]
;B[np]
;W[nq]
;B[mo]
;W[oq]
;B[pq]
;W[kp]
;B[mq]
;W[mr]
;B[lo]
;W[kq]
;B[ko]
C[Totoro no Go: \[object Object\]
]
;W[jq]
;B[ip]
;W[iq]
;B[hp]
;W[hq]
;B[gq]
;W[pr]
;B[qr]
;W[or]
;B[qn]
;W[qq]
;B[qp]
;W[rq]
;B[rp]
;W[rr]
;B[sp]
;W[ce]
;B[mj]
;W[qg]
;B[gj]
;W[dl]
;B[gr]
;W[hr]
;B[gs]
;W[dr]
;B[sj]
C[BeccaJane: are you have a good game?
mlopezviedma: Yes! You are comitted to only one area. That's usually too risky :)
]
;W[lc]
;B[qc]
;W[pc]
;B[rd]
;W[pd]
;B[qb]
;W[pb]
;B[qa]
;W[pa]
;B[gg]
;W[re]
;B[sd]
;W[se]
;B[jg]
;W[lf]
;B[lg]
;W[mg]
;B[mh]
;W[ng]
;B[nh]
;W[oh]
)