(;FF[4]
GM[1]
DT[2015-11-26]
PC[OGS: http://online-go.com/game/3345951]
PB[Soy el equilibrista]
PW[mlopezviedma]
BR[15k]
WR[10k]
CP[online-go.com]
RE[W+48.5]
SZ[19]
KM[6.5]
RU[japanese]
C[mlopezviedma: Buen juego, que lo disfrutes mucho!
]
;B[pd]
C[mlopezviedma: Buen juego, que lo disfrutes mucho!
]
;W[dd]
C[Soy el equilibrista: Gracias. Igualmente.
]
;B[qo]
C[Soy el equilibrista: Ja.
Soy el equilibrista: Traté de jugar desde mi móvil y la embarré. Mi intención era jugar R4. Pero veamos qué sale de esto. 
mlopezviedma: Podés deshacer si querés
]
;W[dp]
C[Soy el equilibrista: No, trankilo
Soy el equilibrista: tranquilo.
Soy el equilibrista: Perón.
]
;B[oq]
C[Soy el equilibrista: Perdón.
Soy el equilibrista: Estoy en la mala con la redacción.
mlopezviedma: No hay problema :)
]
;W[qj]
;B[qg]
;W[qm]
;B[cg]
;W[ce]
;B[cj]
;W[jq]
;B[lq]
;W[jo]
;B[gc]
;W[jd]
C[Soy el equilibrista: Bueno. Aquí comienzo a tener problemas.
Soy el equilibrista: Por haber jugado R5 siento que tengo una debilidad en la esquina. Por otra parte, G17 tenía la intención de trabajar con C13 C10 pero ahora que está K16 la veo amenazada. Lo otro es que al mismo tiempo K16 me hace pensar que sería conveniente hacer más fuerte la esquina superior derecha. Sobre todo pensando en que si logro asegurar dos esquinas podría tener unos buenos 40 puntos. No obstante, está el problema de que C13 C10 apenas son media base. Por lo que siento que necesitaría jugar una piedra en el costado izquierdo. Sobre todo porque D4 K5 K3 se sienten bastante fuertes. Y una piedra cerca de D4 me resultaría conveniente para tener la oportunidad de reducir un poco esa influencia. 
]
;B[mc]
C[mlopezviedma: Creo que es muy pronto para empezar a pensar en términos de puntos. La esquina no es débil por R5, sino que es flexible. G17 todavía puede trabajar con C13, porque K16 también está sola.
]
;W[cn]
C[Soy el equilibrista: Pero en términos de influencia hacia el centro, pareciera que blanco tiene más potencial.
]
;B[ge]
C[mlopezviedma: Mmm... Cierto, pero después de G15 creo que está equilibrado :)
]
;W[fd]
C[Soy el equilibrista: Pero después de F16 vuelvo a quedar en la inopia.
Soy el equilibrista: Esa jugada me obliga a arreglar mi forma ( G16) 
]
;B[gd]
C[Soy el equilibrista: Bueno, eso es lo que creo. Por eso lo hice.
Soy el equilibrista: Pero ahora no sé si puede haber hecho algo mejor
]
;W[ef]
C[mlopezviedma: No hay que temer jugadas como F16. Son solamente jugadas forsozas para hacer tu grupo menos flexible, nada grave en este caso.
mlopezviedma: Es más, ahora creo que F16 fue un error
]
;B[eh]
;W[dh]
C[Soy el equilibrista: Y ahora yo estoy seguro de que E12 fue un error...
]
;B[di]
;W[dg]
;B[ch]
C[mlopezviedma: Perdón por la tardanza, son unos días un poco ocupados :/
]
;W[ei]
C[Soy el equilibrista: Tranquilo, no hay problema
]
;B[eg]
;W[df]
;B[gg]
C[Soy el equilibrista: Creo que tengo un problema y es que mis intenciones en el juego son muy evidentes.
]
;W[fi]
C[mlopezviedma: Yo cometo el mismo error :)
]
;B[gh]
;W[dj]
;B[ck]
;W[ci]
;B[bi]
;W[di]
;B[ah]
;W[bf]
;B[bg]
;W[eb]
;B[dl]
;W[hf]
;B[gf]
;W[lc]
;B[ld]
;W[kc]
;B[ih]
;W[ig]
;B[jg]
;W[jf]
;B[kg]
;W[md]
;B[nc]
C[Soy el equilibrista: Era mejor jugada para mí N16 que L13?
]
;W[me]
C[mlopezviedma: Mmm, no estoy seguro
]
;B[ng]
C[mlopezviedma: Pero creo que yo había salvado esta piedra. From move 54: M15 
mlopezviedma: habría*
Soy el equilibrista: ¿Por qué?
Soy el equilibrista: Pensaba en que me convenía más tratar de asegurar el territorio hacia la esquina. Por eso jugue P17.
mlopezviedma: Porque ahora mi grupo está a salvo, pero antes todavía corría peligro
Soy el equilibrista: Oh.
Soy el equilibrista: O sea que a eso se refieren algunos jugadores cuando me dicen que soy muy compasivo...
mlopezviedma: Es cierto que defendés tu territorio, pero atacando mi grupo podés ganar aún más territorio :) No necesariamente matándolo
mlopezviedma: Puede ser jeje
Soy el equilibrista: Pero no entiendo cómo puedo amenazar esos grupos con M15
Soy el equilibrista: Porque N17 queda desprotegida y lo más seguro es que muera.
Soy el equilibrista: Si después de que yo juegue M15 tú juegas O17, creo que no podría hacer vivir N17
mlopezviedma: Mmm ahora que lo pienso, tenés razón
mlopezviedma: Por alguna razón pensé que de todas formas podías cortar en K15
mlopezviedma: No, perdón...
mlopezviedma: Me refería a esto:
Soy el equilibrista: Bueno, si eso hubiera ocurrido. de todas maneras el grupo de N y N 17 habría avanzado bastante hacia el borde.
mlopezviedma: Algo así, quizás?. From move 54: M15 N15 K15 J15 L15 J16 O17 
Soy el equilibrista: Eso se ve bien.
Soy el equilibrista: Pero no sé si se me hubiera ocurrido.
mlopezviedma: No sé si es correcto, pero es lo que se me ocurrió a mí :)
]
;W[jh]
C[Soy el equilibrista: Creo que una de las cosas que es más interesante para mí en este momento es tratar de entender cómo piensan los otros jugadores. De hecho estaba seguro de que ibas a jugar L12. 
Soy el equilibrista: Y eso me da dolor de cabeza. 
Soy el equilibrista: Ahora no sé cómo manejar ese grupo largo y delgado que tendo en G
]
;B[ii]
C[mlopezviedma: Te entiendo... :/
mlopezviedma: Tratá de entenderlo en términos de conexión
Soy el equilibrista: No me gusta cuando termino haciendo ese tipo de construcciones
mlopezviedma: si se puede o no se puede cortar / conectar
mlopezviedma: ahí hay muchas implicancias, porque todo se ve lindo cuando uno imagina que todo está conectado
Soy el equilibrista: Jajajajajaja
mlopezviedma: Por ejemplo, yo vi la posibilidad de cortar el grupo en G12 ni bien jugaste K13
]
;W[kh]
C[Soy el equilibrista: ¿Lo que me quieres decir es que K13 no fue una jugada adecuada?
Soy el equilibrista: ¿Precisamente por el punto de corte que deja en K12?
]
;B[lg]
C[mlopezviedma: No, no digo eso
mlopezviedma: En este momento hay dos puntos de corte. From move 52: 
mlopezviedma: Lo que digo es que yo habría defendido al menos uno de ellos
mlopezviedma: pero no tomes eso como una verdad absoluta, solamente quería mostrarte que conviene pensar en términos de corte y conexión antes de pensar en el territorio
Soy el equilibrista: Ok. eso es nuevo
]
;W[lh]
C[mlopezviedma: Ganar territorio es tentador, y de hecho es genial pensar en eso porque al final el juego se trata de eso, ganar puntos. El hecho es (y yo estoy tratando de entenderlo también) que el juego es tan complejo que entran muchas cosas en consideración hasta que el territorio queda perfectamente definido
mlopezviedma: Eso nos lleva a la obligación de pelear, y ahí es donde el juego se vuelve muy fascinante
]
;B[ie]
;W[if]
C[mlopezviedma: Me encantó esa jugada :)
Soy el equilibrista: Jajajajaja
Soy el equilibrista: Estaba pensando en lo de la lucha y las conexiones...
Soy el equilibrista: Ahora no sé muy bien qué voy a hacer, pero me gustaron las posibilidades que daba. 
]
;B[ke]
;W[kf]
C[mlopezviedma: Genial!
]
;B[je]
;W[mg]
C[Soy el equilibrista: Esa no la contemplé
]
;B[mh]
;W[lf]
C[mlopezviedma: :)
mlopezviedma: Bueno, lograste separar L17!
]
;B[he]
C[mlopezviedma: Voy a almorzar y vuelvo
Soy el equilibrista: Trankilo.
Soy el equilibrista: Gracias
Soy el equilibrista: Logré separar, pero a un costo alto. Ahora N12 y O13 no pintan muy bien, y K L y M 12 tienen una buena influencia hacia el centro, sobre todo si pensamos en las piedras en R y las otras dos en K
Soy el equilibrista: Pensé que tu jugada iba a ser N14 y no M14. ¿Por qué preferiste matar en ese punto?
mlopezviedma: Porque ahora si jugás M15 no es sente
mlopezviedma: No cambia mucho en este caso, pero es costumbre :)
]
;W[qd]
;B[pe]
;W[pc]
;B[od]
;W[oc]
;B[nd]
;W[qc]
;B[nh]
;W[lj]
C[Soy el equilibrista: No sé qué hacer. Creo que ya estoy pensando de más. 
]
;B[nk]
;W[om]
;B[oj]
;W[pk]
;B[pi]
;W[qi]
;B[qh]
;W[eq]
;B[gk]
;W[qe]
;B[qf]
;W[gp]
;B[jk]
;W[kk]
;B[jm]
;W[pp]
C[mlopezviedma: Difícil pensar de más en el Go XD
]
;B[pq]
;W[qp]
;B[qq]
;W[rp]
;B[no]
;W[oo]
;B[np]
;W[nn]
;B[ln]
;W[ml]
;B[hn]
;W[hp]
C[mlopezviedma: Vuelvo enseguida
]
;B[fo]
;W[en]
;B[fm]
;W[fn]
;B[gn]
;W[go]
;B[em]
;W[dn]
;B[jn]
;W[mm]
;B[mn]
;W[rq]
;B[rr]
;W[sr]
;B[rs]
;W[fb]
;B[fc]
;W[ed]
;B[ec]
;W[dc]
;B[gb]
;W[nb]
;B[mb]
;W[oa]
;B[ka]
;W[rf]
;B[rg]
;W[se]
;B[ri]
;W[rj]
;B[sj]
;W[sk]
;B[si]
;W[rk]
;B[sg]
;W[bl]
;B[bk]
;W[bm]
;B[ek]
;W[jj]
;B[ij]
;W[jl]
;B[il]
;W[ik]
;B[hk]
;W[jk]
;B[ko]
;W[jp]
;B[kp]
;W[kr]
;B[lr]
;W[mj]
;B[nj]
;W[ak]
;B[aj]
;W[al]
;B[ol]
;W[pl]
;B[fa]
;W[db]
;B[nl]
;W[nm]
;B[mi]
;W[li]
;B[op]
;W[po]
;B[nf]
;W[mf]
;B[kq]
;W[jr]
;B[gi]
;W[io]
;B[af]
;W[ae]
;B[ag]
C[Soy el equilibrista: Así como está pierdo como por 40...
Soy el equilibrista: Esperaba que fuera un poco menos...
Soy el equilibrista: Pero bueno.
]
;W[im]
;B[hm]
;W[hl]
C[mlopezviedma: Cuando termine la revisamos, a ver qué podíamos haber hecho mejor.
]
;B[in]
;W[il]
;B[gl]
;W[ls]
;B[ms]
;W[ks]
;B[ea]
;W[da]
;B[ga]
;W[sq]
C[mlopezviedma: Cuidado con N2 :)
]
;B[qr]
C[Soy el equilibrista: No la veo tan importante. ¿Por qué podría estar en peligro?
mlopezviedma: Ahora que jugaste R2 está bien, pero antes el atari consecutivo en la segunda línea era letal
]
;W[ji]
;B[fj]
C[Soy el equilibrista: Ah
]
;W[mk]
;B[lm]
C[Soy el equilibrista: Estoy realmente distraído. Ayer y hoy han sido días bastante malos. 
Soy el equilibrista: He perdido de una forma horrible.
Soy el equilibrista: No sé qué me pasa.
]
;W[ll]
C[mlopezviedma: No digas eso. Jugaste una buena partida
Soy el equilibrista: No, de verdad. Los dos últimos días es como si hubiera olvidado la mitad de las cosas.
]
;B[ma]
;W[qb]
C[Soy el equilibrista: He estado dubitativo en las aperturas, no estoy conectando bien, estoy haciendo un mal conteo de libertades...
Soy el equilibrista: He perdido por tontadas. 
]
;B[sf]
C[mlopezviedma: A mí también me pasa todo el tiempo, pero vamos! No jugamos profesionalmente, jugamos para disfrutarlo!
]
;W[re]
C[Soy el equilibrista: Sí, lo sé. Pero no deja de ser algo frustrante tener estas recaídas.
]
;B[pj]
C[mlopezviedma: Te entiendo :)
]
;W[fe]
;B[ff]
;W[fh]
;B[fg]
;W[km]
;B[kn]
;W[kl]
;B[ne]
;W[dk]
;B[cl]
;W[cm]
;B[ej]
;W[cf]
;B[hg]
;W[le]
;B[kd]
;W[]
;B[]
C[mlopezviedma: Te parece que la revisemos en otro momento? Tengo que levantarme temprano mañana
mlopezviedma: Muchas gracias por la partida! Muy bien jugada, de verdad!
Soy el equilibrista: Trankilo. No hay problema.
Soy el equilibrista: Muchas gracias a ti por la paciencia.
mlopezviedma: \[object Object\]
Josue989: \[object Object\]
]
)