(;FF[4]
GM[1]
DT[2015-10-17]
PC[OGS: http://online-go.com/game/3057404]
PB[Gao Shan]
PW[mlopezviedma]
BR[8k]
WR[10k]
CP[online-go.com]
RE[B+T]
SZ[19]
KM[6.5]
RU[japanese]
C[mlopezviedma: Onegaishimasu!
Gao Shan: Onegaishimasu
]
;B[pd]
;W[dp]
;B[pq]
;W[po]
;B[dd]
;W[qf]
;B[nc]
;W[pj]
;B[cn]
;W[fq]
;B[bp]
;W[cm]
;B[dm]
;W[cl]
;B[bn]
;W[dn]
;B[do]
;W[en]
;B[eo]
;W[fn]
;B[fo]
;W[go]
;B[gp]
;W[gn]
;B[fp]
;W[eq]
;B[gq]
;W[df]
;B[fd]
;W[qq]
;B[qr]
;W[qp]
;B[mq]
;W[np]
;B[nq]
;W[op]
;B[jd]
;W[lp]
;B[lq]
;W[kp]
;B[kq]
;W[ir]
;B[fr]
;W[jq]
;B[mp]
;W[mo]
;B[oq]
;W[kn]
;B[of]
;W[ph]
;B[dh]
;W[ff]
;B[dk]
;W[dl]
;B[ek]
;W[fl]
;B[fk]
;W[fh]
;B[eg]
;W[ef]
;B[fg]
;W[gg]
;B[ch]
;W[ge]
;B[gd]
;W[gk]
;B[el]
;W[em]
;B[gl]
;W[hl]
;B[gj]
;W[hk]
;B[fi]
;W[hi]
;B[gh]
;W[hh]
;B[gi]
;W[hg]
;B[jg]
;W[cd]
;B[cc]
;W[dc]
;B[ed]
;W[bc]
;B[cb]
;W[be]
;B[ce]
;W[bd]
;B[db]
;W[de]
;B[jj]
;W[ji]
;B[ij]
;W[hj]
;B[ki]
;W[jh]
;B[kh]
;W[kj]
;B[ql]
;W[qk]
;B[pl]
;W[nl]
;B[ok]
;W[nj]
;B[oj]
;W[oi]
;B[nk]
;W[mk]
;B[mj]
;W[ni]
;B[ml]
;W[lk]
;B[nm]
;W[mm]
;B[qj]
;W[pk]
;B[ol]
;W[rk]
;B[pp]
;W[qn]
;B[mn]
;W[nn]
;B[on]
;W[ln]
;B[oo]
;W[no]
;B[pn]
;W[qo]
;B[ll]
;W[kl]
;B[lm]
;W[mn]
;B[rm]
)