(;FF[4]
GM[1]
DT[2016-02-27]
PC[OGS: http://online-go.com/game/4113833]
PB[Josue989]
PW[mlopezviedma]
BR[17k]
WR[11k]
CP[online-go.com]
RE[W+T]
SZ[19]
KM[6.5]
RU[japanese]
C[mlopezviedma: Buen juego, que lo disfrutes!
Josue989: buen juego
]
;B[qc]
;W[dp]
;B[dd]
;W[pp]
;B[cn]
;W[fq]
;B[bp]
;W[cq]
;B[ck]
;W[fc]
;B[ec]
;W[fd]
;B[df]
;W[jd]
;B[pn]
;W[np]
;B[qp]
;W[qq]
;B[qo]
;W[jp]
;B[ld]
;W[kc]
;B[lc]
;W[qh]
;B[qj]
;W[qe]
;B[od]
;W[oh]
;B[oj]
;W[cc]
;B[dc]
;W[ch]
;B[cg]
;W[dj]
;B[di]
;W[ce]
;B[bf]
;W[dh]
;B[ei]
;W[cf]
C[mlopezviedma: Estás?
Josue989: perdon se me fue el internet
mlopezviedma: Me imaginé :)
]
;B[dg]
;W[be]
;B[bg]
;W[cb]
;B[cd]
;W[bd]
;B[db]
;W[ab]
;B[de]
;W[bi]
;B[cj]
;W[eh]
;B[fh]
;W[eg]
;B[ef]
;W[fg]
;B[ff]
;W[gf]
;B[bh]
;W[ci]
;B[ge]
;W[hf]
;B[fe]
;W[gb]
;B[he]
;W[ie]
;B[hc]
;W[hb]
;B[ic]
;W[jb]
;B[jc]
;W[ib]
;B[kd]
;W[kb]
;B[je]
;W[jf]
;B[id]
C[Josue989: creo que me salve
]
;W[lb]
C[mlopezviedma: Sí, fue mi error tratar de capturar tu grupo a toda costa
]
;B[mb]
;W[fb]
;B[fi]
;W[gg]
;B[fk]
;W[rd]
C[Josue989: tratar de capturar grupos grandes es arriesgado verdad?
mlopezviedma: Sí, en general sí, hay que usar el ataque para otro propósito
mlopezviedma: Pero en este caso yo estaba convencido que lo podía capturar :)
Josue989: yo también estaba convencido
]
;B[mh]
;W[pc]
C[mlopezviedma: Es muy probable que me haya equivocado
mlopezviedma: en alguna jugada
Josue989: porque?
mlopezviedma: José se decepcionó :P
mlopezviedma: Es mi humilde instinto. Después lo vemos
mlopezviedma: nos sacamos la duda :)
Josue989: ok
]
;B[pd]
;W[pb]
;B[qd]
;W[qb]
;B[rc]
;W[nb]
;B[ma]
;W[nc]
;B[mc]
;W[nd]
;B[ne]
;W[me]
;B[nf]
;W[md]
;B[lf]
;W[le]
C[José Castanys: No, que va, aun no tengo nivel ni para ver los errores, he repasado la secuencia del jugadas 70-77 y yo no lo he visto hasta demasiado tarde.
]
;B[ke]
C[Josue989: voy a perder por tiempo agotado
]
;W[kf]
C[mlopezviedma: oh
mlopezviedma: :/
mlopezviedma: Se estaba poniendo interesante
Josue989: queria saber quien ganaba el semeai
Josue989: de todos modos fue un buen juego
mlopezviedma: Sí, es una carrera bastante complicada
mlopezviedma: Creo que estoy con la ventaja de poder hacer más ojos 
Josue989: si
mlopezviedma: José Castanys: No hay problema, podés hacer preguntas de todas formas
Josue989: en la jugada de n19 fue muy arriegado
mlopezviedma: Tendría que haber jugado acá, creo. Más seguro y severo. From move 57: G13 
Josue989: debí sedertelo y jugar mas defensivo
mlopezviedma: Creí que me íbas a dar esas piedras, sí
Josue989: queria ver que pasaba
mlopezviedma: Está bien, peleando se aprende :)
mlopezviedma: Jugás muy bien para tu nivel
Josue989: :)
Josue989: gracias
Josue989: pesaba en hacer un ko
mlopezviedma: Es más, me cuesta encontrar errores, encuentro errores míos en cambio :)
Josue989: a mi me pasaba lo mismo
mlopezviedma: D10 fue un error claro, pero lo hice para ver cómo reaccionabas
mlopezviedma: Y creo que podrías haber atacado mi grupo P12 R12 R15 con más severidad
Josue989: enseñame?
Josue989: no se me ocurría nada
mlopezviedma: Acá por ejemplo, te dí sente. Podías haberlo aprovechado. From move 82: 
Josue989: tienes razón 
Josue989: me tenia preocupado el territorio del sector inferior
mlopezviedma: Podés elegir entre atacarlo desde abajo para quitarle la base ( S14 por ejemplo) o desde arriba para atacar K14 indirectamente
mlopezviedma: Bueno, el lado inferior no es territorio sólido todavía
mlopezviedma: creo que si llegamos hasta ahí peleando, podés reducir bastante
mlopezviedma: De verdad, fue una partida muy interesante
mlopezviedma: José Castanys: tenés alguna pregunta?
mlopezviedma: Josue989: Perdoname que no pueda aportar mucho más, estoy compartiendo opiniones, más que enseñando. Jeje
Josue989: no importa
Josue989: las opiniones de los que observan pueden ser interesantse
mlopezviedma: Sí. Muy cierto
Josue989: este ko es valido o blanco puede tratar de evitarlo?. From move 104: J14 J13 E16 
Josue989: ...
mlopezviedma: No te conviene iniciarlo, porque con rellenar ya estás vivo (A y B forman otro ojo). From move 104: J14 J13 J15 
Josue989: je, no note g16
mlopezviedma: :)
Josue989: sobre el sector inferior, un ataque en h3 funciona?
mlopezviedma: Sí, ahora que F9 es fuerte, más que nada
mlopezviedma: Hasta J4 creo que puede funcionar
mlopezviedma: Y tenés la amenaza P3 en la esquina, creo
Josue989: no sé como continuar
mlopezviedma: Yo tampoco :P
mlopezviedma: jaja
Josue989: :P
mlopezviedma: pero que inicia una pelea, segurpo
mlopezviedma: seguro
mlopezviedma: y cualquier pelea te conviene si es mi potencial
mlopezviedma: F9y Q6 son ambos fuertes
mlopezviedma: F9
mlopezviedma: Bueno, al parecer José no tiene preguntas 
Josue989: me gustaria continuar pero me tengo que ir
Josue989: puedes revisar esta partida mañana?
Josue989: o vas a estar ocupado?
mlopezviedma: No sé si tengo mucho para revisar
Josue989: o lo vas a revisar ahora?
mlopezviedma: Podría revisarla, sí
mlopezviedma: ahora también tendría que irme, pero ni bien la haya revisado te aviso, te parece?
Josue989: si
mlopezviedma: bien, espero encontrar algo ;)
Josue989: gracias por la partida
mlopezviedma: muchas gracias!
mlopezviedma: fue un placer!
Josue989: hasta luego
mlopezviedma: nos vemos!
mlopezviedma: José Castanys: también, si tenés alguna pregunta, no dudes en buscarme, por mensaje privado o por el canal español en https://online-go.com/chat
mlopezviedma: saludos!
José Castanys: tiene el blanco aun proyección hacia el centro o le cerraria negro por el este y el oeste?
José Castanys: gracias :)
José Castanys: mmmm. muchas y ninguna :D llevo poco jugando y me falta base
José Castanys: lo cierto es que he seguido la partida solo por encima, no estaba 100% en ella.
José Castanys: jugando negro en p3?? 
José Castanys:  gracias
VicentBG: \[object Object\]
]
)