(;FF[4]
GM[1]
DT[2016-06-17]
PC[OGS: http://online-go.com/game/5577807]
PB[FlamingSwordOfBodine]
PW[mlopezviedma]
BR[3k]
WR[6k]
TM[259200]OT[86400 fischer]
CP[online-go.com]
RE[B+R]
SZ[19]
KM[6.5]
RU[japanese]
C[mlopezviedma: Hello, have fun :)
FlamingSwordOfBodine: Likewise
]
;B[qd]
C[FlamingSwordOfBodine: Likewise
]
;W[dc]
;B[dp]
;W[pq]
;B[de]
;W[ce]
;B[dd]
;W[cd]
;B[ec]
;W[cc]
;B[eb]
;W[df]
;B[ef]
;W[dg]
;B[eg]
;W[nd]
;B[ld]
;W[pc]
;B[qc]
;W[pb]
;B[nc]
;W[mc]
;B[md]
;W[nb]
;B[lc]
;W[oc]
;B[po]
;W[pl]
;B[np]
;W[oo]
;B[op]
;W[pp]
;B[no]
;W[on]
;B[iq]
;W[qf]
;B[dk]
;W[bo]
;B[cn]
;W[cq]
;B[cp]
;W[bp]
;B[dq]
;W[cr]
;B[dr]
;W[bn]
;B[cm]
;W[bm]
;B[nn]
;W[om]
;B[ni]
;W[pi]
;B[nm]
;W[io]
;B[kp]
;W[gp]
;B[hp]
;W[ho]
;B[go]
;W[gn]
;B[fo]
;W[il]
;B[jj]
;W[fn]
;B[eo]
;W[nr]
;B[or]
;W[oq]
;B[mr]
;W[nq]
;B[mq]
;W[gk]
;B[gi]
;W[fi]
;B[fh]
;W[gh]
;B[hi]
;W[hh]
;B[ii]
;W[fj]
;B[gg]
;W[hg]
;B[hf]
;W[gf]
;B[fg]
;W[ee]
;B[fe]
;W[ed]
;B[fd]
;W[eh]
;B[ff]
;W[di]
;B[ig]
;W[cl]
;B[dl]
;W[dm]
;B[em]
;W[dn]
;B[en]
;W[co]
;B[cj]
;W[el]
;B[fl]
;W[ek]
;B[gl]
;W[hk]
;B[hl]
;W[hm]
;B[fm]
;W[fk]
;B[ik]
;W[jl]
;B[jn]
;W[jk]
;B[ij]
;W[lk]
;B[im]
;W[jm]
;B[in]
;W[kn]
;B[jo]
;W[nk]
;B[nl]
;W[mk]
;B[ol]
;W[pm]
;B[ok]
;W[mi]
;B[nh]
;W[mh]
;B[ng]
;W[jh]
;B[ih]
;W[mp]
;B[lo]
;W[ln]
;B[mn]
;W[ko]
;B[jp]
;W[kj]
;B[ll]
;W[km]
;B[lm]
;W[kk]
;B[kg]
;W[mg]
;B[nf]
;W[mf]
;B[me]
;W[kf]
;B[jf]
;W[lg]
;B[kh]
;W[ke]
;B[jd]
;W[kd]
;B[kc]
;W[jc]
;B[je]
;W[ne]
;B[oj]
;W[lf]
;B[jb]
;W[ic]
;B[ib]
;W[hc]
;B[hb]
C[mlopezviedma: Thanks for the game!
]
)