(;FF[4]
GM[1]
DT[2014-07-17]
PC[OGS: http://online-go.com/game/727987]
PB[Adrion]
PW[mlopezviedma]
BR[19k]
WR[16k]
CP[online-go.com]
RE[B+R]
SZ[9]
KM[5.5]
RU[japanese]
C[mlopezviedma: Good game
]
;B[gg]
C[mlopezviedma: Good game
]
;W[gc]
C[Adrion: You too
]
;B[ge]
;W[ed]
;B[cc]
;W[dc]
;B[cb]
;W[cg]
;B[eb]
;W[fb]
;B[ce]
;W[ec]
;B[db]
;W[ff]
;B[fg]
;W[eg]
;B[eh]
;W[dh]
;B[ef]
;W[dg]
;B[fe]
;W[fh]
;B[gh]
;W[ei]
;B[bf]
;W[bg]
;B[hd]
;W[hc]
;B[ha]
;W[ga]
;B[hb]
;W[ic]
;B[fd]
;W[fc]
;B[df]
C[mlopezviedma: Thanks for the game :)
Adrion: Thanks you too :\]
]
)