(;FF[4]
GM[1]
DT[2017-06-22]
PC[OGS: http://online-go.com/game/9164347]
PB[Xorg]
PW[mlopezviedma]
BR[9k]
WR[7k]
TM[259200]OT[86400 fischer]
CP[online-go.com]
RE[B+R]
SZ[19]
KM[6.5]
RU[japanese]
C[Xorg: hi, gg
mlopezviedma: hi again, gg
]
;B[pd]
C[mlopezviedma: hi again, gg
]
;W[dp]
;B[pp]
;W[dc]
;B[jq]
;W[nc]
;B[qf]
;W[jd]
;B[ce]
;W[ch]
;B[bc]
;W[ee]
;B[bg]
;W[df]
;B[cf]
;W[dg]
;B[gd]
;W[if]
;B[ec]
;W[db]
;B[dd]
;W[ed]
;B[fc]
;W[ib]
;B[eb]
;W[gf]
;B[cn]
;W[cl]
;B[cq]
;W[cp]
;B[bp]
;W[bo]
;B[bq]
;W[co]
;B[dq]
;W[ep]
;B[en]
;W[go]
;B[dl]
;W[dk]
;B[el]
;W[ek]
;B[cm]
;W[ck]
;B[gm]
;W[gk]
;B[im]
;W[eq]
;B[er]
;W[bm]
;B[bn]
;W[an]
;B[ap]
;W[ao]
;B[mq]
;W[qk]
;B[qi]
;W[qn]
;B[ro]
;W[ok]
;B[ho]
;W[hp]
;B[io]
;W[fl]
;B[gn]
;W[ik]
;B[nf]
;W[pb]
;B[qc]
;W[op]
;B[oq]
;W[pq]
;B[qq]
;W[nq]
;B[pr]
;W[np]
;B[nr]
;W[po]
;B[qo]
;W[pn]
;B[em]
;W[mp]
;B[lq]
;W[ip]
;B[jp]
;W[fr]
;B[dr]
;W[gq]
;B[fo]
;W[gp]
;B[ji]
C[mlopezviedma: ;)
mlopezviedma: ;)
mlopezviedma: ugh, sorry about that, I was testing https://chrome.google.com/webstore/detail/ogs-quick-chat/pfdlfimgcicfminhficpnefliablnmak/related
]
;W[kk]
;B[ni]
;W[li]
;B[lh]
;W[kh]
;B[ki]
;W[lg]
;B[mh]
;W[lj]
;B[kg]
;W[lf]
;B[jg]
;W[ih]
;B[jh]
;W[ko]
;B[jo]
;W[ng]
;B[mg]
;W[og]
;B[oi]
;W[ne]
;B[oe]
;W[mf]
;B[of]
;W[nd]
;B[mk]
;W[mj]
;B[nj]
;W[nk]
;B[km]
;W[lm]
;B[kn]
;W[ln]
;B[lo]
;W[mo]
;B[lp]
;W[bb]
;B[cc]
;W[qb]
;B[rb]
;W[pc]
;B[rd]
;W[od]
;B[pf]
;W[gb]
;B[id]
;W[ic]
;B[ie]
;W[je]
;B[ge]
;W[hf]
;B[ii]
;W[hh]
;B[bh]
;W[bi]
;B[rj]
;W[de]
;B[cd]
;W[gc]
;B[fd]
;W[cb]
;B[ab]
;W[ea]
;B[fa]
;W[fb]
;B[da]
;W[hd]
;B[he]
;W[fe]
;B[hc]
;W[hb]
;B[ba]
;W[ra]
;B[hi]
;W[gi]
;B[hr]
;W[rn]
;B[mn]
;W[mm]
;B[nn]
;W[oo]
;B[kl]
;W[jl]
;B[jm]
;W[rk]
;B[qj]
;W[pj]
;B[pi]
;W[iq]
;B[ir]
;W[fm]
;B[fn]
;W[so]
;B[rp]
;W[sp]
;B[sq]
;W[sn]
;B[oj]
;W[es]
;B[ds]
;W[fs]
;B[fp]
;W[fq]
;B[pk]
;W[pl]
;B[ol]
;W[nl]
;B[om]
;W[pj]
;B[bl]
;W[am]
;B[pk]
;W[hd]
;B[ca]
;W[pj]
;B[kf]
;W[ke]
;B[pk]
;W[ar]
;B[br]
;W[pj]
;B[le]
;W[me]
;B[pk]
;W[rq]
;B[rr]
;W[pj]
;B[cg]
;W[pk]
;B[ci]
;W[di]
;B[dh]
;W[eh]
;B[ch]
;W[ei]
;B[bj]
;W[bk]
;B[ai]
;W[ll]
;B[il]
;W[jk]
;B[gl]
;W[fk]
;B[hk]
C[mlopezviedma: I don't see how to recover. Thanks for the game!
Xorg: thanks
]
)