(;FF[4]
GM[1]
DT[2014-08-01]
PC[OGS: http://online-go.com/game/765052]
PB[mlopezviedma]
PW[TheKid (GnuGo lvl1)]
BR[13k]
WR[11k]
CP[online-go.com]
RE[W+16.5]
SZ[19]
KM[0.5]
RU[japanese]
HA[2]
AB[pd][dp]
;W[dc]
;B[pq]
;W[cn]
;B[fq]
;W[bp]
;B[cq]
;W[ck]
;B[qo]
;W[ce]
;B[jc]
;W[qf]
;B[nd]
;W[qi]
;B[jp]
;W[ql]
;B[pg]
;W[rd]
;B[qc]
;W[qg]
;B[pi]
;W[pj]
;B[oi]
;W[ol]
;B[oo]
;W[hc]
;B[ie]
;W[ml]
;B[mi]
;W[gg]
;B[ig]
;W[mn]
;B[mp]
;W[rc]
;B[qb]
;W[pf]
;B[og]
;W[hi]
;B[ji]
;W[en]
;B[ho]
;W[he]
;B[id]
;W[hd]
;B[gk]
;W[fj]
;B[fk]
;W[jm]
;B[gm]
;W[rn]
;B[ro]
;W[qn]
;B[pn]
;W[bq]
;B[cr]
;W[pm]
;B[om]
;W[nm]
;B[on]
;W[ib]
;B[jb]
;W[so]
;B[sp]
;W[sn]
;B[rq]
;W[rb]
;B[ek]
;W[ej]
;B[dm]
;W[dn]
;B[dl]
;W[bm]
;B[hf]
;W[gf]
;B[fo]
;W[qa]
;B[pa]
;W[ra]
;B[ob]
;W[ja]
;B[ka]
;W[ia]
;B[lb]
;W[br]
;B[ic]
;W[hb]
;B[km]
;W[kl]
;B[kn]
;W[jk]
;B[lj]
;W[cs]
;B[ds]
;W[bs]
;B[er]
;W[lo]
;B[lp]
;W[ko]
;B[jn]
;W[im]
;B[in]
;W[kj]
;B[ki]
;W[nj]
;B[ni]
;W[oj]
;B[qh]
;W[rh]
;B[ph]
;W[ri]
;B[kp]
;W[hh]
;B[ih]
;W[of]
;B[nf]
;W[oe]
;B[od]
;W[ne]
;B[me]
;W[hg]
;B[if]
;W[fn]
;B[gn]
;W[dk]
;B[cl]
;W[bl]
;B[em]
;W[fm]
;B[fl]
;W[gj]
;B[hl]
;W[eo]
;B[ep]
;W[mk]
;B[mj]
;W[jo]
;B[io]
;W[il]
;B[hk]
;W[hm]
;B[hn]
;W[ik]
;B[ij]
;W[lm]
;B[hj]
;W[lk]
;B[jj]
;W[kk]
;B[co]
;W[bo]
;B[mo]
;W[ln]
;B[nn]
;W[mf]
;B[ng]
;W[cp]
;B[do]
;W[md]
;B[le]
;W[cm]
;B[el]
;W[qd]
;B[pc]
;W[pe]
;B[lg]
;W[ii]
;B[]
;W[]
)