(;FF[4]
GM[1]
DT[2013-05-27]
PC[OGS: http://online-go.com/game/1484]
PB[mlopezviedma]
PW[tarmin]
BR[20k]
WR[20k]
CP[online-go.com]
RE[B+T]
SZ[19]
KM[6.5]
RU[japanese]
C[mlopezviedma: Hi! Have fun! =)
]
;B[pc]
;W[dp]
C[tarmin: Have a good game!
]
;B[dd]
;W[qe]
;B[nd]
;W[qc]
;B[qb]
;W[pd]
;B[rc]
;W[qd]
;B[od]
;W[pp]
;B[qj]
;W[qh]
;B[qm]
;W[cf]
;B[ch]
;W[ef]
;B[fd]
;W[di]
;B[ci]
;W[dj]
;B[fq]
;W[cn]
;B[dr]
;W[cq]
;B[iq]
;W[mq]
;B[bd]
;W[jc]
;B[mc]
;W[gc]
;B[fc]
;W[gb]
;B[fb]
;W[lb]
;B[mb]
;W[cj]
;B[bf]
;W[dg]
;B[cg]
;W[fo]
;B[io]
;W[he]
;B[fn]
C[mlopezviedma: Oh, missclick!
mlopezviedma: )*
mlopezviedma: =(
]
;W[en]
C[tarmin: Rats, I hate misclicks. I haven't been able to find a "take back" feature. If you know of one, I'd give it to you.
mlopezviedma: No, there isn't :(
]
;B[fm]
;W[em]
;B[go]
;W[fp]
;B[gp]
;W[eq]
;B[fr]
;W[fl]
;B[gl]
;W[fk]
;B[gk]
;W[gj]
;B[hj]
C[mlopezviedma: They just implemented takebacks. =)
]
;W[gm]
C[tarmin: yay!
]
;B[gn]
;W[hk]
;B[hm]
;W[hi]
;B[ij]
;W[ii]
;B[jj]
;W[om]
;B[rp]
;W[qq]
;B[lp]
;W[lq]
;B[kq]
;W[kr]
;B[jq]
;W[pb]
;B[oc]
;W[rb]
;B[ob]
;W[qa]
;B[of]
;W[oh]
;B[mf]
;W[kf]
;B[kh]
;W[lg]
;B[lh]
;W[mg]
;B[ji]
;W[mp]
;B[lo]
;W[mn]
;B[ln]
;W[mm]
;B[ll]
;W[lm]
;B[km]
;W[ml]
;B[lk]
;W[rq]
;B[ro]
;W[lc]
;B[le]
;W[ke]
;B[ld]
;W[kd]
;B[ih]
;W[hh]
;B[hg]
;W[fi]
;B[ce]
C[tarmin: ah well, thanks for the game!
mlopezviedma: Oh =(
mlopezviedma: Good game
]
)