(;FF[4]
GM[1]
DT[2018-01-16]
PC[OGS: http://online-go.com/game/11303424]
PB[nglenghu]
PW[mlopezviedma]
BR[2k]
WR[8k]
TM[259200]OT[86400 fischer]
CP[online-go.com]
RE[B+R]
SZ[19]
KM[6.5]
RU[japanese]
C[nglenghu: Hi gg
mlopezviedma: Hi, have fun!
]
;B[qd]
C[nglenghu: Hi gg
mlopezviedma: Hi, have fun!
]
;W[dd]
;B[pp]
;W[dq]
;B[fc]
;W[cf]
;B[lc]
;W[nq]
;B[qn]
;W[jp]
;B[cn]
;W[do]
;B[dn]
;W[eo]
;B[en]
;W[ci]
;B[ei]
;W[nd]
;B[pc]
;W[qq]
;B[pq]
;W[pr]
;B[or]
;W[qr]
;B[oq]
;W[ro]
;B[rn]
;W[qo]
;B[po]
;W[qp]
;B[om]
;W[pi]
;B[qg]
;W[ql]
;B[qj]
;W[pk]
;B[pj]
;W[nk]
;B[oj]
;W[ok]
;B[mm]
;W[nj]
;B[oi]
;W[lk]
;B[km]
;W[lh]
;B[lf]
;W[ng]
;B[mh]
;W[mg]
;B[lg]
;W[nh]
;B[kh]
;W[li]
;B[ni]
;W[mi]
;B[fe]
;W[gd]
;B[gc]
;W[id]
;B[hd]
;W[he]
;B[hc]
;W[ge]
;B[fd]
;W[ig]
;B[ji]
;W[hi]
;B[jk]
;W[hk]
;B[hn]
;W[ek]
;B[fk]
;W[ej]
;B[fj]
;W[fi]
;B[gi]
;W[fh]
;B[gh]
;W[fg]
;B[gg]
;W[gj]
;B[gk]
;W[hj]
;B[ff]
;W[eg]
;B[gf]
;W[fm]
;B[gl]
;W[hm]
;B[el]
;W[fl]
;B[dj]
;W[dk]
;B[ck]
;W[hl]
;B[dl]
;W[gm]
;B[ih]
;W[go]
;B[me]
;W[oc]
;B[pb]
;W[ne]
;B[mc]
;W[jj]
;B[kj]
;W[ij]
;B[kk]
;W[ki]
;B[hh]
;W[nm]
;B[nn]
;W[nl]
;B[lq]
;W[mn]
;B[ln]
;W[mo]
;B[lo]
;W[no]
;B[on]
;W[nr]
;B[ns]
;W[ms]
;B[os]
;W[lr]
;B[mq]
;W[mr]
;B[kq]
;W[kr]
;B[jq]
;W[jr]
;B[iq]
C[nglenghu: consider carefully . you can survive
mlopezviedma: gee, I can't imagine how
nglenghu: try to find it
nglenghu: you have time to play
nglenghu: normally
nglenghu: 1. From move 119: N4 
nglenghu: this is better 
nglenghu: because my weak stone at M3
mlopezviedma: I see
nglenghu: 2. From move 119: N4 M4 O2 O1 N1 P1 N2 
nglenghu: I have to let your group survive for this situation
nglenghu: 3. From move 119: N4 O2 M4 L3 L4 J2 
nglenghu: by this 
nglenghu: Otherwise my bottom and middle group will die
mlopezviedma: Maybe jump to H2 ? I don't see a way to counterattack; N5 isn't even connected
mlopezviedma: Isn't the middle dead in variant 3?
nglenghu: not yet 
nglenghu: it can be some aji
nglenghu: But if it dead . not so big for me
mlopezviedma: yeah, true
nglenghu: now 
nglenghu: in true game 
nglenghu: we have to count our group liberty
nglenghu: You have time to do that
nglenghu: And you can decide your choice
nglenghu: first .  Count liberty
mlopezviedma: what's the point of counting liberties if you have room to scape but I don't?
nglenghu: your bottom group have one eye but my group don't have eye
nglenghu: I cannot connect at S8
mlopezviedma: hm
nglenghu: 4. From move 132: S8 Q7 Q6 S9 R9 S10 
nglenghu: 5. From move 132: S8 S9 R9 S7 Q8 R7 Q7 T8 T6 T7 S10 T5 Q6 T10 
nglenghu: This Ko not good for me
nglenghu: So one way for me  
nglenghu: It is fight with your K2- O3  group 
nglenghu: Consider carefully  . I will be back
mlopezviedma: hm... So I saw a way to win the race just connecting directly
nglenghu: think carefully . 
nglenghu: you can use "Analyze game button" to check the result 
nglenghu: I see two way  to connect your middle group
nglenghu: from the beginning you can play like this
nglenghu: 6. From move 35: Q10 R9 Q9 Q8 Q15 R15 Q13 Q14 P14 R14 R11 S8 O11 
nglenghu: may be better than actual game
nglenghu: sorry  . should play from this 
nglenghu: 7. From move 35: Q10 R9 Q9 Q8 R11 S8 Q15 R15 Q13 Q14 P14 R14 O11 
nglenghu: or cut my  R10 stone 
nglenghu: 8. From move 35: R11 Q10 P10 Q9 P9 Q8 O12 
mlopezviedma: riiight, I see
mlopezviedma: gee... I don't see it
mlopezviedma: :/
nglenghu: thank
nglenghu: 9. From move 133: O4 J2 Q6 Q7 R7 K1 L1 J1 S7 T6 T5 
nglenghu: play from VAR9  . I cannot connect at Q6 . Otherwise my liberty will less than your group
nglenghu: 10. From move 133: O4 J2 Q6 Q7 R7 K1 L1 J1 S7 T6 T5 Q6 Q1 N4 T7 P5 Q8 
nglenghu: So . I have to let you connect your group
nglenghu: Sorry Var 10 is mistake  . See at Var 11
nglenghu: 11. From move 133: O4 J2 Q6 Q7 R7 K1 L1 J1 S7 T6 T5 N4 T7 Q6 Q1 P5 Q8 
nglenghu: Black cannot atari at P4
nglenghu: now you can connect your group at right corner
nglenghu: 12. From move 133: O4 J2 Q6 Q7 R7 K1 L1 J1 S7 T6 T5 N4 T7 P5 Q1 C17 
nglenghu: But after that  your top left corner will be invaded
nglenghu: I should play M 4  at move 119  
nglenghu: 13. From move 118: M4 
nglenghu: you cannot cut  like this
nglenghu: 14. From move 118: M4 M5 L5 L4 O4 O5 P6 N4 N3 P4 P5 
nglenghu: So IF I play  M 4  , the way for connect your group is 
nglenghu: 15. From move 118: M4 M8 L8 M7 M5 O5 O2 P6 
nglenghu: sorry you cannot connect . But Can survive like in Var 15
nglenghu: I cannot fight like this . all my group will dead
nglenghu: 16. From move 118: M4 M8 L8 M7 M5 O5 P6 O2 
]
)