(;FF[4]
GM[1]
DT[2017-07-23]
PC[OGS: http://online-go.com/game/9470415]
PB[mlopezviedma]
PW[joerg]
BR[7k]
WR[2k]
TM[259200]OT[86400 fischer]
CP[online-go.com]
RE[B+R]
SZ[19]
KM[6.5]
RU[japanese]
C[mlopezviedma: Hi, have fun
joerg: hi, you too
]
;B[pd]
C[joerg: hi, you too
]
;W[dp]
;B[qp]
;W[dd]
;B[nq]
;W[qj]
;B[cf]
;W[fc]
;B[dj]
;W[cl]
;B[fq]
;W[dq]
;B[ql]
;W[qf]
;B[jp]
;W[rd]
;B[qh]
;W[of]
;B[oh]
;W[nd]
;B[pk]
;W[pj]
;B[oj]
;W[rh]
;B[rg]
;W[qg]
;B[ri]
;W[ph]
;B[qi]
;W[pi]
;B[rj]
;W[el]
;B[nc]
;W[oc]
;B[mc]
;W[od]
;B[jc]
;W[ch]
;B[dh]
;W[ci]
;B[dg]
;W[di]
;B[bd]
;W[cc]
;B[ei]
;W[cj]
;B[ej]
;W[hq]
;B[hp]
;W[iq]
;B[ip]
;W[jq]
;B[kq]
;W[gq]
;B[gp]
;W[fr]
;B[kr]
;W[jr]
;B[oi]
;W[pg]
;B[ol]
;W[hl]
;B[jl]
;W[hc]
;B[je]
;W[he]
;B[gg]
;W[hg]
;B[hh]
;W[gf]
;B[gh]
;W[ff]
;B[ig]
;W[hf]
;B[jg]
;W[jk]
;B[kk]
;W[jj]
;B[il]
;W[hj]
;B[ii]
;W[hk]
;B[fp]
;W[kj]
;B[lk]
;W[eh]
;B[eg]
;W[fh]
;B[fg]
;W[fi]
;B[gj]
;W[fk]
;B[fj]
;W[hn]
;B[er]
;W[gr]
;B[eq]
;W[hs]
;B[fs]
C[mlopezviedma: Thanks for the game!
]
)