(;FF[4]
GM[1]
DT[2015-07-14]
PC[OGS: http://online-go.com/game/2414510]
PB[murakoshi]
PW[mlopezviedma]
BR[12k]
WR[13k]
CP[online-go.com]
RE[B+R]
SZ[9]
KM[5.5]
RU[japanese]
C[mlopezviedma: hi good game :)
murakoshi: you too
]
;B[gd]
C[mlopezviedma: hi good game :)
murakoshi: you too
]
;W[cd]
;B[fg]
;W[dg]
;B[ec]
;W[dc]
;B[ed]
;W[ef]
;B[ff]
;W[ee]
;B[dd]
;W[db]
;B[de]
;W[cf]
;B[ce]
;W[be]
;B[bd]
;W[fe]
;B[ge]
;W[fd]
;B[fc]
;W[eb]
;B[fb]
;W[bc]
;B[cc]
;W[cb]
;B[bf]
;W[bg]
;B[ae]
;W[ac]
;B[df]
;W[eg]
;B[cg]
;W[ch]
;B[cf]
;W[eh]
;B[fh]
;W[bh]
;B[di]
;W[ag]
;B[ba]
;W[ei]
;B[fi]
;W[dh]
;B[ea]
;W[ad]
;B[cd]
;W[bb]
;B[aa]
C[mlopezviedma: thanks for the game
murakoshi: Thank you
]
)