(;FF[4]
GM[1]
DT[2017-07-23]
PC[OGS: http://online-go.com/game/9470427]
PB[mlopezviedma]
PW[sharesalat]
BR[7k]
WR[22k]
TM[259200]OT[86400 fischer]
CP[online-go.com]
RE[B+T]
SZ[19]
KM[6.5]
RU[japanese]
C[mlopezviedma: Hi, have fun
]
;B[qd]
;W[dd]
;B[pq]
;W[dp]
;B[nc]
;W[dj]
;B[qo]
;W[jd]
;B[fq]
;W[fp]
;B[gp]
;W[fo]
;B[eq]
;W[ep]
;B[go]
;W[gn]
;B[jp]
;W[hn]
;B[cc]
;W[cd]
;B[dc]
;W[ed]
;B[ec]
;W[fc]
;B[bc]
;W[bd]
;B[fb]
;W[gc]
;B[cq]
;W[cp]
;B[bq]
;W[bp]
;B[pj]
;W[im]
;B[fe]
;W[fd]
;B[ei]
;W[di]
;B[eh]
;W[dh]
;B[hh]
;W[eg]
;B[fg]
;W[ef]
;B[ff]
;W[ee]
;B[fk]
;W[ek]
;B[fj]
;W[el]
;B[nf]
;W[lg]
;B[ik]
;W[gm]
;B[hq]
;W[hl]
;B[hk]
;W[jm]
;B[gb]
;W[hc]
;B[kc]
;W[ic]
;B[mp]
;W[kn]
;B[kh]
;W[lh]
;B[kj]
;W[li]
;B[ki]
;W[kg]
;B[mm]
;W[ll]
;B[ml]
;W[lk]
;B[qg]
;W[oi]
;B[pi]
;W[oh]
;B[oj]
;W[ph]
;B[qh]
;W[pg]
;B[qf]
;W[pf]
;B[pe]
;W[nj]
;B[nk]
;W[mk]
;B[ol]
;W[lm]
;B[mn]
;W[lo]
;B[lp]
;W[mo]
;B[no]
;W[kp]
;B[kq]
;W[jo]
;B[jq]
;W[ip]
;B[iq]
;W[hp]
;B[kd]
;W[je]
;B[of]
)