(;FF[4]
GM[1]
DT[2017-01-11]
PC[OGS: http://online-go.com/game/7451144]
PB[rcc]
PW[mlopezviedma]
BR[6k]
WR[5k]
TM[259200]OT[86400 fischer]
CP[online-go.com]
RE[B+T]
SZ[19]
KM[6.5]
RU[japanese]
C[mlopezviedma: Hi, good game
]
;B[pd]
C[mlopezviedma: Hi, good game
]
;W[dp]
;B[pp]
;W[dc]
;B[pj]
;W[de]
;B[ic]
;W[nq]
;B[cg]
;W[cj]
;B[be]
;W[cd]
;B[eg]
;W[gc]
;B[ie]
;W[qn]
;B[np]
;W[mp]
;B[no]
;W[oq]
;B[po]
;W[qk]
;B[qj]
;W[rp]
;B[qq]
;W[rq]
;B[rr]
;W[jq]
;B[qc]
;W[jd]
;B[id]
;W[md]
;B[ne]
;W[lf]
;B[mg]
;W[mf]
;B[nf]
;W[ng]
;B[mh]
;W[og]
;B[pg]
)