(;FF[4]
GM[1]
DT[2015-08-28]
PC[OGS: http://online-go.com/game/2716238]
PB[A.B.C]
PW[mlopezviedma]
BR[14k]
WR[12k]
CP[online-go.com]
RE[W+36.5]
SZ[19]
KM[6.5]
RU[japanese]
C[mlopezviedma: Hi, good game
A.B.C: hi
]
;B[pq]
C[mlopezviedma: Hi, good game
A.B.C: hi
]
;W[dp]
;B[qn]
;W[qd]
;B[dc]
;W[ce]
;B[gd]
;W[nc]
;B[jc]
;W[cc]
;B[dd]
;W[de]
;B[cd]
;W[bd]
;B[bc]
;W[bf]
;B[cb]
;W[dj]
;B[mq]
;W[pj]
;B[rk]
;W[ql]
;B[rl]
;W[qm]
;B[rm]
;W[qi]
;B[qk]
;W[pk]
;B[pn]
;W[ol]
;B[dm]
;W[cn]
;B[ck]
;W[cj]
;B[dn]
;W[co]
;B[cm]
;W[bk]
;B[bl]
;W[fq]
;B[bj]
;W[bi]
;B[ak]
;W[fo]
;B[dk]
;W[ek]
;B[el]
;W[fk]
;B[sh]
;W[rf]
;B[rh]
;W[pg]
;B[qh]
;W[ph]
;B[ri]
;W[jq]
;B[hq]
;W[io]
;B[ho]
;W[hn]
;B[ip]
;W[jp]
;B[ee]
;W[ef]
C[A.B.C: actually how to expand territory?
]
;B[fe]
;W[ff]
;B[gf]
;W[gn]
;B[bn]
;W[bo]
;B[an]
;W[ao]
;B[gg]
;W[fh]
;B[fg]
;W[eg]
;B[gh]
;W[fi]
;B[jf]
;W[ke]
;B[je]
;W[kd]
;B[kc]
;W[lc]
;B[kf]
;W[lf]
;B[ji]
;W[li]
;B[mn]
;W[ll]
;B[fl]
;W[gl]
;B[fm]
;W[gm]
;B[do]
;W[ep]
;B[en]
;W[lr]
;B[mr]
;W[om]
;B[lq]
;W[kr]
;B[kn]
;W[jn]
;B[ko]
;W[jo]
;B[km]
;W[kj]
;B[jm]
;W[lg]
;B[jh]
;W[lb]
;B[kb]
;W[on]
;B[oo]
;W[gi]
;B[hi]
;W[hj]
;B[ii]
;W[cp]
;B[jd]
;W[le]
;B[mm]
;W[ml]
;B[nn]
;W[qg]
;B[qj]
;W[pi]
;B[pm]
;W[pl]
;B[im]
;W[in]
;B[ij]
;W[hk]
;B[ik]
;W[il]
;B[jl]
;W[no]
;B[op]
;W[qq]
;B[qp]
;W[hl]
;B[kk]
;W[lk]
;B[kl]
;W[ai]
;B[aj]
;W[ad]
;B[ac]
;W[ms]
;B[ns]
;W[ls]
;B[or]
;W[kp]
;B[kq]
;W[jr]
;B[lp]
;W[kg]
;B[kh]
;W[lh]
;B[jg]
;W[ki]
;B[jj]
;W[ka]
;B[ja]
;W[la]
;B[sg]
;W[sf]
;B[nm]
;W[nl]
;B[lm]
;W[rg]
;B[fn]
;W[eo]
;B[hm]
;W[]
;B[]
C[A.B.C: thx
mlopezviedma: thanks for the game
A.B.C: can teach me?
mlopezviedma: want a review?
A.B.C: review?
mlopezviedma: yeah
A.B.C: ok
]
)