(;FF[4]
GM[1]
DT[2014-12-22]
PC[OGS: http://online-go.com/game/1265783]
PB[dune1998]
PW[mlopezviedma]
BR[25k]
WR[14k]
CP[online-go.com]
RE[W+39.5]
SZ[9]
KM[5.5]
RU[japanese]
;B[gc]
;W[gg]
;B[gf]
;W[ff]
;B[ge]
;W[df]
;B[fe]
;W[ef]
;B[fg]
;W[fh]
;B[eg]
;W[dg]
;B[gh]
;W[eh]
;B[hg]
;W[cc]
;B[fg]
;W[ee]
;B[gg]
;W[ec]
;B[eg]
;W[eb]
;B[dh]
;W[ch]
;B[di]
;W[ci]
;B[fi]
;W[ei]
;B[gi]
;W[fd]
;B[fc]
;W[gd]
;B[hd]
;W[ed]
;B[he]
;W[fb]
;B[hc]
;W[gb]
;B[bd]
;W[bc]
;B[cd]
;W[bf]
;B[be]
;W[cf]
;B[ac]
;W[ab]
;B[ad]
;W[ba]
;B[cb]
;W[bb]
;B[dc]
;W[db]
;B[dd]
;W[hb]
;B[da]
;W[ib]
;B[ca]
;W[ea]
;B[af]
;W[ag]
;B[ae]
;W[bg]
;B[dh]
;W[di]
;B[ga]
;W[ic]
;B[id]
;W[]
;B[]
C[dune1998: well that was pretty bad on my part
mlopezviedma: you played well, actually
dune1998: glad to hear it
]
)