(;FF[4]
GM[1]
DT[2015-01-17]
PC[OGS: http://online-go.com/game/1388552]
PB[mlopezviedma]
PW[barry.allison.712]
BR[14k]
WR[13k]
CP[online-go.com]
RE[B+10.5]
SZ[19]
KM[0.5]
RU[japanese]
AB[pd]
C[mlopezviedma: Hi, good game :)
]
;W[dp]
;B[qp]
;W[dd]
;B[fq]
;W[dm]
;B[jp]
;W[op]
;B[mq]
;W[pr]
;B[pn]
;W[nr]
;B[mr]
;W[rq]
;B[qq]
;W[qr]
;B[rp]
;W[sr]
;B[qj]
;W[gd]
;B[di]
;W[ch]
;B[ck]
;W[cm]
;B[dh]
;W[cg]
C[barry.allison.712: gday
]
;B[nq]
;W[oq]
;B[ns]
;W[or]
;B[rs]
;W[rr]
;B[ms]
;W[on]
;B[pm]
;W[nn]
;B[mo]
;W[mn]
;B[lo]
;W[ci]
;B[dj]
;W[cj]
;B[fk]
;W[dc]
;B[ln]
;W[ml]
;B[ok]
;W[mj]
;B[lm]
;W[nl]
;B[cq]
;W[cp]
;B[dq]
;W[md]
;B[oi]
;W[kj]
;B[jl]
;W[dk]
;B[ek]
;W[dl]
;B[fm]
;W[jd]
;B[lc]
;W[mc]
;B[ic]
;W[jc]
;B[lb]
;W[jb]
;B[nb]
;W[mb]
;B[ma]
;W[nc]
;B[oc]
;W[ld]
;B[ob]
;W[mh]
;B[li]
;W[mi]
;B[lj]
;W[lk]
;B[kk]
;W[ki]
;B[ll]
;W[mk]
;B[pg]
;W[nf]
;B[pf]
;W[fo]
;B[eo]
;W[ep]
;B[fp]
;W[en]
;B[go]
;W[eq]
;B[er]
;W[fn]
;B[gn]
;W[eg]
;B[ie]
;W[lh]
;B[gh]
;W[id]
;B[he]
;W[ge]
;B[gf]
;W[ff]
;B[gg]
;W[jk]
;B[kl]
;W[ik]
;B[hl]
;W[il]
;B[im]
;W[hk]
;B[gk]
;W[je]
;B[jf]
;W[eh]
;B[fi]
;W[ei]
;B[ej]
;W[kf]
;B[ii]
;W[jj]
;B[jg]
;W[hi]
;B[hh]
;W[ij]
;B[gi]
;W[em]
;B[fl]
;W[ol]
;B[pl]
;W[oh]
;B[ph]
;W[og]
;B[oj]
;W[ka]
;B[la]
;W[jh]
;B[ih]
;W[kg]
;B[dg]
;W[df]
;B[po]
;W[oo]
;B[hj]
;W[bq]
;B[br]
;W[bp]
;B[cr]
;W[hd]
;B[if]
;W[oe]
;B[of]
;W[od]
;B[pe]
;W[nh]
;B[kb]
;W[ja]
;B[ji]
;W[kh]
;B[os]
;W[ps]
;B[sp]
;W[na]
;B[oa]
;W[kc]
;B[na]
;W[pc]
;B[pb]
;W[qc]
;B[qb]
;W[rc]
;B[rb]
;W[sb]
;B[rd]
;W[np]
;B[mp]
;W[ar]
;B[bs]
;W[gp]
;B[gq]
;W[mm]
;B[om]
;W[fg]
;B[as]
;W[aq]
;B[pp]
;W[]
;B[]
C[mlopezviedma: Thanks for the game :)
]
)