(;FF[4]
GM[1]
DT[2018-01-16]
PC[OGS: http://online-go.com/game/11303387]
PB[mlopezviedma]
PW[yuri]
BR[7k]
WR[4k]
TM[259200]OT[86400 fischer]
CP[online-go.com]
RE[W+R]
SZ[19]
KM[6.5]
RU[japanese]
C[mlopezviedma: Hi, have fun!
yuri: hi zv!
]
;B[pd]
C[yuri: hi zv!
]
;W[dd]
;B[cp]
;W[pp]
;B[ep]
;W[gq]
;B[fq]
;W[gp]
;B[jp]
;W[lq]
;B[jr]
;W[gm]
;B[dm]
;W[jm]
;B[kn]
;W[pm]
;B[nq]
;W[np]
;B[lr]
;W[mr]
;B[mq]
;W[kr]
;B[kq]
;W[ls]
;B[lp]
;W[mp]
;B[lr]
;W[nd]
;B[ks]
;W[qd]
;B[pc]
;W[qe]
;B[qc]
;W[pe]
;B[nb]
;W[lc]
;B[rc]
;W[pi]
;B[cf]
;W[di]
;B[ef]
;W[fd]
;B[bd]
;W[cc]
;B[bi]
;W[ck]
;B[id]
;W[dg]
;B[df]
;W[bh]
;B[gf]
;W[bg]
;B[qq]
;W[he]
;B[jf]
;W[hf]
;B[gg]
;W[jc]
;B[ic]
;W[ih]
;B[hg]
;W[hb]
;B[ig]
;W[ib]
;B[jd]
;W[kd]
;B[ke]
;W[le]
;B[lf]
;W[me]
;B[pq]
;W[oq]
;B[or]
;W[op]
;B[nr]
;W[qp]
;B[rh]
;W[qj]
;B[pg]
;W[qg]
;B[qh]
;W[ph]
;B[qf]
;W[pf]
;B[rg]
;W[og]
;B[re]
;W[qg]
;B[rf]
;W[fe]
;B[eg]
;W[bf]
;B[ce]
;W[bm]
;B[bo]
;W[kg]
;B[kf]
;W[rp]
;B[jh]
;W[en]
;B[cn]
;W[fk]
;B[kh]
;W[lg]
;B[lh]
;W[mg]
;B[jg]
;W[hd]
;B[hc]
;W[gc]
;B[rj]
;W[rk]
;B[qi]
;W[sj]
;B[ri]
;W[mj]
;B[kk]
;W[km]
;B[gj]
;W[gk]
;B[hj]
;W[hk]
;B[qk]
;W[pj]
;B[ql]
;W[qm]
;B[rm]
;W[rn]
;B[rl]
;W[dq]
;B[fr]
;W[dn]
;B[cm]
;W[dp]
;B[do]
;W[eo]
;B[co]
;W[dr]
;B[hr]
;W[bq]
;B[bl]
;W[bs]
;B[cq]
;W[cr]
;B[ar]
;W[er]
;B[gr]
;W[aq]
;B[bk]
;W[ci]
;B[cj]
;W[dj]
;B[bj]
;W[em]
;B[mn]
;W[lm]
;B[ln]
;W[if]
;B[je]
;W[fi]
;B[ik]
;W[il]
;B[jk]
;W[mb]
;B[nc]
;W[mc]
;B[cg]
;W[ch]
;B[bc]
;W[bb]
;B[cd]
;W[db]
;B[ge]
;W[gd]
;B[nl]
;W[ol]
;B[nm]
;W[ok]
;B[go]
;W[fp]
;B[eq]
;W[fo]
;B[ho]
;W[lj]
;B[kj]
;W[gi]
;B[hi]
;W[ii]
;B[ij]
;W[ff]
;B[fg]
;W[ji]
;B[nj]
;W[nk]
;B[ml]
;W[ll]
C[mlopezviedma: Thanks for the game!
]
)