(;FF[4]
GM[1]
DT[2016-07-16]
PC[OGS: http://online-go.com/game/5838868]
PB[nukeu666]
PW[mlopezviedma]
BR[5k]
WR[7k]
TM[259200]OT[86400 fischer]
CP[online-go.com]
RE[W+R]
SZ[19]
KM[6.5]
RU[japanese]
C[mlopezviedma: Hi, have fun
]
;B[pd]
C[mlopezviedma: Hi, have fun
]
;W[dp]
C[nukeu666: you too
]
;B[pq]
;W[dd]
;B[fq]
;W[cn]
;B[jp]
;W[pn]
;B[po]
;W[qn]
;B[on]
;W[om]
;B[nn]
;W[qo]
;B[pp]
;W[qf]
;B[pl]
;W[ol]
;B[qh]
;W[qc]
;B[qd]
;W[pc]
;B[od]
;W[rd]
;B[re]
;W[rc]
;B[qe]
;W[nc]
;B[me]
;W[pj]
;B[qj]
;W[pk]
;B[pi]
;W[oi]
;B[oh]
;W[ni]
;B[fc]
;W[cf]
;B[db]
;W[hq]
;B[hp]
;W[gq]
;B[gp]
;W[fp]
;B[iq]
;W[eq]
;B[fr]
;W[er]
;B[fo]
;W[ep]
;B[dj]
;W[cc]
;B[ic]
;W[el]
;B[dl]
;W[dm]
;B[cl]
;W[ci]
;B[ek]
;W[fl]
;B[eh]
;W[go]
;B[ho]
;W[gn]
;B[bm]
;W[bn]
;B[mc]
;W[nb]
;B[mb]
;W[nd]
;B[md]
;W[ne]
;B[pf]
;W[qk]
;B[rj]
;W[gr]
;B[fe]
;W[hn]
;B[jo]
;W[if]
;B[ih]
;W[kg]
;B[mg]
;W[li]
;B[lh]
;W[kh]
;B[ki]
;W[mh]
;B[lg]
;W[ff]
;B[gf]
;W[ge]
;B[ee]
;W[ef]
;B[gg]
;W[ji]
;B[kj]
;W[jj]
;B[kk]
;W[jh]
;B[jk]
;W[hj]
;B[hk]
;W[hh]
;B[gk]
;W[he]
;B[ii]
;W[ij]
;B[gi]
;W[hi]
;B[kf]
;W[jf]
;B[ig]
;W[hg]
;B[gj]
;W[de]
;B[gd]
;W[id]
;B[ke]
;W[fd]
;B[ed]
;W[ec]
;B[fd]
;W[je]
;B[hd]
;W[jc]
;B[hf]
;W[ib]
;B[kb]
;W[hc]
;B[gb]
;W[kc]
;B[lb]
;W[kd]
;B[jb]
;W[ie]
;B[hb]
;W[ia]
;B[eb]
;W[dc]
;B[cb]
;W[fa]
;B[ea]
;W[bb]
;B[ca]
;W[rq]
;B[ch]
;W[gh]
;B[bg]
;W[fg]
;B[im]
;W[ng]
;B[nh]
;W[lf]
;B[mi]
)