(;FF[4]
GM[1]
DT[2016-07-16]
PC[OGS: http://online-go.com/game/5838880]
PB[mlopezviedma]
PW[la_mudri]
BR[7k]
WR[8k]
TM[259200]OT[86400 fischer]
CP[online-go.com]
RE[W+T]
SZ[19]
KM[6.5]
RU[japanese]
C[mlopezviedma: Hi, have fun
]
;B[pd]
;W[dp]
C[la_mudri: You too!
]
;B[pq]
;W[dd]
;B[po]
;W[dj]
;B[fq]
;W[fo]
;B[hp]
;W[fp]
;B[eq]
;W[dq]
;B[gp]
;W[dn]
;B[fc]
;W[hc]
;B[cc]
;W[cd]
;B[dc]
;W[ed]
;B[fb]
;W[ge]
;B[qj]
;W[mc]
;B[pf]
;W[lf]
;B[cj]
;W[ck]
;B[di]
;W[dk]
;B[bj]
;W[bk]
;B[ei]
;W[cg]
;B[ch]
;W[dg]
;B[bh]
;W[bg]
;B[fg]
;W[eh]
;B[fi]
;W[fh]
;B[gh]
;W[gg]
;B[hg]
;W[gf]
;B[hi]
;W[if]
;B[lq]
;W[hl]
;B[gk]
;W[fl]
;B[pb]
;W[jk]
;B[hk]
;W[il]
;B[ig]
;W[jf]
;B[gl]
;W[kh]
;B[fm]
;W[el]
;B[dh]
;W[eg]
;B[gn]
;W[og]
;B[pg]
;W[oh]
;B[ph]
;W[oj]
;B[pl]
;W[nl]
;B[nn]
;W[lm]
;B[kn]
;W[ln]
;B[lo]
;W[mo]
;B[ko]
;W[mn]
;B[nq]
;W[om]
;B[pm]
;W[on]
;B[no]
;W[oo]
;B[np]
;W[pn]
;B[qo]
;W[qn]
;B[ol]
;W[nm]
;B[ro]
;W[rl]
;B[qk]
;W[dr]
;B[jc]
;W[id]
;B[hb]
;W[ib]
;B[ic]
;W[gb]
;B[gc]
;W[ha]
;B[hd]
;W[hb]
)